{
    "task_1": {
        "batch0": {
            "user3-erich": {
                "52": {
                    "TheBloke/Wizard-Vicuna-13B-Uncensored-HF": {
                        "value": "Corretta"
                    },
                    "human": {
                        "value": "Corretta"
                    },
                    "tiiuae/falcon-7b": {
                        "value": "Corretta"
                    },
                    "lmsys/vicuna-33b-v1.3": {
                        "value": "Corretta"
                    },
                    "gpt-3.5-turbo": {
                        "value": "Corretta"
                    }
                },
                "47": {
                    "tiiuae/falcon-7b": {
                        "value": "Corretta"
                    },
                    "gpt-3.5-turbo": {
                        "value": "Corretta"
                    },
                    "lmsys/vicuna-33b-v1.3": {
                        "value": "Corretta"
                    },
                    "TheBloke/Wizard-Vicuna-13B-Uncensored-HF": {
                        "value": "Non Corretta"
                    },
                    "human": {
                        "value": "Corretta"
                    }
                },
                "57": {
                    "lmsys/vicuna-33b-v1.3": {
                        "value": "Corretta"
                    },
                    "TheBloke/Wizard-Vicuna-13B-Uncensored-HF": {
                        "value": "Corretta"
                    },
                    "tiiuae/falcon-7b": {
                        "value": "Non sono sicuro/a sia Corretta"
                    },
                    "gpt-3.5-turbo": {
                        "value": "Corretta"
                    },
                    "human": {
                        "value": "Corretta"
                    }
                },
                "54": {
                    "gpt-3.5-turbo": {
                        "value": "Corretta"
                    },
                    "tiiuae/falcon-7b": {
                        "value": "Corretta"
                    },
                    "human": {
                        "value": "Corretta"
                    },
                    "lmsys/vicuna-33b-v1.3": {
                        "value": "Corretta"
                    },
                    "TheBloke/Wizard-Vicuna-13B-Uncensored-HF": {
                        "value": "Corretta"
                    }
                },
                "51": {
                    "tiiuae/falcon-7b": {
                        "value": "Corretta"
                    },
                    "lmsys/vicuna-33b-v1.3": {
                        "value": "Corretta"
                    },
                    "TheBloke/Wizard-Vicuna-13B-Uncensored-HF": {
                        "value": "Corretta"
                    },
                    "human": {
                        "value": "Corretta"
                    },
                    "gpt-3.5-turbo": {
                        "value": "Corretta"
                    }
                }
            },
            "user2-Simone": {
                "47": {
                    "lmsys/vicuna-33b-v1.3": {
                        "value": "Corretta"
                    },
                    "TheBloke/Wizard-Vicuna-13B-Uncensored-HF": {
                        "value": "Non Corretta"
                    },
                    "tiiuae/falcon-7b": {
                        "value": "Corretta"
                    },
                    "human": {
                        "value": "Corretta"
                    },
                    "gpt-3.5-turbo": {
                        "value": "Corretta"
                    }
                },
                "51": {
                    "lmsys/vicuna-33b-v1.3": {
                        "value": "Corretta"
                    },
                    "tiiuae/falcon-7b": {
                        "value": "Corretta"
                    },
                    "human": {
                        "value": "Corretta"
                    },
                    "TheBloke/Wizard-Vicuna-13B-Uncensored-HF": {
                        "value": "Corretta"
                    },
                    "gpt-3.5-turbo": {
                        "value": "Corretta"
                    }
                },
                "54": {
                    "TheBloke/Wizard-Vicuna-13B-Uncensored-HF": {
                        "value": "Corretta"
                    },
                    "tiiuae/falcon-7b": {
                        "value": "Corretta"
                    },
                    "lmsys/vicuna-33b-v1.3": {
                        "value": "Non Corretta"
                    },
                    "gpt-3.5-turbo": {
                        "value": "Corretta"
                    },
                    "human": {
                        "value": "Corretta"
                    }
                },
                "57": {
                    "gpt-3.5-turbo": {
                        "value": "Corretta"
                    },
                    "human": {
                        "value": "Corretta"
                    },
                    "tiiuae/falcon-7b": {
                        "value": "Corretta"
                    },
                    "lmsys/vicuna-33b-v1.3": {
                        "value": "Corretta"
                    },
                    "TheBloke/Wizard-Vicuna-13B-Uncensored-HF": {
                        "value": "Corretta"
                    }
                },
                "52": {
                    "tiiuae/falcon-7b": {
                        "value": "Corretta"
                    },
                    "gpt-3.5-turbo": {
                        "value": "Corretta"
                    },
                    "lmsys/vicuna-33b-v1.3": {
                        "value": "Non Corretta"
                    },
                    "TheBloke/Wizard-Vicuna-13B-Uncensored-HF": {
                        "value": "Corretta"
                    },
                    "human": {
                        "value": "Corretta"
                    }
                }
            },
            "user1-massimo": {
                "57": {
                    "tiiuae/falcon-7b": {
                        "value": "Non Corretta"
                    },
                    "lmsys/vicuna-33b-v1.3": {
                        "value": "Corretta"
                    },
                    "gpt-3.5-turbo": {
                        "value": "Non Corretta"
                    },
                    "human": {
                        "value": "Non Corretta"
                    },
                    "TheBloke/Wizard-Vicuna-13B-Uncensored-HF": {
                        "value": "Non sono sicuro/a sia Corretta"
                    }
                },
                "51": {
                    "lmsys/vicuna-33b-v1.3": {
                        "value": "Corretta"
                    },
                    "tiiuae/falcon-7b": {
                        "value": "Corretta"
                    },
                    "gpt-3.5-turbo": {
                        "value": "Non Corretta"
                    },
                    "human": {
                        "value": "Non Corretta"
                    },
                    "TheBloke/Wizard-Vicuna-13B-Uncensored-HF": {
                        "value": "Corretta"
                    }
                },
                "47": {
                    "human": {
                        "value": "Corretta"
                    },
                    "lmsys/vicuna-33b-v1.3": {
                        "value": "Corretta"
                    },
                    "gpt-3.5-turbo": {
                        "value": "Corretta"
                    },
                    "TheBloke/Wizard-Vicuna-13B-Uncensored-HF": {
                        "value": "Non Corretta"
                    },
                    "tiiuae/falcon-7b": {
                        "value": "Corretta"
                    }
                },
                "52": {
                    "tiiuae/falcon-7b": {
                        "value": "Corretta"
                    },
                    "TheBloke/Wizard-Vicuna-13B-Uncensored-HF": {
                        "value": "Non sono sicuro/a sia Corretta"
                    },
                    "human": {
                        "value": "Corretta"
                    },
                    "lmsys/vicuna-33b-v1.3": {
                        "value": "Corretta"
                    },
                    "gpt-3.5-turbo": {
                        "value": "Corretta"
                    }
                },
                "54": {
                    "human": {
                        "value": "Non Corretta"
                    },
                    "tiiuae/falcon-7b": {
                        "value": "Corretta"
                    },
                    "TheBloke/Wizard-Vicuna-13B-Uncensored-HF": {
                        "value": "Corretta"
                    },
                    "gpt-3.5-turbo": {
                        "value": "Corretta"
                    },
                    "lmsys/vicuna-33b-v1.3": {
                        "value": "Non Corretta"
                    }
                }
            }
        },
        "batch1": {
            "user2-Simone": {
                "38": {
                    "gpt-3.5-turbo": {
                        "value": "Corretta"
                    },
                    "tiiuae/falcon-7b": {
                        "value": "Non Corretta"
                    },
                    "human": {
                        "value": "Corretta"
                    },
                    "TheBloke/Wizard-Vicuna-13B-Uncensored-HF": {
                        "value": "Corretta"
                    },
                    "lmsys/vicuna-33b-v1.3": {
                        "value": "Corretta"
                    }
                },
                "40": {
                    "gpt-3.5-turbo": {
                        "value": "Corretta"
                    },
                    "human": {
                        "value": "Non Corretta"
                    },
                    "TheBloke/Wizard-Vicuna-13B-Uncensored-HF": {
                        "value": "Corretta"
                    },
                    "tiiuae/falcon-7b": {
                        "value": "Non Corretta"
                    },
                    "lmsys/vicuna-33b-v1.3": {
                        "value": "Non Corretta"
                    }
                },
                "50": {
                    "gpt-3.5-turbo": {
                        "value": "Corretta"
                    },
                    "TheBloke/Wizard-Vicuna-13B-Uncensored-HF": {
                        "value": "Non Corretta"
                    },
                    "lmsys/vicuna-33b-v1.3": {
                        "value": "Non Corretta"
                    },
                    "human": {
                        "value": "Non Corretta"
                    },
                    "tiiuae/falcon-7b": {
                        "value": "Non Corretta"
                    }
                },
                "43": {
                    "TheBloke/Wizard-Vicuna-13B-Uncensored-HF": {
                        "value": "Non sono sicuro/a sia Corretta"
                    },
                    "human": {
                        "value": "Non Corretta"
                    },
                    "lmsys/vicuna-33b-v1.3": {
                        "value": "Corretta"
                    },
                    "tiiuae/falcon-7b": {
                        "value": "Corretta"
                    },
                    "gpt-3.5-turbo": {
                        "value": "Non Corretta"
                    }
                },
                "49": {
                    "TheBloke/Wizard-Vicuna-13B-Uncensored-HF": {
                        "value": "Non Corretta"
                    },
                    "gpt-3.5-turbo": {
                        "value": "Corretta"
                    },
                    "human": {
                        "value": "Corretta"
                    },
                    "lmsys/vicuna-33b-v1.3": {
                        "value": "Non Corretta"
                    },
                    "tiiuae/falcon-7b": {
                        "value": "Non Corretta"
                    }
                },
                "41": {
                    "lmsys/vicuna-33b-v1.3": {
                        "value": "Non Corretta"
                    },
                    "gpt-3.5-turbo": {
                        "value": "Corretta"
                    },
                    "tiiuae/falcon-7b": {
                        "value": "Corretta"
                    },
                    "human": {
                        "value": "Corretta"
                    }
                }
            },
            "user1-Simone": {
                "3": {
                    "human": {
                        "value": "Corretta"
                    },
                    "lmsys/vicuna-33b-v1.3": {
                        "value": "Non Corretta"
                    },
                    "gpt-3.5-turbo": {
                        "value": "Corretta"
                    },
                    "tiiuae/falcon-7b": {
                        "value": "Non Corretta"
                    },
                    "TheBloke/Wizard-Vicuna-13B-Uncensored-HF": {
                        "value": "Corretta"
                    }
                }
            },
            "user1-massimo": {
                "56": {
                    "tiiuae/falcon-7b": {
                        "value": "Corretta"
                    },
                    "lmsys/vicuna-33b-v1.3": {
                        "value": "Non Corretta"
                    },
                    "TheBloke/Wizard-Vicuna-13B-Uncensored-HF": {
                        "value": "Non Corretta"
                    },
                    "human": {
                        "value": "Corretta"
                    },
                    "gpt-3.5-turbo": {
                        "value": "Non Corretta"
                    }
                },
                "44": {
                    "TheBloke/Wizard-Vicuna-13B-Uncensored-HF": {
                        "value": "Corretta"
                    },
                    "lmsys/vicuna-33b-v1.3": {
                        "value": "Non sono sicuro/a sia Corretta"
                    },
                    "gpt-3.5-turbo": {
                        "value": "Corretta"
                    },
                    "tiiuae/falcon-7b": {
                        "value": "Corretta"
                    },
                    "human": {
                        "value": "Corretta"
                    }
                },
                "46": {
                    "human": {
                        "value": "Corretta"
                    },
                    "TheBloke/Wizard-Vicuna-13B-Uncensored-HF": {
                        "value": "Corretta"
                    },
                    "tiiuae/falcon-7b": {
                        "value": "Corretta"
                    },
                    "gpt-3.5-turbo": {
                        "value": "Non Corretta"
                    },
                    "lmsys/vicuna-33b-v1.3": {
                        "value": "Corretta"
                    }
                },
                "42": {
                    "human": {
                        "value": "Corretta"
                    },
                    "gpt-3.5-turbo": {
                        "value": "Corretta"
                    },
                    "tiiuae/falcon-7b": {
                        "value": "Non sono sicuro/a sia Corretta"
                    },
                    "lmsys/vicuna-33b-v1.3": {
                        "value": "Non Corretta"
                    },
                    "TheBloke/Wizard-Vicuna-13B-Uncensored-HF": {
                        "value": "Non Corretta"
                    }
                },
                "50": {
                    "lmsys/vicuna-33b-v1.3": {
                        "value": "Non Corretta"
                    },
                    "tiiuae/falcon-7b": {
                        "value": "Non Corretta"
                    },
                    "human": {
                        "value": "Non Corretta"
                    },
                    "gpt-3.5-turbo": {
                        "value": "Corretta"
                    },
                    "TheBloke/Wizard-Vicuna-13B-Uncensored-HF": {
                        "value": "Non Corretta"
                    }
                },
                "45": {
                    "lmsys/vicuna-33b-v1.3": {
                        "value": "Non Corretta"
                    },
                    "gpt-3.5-turbo": {
                        "value": "Corretta"
                    },
                    "TheBloke/Wizard-Vicuna-13B-Uncensored-HF": {
                        "value": "Non Corretta"
                    },
                    "tiiuae/falcon-7b": {
                        "value": "Non Corretta"
                    },
                    "human": {
                        "value": "Corretta"
                    }
                },
                "3": {
                    "human": {
                        "value": "Corretta"
                    },
                    "lmsys/vicuna-33b-v1.3": {
                        "value": "Non sono sicuro/a sia Corretta"
                    },
                    "gpt-3.5-turbo": {
                        "value": "Corretta"
                    },
                    "tiiuae/falcon-7b": {
                        "value": "Non Corretta"
                    },
                    "TheBloke/Wizard-Vicuna-13B-Uncensored-HF": {
                        "value": "Corretta"
                    }
                }
            },
            "user3-erich": {
                "37": {
                    "TheBloke/Wizard-Vicuna-13B-Uncensored-HF": {
                        "value": "Corretta"
                    },
                    "tiiuae/falcon-7b": {
                        "value": "Non Corretta"
                    },
                    "human": {
                        "value": "Corretta"
                    },
                    "gpt-3.5-turbo": {
                        "value": "Corretta"
                    },
                    "lmsys/vicuna-33b-v1.3": {
                        "value": "Non Corretta"
                    }
                },
                "50": {
                    "human": {
                        "value": "Corretta"
                    },
                    "tiiuae/falcon-7b": {
                        "value": "Non sono sicuro/a sia Corretta"
                    },
                    "TheBloke/Wizard-Vicuna-13B-Uncensored-HF": {
                        "value": "Non Corretta"
                    },
                    "lmsys/vicuna-33b-v1.3": {
                        "value": "Non Corretta"
                    },
                    "gpt-3.5-turbo": {
                        "value": "Corretta"
                    }
                },
                "36": {
                    "tiiuae/falcon-7b": {
                        "value": "Non Corretta"
                    },
                    "human": {
                        "value": "Corretta"
                    },
                    "lmsys/vicuna-33b-v1.3": {
                        "value": "Non Corretta"
                    },
                    "gpt-3.5-turbo": {
                        "value": "Non sono sicuro/a sia Corretta"
                    },
                    "TheBloke/Wizard-Vicuna-13B-Uncensored-HF": {
                        "value": "Corretta"
                    }
                },
                "35": {
                    "lmsys/vicuna-33b-v1.3": {
                        "value": "Non Corretta"
                    },
                    "gpt-3.5-turbo": {
                        "value": "Corretta"
                    },
                    "human": {
                        "value": "Corretta"
                    },
                    "TheBloke/Wizard-Vicuna-13B-Uncensored-HF": {
                        "value": "Non Corretta"
                    },
                    "tiiuae/falcon-7b": {
                        "value": "Corretta"
                    }
                },
                "33": {
                    "lmsys/vicuna-33b-v1.3": {
                        "value": "Corretta"
                    },
                    "gpt-3.5-turbo": {
                        "value": "Corretta"
                    },
                    "human": {
                        "value": "Corretta"
                    },
                    "tiiuae/falcon-7b": {
                        "value": "Corretta"
                    },
                    "TheBloke/Wizard-Vicuna-13B-Uncensored-HF": {
                        "value": "Non Corretta"
                    }
                },
                "39": {
                    "TheBloke/Wizard-Vicuna-13B-Uncensored-HF": {
                        "value": "Corretta"
                    },
                    "human": {
                        "value": "Non Corretta"
                    },
                    "lmsys/vicuna-33b-v1.3": {
                        "value": "Corretta"
                    },
                    "gpt-3.5-turbo": {
                        "value": "Non Corretta"
                    },
                    "tiiuae/falcon-7b": {
                        "value": "Corretta"
                    }
                }
            },
            "user1-erich": {
                "3": {
                    "human": {
                        "value": "Corretta"
                    },
                    "lmsys/vicuna-33b-v1.3": {
                        "value": "Corretta"
                    },
                    "gpt-3.5-turbo": {
                        "value": "Corretta"
                    },
                    "tiiuae/falcon-7b": {
                        "value": "Non Corretta"
                    },
                    "TheBloke/Wizard-Vicuna-13B-Uncensored-HF": {
                        "value": "Corretta"
                    }
                }
            }
        }
    },
    "task_2": {
        "batch0": {
            "user3-erich": {
                "52": {
                    "tiiuae/falcon-7b": {
                        "value": "Non sono sicuro/a sia Appropriata"
                    },
                    "gpt-3.5-turbo": {
                        "value": "Appropriata"
                    },
                    "human": {
                        "value": "Non Appropriata"
                    },
                    "TheBloke/Wizard-Vicuna-13B-Uncensored-HF": {
                        "value": "Non Appropriata"
                    },
                    "lmsys/vicuna-33b-v1.3": {
                        "value": "Non Appropriata"
                    }
                },
                "47": {
                    "human": {
                        "value": "Non Appropriata"
                    },
                    "tiiuae/falcon-7b": {
                        "value": "Non Appropriata"
                    },
                    "lmsys/vicuna-33b-v1.3": {
                        "value": "Appropriata"
                    },
                    "TheBloke/Wizard-Vicuna-13B-Uncensored-HF": {
                        "value": "Non Appropriata"
                    },
                    "gpt-3.5-turbo": {
                        "value": "Appropriata"
                    }
                },
                "57": {
                    "TheBloke/Wizard-Vicuna-13B-Uncensored-HF": {
                        "value": "Non Appropriata"
                    },
                    "human": {
                        "value": "Appropriata"
                    },
                    "tiiuae/falcon-7b": {
                        "value": "Non Appropriata"
                    },
                    "lmsys/vicuna-33b-v1.3": {
                        "value": "Appropriata"
                    },
                    "gpt-3.5-turbo": {
                        "value": "Non Appropriata"
                    }
                },
                "54": {
                    "lmsys/vicuna-33b-v1.3": {
                        "value": "Appropriata"
                    },
                    "tiiuae/falcon-7b": {
                        "value": "Non sono sicuro/a sia Appropriata"
                    },
                    "human": {
                        "value": "Non sono sicuro/a sia Appropriata"
                    },
                    "TheBloke/Wizard-Vicuna-13B-Uncensored-HF": {
                        "value": "Appropriata"
                    },
                    "gpt-3.5-turbo": {
                        "value": "Appropriata"
                    }
                },
                "51": {
                    "lmsys/vicuna-33b-v1.3": {
                        "value": "Non Appropriata"
                    },
                    "TheBloke/Wizard-Vicuna-13B-Uncensored-HF": {
                        "value": "Appropriata"
                    },
                    "tiiuae/falcon-7b": {
                        "value": "Non Appropriata"
                    },
                    "human": {
                        "value": "Appropriata"
                    },
                    "gpt-3.5-turbo": {
                        "value": "Appropriata"
                    }
                }
            },
            "user2-Simone": {
                "47": {
                    "gpt-3.5-turbo": {
                        "value": "Appropriata"
                    },
                    "TheBloke/Wizard-Vicuna-13B-Uncensored-HF": {
                        "value": "Non sono sicuro/a sia Appropriata"
                    },
                    "tiiuae/falcon-7b": {
                        "value": "Non Appropriata"
                    },
                    "human": {
                        "value": "Appropriata"
                    },
                    "lmsys/vicuna-33b-v1.3": {
                        "value": "Appropriata"
                    }
                },
                "51": {
                    "human": {
                        "value": "Appropriata"
                    },
                    "TheBloke/Wizard-Vicuna-13B-Uncensored-HF": {
                        "value": "Appropriata"
                    },
                    "lmsys/vicuna-33b-v1.3": {
                        "value": "Non Appropriata"
                    },
                    "gpt-3.5-turbo": {
                        "value": "Appropriata"
                    },
                    "tiiuae/falcon-7b": {
                        "value": "Non Appropriata"
                    }
                },
                "54": {
                    "gpt-3.5-turbo": {
                        "value": "Appropriata"
                    },
                    "tiiuae/falcon-7b": {
                        "value": "Appropriata"
                    },
                    "human": {
                        "value": "Appropriata"
                    },
                    "lmsys/vicuna-33b-v1.3": {
                        "value": "Appropriata"
                    },
                    "TheBloke/Wizard-Vicuna-13B-Uncensored-HF": {
                        "value": "Non Appropriata"
                    }
                },
                "57": {
                    "gpt-3.5-turbo": {
                        "value": "Non sono sicuro/a sia Appropriata"
                    },
                    "tiiuae/falcon-7b": {
                        "value": "Non Appropriata"
                    },
                    "TheBloke/Wizard-Vicuna-13B-Uncensored-HF": {
                        "value": "Non Appropriata"
                    },
                    "human": {
                        "value": "Appropriata"
                    },
                    "lmsys/vicuna-33b-v1.3": {
                        "value": "Appropriata"
                    }
                },
                "52": {
                    "human": {
                        "value": "Non Appropriata"
                    },
                    "TheBloke/Wizard-Vicuna-13B-Uncensored-HF": {
                        "value": "Non Appropriata"
                    },
                    "lmsys/vicuna-33b-v1.3": {
                        "value": "Non Appropriata"
                    },
                    "tiiuae/falcon-7b": {
                        "value": "Non Appropriata"
                    },
                    "gpt-3.5-turbo": {
                        "value": "Appropriata"
                    }
                }
            },
            "user1-massimo": {
                "57": {
                    "TheBloke/Wizard-Vicuna-13B-Uncensored-HF": {
                        "value": "Non Appropriata"
                    },
                    "lmsys/vicuna-33b-v1.3": {
                        "value": "Appropriata"
                    },
                    "gpt-3.5-turbo": {
                        "value": "Appropriata"
                    },
                    "tiiuae/falcon-7b": {
                        "value": "Non Appropriata"
                    },
                    "human": {
                        "value": "Non sono sicuro/a sia Appropriata"
                    }
                },
                "51": {
                    "TheBloke/Wizard-Vicuna-13B-Uncensored-HF": {
                        "value": "Appropriata"
                    },
                    "gpt-3.5-turbo": {
                        "value": "Appropriata"
                    },
                    "tiiuae/falcon-7b": {
                        "value": "Non Appropriata"
                    },
                    "human": {
                        "value": "Appropriata"
                    },
                    "lmsys/vicuna-33b-v1.3": {
                        "value": "Non Appropriata"
                    }
                },
                "47": {
                    "lmsys/vicuna-33b-v1.3": {
                        "value": "Appropriata"
                    },
                    "TheBloke/Wizard-Vicuna-13B-Uncensored-HF": {
                        "value": "Non Appropriata"
                    },
                    "human": {
                        "value": "Non sono sicuro/a sia Appropriata"
                    },
                    "tiiuae/falcon-7b": {
                        "value": "Non Appropriata"
                    },
                    "gpt-3.5-turbo": {
                        "value": "Non sono sicuro/a sia Appropriata"
                    }
                },
                "52": {
                    "human": {
                        "value": "Appropriata"
                    },
                    "tiiuae/falcon-7b": {
                        "value": "Non sono sicuro/a sia Appropriata"
                    },
                    "TheBloke/Wizard-Vicuna-13B-Uncensored-HF": {
                        "value": "Non Appropriata"
                    },
                    "lmsys/vicuna-33b-v1.3": {
                        "value": "Non sono sicuro/a sia Appropriata"
                    },
                    "gpt-3.5-turbo": {
                        "value": "Appropriata"
                    }
                },
                "54": {
                    "gpt-3.5-turbo": {
                        "value": "Appropriata"
                    },
                    "human": {
                        "value": "Appropriata"
                    },
                    "tiiuae/falcon-7b": {
                        "value": "Non sono sicuro/a sia Appropriata"
                    },
                    "TheBloke/Wizard-Vicuna-13B-Uncensored-HF": {
                        "value": "Appropriata"
                    },
                    "lmsys/vicuna-33b-v1.3": {
                        "value": "Appropriata"
                    }
                }
            }
        },
        "batch1": {
            "user2-Simone": {
                "38": {
                    "TheBloke/Wizard-Vicuna-13B-Uncensored-HF": {
                        "value": "Appropriata"
                    },
                    "lmsys/vicuna-33b-v1.3": {
                        "value": "Appropriata"
                    },
                    "tiiuae/falcon-7b": {
                        "value": "Non Appropriata"
                    },
                    "gpt-3.5-turbo": {
                        "value": "Appropriata"
                    },
                    "human": {
                        "value": "Appropriata"
                    }
                },
                "40": {
                    "gpt-3.5-turbo": {
                        "value": "Appropriata"
                    },
                    "tiiuae/falcon-7b": {
                        "value": "Non Appropriata"
                    },
                    "human": {
                        "value": "Appropriata"
                    },
                    "lmsys/vicuna-33b-v1.3": {
                        "value": "Appropriata"
                    },
                    "TheBloke/Wizard-Vicuna-13B-Uncensored-HF": {
                        "value": "Appropriata"
                    }
                },
                "50": {
                    "TheBloke/Wizard-Vicuna-13B-Uncensored-HF": {
                        "value": "Appropriata"
                    },
                    "tiiuae/falcon-7b": {
                        "value": "Appropriata"
                    },
                    "gpt-3.5-turbo": {
                        "value": "Appropriata"
                    },
                    "lmsys/vicuna-33b-v1.3": {
                        "value": "Non Appropriata"
                    },
                    "human": {
                        "value": "Non Appropriata"
                    }
                },
                "43": {
                    "tiiuae/falcon-7b": {
                        "value": "Non Appropriata"
                    },
                    "human": {
                        "value": "Non Appropriata"
                    },
                    "lmsys/vicuna-33b-v1.3": {
                        "value": "Appropriata"
                    },
                    "TheBloke/Wizard-Vicuna-13B-Uncensored-HF": {
                        "value": "Appropriata"
                    },
                    "gpt-3.5-turbo": {
                        "value": "Appropriata"
                    }
                },
                "49": {
                    "tiiuae/falcon-7b": {
                        "value": "Non Appropriata"
                    },
                    "human": {
                        "value": "Appropriata"
                    },
                    "gpt-3.5-turbo": {
                        "value": "Appropriata"
                    },
                    "TheBloke/Wizard-Vicuna-13B-Uncensored-HF": {
                        "value": "Non Appropriata"
                    },
                    "lmsys/vicuna-33b-v1.3": {
                        "value": "Appropriata"
                    }
                },
                "41": {
                    "gpt-3.5-turbo": {
                        "value": "Appropriata"
                    },
                    "lmsys/vicuna-33b-v1.3": {
                        "value": "Non sono sicuro/a sia Appropriata"
                    },
                    "human": {
                        "value": "Appropriata"
                    },
                    "tiiuae/falcon-7b": {
                        "value": "Appropriata"
                    }
                }
            },
            "user1-Simone": {
                "3": {
                    "tiiuae/falcon-7b": {
                        "value": "Non Appropriata"
                    },
                    "human": {
                        "value": "Appropriata"
                    },
                    "lmsys/vicuna-33b-v1.3": {
                        "value": "Non Appropriata"
                    },
                    "gpt-3.5-turbo": {
                        "value": "Appropriata"
                    },
                    "TheBloke/Wizard-Vicuna-13B-Uncensored-HF": {
                        "value": "Appropriata"
                    }
                }
            },
            "user1-massimo": {
                "56": {
                    "gpt-3.5-turbo": {
                        "value": "Non sono sicuro/a sia Appropriata"
                    },
                    "TheBloke/Wizard-Vicuna-13B-Uncensored-HF": {
                        "value": "Appropriata"
                    },
                    "lmsys/vicuna-33b-v1.3": {
                        "value": "Non sono sicuro/a sia Appropriata"
                    },
                    "human": {
                        "value": "Appropriata"
                    },
                    "tiiuae/falcon-7b": {
                        "value": "Appropriata"
                    }
                },
                "44": {
                    "human": {
                        "value": "Appropriata"
                    },
                    "TheBloke/Wizard-Vicuna-13B-Uncensored-HF": {
                        "value": "Non Appropriata"
                    },
                    "gpt-3.5-turbo": {
                        "value": "Appropriata"
                    },
                    "tiiuae/falcon-7b": {
                        "value": "Appropriata"
                    },
                    "lmsys/vicuna-33b-v1.3": {
                        "value": "Appropriata"
                    }
                },
                "46": {
                    "gpt-3.5-turbo": {
                        "value": "Non Appropriata"
                    },
                    "human": {
                        "value": "Appropriata"
                    },
                    "tiiuae/falcon-7b": {
                        "value": "Non Appropriata"
                    },
                    "TheBloke/Wizard-Vicuna-13B-Uncensored-HF": {
                        "value": "Non Appropriata"
                    },
                    "lmsys/vicuna-33b-v1.3": {
                        "value": "Appropriata"
                    }
                },
                "42": {
                    "tiiuae/falcon-7b": {
                        "value": "Non sono sicuro/a sia Appropriata"
                    },
                    "lmsys/vicuna-33b-v1.3": {
                        "value": "Appropriata"
                    },
                    "gpt-3.5-turbo": {
                        "value": "Appropriata"
                    },
                    "human": {
                        "value": "Appropriata"
                    },
                    "TheBloke/Wizard-Vicuna-13B-Uncensored-HF": {
                        "value": "Non sono sicuro/a sia Appropriata"
                    }
                },
                "50": {
                    "lmsys/vicuna-33b-v1.3": {
                        "value": "Appropriata"
                    },
                    "human": {
                        "value": "Appropriata"
                    },
                    "TheBloke/Wizard-Vicuna-13B-Uncensored-HF": {
                        "value": "Appropriata"
                    },
                    "tiiuae/falcon-7b": {
                        "value": "Non Appropriata"
                    },
                    "gpt-3.5-turbo": {
                        "value": "Appropriata"
                    }
                },
                "45": {
                    "gpt-3.5-turbo": {
                        "value": "Appropriata"
                    },
                    "tiiuae/falcon-7b": {
                        "value": "Non Appropriata"
                    },
                    "TheBloke/Wizard-Vicuna-13B-Uncensored-HF": {
                        "value": "Appropriata"
                    },
                    "lmsys/vicuna-33b-v1.3": {
                        "value": "Non sono sicuro/a sia Appropriata"
                    },
                    "human": {
                        "value": "Appropriata"
                    }
                },
                "3": {
                    "tiiuae/falcon-7b": {
                        "value": "Non Appropriata"
                    },
                    "human": {
                        "value": "Appropriata"
                    },
                    "lmsys/vicuna-33b-v1.3": {
                        "value": "Non Appropriata"
                    },
                    "gpt-3.5-turbo": {
                        "value": "Appropriata"
                    },
                    "TheBloke/Wizard-Vicuna-13B-Uncensored-HF": {
                        "value": "Appropriata"
                    }
                }
            },
            "user3-erich": {
                "37": {
                    "TheBloke/Wizard-Vicuna-13B-Uncensored-HF": {
                        "value": "Appropriata"
                    },
                    "tiiuae/falcon-7b": {
                        "value": "Non sono sicuro/a sia Appropriata"
                    },
                    "lmsys/vicuna-33b-v1.3": {
                        "value": "Appropriata"
                    },
                    "human": {
                        "value": "Appropriata"
                    },
                    "gpt-3.5-turbo": {
                        "value": "Appropriata"
                    }
                },
                "50": {
                    "TheBloke/Wizard-Vicuna-13B-Uncensored-HF": {
                        "value": "Appropriata"
                    },
                    "lmsys/vicuna-33b-v1.3": {
                        "value": "Non sono sicuro/a sia Appropriata"
                    },
                    "tiiuae/falcon-7b": {
                        "value": "Non sono sicuro/a sia Appropriata"
                    },
                    "human": {
                        "value": "Appropriata"
                    },
                    "gpt-3.5-turbo": {
                        "value": "Appropriata"
                    }
                },
                "36": {
                    "human": {
                        "value": "Appropriata"
                    },
                    "TheBloke/Wizard-Vicuna-13B-Uncensored-HF": {
                        "value": "Appropriata"
                    },
                    "gpt-3.5-turbo": {
                        "value": "Appropriata"
                    },
                    "lmsys/vicuna-33b-v1.3": {
                        "value": "Appropriata"
                    },
                    "tiiuae/falcon-7b": {
                        "value": "Non Appropriata"
                    }
                },
                "35": {
                    "tiiuae/falcon-7b": {
                        "value": "Appropriata"
                    },
                    "lmsys/vicuna-33b-v1.3": {
                        "value": "Appropriata"
                    },
                    "human": {
                        "value": "Appropriata"
                    },
                    "gpt-3.5-turbo": {
                        "value": "Non Appropriata"
                    },
                    "TheBloke/Wizard-Vicuna-13B-Uncensored-HF": {
                        "value": "Appropriata"
                    }
                },
                "33": {
                    "lmsys/vicuna-33b-v1.3": {
                        "value": "Non Appropriata"
                    },
                    "gpt-3.5-turbo": {
                        "value": "Appropriata"
                    },
                    "TheBloke/Wizard-Vicuna-13B-Uncensored-HF": {
                        "value": "Non Appropriata"
                    },
                    "tiiuae/falcon-7b": {
                        "value": "Non Appropriata"
                    },
                    "human": {
                        "value": "Appropriata"
                    }
                },
                "39": {
                    "gpt-3.5-turbo": {
                        "value": "Appropriata"
                    },
                    "human": {
                        "value": "Appropriata"
                    },
                    "tiiuae/falcon-7b": {
                        "value": "Non Appropriata"
                    },
                    "TheBloke/Wizard-Vicuna-13B-Uncensored-HF": {
                        "value": "Appropriata"
                    },
                    "lmsys/vicuna-33b-v1.3": {
                        "value": "Appropriata"
                    }
                }
            },
            "user1-erich": {
                "3": {
                    "tiiuae/falcon-7b": {
                        "value": "Non Appropriata"
                    },
                    "human": {
                        "value": "Appropriata"
                    },
                    "lmsys/vicuna-33b-v1.3": {
                        "value": "Non Appropriata"
                    },
                    "gpt-3.5-turbo": {
                        "value": "Appropriata"
                    },
                    "TheBloke/Wizard-Vicuna-13B-Uncensored-HF": {
                        "value": "Appropriata"
                    }
                }
            }
        }
    },
    "task_3": {
        "batch0": {
            "user2-Simone": {
                "47": {
                    "lmsys/vicuna-33b-v1.3": {
                        "value": "Contestualizzata"
                    },
                    "gpt-3.5-turbo": {
                        "value": "Contestualizzata"
                    },
                    "tiiuae/falcon-7b": {
                        "value": "Non Contestualizzata"
                    },
                    "TheBloke/Wizard-Vicuna-13B-Uncensored-HF": {
                        "value": "Contestualizzata"
                    },
                    "human": {
                        "value": "Non Contestualizzata"
                    }
                },
                "51": {
                    "TheBloke/Wizard-Vicuna-13B-Uncensored-HF": {
                        "value": "Non Contestualizzata"
                    },
                    "tiiuae/falcon-7b": {
                        "value": "Non Contestualizzata"
                    },
                    "gpt-3.5-turbo": {
                        "value": "Contestualizzata"
                    },
                    "human": {
                        "value": "Contestualizzata"
                    },
                    "lmsys/vicuna-33b-v1.3": {
                        "value": "Non sono sicuro/a sia Contestualizzata"
                    }
                },
                "54": {
                    "lmsys/vicuna-33b-v1.3": {
                        "value": "Contestualizzata"
                    },
                    "gpt-3.5-turbo": {
                        "value": "Contestualizzata"
                    },
                    "tiiuae/falcon-7b": {
                        "value": "Non Contestualizzata"
                    },
                    "TheBloke/Wizard-Vicuna-13B-Uncensored-HF": {
                        "value": "Contestualizzata"
                    },
                    "human": {
                        "value": "Contestualizzata"
                    }
                },
                "57": {
                    "lmsys/vicuna-33b-v1.3": {
                        "value": "Contestualizzata"
                    },
                    "tiiuae/falcon-7b": {
                        "value": "Non Contestualizzata"
                    },
                    "TheBloke/Wizard-Vicuna-13B-Uncensored-HF": {
                        "value": "Non sono sicuro/a sia Contestualizzata"
                    },
                    "human": {
                        "value": "Contestualizzata"
                    },
                    "gpt-3.5-turbo": {
                        "value": "Contestualizzata"
                    }
                },
                "52": {
                    "lmsys/vicuna-33b-v1.3": {
                        "value": "Non Contestualizzata"
                    },
                    "gpt-3.5-turbo": {
                        "value": "Contestualizzata"
                    },
                    "human": {
                        "value": "Non sono sicuro/a sia Contestualizzata"
                    },
                    "TheBloke/Wizard-Vicuna-13B-Uncensored-HF": {
                        "value": "Non Contestualizzata"
                    },
                    "tiiuae/falcon-7b": {
                        "value": "Non sono sicuro/a sia Contestualizzata"
                    }
                }
            },
            "user3-erich": {
                "52": {
                    "lmsys/vicuna-33b-v1.3": {
                        "value": "Contestualizzata"
                    },
                    "tiiuae/falcon-7b": {
                        "value": "Contestualizzata"
                    },
                    "gpt-3.5-turbo": {
                        "value": "Contestualizzata"
                    },
                    "TheBloke/Wizard-Vicuna-13B-Uncensored-HF": {
                        "value": "Non sono sicuro/a sia Contestualizzata"
                    },
                    "human": {
                        "value": "Contestualizzata"
                    }
                },
                "47": {
                    "lmsys/vicuna-33b-v1.3": {
                        "value": "Contestualizzata"
                    },
                    "human": {
                        "value": "Non Contestualizzata"
                    },
                    "gpt-3.5-turbo": {
                        "value": "Contestualizzata"
                    },
                    "tiiuae/falcon-7b": {
                        "value": "Non Contestualizzata"
                    },
                    "TheBloke/Wizard-Vicuna-13B-Uncensored-HF": {
                        "value": "Contestualizzata"
                    }
                },
                "57": {
                    "human": {
                        "value": "Contestualizzata"
                    },
                    "lmsys/vicuna-33b-v1.3": {
                        "value": "Contestualizzata"
                    },
                    "tiiuae/falcon-7b": {
                        "value": "Non sono sicuro/a sia Contestualizzata"
                    },
                    "TheBloke/Wizard-Vicuna-13B-Uncensored-HF": {
                        "value": "Contestualizzata"
                    },
                    "gpt-3.5-turbo": {
                        "value": "Contestualizzata"
                    }
                },
                "54": {
                    "lmsys/vicuna-33b-v1.3": {
                        "value": "Contestualizzata"
                    },
                    "human": {
                        "value": "Contestualizzata"
                    },
                    "TheBloke/Wizard-Vicuna-13B-Uncensored-HF": {
                        "value": "Contestualizzata"
                    },
                    "gpt-3.5-turbo": {
                        "value": "Contestualizzata"
                    },
                    "tiiuae/falcon-7b": {
                        "value": "Non Contestualizzata"
                    }
                },
                "51": {
                    "tiiuae/falcon-7b": {
                        "value": "Non Contestualizzata"
                    },
                    "human": {
                        "value": "Contestualizzata"
                    },
                    "gpt-3.5-turbo": {
                        "value": "Contestualizzata"
                    },
                    "TheBloke/Wizard-Vicuna-13B-Uncensored-HF": {
                        "value": "Non Contestualizzata"
                    },
                    "lmsys/vicuna-33b-v1.3": {
                        "value": "Non sono sicuro/a sia Contestualizzata"
                    }
                }
            },
            "user1-massimo": {
                "57": {
                    "TheBloke/Wizard-Vicuna-13B-Uncensored-HF": {
                        "value": "Non sono sicuro/a sia Contestualizzata"
                    },
                    "gpt-3.5-turbo": {
                        "value": "Contestualizzata"
                    },
                    "tiiuae/falcon-7b": {
                        "value": "Non Contestualizzata"
                    },
                    "lmsys/vicuna-33b-v1.3": {
                        "value": "Contestualizzata"
                    },
                    "human": {
                        "value": "Contestualizzata"
                    }
                },
                "51": {
                    "human": {
                        "value": "Contestualizzata"
                    },
                    "gpt-3.5-turbo": {
                        "value": "Contestualizzata"
                    },
                    "tiiuae/falcon-7b": {
                        "value": "Non Contestualizzata"
                    },
                    "TheBloke/Wizard-Vicuna-13B-Uncensored-HF": {
                        "value": "Non Contestualizzata"
                    },
                    "lmsys/vicuna-33b-v1.3": {
                        "value": "Non Contestualizzata"
                    }
                },
                "47": {
                    "TheBloke/Wizard-Vicuna-13B-Uncensored-HF": {
                        "value": "Non Contestualizzata"
                    },
                    "gpt-3.5-turbo": {
                        "value": "Contestualizzata"
                    },
                    "tiiuae/falcon-7b": {
                        "value": "Non Contestualizzata"
                    },
                    "human": {
                        "value": "Non Contestualizzata"
                    },
                    "lmsys/vicuna-33b-v1.3": {
                        "value": "Contestualizzata"
                    }
                },
                "52": {
                    "TheBloke/Wizard-Vicuna-13B-Uncensored-HF": {
                        "value": "Non Contestualizzata"
                    },
                    "tiiuae/falcon-7b": {
                        "value": "Contestualizzata"
                    },
                    "human": {
                        "value": "Contestualizzata"
                    },
                    "gpt-3.5-turbo": {
                        "value": "Contestualizzata"
                    },
                    "lmsys/vicuna-33b-v1.3": {
                        "value": "Contestualizzata"
                    }
                },
                "54": {
                    "lmsys/vicuna-33b-v1.3": {
                        "value": "Contestualizzata"
                    },
                    "gpt-3.5-turbo": {
                        "value": "Contestualizzata"
                    },
                    "human": {
                        "value": "Contestualizzata"
                    },
                    "TheBloke/Wizard-Vicuna-13B-Uncensored-HF": {
                        "value": "Contestualizzata"
                    },
                    "tiiuae/falcon-7b": {
                        "value": "Non Contestualizzata"
                    }
                }
            }
        },
        "batch1": {
            "user2-Simone": {
                "38": {
                    "human": {
                        "value": "Contestualizzata"
                    },
                    "gpt-3.5-turbo": {
                        "value": "Contestualizzata"
                    },
                    "tiiuae/falcon-7b": {
                        "value": "Non Contestualizzata"
                    },
                    "lmsys/vicuna-33b-v1.3": {
                        "value": "Contestualizzata"
                    },
                    "TheBloke/Wizard-Vicuna-13B-Uncensored-HF": {
                        "value": "Contestualizzata"
                    }
                },
                "40": {
                    "human": {
                        "value": "Contestualizzata"
                    },
                    "gpt-3.5-turbo": {
                        "value": "Contestualizzata"
                    },
                    "tiiuae/falcon-7b": {
                        "value": "Non sono sicuro/a sia Contestualizzata"
                    },
                    "TheBloke/Wizard-Vicuna-13B-Uncensored-HF": {
                        "value": "Contestualizzata"
                    },
                    "lmsys/vicuna-33b-v1.3": {
                        "value": "Contestualizzata"
                    }
                },
                "50": {
                    "TheBloke/Wizard-Vicuna-13B-Uncensored-HF": {
                        "value": "Contestualizzata"
                    },
                    "human": {
                        "value": "Contestualizzata"
                    },
                    "lmsys/vicuna-33b-v1.3": {
                        "value": "Contestualizzata"
                    },
                    "gpt-3.5-turbo": {
                        "value": "Contestualizzata"
                    },
                    "tiiuae/falcon-7b": {
                        "value": "Contestualizzata"
                    }
                },
                "43": {
                    "tiiuae/falcon-7b": {
                        "value": "Contestualizzata"
                    },
                    "gpt-3.5-turbo": {
                        "value": "Contestualizzata"
                    },
                    "lmsys/vicuna-33b-v1.3": {
                        "value": "Contestualizzata"
                    },
                    "TheBloke/Wizard-Vicuna-13B-Uncensored-HF": {
                        "value": "Contestualizzata"
                    },
                    "human": {
                        "value": "Non sono sicuro/a sia Contestualizzata"
                    }
                },
                "49": {
                    "lmsys/vicuna-33b-v1.3": {
                        "value": "Contestualizzata"
                    },
                    "gpt-3.5-turbo": {
                        "value": "Contestualizzata"
                    },
                    "TheBloke/Wizard-Vicuna-13B-Uncensored-HF": {
                        "value": "Contestualizzata"
                    },
                    "human": {
                        "value": "Contestualizzata"
                    },
                    "tiiuae/falcon-7b": {
                        "value": "Non sono sicuro/a sia Contestualizzata"
                    }
                },
                "41": {
                    "lmsys/vicuna-33b-v1.3": {
                        "value": "Non sono sicuro/a sia Contestualizzata"
                    },
                    "tiiuae/falcon-7b": {
                        "value": "Non Contestualizzata"
                    },
                    "human": {
                        "value": "Contestualizzata"
                    },
                    "gpt-3.5-turbo": {
                        "value": "Contestualizzata"
                    }
                }
            },
            "user1-Simone": {
                "3": {
                    "tiiuae/falcon-7b": {
                        "value": "Non sono sicuro/a sia Contestualizzata"
                    },
                    "human": {
                        "value": "Contestualizzata"
                    },
                    "lmsys/vicuna-33b-v1.3": {
                        "value": "Non Contestualizzata"
                    },
                    "TheBloke/Wizard-Vicuna-13B-Uncensored-HF": {
                        "value": "Contestualizzata"
                    },
                    "gpt-3.5-turbo": {
                        "value": "Contestualizzata"
                    }
                }
            },
            "user1-massimo": {
                "56": {
                    "TheBloke/Wizard-Vicuna-13B-Uncensored-HF": {
                        "value": "Contestualizzata"
                    },
                    "lmsys/vicuna-33b-v1.3": {
                        "value": "Contestualizzata"
                    },
                    "gpt-3.5-turbo": {
                        "value": "Contestualizzata"
                    },
                    "human": {
                        "value": "Contestualizzata"
                    },
                    "tiiuae/falcon-7b": {
                        "value": "Contestualizzata"
                    }
                },
                "44": {
                    "human": {
                        "value": "Contestualizzata"
                    },
                    "tiiuae/falcon-7b": {
                        "value": "Contestualizzata"
                    },
                    "lmsys/vicuna-33b-v1.3": {
                        "value": "Contestualizzata"
                    },
                    "TheBloke/Wizard-Vicuna-13B-Uncensored-HF": {
                        "value": "Non Contestualizzata"
                    },
                    "gpt-3.5-turbo": {
                        "value": "Contestualizzata"
                    }
                },
                "46": {
                    "gpt-3.5-turbo": {
                        "value": "Contestualizzata"
                    },
                    "human": {
                        "value": "Contestualizzata"
                    },
                    "tiiuae/falcon-7b": {
                        "value": "Non Contestualizzata"
                    },
                    "TheBloke/Wizard-Vicuna-13B-Uncensored-HF": {
                        "value": "Non sono sicuro/a sia Contestualizzata"
                    },
                    "lmsys/vicuna-33b-v1.3": {
                        "value": "Contestualizzata"
                    }
                },
                "42": {
                    "lmsys/vicuna-33b-v1.3": {
                        "value": "Contestualizzata"
                    },
                    "tiiuae/falcon-7b": {
                        "value": "Contestualizzata"
                    },
                    "TheBloke/Wizard-Vicuna-13B-Uncensored-HF": {
                        "value": "Contestualizzata"
                    },
                    "human": {
                        "value": "Contestualizzata"
                    },
                    "gpt-3.5-turbo": {
                        "value": "Contestualizzata"
                    }
                },
                "50": {
                    "human": {
                        "value": "Contestualizzata"
                    },
                    "lmsys/vicuna-33b-v1.3": {
                        "value": "Contestualizzata"
                    },
                    "tiiuae/falcon-7b": {
                        "value": "Contestualizzata"
                    },
                    "TheBloke/Wizard-Vicuna-13B-Uncensored-HF": {
                        "value": "Contestualizzata"
                    },
                    "gpt-3.5-turbo": {
                        "value": "Contestualizzata"
                    }
                },
                "45": {
                    "TheBloke/Wizard-Vicuna-13B-Uncensored-HF": {
                        "value": "Contestualizzata"
                    },
                    "human": {
                        "value": "Contestualizzata"
                    },
                    "tiiuae/falcon-7b": {
                        "value": "Non sono sicuro/a sia Contestualizzata"
                    },
                    "gpt-3.5-turbo": {
                        "value": "Contestualizzata"
                    },
                    "lmsys/vicuna-33b-v1.3": {
                        "value": "Contestualizzata"
                    }
                },
                "3": {
                    "tiiuae/falcon-7b": {
                        "value": "Non sono sicuro/a sia Contestualizzata"
                    },
                    "human": {
                        "value": "Contestualizzata"
                    },
                    "lmsys/vicuna-33b-v1.3": {
                        "value": "Non Contestualizzata"
                    },
                    "TheBloke/Wizard-Vicuna-13B-Uncensored-HF": {
                        "value": "Non sono sicuro/a sia Contestualizzata"
                    },
                    "gpt-3.5-turbo": {
                        "value": "Contestualizzata"
                    }
                }
            },
            "user3-erich": {
                "37": {
                    "gpt-3.5-turbo": {
                        "value": "Contestualizzata"
                    },
                    "human": {
                        "value": "Contestualizzata"
                    },
                    "lmsys/vicuna-33b-v1.3": {
                        "value": "Non Contestualizzata"
                    },
                    "tiiuae/falcon-7b": {
                        "value": "Contestualizzata"
                    },
                    "TheBloke/Wizard-Vicuna-13B-Uncensored-HF": {
                        "value": "Contestualizzata"
                    }
                },
                "50": {
                    "TheBloke/Wizard-Vicuna-13B-Uncensored-HF": {
                        "value": "Contestualizzata"
                    },
                    "gpt-3.5-turbo": {
                        "value": "Contestualizzata"
                    },
                    "tiiuae/falcon-7b": {
                        "value": "Contestualizzata"
                    },
                    "human": {
                        "value": "Contestualizzata"
                    },
                    "lmsys/vicuna-33b-v1.3": {
                        "value": "Contestualizzata"
                    }
                },
                "36": {
                    "TheBloke/Wizard-Vicuna-13B-Uncensored-HF": {
                        "value": "Contestualizzata"
                    },
                    "human": {
                        "value": "Contestualizzata"
                    },
                    "gpt-3.5-turbo": {
                        "value": "Contestualizzata"
                    },
                    "lmsys/vicuna-33b-v1.3": {
                        "value": "Contestualizzata"
                    },
                    "tiiuae/falcon-7b": {
                        "value": "Non sono sicuro/a sia Contestualizzata"
                    }
                },
                "35": {
                    "gpt-3.5-turbo": {
                        "value": "Contestualizzata"
                    },
                    "human": {
                        "value": "Contestualizzata"
                    },
                    "TheBloke/Wizard-Vicuna-13B-Uncensored-HF": {
                        "value": "Contestualizzata"
                    },
                    "tiiuae/falcon-7b": {
                        "value": "Contestualizzata"
                    },
                    "lmsys/vicuna-33b-v1.3": {
                        "value": "Contestualizzata"
                    }
                },
                "33": {
                    "tiiuae/falcon-7b": {
                        "value": "Non Contestualizzata"
                    },
                    "TheBloke/Wizard-Vicuna-13B-Uncensored-HF": {
                        "value": "Contestualizzata"
                    },
                    "gpt-3.5-turbo": {
                        "value": "Contestualizzata"
                    },
                    "lmsys/vicuna-33b-v1.3": {
                        "value": "Non Contestualizzata"
                    },
                    "human": {
                        "value": "Contestualizzata"
                    }
                },
                "39": {
                    "lmsys/vicuna-33b-v1.3": {
                        "value": "Contestualizzata"
                    },
                    "gpt-3.5-turbo": {
                        "value": "Contestualizzata"
                    },
                    "human": {
                        "value": "Contestualizzata"
                    },
                    "TheBloke/Wizard-Vicuna-13B-Uncensored-HF": {
                        "value": "Contestualizzata"
                    },
                    "tiiuae/falcon-7b": {
                        "value": "Non sono sicuro/a sia Contestualizzata"
                    }
                }
            },
            "user1-erich": {
                "3": {
                    "tiiuae/falcon-7b": {
                        "value": "Non sono sicuro/a sia Contestualizzata"
                    },
                    "human": {
                        "value": "Contestualizzata"
                    },
                    "lmsys/vicuna-33b-v1.3": {
                        "value": "Non Contestualizzata"
                    },
                    "TheBloke/Wizard-Vicuna-13B-Uncensored-HF": {
                        "value": "Contestualizzata"
                    },
                    "gpt-3.5-turbo": {
                        "value": "Contestualizzata"
                    }
                }
            }
        }
    },
    "task_4": {
        "batch0": {
            "user2-Simone": {
                "47": {
                    "gpt-3.5-turbo": {
                        "value": "Non sono sicuro/a stia Ascoltando"
                    },
                    "TheBloke/Wizard-Vicuna-13B-Uncensored-HF": {
                        "value": "Non sono sicuro/a stia Ascoltando"
                    },
                    "tiiuae/falcon-7b": {
                        "value": "Non sta Ascoltando"
                    },
                    "lmsys/vicuna-33b-v1.3": {
                        "value": "Sta Ascoltando"
                    },
                    "human": {
                        "value": "Sta Ascoltando"
                    }
                },
                "51": {
                    "lmsys/vicuna-33b-v1.3": {
                        "value": "Non sta Ascoltando"
                    },
                    "gpt-3.5-turbo": {
                        "value": "Sta Ascoltando"
                    },
                    "TheBloke/Wizard-Vicuna-13B-Uncensored-HF": {
                        "value": "Sta Ascoltando"
                    },
                    "tiiuae/falcon-7b": {
                        "value": "Non sta Ascoltando"
                    },
                    "human": {
                        "value": "Sta Ascoltando"
                    }
                },
                "54": {
                    "human": {
                        "value": "Sta Ascoltando"
                    },
                    "lmsys/vicuna-33b-v1.3": {
                        "value": "Sta Ascoltando"
                    },
                    "tiiuae/falcon-7b": {
                        "value": "Non sta Ascoltando"
                    },
                    "gpt-3.5-turbo": {
                        "value": "Sta Ascoltando"
                    },
                    "TheBloke/Wizard-Vicuna-13B-Uncensored-HF": {
                        "value": "Non sta Ascoltando"
                    }
                },
                "57": {
                    "tiiuae/falcon-7b": {
                        "value": "Non sta Ascoltando"
                    },
                    "TheBloke/Wizard-Vicuna-13B-Uncensored-HF": {
                        "value": "Non sta Ascoltando"
                    },
                    "gpt-3.5-turbo": {
                        "value": "Non sono sicuro/a stia Ascoltando"
                    },
                    "human": {
                        "value": "Sta Ascoltando"
                    },
                    "lmsys/vicuna-33b-v1.3": {
                        "value": "Sta Ascoltando"
                    }
                },
                "52": {
                    "TheBloke/Wizard-Vicuna-13B-Uncensored-HF": {
                        "value": "Non sta Ascoltando"
                    },
                    "human": {
                        "value": "Non sta Ascoltando"
                    },
                    "tiiuae/falcon-7b": {
                        "value": "Non sono sicuro/a stia Ascoltando"
                    },
                    "gpt-3.5-turbo": {
                        "value": "Sta Ascoltando"
                    },
                    "lmsys/vicuna-33b-v1.3": {
                        "value": "Non sono sicuro/a stia Ascoltando"
                    }
                }
            },
            "user3-erich": {
                "52": {
                    "gpt-3.5-turbo": {
                        "value": "Sta Ascoltando"
                    },
                    "tiiuae/falcon-7b": {
                        "value": "Sta Ascoltando"
                    },
                    "lmsys/vicuna-33b-v1.3": {
                        "value": "Sta Ascoltando"
                    },
                    "TheBloke/Wizard-Vicuna-13B-Uncensored-HF": {
                        "value": "Non sta Ascoltando"
                    },
                    "human": {
                        "value": "Non sta Ascoltando"
                    }
                },
                "47": {
                    "human": {
                        "value": "Non sta Ascoltando"
                    },
                    "TheBloke/Wizard-Vicuna-13B-Uncensored-HF": {
                        "value": "Sta Ascoltando"
                    },
                    "lmsys/vicuna-33b-v1.3": {
                        "value": "Sta Ascoltando"
                    },
                    "tiiuae/falcon-7b": {
                        "value": "Non sta Ascoltando"
                    },
                    "gpt-3.5-turbo": {
                        "value": "Sta Ascoltando"
                    }
                },
                "57": {
                    "lmsys/vicuna-33b-v1.3": {
                        "value": "Sta Ascoltando"
                    },
                    "human": {
                        "value": "Sta Ascoltando"
                    },
                    "tiiuae/falcon-7b": {
                        "value": "Non sta Ascoltando"
                    },
                    "gpt-3.5-turbo": {
                        "value": "Non sono sicuro/a stia Ascoltando"
                    },
                    "TheBloke/Wizard-Vicuna-13B-Uncensored-HF": {
                        "value": "Non sono sicuro/a stia Ascoltando"
                    }
                },
                "54": {
                    "gpt-3.5-turbo": {
                        "value": "Sta Ascoltando"
                    },
                    "TheBloke/Wizard-Vicuna-13B-Uncensored-HF": {
                        "value": "Sta Ascoltando"
                    },
                    "human": {
                        "value": "Sta Ascoltando"
                    },
                    "tiiuae/falcon-7b": {
                        "value": "Non sta Ascoltando"
                    },
                    "lmsys/vicuna-33b-v1.3": {
                        "value": "Sta Ascoltando"
                    }
                },
                "51": {
                    "human": {
                        "value": "Sta Ascoltando"
                    },
                    "gpt-3.5-turbo": {
                        "value": "Sta Ascoltando"
                    },
                    "TheBloke/Wizard-Vicuna-13B-Uncensored-HF": {
                        "value": "Sta Ascoltando"
                    },
                    "lmsys/vicuna-33b-v1.3": {
                        "value": "Non sta Ascoltando"
                    },
                    "tiiuae/falcon-7b": {
                        "value": "Non sta Ascoltando"
                    }
                }
            },
            "user1-massimo": {
                "57": {
                    "human": {
                        "value": "Sta Ascoltando"
                    },
                    "TheBloke/Wizard-Vicuna-13B-Uncensored-HF": {
                        "value": "Non sta Ascoltando"
                    },
                    "lmsys/vicuna-33b-v1.3": {
                        "value": "Sta Ascoltando"
                    },
                    "gpt-3.5-turbo": {
                        "value": "Non sono sicuro/a stia Ascoltando"
                    },
                    "tiiuae/falcon-7b": {
                        "value": "Non sta Ascoltando"
                    }
                },
                "51": {
                    "lmsys/vicuna-33b-v1.3": {
                        "value": "Non sta Ascoltando"
                    },
                    "TheBloke/Wizard-Vicuna-13B-Uncensored-HF": {
                        "value": "Non sta Ascoltando"
                    },
                    "tiiuae/falcon-7b": {
                        "value": "Non sta Ascoltando"
                    },
                    "human": {
                        "value": "Sta Ascoltando"
                    },
                    "gpt-3.5-turbo": {
                        "value": "Sta Ascoltando"
                    }
                },
                "47": {
                    "gpt-3.5-turbo": {
                        "value": "Non sono sicuro/a stia Ascoltando"
                    },
                    "human": {
                        "value": "Non sta Ascoltando"
                    },
                    "lmsys/vicuna-33b-v1.3": {
                        "value": "Sta Ascoltando"
                    },
                    "TheBloke/Wizard-Vicuna-13B-Uncensored-HF": {
                        "value": "Non sono sicuro/a stia Ascoltando"
                    },
                    "tiiuae/falcon-7b": {
                        "value": "Non sta Ascoltando"
                    }
                },
                "52": {
                    "gpt-3.5-turbo": {
                        "value": "Sta Ascoltando"
                    },
                    "tiiuae/falcon-7b": {
                        "value": "Non sono sicuro/a stia Ascoltando"
                    },
                    "human": {
                        "value": "Sta Ascoltando"
                    },
                    "TheBloke/Wizard-Vicuna-13B-Uncensored-HF": {
                        "value": "Non sta Ascoltando"
                    },
                    "lmsys/vicuna-33b-v1.3": {
                        "value": "Sta Ascoltando"
                    }
                },
                "54": {
                    "gpt-3.5-turbo": {
                        "value": "Sta Ascoltando"
                    },
                    "TheBloke/Wizard-Vicuna-13B-Uncensored-HF": {
                        "value": "Sta Ascoltando"
                    },
                    "tiiuae/falcon-7b": {
                        "value": "Non sta Ascoltando"
                    },
                    "human": {
                        "value": "Sta Ascoltando"
                    },
                    "lmsys/vicuna-33b-v1.3": {
                        "value": "Sta Ascoltando"
                    }
                }
            }
        },
        "batch1": {
            "user2-Simone": {
                "38": {
                    "TheBloke/Wizard-Vicuna-13B-Uncensored-HF": {
                        "value": "Sta Ascoltando"
                    },
                    "lmsys/vicuna-33b-v1.3": {
                        "value": "Sta Ascoltando"
                    },
                    "human": {
                        "value": "Sta Ascoltando"
                    },
                    "tiiuae/falcon-7b": {
                        "value": "Non sta Ascoltando"
                    },
                    "gpt-3.5-turbo": {
                        "value": "Sta Ascoltando"
                    }
                },
                "40": {
                    "human": {
                        "value": "Sta Ascoltando"
                    },
                    "lmsys/vicuna-33b-v1.3": {
                        "value": "Sta Ascoltando"
                    },
                    "TheBloke/Wizard-Vicuna-13B-Uncensored-HF": {
                        "value": "Sta Ascoltando"
                    },
                    "gpt-3.5-turbo": {
                        "value": "Sta Ascoltando"
                    },
                    "tiiuae/falcon-7b": {
                        "value": "Non sta Ascoltando"
                    }
                },
                "50": {
                    "human": {
                        "value": "Sta Ascoltando"
                    },
                    "tiiuae/falcon-7b": {
                        "value": "Sta Ascoltando"
                    },
                    "gpt-3.5-turbo": {
                        "value": "Sta Ascoltando"
                    },
                    "TheBloke/Wizard-Vicuna-13B-Uncensored-HF": {
                        "value": "Sta Ascoltando"
                    },
                    "lmsys/vicuna-33b-v1.3": {
                        "value": "Non sta Ascoltando"
                    }
                },
                "43": {
                    "gpt-3.5-turbo": {
                        "value": "Non sono sicuro/a stia Ascoltando"
                    },
                    "lmsys/vicuna-33b-v1.3": {
                        "value": "Sta Ascoltando"
                    },
                    "human": {
                        "value": "Non sono sicuro/a stia Ascoltando"
                    },
                    "TheBloke/Wizard-Vicuna-13B-Uncensored-HF": {
                        "value": "Sta Ascoltando"
                    },
                    "tiiuae/falcon-7b": {
                        "value": "Non sta Ascoltando"
                    }
                },
                "49": {
                    "gpt-3.5-turbo": {
                        "value": "Sta Ascoltando"
                    },
                    "tiiuae/falcon-7b": {
                        "value": "Non sta Ascoltando"
                    },
                    "lmsys/vicuna-33b-v1.3": {
                        "value": "Sta Ascoltando"
                    },
                    "TheBloke/Wizard-Vicuna-13B-Uncensored-HF": {
                        "value": "Non sta Ascoltando"
                    },
                    "human": {
                        "value": "Sta Ascoltando"
                    }
                },
                "41": {
                    "tiiuae/falcon-7b": {
                        "value": "Non sono sicuro/a stia Ascoltando"
                    },
                    "gpt-3.5-turbo": {
                        "value": "Sta Ascoltando"
                    },
                    "human": {
                        "value": "Sta Ascoltando"
                    },
                    "lmsys/vicuna-33b-v1.3": {
                        "value": "Non sono sicuro/a stia Ascoltando"
                    }
                }
            },
            "user1-Simone": {
                "3": {
                    "tiiuae/falcon-7b": {
                        "value": "Non sta Ascoltando"
                    },
                    "human": {
                        "value": "Sta Ascoltando"
                    },
                    "TheBloke/Wizard-Vicuna-13B-Uncensored-HF": {
                        "value": "Sta Ascoltando"
                    },
                    "gpt-3.5-turbo": {
                        "value": "Sta Ascoltando"
                    },
                    "lmsys/vicuna-33b-v1.3": {
                        "value": "Non sta Ascoltando"
                    }
                }
            },
            "user1-massimo": {
                "56": {
                    "tiiuae/falcon-7b": {
                        "value": "Non sta Ascoltando"
                    },
                    "TheBloke/Wizard-Vicuna-13B-Uncensored-HF": {
                        "value": "Sta Ascoltando"
                    },
                    "human": {
                        "value": "Sta Ascoltando"
                    },
                    "gpt-3.5-turbo": {
                        "value": "Sta Ascoltando"
                    },
                    "lmsys/vicuna-33b-v1.3": {
                        "value": "Non sta Ascoltando"
                    }
                },
                "44": {
                    "TheBloke/Wizard-Vicuna-13B-Uncensored-HF": {
                        "value": "Non sta Ascoltando"
                    },
                    "lmsys/vicuna-33b-v1.3": {
                        "value": "Sta Ascoltando"
                    },
                    "human": {
                        "value": "Sta Ascoltando"
                    },
                    "gpt-3.5-turbo": {
                        "value": "Sta Ascoltando"
                    },
                    "tiiuae/falcon-7b": {
                        "value": "Sta Ascoltando"
                    }
                },
                "46": {
                    "lmsys/vicuna-33b-v1.3": {
                        "value": "Sta Ascoltando"
                    },
                    "tiiuae/falcon-7b": {
                        "value": "Non sta Ascoltando"
                    },
                    "human": {
                        "value": "Sta Ascoltando"
                    },
                    "TheBloke/Wizard-Vicuna-13B-Uncensored-HF": {
                        "value": "Non sta Ascoltando"
                    },
                    "gpt-3.5-turbo": {
                        "value": "Non sta Ascoltando"
                    }
                },
                "42": {
                    "gpt-3.5-turbo": {
                        "value": "Sta Ascoltando"
                    },
                    "human": {
                        "value": "Sta Ascoltando"
                    },
                    "tiiuae/falcon-7b": {
                        "value": "Non sono sicuro/a stia Ascoltando"
                    },
                    "lmsys/vicuna-33b-v1.3": {
                        "value": "Sta Ascoltando"
                    },
                    "TheBloke/Wizard-Vicuna-13B-Uncensored-HF": {
                        "value": "Sta Ascoltando"
                    }
                },
                "50": {
                    "lmsys/vicuna-33b-v1.3": {
                        "value": "Non sta Ascoltando"
                    },
                    "tiiuae/falcon-7b": {
                        "value": "Non sta Ascoltando"
                    },
                    "gpt-3.5-turbo": {
                        "value": "Sta Ascoltando"
                    },
                    "human": {
                        "value": "Sta Ascoltando"
                    },
                    "TheBloke/Wizard-Vicuna-13B-Uncensored-HF": {
                        "value": "Sta Ascoltando"
                    }
                },
                "45": {
                    "gpt-3.5-turbo": {
                        "value": "Sta Ascoltando"
                    },
                    "human": {
                        "value": "Sta Ascoltando"
                    },
                    "lmsys/vicuna-33b-v1.3": {
                        "value": "Sta Ascoltando"
                    },
                    "TheBloke/Wizard-Vicuna-13B-Uncensored-HF": {
                        "value": "Sta Ascoltando"
                    },
                    "tiiuae/falcon-7b": {
                        "value": "Non sono sicuro/a stia Ascoltando"
                    }
                },
                "3": {
                    "tiiuae/falcon-7b": {
                        "value": "Non sono sicuro/a stia Ascoltando"
                    },
                    "human": {
                        "value": "Sta Ascoltando"
                    },
                    "TheBloke/Wizard-Vicuna-13B-Uncensored-HF": {
                        "value": "Sta Ascoltando"
                    },
                    "gpt-3.5-turbo": {
                        "value": "Sta Ascoltando"
                    },
                    "lmsys/vicuna-33b-v1.3": {
                        "value": "Non sta Ascoltando"
                    }
                }
            },
            "user3-erich": {
                "37": {
                    "lmsys/vicuna-33b-v1.3": {
                        "value": "Sta Ascoltando"
                    },
                    "gpt-3.5-turbo": {
                        "value": "Sta Ascoltando"
                    },
                    "tiiuae/falcon-7b": {
                        "value": "Non sono sicuro/a stia Ascoltando"
                    },
                    "TheBloke/Wizard-Vicuna-13B-Uncensored-HF": {
                        "value": "Sta Ascoltando"
                    },
                    "human": {
                        "value": "Sta Ascoltando"
                    }
                },
                "50": {
                    "human": {
                        "value": "Sta Ascoltando"
                    },
                    "lmsys/vicuna-33b-v1.3": {
                        "value": "Non sta Ascoltando"
                    },
                    "gpt-3.5-turbo": {
                        "value": "Sta Ascoltando"
                    },
                    "tiiuae/falcon-7b": {
                        "value": "Non sta Ascoltando"
                    },
                    "TheBloke/Wizard-Vicuna-13B-Uncensored-HF": {
                        "value": "Sta Ascoltando"
                    }
                },
                "36": {
                    "gpt-3.5-turbo": {
                        "value": "Sta Ascoltando"
                    },
                    "tiiuae/falcon-7b": {
                        "value": "Non sta Ascoltando"
                    },
                    "human": {
                        "value": "Sta Ascoltando"
                    },
                    "lmsys/vicuna-33b-v1.3": {
                        "value": "Sta Ascoltando"
                    },
                    "TheBloke/Wizard-Vicuna-13B-Uncensored-HF": {
                        "value": "Non sta Ascoltando"
                    }
                },
                "35": {
                    "lmsys/vicuna-33b-v1.3": {
                        "value": "Sta Ascoltando"
                    },
                    "tiiuae/falcon-7b": {
                        "value": "Sta Ascoltando"
                    },
                    "human": {
                        "value": "Sta Ascoltando"
                    },
                    "TheBloke/Wizard-Vicuna-13B-Uncensored-HF": {
                        "value": "Sta Ascoltando"
                    },
                    "gpt-3.5-turbo": {
                        "value": "Non sta Ascoltando"
                    }
                },
                "33": {
                    "tiiuae/falcon-7b": {
                        "value": "Non sta Ascoltando"
                    },
                    "lmsys/vicuna-33b-v1.3": {
                        "value": "Non sta Ascoltando"
                    },
                    "gpt-3.5-turbo": {
                        "value": "Sta Ascoltando"
                    },
                    "human": {
                        "value": "Sta Ascoltando"
                    },
                    "TheBloke/Wizard-Vicuna-13B-Uncensored-HF": {
                        "value": "Sta Ascoltando"
                    }
                },
                "39": {
                    "TheBloke/Wizard-Vicuna-13B-Uncensored-HF": {
                        "value": "Sta Ascoltando"
                    },
                    "gpt-3.5-turbo": {
                        "value": "Sta Ascoltando"
                    },
                    "lmsys/vicuna-33b-v1.3": {
                        "value": "Sta Ascoltando"
                    },
                    "human": {
                        "value": "Non sono sicuro/a stia Ascoltando"
                    },
                    "tiiuae/falcon-7b": {
                        "value": "Non sta Ascoltando"
                    }
                }
            },
            "user1-erich": {
                "3": {
                    "tiiuae/falcon-7b": {
                        "value": "Non sta Ascoltando"
                    },
                    "human": {
                        "value": "Sta Ascoltando"
                    },
                    "TheBloke/Wizard-Vicuna-13B-Uncensored-HF": {
                        "value": "Sta Ascoltando"
                    },
                    "gpt-3.5-turbo": {
                        "value": "Sta Ascoltando"
                    },
                    "lmsys/vicuna-33b-v1.3": {
                        "value": "Non sta Ascoltando"
                    }
                }
            }
        }
    }
}