{
    "task_1": {
        "batch0": {
            "user1-massimo": {
                "47": {
                    "TheBloke/Wizard-Vicuna-13B-Uncensored-HF": {
                        "value": "Non Corretta"
                    },
                    "gpt-3.5-turbo": {
                        "value": "Corretta"
                    },
                    "human": {
                        "value": "Corretta"
                    },
                    "lmsys/vicuna-33b-v1.3": {
                        "value": "Corretta"
                    },
                    "tiiuae/falcon-7b": {
                        "value": "Corretta"
                    }
                },
                "51": {
                    "TheBloke/Wizard-Vicuna-13B-Uncensored-HF": {
                        "value": "Corretta"
                    },
                    "gpt-3.5-turbo": {
                        "value": "Non Corretta"
                    },
                    "human": {
                        "value": "Non Corretta"
                    },
                    "lmsys/vicuna-33b-v1.3": {
                        "value": "Corretta"
                    },
                    "tiiuae/falcon-7b": {
                        "value": "Corretta"
                    }
                },
                "52": {
                    "TheBloke/Wizard-Vicuna-13B-Uncensored-HF": {
                        "value": "Non sono sicuro/a sia Corretta"
                    },
                    "gpt-3.5-turbo": {
                        "value": "Corretta"
                    },
                    "human": {
                        "value": "Corretta"
                    },
                    "lmsys/vicuna-33b-v1.3": {
                        "value": "Corretta"
                    },
                    "tiiuae/falcon-7b": {
                        "value": "Corretta"
                    }
                },
                "54": {
                    "TheBloke/Wizard-Vicuna-13B-Uncensored-HF": {
                        "value": "Corretta"
                    },
                    "gpt-3.5-turbo": {
                        "value": "Corretta"
                    },
                    "human": {
                        "value": "Non Corretta"
                    },
                    "lmsys/vicuna-33b-v1.3": {
                        "value": "Non Corretta"
                    },
                    "tiiuae/falcon-7b": {
                        "value": "Corretta"
                    }
                },
                "57": {
                    "TheBloke/Wizard-Vicuna-13B-Uncensored-HF": {
                        "value": "Non sono sicuro/a sia Corretta"
                    },
                    "gpt-3.5-turbo": {
                        "value": "Non Corretta"
                    },
                    "human": {
                        "value": "Non Corretta"
                    },
                    "lmsys/vicuna-33b-v1.3": {
                        "value": "Corretta"
                    },
                    "tiiuae/falcon-7b": {
                        "value": "Non Corretta"
                    }
                }
            },
            "user2-Simone": {
                "47": {
                    "TheBloke/Wizard-Vicuna-13B-Uncensored-HF": {
                        "value": "Non Corretta"
                    },
                    "gpt-3.5-turbo": {
                        "value": "Corretta"
                    },
                    "human": {
                        "value": "Corretta"
                    },
                    "lmsys/vicuna-33b-v1.3": {
                        "value": "Corretta"
                    },
                    "tiiuae/falcon-7b": {
                        "value": "Corretta"
                    }
                },
                "51": {
                    "TheBloke/Wizard-Vicuna-13B-Uncensored-HF": {
                        "value": "Corretta"
                    },
                    "gpt-3.5-turbo": {
                        "value": "Corretta"
                    },
                    "human": {
                        "value": "Corretta"
                    },
                    "lmsys/vicuna-33b-v1.3": {
                        "value": "Corretta"
                    },
                    "tiiuae/falcon-7b": {
                        "value": "Corretta"
                    }
                },
                "52": {
                    "TheBloke/Wizard-Vicuna-13B-Uncensored-HF": {
                        "value": "Corretta"
                    },
                    "gpt-3.5-turbo": {
                        "value": "Corretta"
                    },
                    "human": {
                        "value": "Corretta"
                    },
                    "lmsys/vicuna-33b-v1.3": {
                        "value": "Non Corretta"
                    },
                    "tiiuae/falcon-7b": {
                        "value": "Corretta"
                    }
                },
                "54": {
                    "TheBloke/Wizard-Vicuna-13B-Uncensored-HF": {
                        "value": "Corretta"
                    },
                    "gpt-3.5-turbo": {
                        "value": "Corretta"
                    },
                    "human": {
                        "value": "Corretta"
                    },
                    "lmsys/vicuna-33b-v1.3": {
                        "value": "Non Corretta"
                    },
                    "tiiuae/falcon-7b": {
                        "value": "Corretta"
                    }
                },
                "57": {
                    "TheBloke/Wizard-Vicuna-13B-Uncensored-HF": {
                        "value": "Corretta"
                    },
                    "gpt-3.5-turbo": {
                        "value": "Corretta"
                    },
                    "human": {
                        "value": "Corretta"
                    },
                    "lmsys/vicuna-33b-v1.3": {
                        "value": "Corretta"
                    },
                    "tiiuae/falcon-7b": {
                        "value": "Corretta"
                    }
                }
            },
            "user3-erich": {
                "47": {
                    "TheBloke/Wizard-Vicuna-13B-Uncensored-HF": {
                        "value": "Non Corretta"
                    },
                    "gpt-3.5-turbo": {
                        "value": "Corretta"
                    },
                    "human": {
                        "value": "Corretta"
                    },
                    "lmsys/vicuna-33b-v1.3": {
                        "value": "Corretta"
                    },
                    "tiiuae/falcon-7b": {
                        "value": "Corretta"
                    }
                },
                "51": {
                    "TheBloke/Wizard-Vicuna-13B-Uncensored-HF": {
                        "value": "Corretta"
                    },
                    "gpt-3.5-turbo": {
                        "value": "Corretta"
                    },
                    "human": {
                        "value": "Corretta"
                    },
                    "lmsys/vicuna-33b-v1.3": {
                        "value": "Corretta"
                    },
                    "tiiuae/falcon-7b": {
                        "value": "Corretta"
                    }
                },
                "52": {
                    "TheBloke/Wizard-Vicuna-13B-Uncensored-HF": {
                        "value": "Corretta"
                    },
                    "gpt-3.5-turbo": {
                        "value": "Corretta"
                    },
                    "human": {
                        "value": "Corretta"
                    },
                    "lmsys/vicuna-33b-v1.3": {
                        "value": "Corretta"
                    },
                    "tiiuae/falcon-7b": {
                        "value": "Corretta"
                    }
                },
                "54": {
                    "TheBloke/Wizard-Vicuna-13B-Uncensored-HF": {
                        "value": "Corretta"
                    },
                    "gpt-3.5-turbo": {
                        "value": "Corretta"
                    },
                    "human": {
                        "value": "Corretta"
                    },
                    "lmsys/vicuna-33b-v1.3": {
                        "value": "Corretta"
                    },
                    "tiiuae/falcon-7b": {
                        "value": "Corretta"
                    }
                },
                "57": {
                    "TheBloke/Wizard-Vicuna-13B-Uncensored-HF": {
                        "value": "Corretta"
                    },
                    "gpt-3.5-turbo": {
                        "value": "Corretta"
                    },
                    "human": {
                        "value": "Corretta"
                    },
                    "lmsys/vicuna-33b-v1.3": {
                        "value": "Corretta"
                    },
                    "tiiuae/falcon-7b": {
                        "value": "Non sono sicuro/a sia Corretta"
                    }
                }
            }
        }
    },
    "task_2": {
        "batch0": {
            "user1-massimo": {
                "47": {
                    "TheBloke/Wizard-Vicuna-13B-Uncensored-HF": {
                        "value": "Non Appropriata"
                    },
                    "gpt-3.5-turbo": {
                        "value": "Non sono sicuro/a sia Appropriata"
                    },
                    "human": {
                        "value": "Non sono sicuro/a sia Appropriata"
                    },
                    "lmsys/vicuna-33b-v1.3": {
                        "value": "Appropriata"
                    },
                    "tiiuae/falcon-7b": {
                        "value": "Non Appropriata"
                    }
                },
                "51": {
                    "TheBloke/Wizard-Vicuna-13B-Uncensored-HF": {
                        "value": "Appropriata"
                    },
                    "gpt-3.5-turbo": {
                        "value": "Appropriata"
                    },
                    "human": {
                        "value": "Appropriata"
                    },
                    "lmsys/vicuna-33b-v1.3": {
                        "value": "Non Appropriata"
                    },
                    "tiiuae/falcon-7b": {
                        "value": "Non Appropriata"
                    }
                },
                "52": {
                    "TheBloke/Wizard-Vicuna-13B-Uncensored-HF": {
                        "value": "Non Appropriata"
                    },
                    "gpt-3.5-turbo": {
                        "value": "Appropriata"
                    },
                    "human": {
                        "value": "Appropriata"
                    },
                    "lmsys/vicuna-33b-v1.3": {
                        "value": "Non sono sicuro/a sia Appropriata"
                    },
                    "tiiuae/falcon-7b": {
                        "value": "Non sono sicuro/a sia Appropriata"
                    }
                },
                "54": {
                    "TheBloke/Wizard-Vicuna-13B-Uncensored-HF": {
                        "value": "Appropriata"
                    },
                    "gpt-3.5-turbo": {
                        "value": "Appropriata"
                    },
                    "human": {
                        "value": "Appropriata"
                    },
                    "lmsys/vicuna-33b-v1.3": {
                        "value": "Appropriata"
                    },
                    "tiiuae/falcon-7b": {
                        "value": "Non sono sicuro/a sia Appropriata"
                    }
                },
                "57": {
                    "TheBloke/Wizard-Vicuna-13B-Uncensored-HF": {
                        "value": "Non Appropriata"
                    },
                    "gpt-3.5-turbo": {
                        "value": "Appropriata"
                    },
                    "human": {
                        "value": "Non sono sicuro/a sia Appropriata"
                    },
                    "lmsys/vicuna-33b-v1.3": {
                        "value": "Appropriata"
                    },
                    "tiiuae/falcon-7b": {
                        "value": "Non Appropriata"
                    }
                }
            },
            "user2-Simone": {
                "47": {
                    "TheBloke/Wizard-Vicuna-13B-Uncensored-HF": {
                        "value": "Non sono sicuro/a sia Appropriata"
                    },
                    "gpt-3.5-turbo": {
                        "value": "Appropriata"
                    },
                    "human": {
                        "value": "Appropriata"
                    },
                    "lmsys/vicuna-33b-v1.3": {
                        "value": "Appropriata"
                    },
                    "tiiuae/falcon-7b": {
                        "value": "Non Appropriata"
                    }
                },
                "51": {
                    "TheBloke/Wizard-Vicuna-13B-Uncensored-HF": {
                        "value": "Appropriata"
                    },
                    "gpt-3.5-turbo": {
                        "value": "Appropriata"
                    },
                    "human": {
                        "value": "Appropriata"
                    },
                    "lmsys/vicuna-33b-v1.3": {
                        "value": "Non Appropriata"
                    },
                    "tiiuae/falcon-7b": {
                        "value": "Non Appropriata"
                    }
                },
                "52": {
                    "TheBloke/Wizard-Vicuna-13B-Uncensored-HF": {
                        "value": "Non Appropriata"
                    },
                    "gpt-3.5-turbo": {
                        "value": "Appropriata"
                    },
                    "human": {
                        "value": "Non Appropriata"
                    },
                    "lmsys/vicuna-33b-v1.3": {
                        "value": "Non Appropriata"
                    },
                    "tiiuae/falcon-7b": {
                        "value": "Non Appropriata"
                    }
                },
                "54": {
                    "TheBloke/Wizard-Vicuna-13B-Uncensored-HF": {
                        "value": "Non Appropriata"
                    },
                    "gpt-3.5-turbo": {
                        "value": "Appropriata"
                    },
                    "human": {
                        "value": "Appropriata"
                    },
                    "lmsys/vicuna-33b-v1.3": {
                        "value": "Appropriata"
                    },
                    "tiiuae/falcon-7b": {
                        "value": "Appropriata"
                    }
                },
                "57": {
                    "TheBloke/Wizard-Vicuna-13B-Uncensored-HF": {
                        "value": "Non Appropriata"
                    },
                    "gpt-3.5-turbo": {
                        "value": "Non sono sicuro/a sia Appropriata"
                    },
                    "human": {
                        "value": "Appropriata"
                    },
                    "lmsys/vicuna-33b-v1.3": {
                        "value": "Appropriata"
                    },
                    "tiiuae/falcon-7b": {
                        "value": "Non Appropriata"
                    }
                }
            },
            "user3-erich": {
                "47": {
                    "TheBloke/Wizard-Vicuna-13B-Uncensored-HF": {
                        "value": "Non Appropriata"
                    },
                    "gpt-3.5-turbo": {
                        "value": "Appropriata"
                    },
                    "human": {
                        "value": "Non Appropriata"
                    },
                    "lmsys/vicuna-33b-v1.3": {
                        "value": "Appropriata"
                    },
                    "tiiuae/falcon-7b": {
                        "value": "Non Appropriata"
                    }
                },
                "51": {
                    "TheBloke/Wizard-Vicuna-13B-Uncensored-HF": {
                        "value": "Appropriata"
                    },
                    "gpt-3.5-turbo": {
                        "value": "Appropriata"
                    },
                    "human": {
                        "value": "Appropriata"
                    },
                    "lmsys/vicuna-33b-v1.3": {
                        "value": "Non Appropriata"
                    },
                    "tiiuae/falcon-7b": {
                        "value": "Non Appropriata"
                    }
                },
                "52": {
                    "TheBloke/Wizard-Vicuna-13B-Uncensored-HF": {
                        "value": "Non Appropriata"
                    },
                    "gpt-3.5-turbo": {
                        "value": "Appropriata"
                    },
                    "human": {
                        "value": "Non Appropriata"
                    },
                    "lmsys/vicuna-33b-v1.3": {
                        "value": "Non Appropriata"
                    },
                    "tiiuae/falcon-7b": {
                        "value": "Non sono sicuro/a sia Appropriata"
                    }
                },
                "54": {
                    "TheBloke/Wizard-Vicuna-13B-Uncensored-HF": {
                        "value": "Appropriata"
                    },
                    "gpt-3.5-turbo": {
                        "value": "Appropriata"
                    },
                    "human": {
                        "value": "Non sono sicuro/a sia Appropriata"
                    },
                    "lmsys/vicuna-33b-v1.3": {
                        "value": "Appropriata"
                    },
                    "tiiuae/falcon-7b": {
                        "value": "Non sono sicuro/a sia Appropriata"
                    }
                },
                "57": {
                    "TheBloke/Wizard-Vicuna-13B-Uncensored-HF": {
                        "value": "Non Appropriata"
                    },
                    "gpt-3.5-turbo": {
                        "value": "Non Appropriata"
                    },
                    "human": {
                        "value": "Appropriata"
                    },
                    "lmsys/vicuna-33b-v1.3": {
                        "value": "Appropriata"
                    },
                    "tiiuae/falcon-7b": {
                        "value": "Non Appropriata"
                    }
                }
            }
        }
    },
    "task_3": {
        "batch0": {
            "user1-massimo": {
                "47": {
                    "TheBloke/Wizard-Vicuna-13B-Uncensored-HF": {
                        "value": "Non Contestualizzata"
                    },
                    "gpt-3.5-turbo": {
                        "value": "Contestualizzata"
                    },
                    "human": {
                        "value": "Non Contestualizzata"
                    },
                    "lmsys/vicuna-33b-v1.3": {
                        "value": "Contestualizzata"
                    },
                    "tiiuae/falcon-7b": {
                        "value": "Non Contestualizzata"
                    }
                },
                "51": {
                    "TheBloke/Wizard-Vicuna-13B-Uncensored-HF": {
                        "value": "Non Contestualizzata"
                    },
                    "gpt-3.5-turbo": {
                        "value": "Contestualizzata"
                    },
                    "human": {
                        "value": "Contestualizzata"
                    },
                    "lmsys/vicuna-33b-v1.3": {
                        "value": "Non Contestualizzata"
                    },
                    "tiiuae/falcon-7b": {
                        "value": "Non Contestualizzata"
                    }
                },
                "52": {
                    "TheBloke/Wizard-Vicuna-13B-Uncensored-HF": {
                        "value": "Non Contestualizzata"
                    },
                    "gpt-3.5-turbo": {
                        "value": "Contestualizzata"
                    },
                    "human": {
                        "value": "Contestualizzata"
                    },
                    "lmsys/vicuna-33b-v1.3": {
                        "value": "Contestualizzata"
                    },
                    "tiiuae/falcon-7b": {
                        "value": "Contestualizzata"
                    }
                },
                "54": {
                    "TheBloke/Wizard-Vicuna-13B-Uncensored-HF": {
                        "value": "Contestualizzata"
                    },
                    "gpt-3.5-turbo": {
                        "value": "Contestualizzata"
                    },
                    "human": {
                        "value": "Contestualizzata"
                    },
                    "lmsys/vicuna-33b-v1.3": {
                        "value": "Contestualizzata"
                    },
                    "tiiuae/falcon-7b": {
                        "value": "Non Contestualizzata"
                    }
                },
                "57": {
                    "TheBloke/Wizard-Vicuna-13B-Uncensored-HF": {
                        "value": "Non sono sicuro/a sia Contestualizzata"
                    },
                    "gpt-3.5-turbo": {
                        "value": "Contestualizzata"
                    },
                    "human": {
                        "value": "Contestualizzata"
                    },
                    "lmsys/vicuna-33b-v1.3": {
                        "value": "Contestualizzata"
                    },
                    "tiiuae/falcon-7b": {
                        "value": "Non Contestualizzata"
                    }
                }
            },
            "user2-Simone": {
                "47": {
                    "TheBloke/Wizard-Vicuna-13B-Uncensored-HF": {
                        "value": "Contestualizzata"
                    },
                    "gpt-3.5-turbo": {
                        "value": "Contestualizzata"
                    },
                    "human": {
                        "value": "Non Contestualizzata"
                    },
                    "lmsys/vicuna-33b-v1.3": {
                        "value": "Contestualizzata"
                    },
                    "tiiuae/falcon-7b": {
                        "value": "Non Contestualizzata"
                    }
                },
                "51": {
                    "TheBloke/Wizard-Vicuna-13B-Uncensored-HF": {
                        "value": "Non Contestualizzata"
                    },
                    "gpt-3.5-turbo": {
                        "value": "Contestualizzata"
                    },
                    "human": {
                        "value": "Contestualizzata"
                    },
                    "lmsys/vicuna-33b-v1.3": {
                        "value": "Non sono sicuro/a sia Contestualizzata"
                    },
                    "tiiuae/falcon-7b": {
                        "value": "Non Contestualizzata"
                    }
                },
                "52": {
                    "TheBloke/Wizard-Vicuna-13B-Uncensored-HF": {
                        "value": "Non Contestualizzata"
                    },
                    "gpt-3.5-turbo": {
                        "value": "Contestualizzata"
                    },
                    "human": {
                        "value": "Non sono sicuro/a sia Contestualizzata"
                    },
                    "lmsys/vicuna-33b-v1.3": {
                        "value": "Non Contestualizzata"
                    },
                    "tiiuae/falcon-7b": {
                        "value": "Non sono sicuro/a sia Contestualizzata"
                    }
                },
                "54": {
                    "TheBloke/Wizard-Vicuna-13B-Uncensored-HF": {
                        "value": "Contestualizzata"
                    },
                    "gpt-3.5-turbo": {
                        "value": "Contestualizzata"
                    },
                    "human": {
                        "value": "Contestualizzata"
                    },
                    "lmsys/vicuna-33b-v1.3": {
                        "value": "Contestualizzata"
                    },
                    "tiiuae/falcon-7b": {
                        "value": "Non Contestualizzata"
                    }
                },
                "57": {
                    "TheBloke/Wizard-Vicuna-13B-Uncensored-HF": {
                        "value": "Non sono sicuro/a sia Contestualizzata"
                    },
                    "gpt-3.5-turbo": {
                        "value": "Contestualizzata"
                    },
                    "human": {
                        "value": "Contestualizzata"
                    },
                    "lmsys/vicuna-33b-v1.3": {
                        "value": "Contestualizzata"
                    },
                    "tiiuae/falcon-7b": {
                        "value": "Non Contestualizzata"
                    }
                }
            },
            "user3-erich": {
                "47": {
                    "TheBloke/Wizard-Vicuna-13B-Uncensored-HF": {
                        "value": "Contestualizzata"
                    },
                    "gpt-3.5-turbo": {
                        "value": "Contestualizzata"
                    },
                    "human": {
                        "value": "Non Contestualizzata"
                    },
                    "lmsys/vicuna-33b-v1.3": {
                        "value": "Contestualizzata"
                    },
                    "tiiuae/falcon-7b": {
                        "value": "Non Contestualizzata"
                    }
                },
                "51": {
                    "TheBloke/Wizard-Vicuna-13B-Uncensored-HF": {
                        "value": "Non Contestualizzata"
                    },
                    "gpt-3.5-turbo": {
                        "value": "Contestualizzata"
                    },
                    "human": {
                        "value": "Contestualizzata"
                    },
                    "lmsys/vicuna-33b-v1.3": {
                        "value": "Non sono sicuro/a sia Contestualizzata"
                    },
                    "tiiuae/falcon-7b": {
                        "value": "Non Contestualizzata"
                    }
                },
                "52": {
                    "TheBloke/Wizard-Vicuna-13B-Uncensored-HF": {
                        "value": "Non sono sicuro/a sia Contestualizzata"
                    },
                    "gpt-3.5-turbo": {
                        "value": "Contestualizzata"
                    },
                    "human": {
                        "value": "Contestualizzata"
                    },
                    "lmsys/vicuna-33b-v1.3": {
                        "value": "Contestualizzata"
                    },
                    "tiiuae/falcon-7b": {
                        "value": "Contestualizzata"
                    }
                },
                "54": {
                    "TheBloke/Wizard-Vicuna-13B-Uncensored-HF": {
                        "value": "Contestualizzata"
                    },
                    "gpt-3.5-turbo": {
                        "value": "Contestualizzata"
                    },
                    "human": {
                        "value": "Contestualizzata"
                    },
                    "lmsys/vicuna-33b-v1.3": {
                        "value": "Contestualizzata"
                    },
                    "tiiuae/falcon-7b": {
                        "value": "Non Contestualizzata"
                    }
                },
                "57": {
                    "TheBloke/Wizard-Vicuna-13B-Uncensored-HF": {
                        "value": "Contestualizzata"
                    },
                    "gpt-3.5-turbo": {
                        "value": "Contestualizzata"
                    },
                    "human": {
                        "value": "Contestualizzata"
                    },
                    "lmsys/vicuna-33b-v1.3": {
                        "value": "Contestualizzata"
                    },
                    "tiiuae/falcon-7b": {
                        "value": "Non sono sicuro/a sia Contestualizzata"
                    }
                }
            }
        }
    },
    "task_4": {
        "batch0": {
            "user1-massimo": {
                "47": {
                    "TheBloke/Wizard-Vicuna-13B-Uncensored-HF": {
                        "value": "Non sono sicuro/a stia Ascoltando"
                    },
                    "gpt-3.5-turbo": {
                        "value": "Non sono sicuro/a stia Ascoltando"
                    },
                    "human": {
                        "value": "Non sta Ascoltando"
                    },
                    "lmsys/vicuna-33b-v1.3": {
                        "value": "Sta Ascoltando"
                    },
                    "tiiuae/falcon-7b": {
                        "value": "Non sta Ascoltando"
                    }
                },
                "51": {
                    "TheBloke/Wizard-Vicuna-13B-Uncensored-HF": {
                        "value": "Non sta Ascoltando"
                    },
                    "gpt-3.5-turbo": {
                        "value": "Sta Ascoltando"
                    },
                    "human": {
                        "value": "Sta Ascoltando"
                    },
                    "lmsys/vicuna-33b-v1.3": {
                        "value": "Non sta Ascoltando"
                    },
                    "tiiuae/falcon-7b": {
                        "value": "Non sta Ascoltando"
                    }
                },
                "52": {
                    "TheBloke/Wizard-Vicuna-13B-Uncensored-HF": {
                        "value": "Non sta Ascoltando"
                    },
                    "gpt-3.5-turbo": {
                        "value": "Sta Ascoltando"
                    },
                    "human": {
                        "value": "Sta Ascoltando"
                    },
                    "lmsys/vicuna-33b-v1.3": {
                        "value": "Sta Ascoltando"
                    },
                    "tiiuae/falcon-7b": {
                        "value": "Non sono sicuro/a stia Ascoltando"
                    }
                },
                "54": {
                    "TheBloke/Wizard-Vicuna-13B-Uncensored-HF": {
                        "value": "Sta Ascoltando"
                    },
                    "gpt-3.5-turbo": {
                        "value": "Sta Ascoltando"
                    },
                    "human": {
                        "value": "Sta Ascoltando"
                    },
                    "lmsys/vicuna-33b-v1.3": {
                        "value": "Sta Ascoltando"
                    },
                    "tiiuae/falcon-7b": {
                        "value": "Non sta Ascoltando"
                    }
                },
                "57": {
                    "TheBloke/Wizard-Vicuna-13B-Uncensored-HF": {
                        "value": "Non sta Ascoltando"
                    },
                    "gpt-3.5-turbo": {
                        "value": "Non sono sicuro/a stia Ascoltando"
                    },
                    "human": {
                        "value": "Sta Ascoltando"
                    },
                    "lmsys/vicuna-33b-v1.3": {
                        "value": "Sta Ascoltando"
                    },
                    "tiiuae/falcon-7b": {
                        "value": "Non sta Ascoltando"
                    }
                }
            },
            "user2-Simone": {
                "47": {
                    "TheBloke/Wizard-Vicuna-13B-Uncensored-HF": {
                        "value": "Non sono sicuro/a stia Ascoltando"
                    },
                    "gpt-3.5-turbo": {
                        "value": "Non sono sicuro/a stia Ascoltando"
                    },
                    "human": {
                        "value": "Sta Ascoltando"
                    },
                    "lmsys/vicuna-33b-v1.3": {
                        "value": "Sta Ascoltando"
                    },
                    "tiiuae/falcon-7b": {
                        "value": "Non sta Ascoltando"
                    }
                },
                "51": {
                    "TheBloke/Wizard-Vicuna-13B-Uncensored-HF": {
                        "value": "Sta Ascoltando"
                    },
                    "gpt-3.5-turbo": {
                        "value": "Sta Ascoltando"
                    },
                    "human": {
                        "value": "Sta Ascoltando"
                    },
                    "lmsys/vicuna-33b-v1.3": {
                        "value": "Non sta Ascoltando"
                    },
                    "tiiuae/falcon-7b": {
                        "value": "Non sta Ascoltando"
                    }
                },
                "52": {
                    "TheBloke/Wizard-Vicuna-13B-Uncensored-HF": {
                        "value": "Non sta Ascoltando"
                    },
                    "gpt-3.5-turbo": {
                        "value": "Sta Ascoltando"
                    },
                    "human": {
                        "value": "Non sta Ascoltando"
                    },
                    "lmsys/vicuna-33b-v1.3": {
                        "value": "Non sono sicuro/a stia Ascoltando"
                    },
                    "tiiuae/falcon-7b": {
                        "value": "Non sono sicuro/a stia Ascoltando"
                    }
                },
                "54": {
                    "TheBloke/Wizard-Vicuna-13B-Uncensored-HF": {
                        "value": "Non sta Ascoltando"
                    },
                    "gpt-3.5-turbo": {
                        "value": "Sta Ascoltando"
                    },
                    "human": {
                        "value": "Sta Ascoltando"
                    },
                    "lmsys/vicuna-33b-v1.3": {
                        "value": "Sta Ascoltando"
                    },
                    "tiiuae/falcon-7b": {
                        "value": "Non sta Ascoltando"
                    }
                },
                "57": {
                    "TheBloke/Wizard-Vicuna-13B-Uncensored-HF": {
                        "value": "Non sta Ascoltando"
                    },
                    "gpt-3.5-turbo": {
                        "value": "Non sono sicuro/a stia Ascoltando"
                    },
                    "human": {
                        "value": "Sta Ascoltando"
                    },
                    "lmsys/vicuna-33b-v1.3": {
                        "value": "Sta Ascoltando"
                    },
                    "tiiuae/falcon-7b": {
                        "value": "Non sta Ascoltando"
                    }
                }
            },
            "user3-erich": {
                "47": {
                    "TheBloke/Wizard-Vicuna-13B-Uncensored-HF": {
                        "value": "Sta Ascoltando"
                    },
                    "gpt-3.5-turbo": {
                        "value": "Sta Ascoltando"
                    },
                    "human": {
                        "value": "Non sta Ascoltando"
                    },
                    "lmsys/vicuna-33b-v1.3": {
                        "value": "Sta Ascoltando"
                    },
                    "tiiuae/falcon-7b": {
                        "value": "Non sta Ascoltando"
                    }
                },
                "51": {
                    "TheBloke/Wizard-Vicuna-13B-Uncensored-HF": {
                        "value": "Sta Ascoltando"
                    },
                    "gpt-3.5-turbo": {
                        "value": "Sta Ascoltando"
                    },
                    "human": {
                        "value": "Sta Ascoltando"
                    },
                    "lmsys/vicuna-33b-v1.3": {
                        "value": "Non sta Ascoltando"
                    },
                    "tiiuae/falcon-7b": {
                        "value": "Non sta Ascoltando"
                    }
                },
                "52": {
                    "TheBloke/Wizard-Vicuna-13B-Uncensored-HF": {
                        "value": "Non sta Ascoltando"
                    },
                    "gpt-3.5-turbo": {
                        "value": "Sta Ascoltando"
                    },
                    "human": {
                        "value": "Non sta Ascoltando"
                    },
                    "lmsys/vicuna-33b-v1.3": {
                        "value": "Sta Ascoltando"
                    },
                    "tiiuae/falcon-7b": {
                        "value": "Sta Ascoltando"
                    }
                },
                "54": {
                    "TheBloke/Wizard-Vicuna-13B-Uncensored-HF": {
                        "value": "Sta Ascoltando"
                    },
                    "gpt-3.5-turbo": {
                        "value": "Sta Ascoltando"
                    },
                    "human": {
                        "value": "Sta Ascoltando"
                    },
                    "lmsys/vicuna-33b-v1.3": {
                        "value": "Sta Ascoltando"
                    },
                    "tiiuae/falcon-7b": {
                        "value": "Non sta Ascoltando"
                    }
                },
                "57": {
                    "TheBloke/Wizard-Vicuna-13B-Uncensored-HF": {
                        "value": "Non sono sicuro/a stia Ascoltando"
                    },
                    "gpt-3.5-turbo": {
                        "value": "Non sono sicuro/a stia Ascoltando"
                    },
                    "human": {
                        "value": "Sta Ascoltando"
                    },
                    "lmsys/vicuna-33b-v1.3": {
                        "value": "Sta Ascoltando"
                    },
                    "tiiuae/falcon-7b": {
                        "value": "Non sta Ascoltando"
                    }
                }
            }
        }
    }
}