[
    {
        "model_name": "tiiuae/falcon-7b",
        "results": [
            {
                "input": "Ciao tutto bene [VERDE](una giornata in pieno relax). ",
                "output": [
                    {
                        "generated_text": "\"Che tipo di relax? (Sei in vacanza? Sei in casa tua?)\"\n\n        Sei arrivato in fondo. Congratulazioni :).\n\nPer quanto riguarda i test di intelligenza (sul test di matita o di matita e pennarelli) puoi fare un'analisi del risultato e selezionarne alcuni per la narrazione, se vuoi usare i test come materiale per la narrazione. \n\nSe hai altri dubbi, chiedi pure! Grazie per la risposta, ma ho un'altra domanda per favore: \n\nNon sono un grande amante delle narrazioni, per\u00f2 mi sembra che sia una delle cose migliori per la narrazione, visto che puoi fare molte domande e in genere hai pi\u00f9 tempo per fare domande e per rispondere, e non \u00e8 che devi stare ore"
                    }
                ],
                "id": "0"
            },
            {
                "input": "Ciao, [VERDE](tutto bene) molto lavoro il questi ultimi giorni. ",
                "output": [
                    {
                        "generated_text": "'Sono stanco ma sono contento perch\u00e8 il mio capo \u00e8 stato molto contento del lavoro che mi ha assegnato. '\n\n## Scegli un'attivit\u00e0\n1. 'Scegli un'attivit\u00e0'\n\nScegli l'attivit\u00e0 con ```scegliAttivit\u00e0(scegliAttivit\u00e0)```\n\n### Attivit\u00e0 di 'Scegli'\n1. 'Scegli un'attivit\u00e0' 'Attivit\u00e0'\n\nScegli l'attivit\u00e0 con ```scegliAttivit\u00e0()```\n\n### Attivita' di 'Scegli'\n\n**Scegli un racconto**\n1. \"Scegli un racconto\"\n\nChiedi di scegliere un racconto con ```scegliRaccont```"
                    }
                ],
                "id": "1"
            },
            {
                "input": "[VERDE](Mi sento leggero). Sono in viaggio per andare a trovare mia figlia. ",
                "output": [
                    {
                        "generated_text": "'['ROSSO](Mio figlio \u00e8 a scuola. Mi piace molto andare ad aiutare a fare lezione.'\n                DOMANDA:\n             '['ROSSO](Non so cucinare e mia moglie non sa fare molte cose.')'\n\n                NARRATIVA: \"[VERDE](Oggi \u00e8 una bella giornata. Sono andato al lavoro, poi sono andato al cinema.')\"\n              DOMANDA:\n                \"Come hai fatto a passare la giornata?\"\n\n                \n                NARCISSI - I MIEI PI\u00d9 GRANDI PROBLEMI. \nI miei pi\u00f9 grandi problemi sono gli altri. Ho paura di perdere i miei cari.\nNon so pi\u00f9 come fare per rimanerci sereno.\nHo bisogno di qualcuno a cui appoggiarmi.\nHo paura.\nSono molto triste"
                    }
                ],
                "id": "2"
            },
            {
                "input": "Questa mattina ero a casa con mia figlia e [VERDE](sono molto rilassata). ",
                "output": [
                    {
                        "generated_text": "\"Bene, sono contento che ti sia rilassata. Hai fatto colazione a casa, vero?\"\n\n                NARRATIVA: \"[VERDE](Questa mattina sono andato al lavoro e poi sono andato in banca. Ho fatto la spesa. [ROSSO] Sono stato in una libreria a cercare un libro per mia moglie. [VERDE](Non lo so ancora, ma le ho dato un biglietto con il nome di un libro che le sarebbe piaciuto.\"\n                DOMANDA:\n                \"Wow, hai comprato un regalo per mia moglie. (Oggi \u00e8 stata una buona giornata). \"\n\n                NARRATIVA: \"[VERDE](Ho parlato a mia moglie di una casa che ho visto, ma lei non mi ha detto nulla"
                    }
                ],
                "id": "3"
            },
            {
                "input": "Ciao. [VERDE](Oggi giornata abbastanza tranquilla). Non si lavora ma si hanno faccende domestiche e giardinaggio. ",
                "output": [
                    {
                        "generated_text": "\"Oh che bello! \"\n\nIn questa fase il tuo algoritmo dev'essersi allenato con un sacco di domande su questo stesso racconto ed essere riuscito nel tempo a fare le domande giuste per ottenere maggiori informzioni su questo tipo di contenuti.\n\nAdesso, per esempio, dovresti fare una domanda su un altro racconto in modo da ottenere pi\u00f9 informazioni su eventi accaduti nel racconto.\n\nPer fare questa domanda devi creare un altro file di teste dove la prima testa \u00e8 la testa di un racconto in cui c'\u00e8 l'evento di cui vuoi sapere il nome e in cui la terza testa \u00e8 la testa della domanda, dove c'\u00e8 scritto che domande fare.\n\nDov"
                    }
                ],
                "id": "5"
            },
            {
                "input": "[ROSSO](Stamattina mia mamma mi ha mandato un messaggio perch\u00e9 era preoccupata per il mio pap\u00e0). ",
                "output": [
                    {
                        "generated_text": "\"Oh, mi dispiace sapere che tuo pap\u00e0 non sta bene. Ti ha detto se star\u00e0 meglio?\"\n\n                NARRATIVA: . '\n                DOMANDA : \"Oh non \u00e8 una bella storia. E' vero che la gente non si fida delle donne? Mi dispiace che tu debba passare attraverso tutto questo.\""
                    }
                ],
                "id": "6"
            },
            {
                "input": "Sono giorni che piove, [VERDE](ma va bene cos\u00ec)! ! [VERDE](Meno male che non era neve)! ! ",
                "output": [
                    {
                        "generated_text": "'Per caso hai visto qualche animale? '\n\n                NARRATIVA: \"[ROSSO](\"Ho fatto il solito giro di lavoro oggi, ma \u00e8 stato pi\u00f9 difficile che solitamente, perch\u00e9 era una giornata molto fredda!\")]\n                DOMANDA: \"Ti sei perso? [MAROON]('No')\"\n                DOMANDA:"
                    }
                ],
                "id": "4"
            },
            {
                "input": "Piove e nevica da giorni. Adesso c'\u00e8 anche il vento. Speriamo il tempo non faccia malanni. ",
                "output": [
                    {
                        "generated_text": "'Non \u00e8 una bella situazione. Che ne sai della temperatura attuale?'\n             'Non ho idea. Non \u00e8 che mi piaccia stare all'aperto in una situazione simile. '\n\n\"\"\""
                    }
                ],
                "id": "7"
            },
            {
                "input": "[ROSSO](Stasera a casa di mia madre ho sentito un grande senso di abbandono e di indifferenza). ",
                "output": [
                    {
                        "generated_text": "\"\"\"\n\ndef get_data_file():\n    try:\n        with open(\"data/data.txt\", \"r\") as file:\n            data = file.readlines()\n\n    except FileNotFoundError:\n        raise IOError(\"File 'data.txt' not found!\")\n\n    return data\n\ndef get_narratives_from_data(data):\n    \"\"\"\n    For a given data, extract the first n stories.\n    Return the list of titles (str) and their length (len)\n    \"\"\"\n    return [titles[i] for i in range(n)]\n\ndef get_narrative(data, titles, n):\n    \"\"\"\n    Get the n sentences from the n most interesting titles as\n    extracted in get_narratives_from_data()\n    \"\"\""
                    }
                ],
                "id": "8"
            },
            {
                "input": "Stavo parlando con una collega davanti ad un caff\u00e8, si parlava del Natale, del pranzo dei regali. ",
                "output": [
                    {
                        "generated_text": "\"Oh, mi piace molto il Natale! E tu, come lo passi con la tua famiglia?\"\n                DOMANDA: \"Mi piacerebbe passarlo con i miei genitori (e i miei figli), mi mancano tantissimo. \"\n                DOMANDA: \"Ah ok. \"\n\n                DOMANDA: \"Come mai non sei con la tua famiglia?\"\n                DOMANDA: \"Capito... (risatina)... ma io ti ho chiesto di venire a trovarmi, perch\u00e9 mi hai detto di volermi vedere. \"\n                DOMANDA: \"Ah, s\u00ec, scusa. Non ci avevo pensato, veramente...\"\n\n                DOMANDA: \"Ok, non ti voglio pi\u00f9 vedere. \"\n                DOMANDA"
                    }
                ],
                "id": "9"
            },
            {
                "input": "[VERDE](Sono soddisfatta). [VERDE](Il mio corso di inglese sta procedendo bene). Riuscire a studiare una lingua straniera porta [VERDE](soddisfazione)",
                "output": [
                    {
                        "generated_text": "\"\"\"\n        self.narrative_list.append(self.text)\n\n\n\n    def generate_question(self):\n        \"\"\"\n        Funzione che genera una domanda basandosi su informazioni contenute nella narrazione, selezionata al caso, e il suo tipo : 'domanda' o 'domanda_contro'.\n\n        Selezionato al caso perch\u00e9 se la narrazione viene scelto al caso (per esempio, se \u00e8 una narrativa di un racconto) la domanda deve corrispondere al tema della narrazione.\n\n        Inoltre, se la narrazione \u00e8 un 'domanda' la domanda deve essere di tipo 'domanda'.\n        In caso contrario la domanda sar\u00e0 sempre di tipo 'domanda"
                    }
                ],
                "id": "10"
            },
            {
                "input": "Ciao, ho ricevuto un messaggio da quello che a breve diventer\u00e0 il mio ex socio e [ROSSO](ho provato nausea). ",
                "output": [
                    {
                        "generated_text": "\"Oh, mi dispiace che ti sia successo. Ti va di parlarne un po'?\"\n\n                NARRATIVA: \"[VERDE] Ho deciso di comprare una nuova macchina. La mia vecchia auto si \u00e8 rotta qualche giorno fa. [ROSSO] Mi chiedo se questa macchina sia davvero quella adatta a me...\"\n                DOMANDA: \"Oh, mi dispiace che la tua vecchia auto si sia rotta. Cosa ti fa credere che questa nuova macchina non sar\u00e0 quella giusta per te?\"\n\n                \n                \n\n                \n                DOMANDA: \"Che cos'\u00e8 che ha detto il tuo amante? \"\n                NARRATIVA: \"[VERDE](Mia moglie ha detto che non \u00e8 stato facile per lei"
                    }
                ],
                "id": "11"
            },
            {
                "input": "[ROSSO](Sono arrabbiato) perch\u00e9 la mia macchina mi ha lasciato a piedi e devo rientrare a Roma con il treno. ",
                "output": [
                    {
                        "generated_text": "'[VERDE](Oh! Mi dispiace. Sei sicuro di dovesse rientrare a piedi? Forse c'\u00e8 qualcuno che pu\u00f2 passarti a prendere con la macchina e poi ti portare a Roma con il treno?')'"
                    }
                ],
                "id": "12"
            },
            {
                "input": "[ROSSO](Mi sono trovata con l'acqua alla gola). Ho pensato che non ce l'avrei fatta. Mercoled\u00ec in macchina penso a come organizzarmi. ",
                "output": [
                    {
                        "generated_text": "\"Dove avete incontrato questa difficolt\u00e0?\"\n                NARRATIVA: \"[VERDE](Oggi \u00e8 una bella giornata. Mi sono alzato presto e sono andato al cinema.)\"\n                DOMANDA: \"Siete andato al cinema?\"\n\n                NARRATIVA: \"[ROSSO](Mi sono sentita molto triste quando sono arrivata al mio primo giorno di universit\u00e0. )\"\n                DOMANDA: \"Mi dispiace, ma che cos'\u00e8 successo?\"\n                NARRATIVA: \"(Ho fatto un brutto sogno, sono stato sveglio tutto la notte. ) \"\n                DOMANDA: \"Che brutto sogno avete fatto?\"\n\n                NARRAT"
                    }
                ],
                "id": "13"
            },
            {
                "input": "Voglio chiamare una persona, [ROSSO](ma poi non lo faccio perch\u00e9 ho paura di ricevere un rifiuto o non sapere cosa dire). ",
                "output": [
                    {
                        "generated_text": "'Bene! E' bello sapere questo, ora posso darti alcune informazioni su di te che potrebbero aiutarci a capire meglio come ti senti riguardo a questo. Tu hai paura di essere rifiutato, \u00e8 cos\u00ec?\"\n                DOMANDA:\n             'Sei preoccupato per qualcosa di preciso?\"\n                DOMANDA:\n                'Certo che s\u00ec. Sei preoccupato di fare brutta impressione. Sei preoccupato di fare brutta figura con la persona che stai per chiamare. Sei preoccupato di essere rifiutato.' (Fine di un racconto)\n\n##### 2.2. La risposta\n\nDopo aver ottenuto la risposta dal modello, l'aiuto viene inviato a un'applicazione"
                    }
                ],
                "id": "14"
            },
            {
                "input": "Ciao! [ROSSO](Che fastidio i colleghi che vogliono metterti ansia). Ho immaginato una bambina petulante per il suo tentativo di ledere la mia tranquillit\u00e0. ",
                "output": [
                    {
                        "generated_text": "\"Come ti senti oggi?\"\n\n                NARRATIVA: \"[ROSSO](Ho visto mio figlio che si rotolava nel fango, mi sono innervato ma l'ho tenuto fermo mentre mi puliva il suo viso e gli ho detto che doveva stare attento alla prossima volta.)\"\n                DOMANDA: \"Sono felice che tu lo abbia tenuto fermo. Ti ha chiesto di ripulirgli la faccia per bene?\"\n\n                NARRATIVA: \"([VERDE](Oggi sono andato al mare con un gruppo di amici. Eravamo felici di passare insieme una giornata piacevole. Mi chiedo se mi stiano bene i miei jeans"
                    }
                ],
                "id": "15"
            },
            {
                "input": "[ROSSO](Il venerd\u00ec sera \u00e8 sempre angosciante), [ROSSO](perch\u00e9 stanca), faccio il conto delle cose fatte e da fare, e quelle da fare mi sembrano insormontabili. ",
                "output": [
                    {
                        "generated_text": "'[VERDE](Come sei arrivata alla conclusione che sei insoddisfatta del vostro matrimonio?)'\n\n## 5.2-1-1-3 - Scoprire l'intenzione della narrazione\n\n![5.2-1-1-3](5.2-1-1-3.jpg)\n\nNARRATIVA:[VERDE](Ho appena scoperto che il mio fidanzato mi ha tradita. Io e lui abbiamo appena iniziato a stare insieme e io credevo di aver trovato l'anima gemella. Sono molto ferita. Io ho sempre avuto delle amiche fidatissime, che sono state le mie testimoni di"
                    }
                ],
                "id": "55"
            },
            {
                "input": "[VERDE](Oggi sono molto pi\u00f9 tranquilla) . . . [VERDE](fine settimana gratificante in famiglia). Era il mio compleanno e finalmente avevo tutta la mia famiglia riunita. ",
                "output": [
                    {
                        "generated_text": "\"Che bello sapere che \u00e8 andata cos\u00ec bene per te. Come si chiama la tua famiglia?\"\n\n                \n                NARRATIVA: \n\n                 [VERDE](Oggi \u00e8 una bella giornata. Ho pattinato sul ghiaccio e poi sono andato al cinema. )\n                \n                DOMANDA: \"Che bello sentire che \u00e8 andata molto bene per te. Dove sei stato a pattinare?\"\n\n                DOMANDA: \"Che bello sapere che \u00e8 andato tutto per il meglio per te. Com'\u00e8 il tuo compleanno?\"\n\n                NARRATIVA: \"[VERDE]( Oggi sono veramente felice. [VERDE](fine settimana gratificANTE in famiglia). Era"
                    }
                ],
                "id": "16"
            },
            {
                "input": "[VERDE](Dopo oltre 7 mesi stasera ho potuto rivedere la zia di 94 anni). [VERDE](Ho pensato al mio primo bambolotto che mi ha regalato proprio lei). ",
                "output": [
                    {
                        "generated_text": "[ROSSO](Dove hai fatto le tue passeggiate?' )\n                DOMANDA:\n            '[VERDE](Passeggiate in piazza') [ROSSO](Dove sei stato prima? ) [VERDE](Piazza della repubblica) [ROSSO](Perch\u00e9 non mi hai detto niente?' )\n              DOMANDA:\n            '[VERDE](Spero che non ti sia successo niente') [ROSSO](Non mi hai detto niente? Perch\u00e9? )\n              DOMANDA: \"Mi spiace se non ti ho detto niente. Non volevo che ti preoccupassi. Sono felice"
                    }
                ],
                "id": "17"
            },
            {
                "input": "[ROSSO](Mi \u00e8 dispiaciuto stamattina non aver avuto pazienza con mio padre). Mi sono resa conto che \u00e8 davvero difficile, ma ripensandoci dopo, magari invece avrei potuto riuscirci. ",
                "output": [
                    {
                        "generated_text": "'[VERDE](Mi sono chiesto se ho fatto bene a non essere riuscita a mantenere la calma. Mi \u00e8 venuto in mente che forse ho sbagliato io.)'\n\nLa cosa interessante \u00e8 la variabile *verde* che \u00e8 un colore associato al bene. Se non hai la risposta al *verde* puoi scegliere di andare a indagine sulla variabile *rossa*.\n\nIn questo modo puoi ottenere un racconto completo di informazioni su quello che hai chiesto. Ho letto il tuo commento (e ho letto anche la narrativa) ma la parte in cui parli del mio progetto non \u00e8 chiara. Se puoi chiarirmi la situazione"
                    }
                ],
                "id": "18"
            },
            {
                "input": "[ROSSO](Perch\u00e9 alcuni colleghi amano criticare tutto e tutti?) A lavoro stamattina ho immaginato una bambina sciocca. [ROSSO](Provo antipatia verso quella collega). Non ho fatto nulla. Mi sono solo allontanata. ",
                "output": [
                    {
                        "generated_text": "'[VERDE](Come ti sentivi?'\n                DOMANDA:\n             '[ROSSO](Non mi \u00e8 piaciuta per niente.')\n\n\n\n\n\nSei una A.I."
                    }
                ],
                "id": "19"
            },
            {
                "input": "Ritornata dal lavoro [ROSSO](mia figlia mi dice di aver chiamato il medico perch\u00e9 ha dei dolori alla testa non ha il senso dell'olfatto e del gusto) [ROSSO](per cui ci siamo un po' allarmati). ",
                "output": [
                    {
                        "generated_text": "\"Mi chiedo se ci sia un qualche collegamento.\"\n\n# 2. **AI**\n\nL'AI che ho utilizzato sono [RASA](https://www.rasa.com/), un framework per costruire una **chatbot** basato sull'apprendimento **naturale** e su **linguaggi di programmazione** `Python`, `JavaScript` e `C++` che \u00e8 **completamente libero e Open Source**. \n\nIl mio intento era di **creare** uno script che **interagisse** con **RASA** attraverso `REST API"
                    }
                ],
                "id": "20"
            },
            {
                "input": "Ciao, [ROSSO](un altro attacco di panico, adesso sto meglio). Stavo in macchina in autostrada, pensavo sempre a mio figlio che doveva uscire nel pomeriggio, [ROSSO](questo \u00e8 il motivo che mi ha scatenato l' ansia). ",
                "output": [
                    {
                        "generated_text": "'Che tipo di auto conduceva, un'auto nuova o vecchia?'\"\n\n        QUESTIONA LA MENTE:\n        Q1: In che modo la narrativa pu\u00f2 aiutare un AI a ottenere pi\u00f9 informazioni?\n        Q2: Cosa \u00e8 una domanda intelligente?\n        Q3: Quale tipo di domanda potrebbe essere usata in una situazione come quella descritta sopra?"
                    }
                ],
                "id": "21"
            },
            {
                "input": "A casa mia, seduta sul divano, ho provato uno degli esercizi. [VERDE](Mi piace). Penso che sia importante farlo tutti i giorni per avvertirne i benefici. Ho immaginato miei polmoni che si riempivano d' aria. ",
                "output": [
                    {
                        "generated_text": "\"\"\"\n\nfrom random import randint\n\nclass Question(object):\n    def __str__(self):\n        return self.sentence\n\nclass Answer(object):\n    def __init__(self, sentence):\n        self.text = sentence\n        self.value = randint(1, 10)\n\n    # getter e setter\n    def get_text(self):\n        return self.text\n    def get_value(self):\n        return self.value\n\ndef main():\n    q1 = Question(\"Sono una nuova AI che deve fare una domanda su un racconto in maniera tale da ottenere pi\u00f9 informazioni sulla storia. A seguire sono"
                    }
                ],
                "id": "22"
            },
            {
                "input": "Stamattina sono andato al lavoro [ROSSO](e ho dimenticato a casa il mio computer). Ero appena arrivato in ufficio, [ROSSO](avevo bisogno del computer per cominciare a lavorare e me ne sono reso conto in quel momento). ",
                "output": [
                    {
                        "generated_text": "\"Oh s\u00ec? E dove \u00e8 che avete pattinato?\"\n                DOMANDA: \"Oh, mi spiace molto per il lavoro. Eravate in ritardo di molto?\"\n\n                NARRATIVA: \"[ROSSO](Ieri sera ho fatto le ore piccole per terminare la presentazione che devo fare al mio capo domani mattina.)\"]\n                 DOMANDA: \"Oh, mi spiace. Che cos'\u00e8 che devi far vedere il tuo capo?\"\n\n               DOMANDA: \"Oh, mi spiace molto. E poi, che cosa devo fare per aiutarti?\"\n\n\n                 DOMAN"
                    }
                ],
                "id": "23"
            },
            {
                "input": "Sto provando ad addormentarmi, [ROSSO](ma pensiero di domattina mi mette a disagio). Ripenso alla routine che mi aspetta domattina [ROSSO](e non ne sono molto entusiasta). [VERDE](Ho immaginato un panorama boschivo ed un ruscello). [VERDE](Cercando di rilassarmi pi\u00f9 possibile). ",
                "output": [
                    {
                        "generated_text": "\"\"\""
                    }
                ],
                "id": "24"
            },
            {
                "input": "Stamattina [ROSSO](uno dei figli ha fatto un piccolo incidente), bucando una gomma. Ero a casa.[ROSSO]( Questa notizia mi ha creato agitazione), per organizzare la risoluzione del problema, senza ritardare l'arrivo in ufficio, in cui era programmato un incontro importante. ",
                "output": [
                    {
                        "generated_text": "[VINICOLA](Dobbiamo parlare della nostra conversazione di ieri sera, in cui mi hai detto che non credevi che sarei riuscita a fare una domanda in modo che tu mi dicesse qualcosa di utile sul conto di tua sorella. Ho seguito i tuoi consigli. Iniziano qui.\n                 DOMANDA: \"Come mai la tua sorella \u00e8 in ritardo al lavoro?\"\n                 DOMANDA: \"Qual \u00e8 il suo cognome di battesimo?\"\n                 DOMANDA: \"Qual e il suo nome in codice"
                    }
                ],
                "id": "25"
            },
            {
                "input": "Domenica nel mio giardino, occupandomi dei miei fiori [VERDE](ho sentito una sensazione piacevole data dal profumo delle viole e dal sole che leggero accarezzava la pelle). [VERDE](Sarebbe bello poter avere un profumo simile a quello delle viole o dell' iris). ",
                "output": [
                    {
                        "generated_text": "\"Che bellezza la vostra casa. Ho letto da qualche parte che la rosa \u00e8 considerata il re dei fiori! Vi piacerebbe possedere una rosa vera?\"\n\n                NARRATIVA: \"Ho litigato per l'ennesima volta con il mio amico. Mi sono sentito triste per tutta la giornata e non so che fare. Mi sento molto solo. [ROSSO](Mi dispiace. Non sono molto bravo con queste cose, ma posso provare a farti compagnia. [VERDE](Grazie. Ti ringrazio molto, sei un am"
                    }
                ],
                "id": "27"
            },
            {
                "input": "Oggi mi sono dedicata al giardino e all'orto. Sono stanchissima fisicamente ma rilassata mentalmente. Fuori in giardino ho fatto tutte le cose che prima faceva mio marito. Ho sentito quasi fisicamente la sua presenza [VERDE](e la cosa mi ha rilassato). ",
                "output": [
                    {
                        "generated_text": "\"Che tipo di cose ha fatto? E' un giardinaggio o qualcosa di pi\u00f9?\"\n                NARRATIVA: \"[VERDE](Sono andata al parco con le bambine e abbiamo mangiato gelati. Sono andata al parco con le bambine, ma sono stata io a scegliere cosa mangiare.)\n                DOMAINA: \"[VERDE](Ho fatto un sacco di cose con le bambine. E' stata una giornata molto piacevole. [ROSSO](Ero un po' nervoso a causa di mia moglie che ha iniziato la gravidanza -"
                    }
                ],
                "id": "28"
            },
            {
                "input": "[ROSSO](Questo fatto dell'interruzione della relazione di mia figlia con il suo ragazzo mi sta davvero creando ansia). Continuo a pensare a quello che era e a quello che sar\u00e0. [ROSSO](Non posso parlarne perch\u00e9 mi viene un groppo alla gola e da piangere). ",
                "output": [
                    {
                        "generated_text": "\"Mi dispiace molto sentire che sei turbato per questa situazione. Hai parlato con tua figlia di questa situazione?\"\n             \"S\u00ec, le ho parlato. [ROSSO](Ho detto a mia figlia che se vuole il suo ragazzo, che sia lei. Ho detto che non posso pi\u00f9 aiutarla a pagare il mutuo del ragazzo) \"\n             \"Capisco. Mi dispiace che tu stia vivendo una situazione del genere. Mi \u00e8 venuto in mente che forse potresti chiederle di pagare il mutuo. \"\n             \"Ho anche pensato"
                    }
                ],
                "id": "29"
            },
            {
                "input": "C'\u00e8 un po' di confusione in testa. Lo Smart working aiuta a sentire meno pesante il lavoro che non sopporto pi\u00f9. [ROSSO](Ma quando come oggi e domani occorre andare in ufficio \u00e8 molto faticoso). N[ROSSO](on mi piace pi\u00f9), non sopporto pi\u00f9 nessuno. ",
                "output": [
                    {
                        "generated_text": "\"C'\u00e8 un po' di confusione in testa. Lo Smart working aiuta a sentire meno pesante il lavoro che non sopporto pi\u00f9. Ma quando come oggi e domani occorre andare in ufficio \u00e8 molto faticoso. Non mi piace pi\u00f9 e non sopporto pi\u00f9 nessuno. \"\n\"\"\"\n\n    print()\n    print(\"\"\"Sei una AI che deve fare una domanda su una pagina in maniera tale da ottenere pi\u00f9 informazioni. A segue degli esempi e successivamente una narrazione nella quale dovrai fare una domanda in modo da ottenere"
                    }
                ],
                "id": "48"
            },
            {
                "input": "[ROSSO](Stamattina mia mamma mi ha mandato un messaggio perch\u00e9 era preoccupata per il mio pap\u00e0). Andava da solo a farsi esami del sangue[ROSSO]( e aveva paura che potesse avere un incidente con la macchina) perch\u00e9 ultimamente guida poco e non \u00e8 pi\u00f9 abituato. ",
                "output": [
                    {
                        "generated_text": "'[VERDE](Mi dispiace per tuo pap\u00e0, spero che sia guarito e che si riprenda presto).'\n\n                NARRATIVA: \"[VERDE](Sono andato in giro per negozi per tutto il giorno. Alla fine non ho trovato il regalo giusto per mio pap\u00e0.)\"\n                DOMANDA: '[VERDE](Che cosa gli avresti regalato se l'avessi trovato?)'\n                DOMANDA: '[ROSSO](Una cosa speciale, magari un oroscopoo o qualcosa di simbolico. Non mi sono"
                    }
                ],
                "id": "30"
            },
            {
                "input": "Lavoro, nessun contrasto personale, [ROSSO](ma la routine ammazza)! ! ! [ROSSO](\u00c8 una noia mortale dover rifare sempre le stesse cose) soprattutto se il supporto della tecnologia viene meno . . . [ROSSO](Ieri internet non andava e il lavoro di un' ora \u00e8 andato perso). ",
                "output": [
                    {
                        "generated_text": "\"Perch\u00e9 hai perso il lavoro per il guasto dell'internet??\" \n             \"Perch\u00e9 non c'era nessun altro supporto, nessuno che mi potesse dare una mano!!\"\n            \" [VERDE](Per caso hai mai pensato di creare qualcosa che ti aiuti nelle cose quotidiane?\"\n             \"S\u00ec, mi piacerebbe, ma non mi sono mai interessato di queste cose!\"\n\n              \"Forse potrebbe interessarti il progetto di mia moglie, lei si intende di queste cose"
                    }
                ],
                "id": "26"
            },
            {
                "input": "[ROSSO](Discusso con la nipote di mio marito) [ROSSO](a causa del suo comportamento di poco rispetto in merito al lavoro). Ero al negozio. \u00c8 accaduto circa una settimana fa. [ROSSO](La volevo mandare via subito). [ROSSO](Ho girato le spalle e me ne sono andata). [ROSSO](Non le ho rivolto la parola per tutta la giornata). ",
                "output": [
                    {
                        "generated_text": "\"Dove hai visto la nipote di tuo marito e qual era il problema con lei?\"\n\n                NARRATIVA: \"[ORO](Oggi mi sono divertito, ho giocato a football. Mi hanno invitato dei miei amici.)\"\n                DOMANDA: \"Mi piacerebbe sapere di pi\u00f9 sulla gara di calcio. Dove sono stati giocati gli incontri?\"\n\n                NARRATIVA: \"[VERDE](O"
                    }
                ],
                "id": "31"
            },
            {
                "input": "[VERDE](Oggi giornata abbastanza tranquilla), [VERDE](mi sono presa un pomeriggio di libert\u00e0) perch\u00e9 non essendo ci pi\u00f9 i limiti per andare da un comune in un altro, sono andata in un comune limitrofo. [VERDE](Sono andata in libreria), [VERDE](il luogo per me ideale e di pace), [VERDE](ho mangiato un gelato, ho visto due vetrine), [VERDE](insomma rilassante). ",
                "output": [
                    {
                        "generated_text": "\"Sei andata al cinema, vero?\"\n                DOMANDA: \"\"S\u00ec. Sono andata al cinema. (Racconta la trama)\"\n\n                NARRATIVA: \"[VERDE](Ho passato una bella serata a casa con mia nonna e mia madre :)\"\n                 DOMANDA: \"Che film hai visto a casa?\"\n                  NARRATIVA: \"[RO"
                    }
                ],
                "id": "34"
            },
            {
                "input": "[ROSSO](Ieri sera ho distrutto il cellulare). [ROSSO](Ieri sera verso mezzanotte mi \u00e8 caduto per terra e si \u00e8 distrutto il vetro). [ROSSO](Inutilizzabile) . . Non \u00e8 possibile. Non ci credo. Mi sembrava veramente impossibile che fosse successo. Non ho realizzato subito l'impatto che avrebbe avuto. Mi sono messa subito a cercare di rimediare il rimediabile. ",
                "output": [
                    {
                        "generated_text": "\"Mi dispiace, non avrei dovuto chiedertelo. Non \u00e8 che non ci sia rimasto qualcosa che potrebbe tornare utile. Ti spiace se domani passo da te per vedere se riesco a ripararlo?\"\n\n                NARRATIVA: \"['ROSSO](Ieri sera sono andato a fare una passeggiata con le amiche. [ROSSO](Sono andato a fare una passeggi"
                    }
                ],
                "id": "32"
            },
            {
                "input": "Oggi a lavoro mi hanno fatto capire che probabilmente il nuovo responsabile (che non sar\u00f2 io) sar\u00e0 una persona che non \u00e8 portata per questo lavoro. Ho pensato che per quel che mi riguardava io avrei fatto d\u2018ora in avanti il mio e non pi\u00f9 di quanto richiesto dal mio ruolo. [ROSSO](Mi veniva da piangere). ",
                "output": [
                    {
                        "generated_text": "\"Cosa intendi fare?\"\n\n                NARRATIVA:  'Oggi ho fatto una cosa che non pensavo avrei potuto fare. Ho parlato con il mio capo e abbiamo discusso della nostra situazione. Mi ha detto che mi vuole bene e che mi aiuter\u00e0 a superare questa cosa. Ha detto che se mi serve qualcosa di pi\u00f9 posso sempre chiamarle, ma mi ha chiesto di non parlarne con gli altri. [ROSSO](Mi ha fatto piacere sentire che posso fare affidamento su di lui/di lei)."
                    }
                ],
                "id": "33"
            },
            {
                "input": "Oggi mattina intensa di pulizie e igienizzazione in taverna per permettere ai miei genitori di venire a pranzo. Niente in particolare. Come al solito ero in ritardo. Ho fatto le cose velocemente senza pensarci particolarmente su. Obiettivo il risultato. Devo fare le cose e le devo fare bene. [ROSSO](Ne va della salute dei miei genitori). ",
                "output": [
                    {
                        "generated_text": "\"Sei in ritardo al lavoro e per di pi\u00f9 non hai pulito la locanda come al solito.\"\n\n## Aula 3:\n\n* [Aula 3: Sintetizzare e descrivere un film]()\n* [Aula 3: Sintetizzare e descrivere una serie]()\n\n## Aula 4:\n\n* [Aula 4: Sintetizzare e descrivere un episodio di una serie televisiva]()\n*"
                    }
                ],
                "id": "35"
            },
            {
                "input": "Sempre ieri sera a cena, alle 21 rientra l'altra mia figlia che non aspettavo. Mi aveva detto che dopo il corso all'universit\u00e0 sarebbe andata dal fidanzato. Io ho pensato che sarebbe rimasta a cena da lui essendo la sera da lui. La cena per lei non l'avevo preparata. Nel frigo c'era del prosciutto e ha mangiato quello. ",
                "output": [
                    {
                        "generated_text": "'Siete andati a cena da loro?' \n                DOMANDA:\n             'E cosa \u00e8 successo dopo?' \n               (La risposta non ha senso. La madre ha risposto che il figlio era tornato a casa alle 1 del mattino. La madre non ha capito bene cosa \u00e8 successo. Non ha capito se \u00e8 tornato per cena o se \u00e8 andato a dormire. )\n               DOMANDA:\n             'Siete andati a cena da loro?'\n                DOMAINE:\n                 - N"
                    }
                ],
                "id": "36"
            },
            {
                "input": "[ROSSO](Ho avuto una discussione con Martina), rispetto al metodo di insegnamento messo in atto dai professori per la didattica a distanza. Sinceramente io mi fido di come Martina fa fare alla nostra piccola Chiara, [ROSSO](ma non trovo la stessa fiducia da parte sua). [ROSSO](Farle notare la cosa, ci porta a discutere). [ROSSO](Ma io approvo il confronto, evitando lo scontro). Specie davanti alle bimbe. ",
                "output": [
                    {
                        "generated_text": "\"Sei contento di aver parlato con Martina?\"\n\n                NARRATIVA: \"[VERDE](Oggi \u00e8 stata una bella giornata. Mi sono messo un po' di musica nella macchina, [ROSSO](per farmi compagnia, mentre andavo a fare la spesa.)\"\n                DOMAINE: \"S"
                    }
                ],
                "id": "39"
            },
            {
                "input": "Anche oggi ho lavorato da sola, [VERDE](in una giornata relativamente tranquilla), [VERDE](mi sento un po' cattiva ma, devo dire che sono stata molto bene). Durante il giorno, [VERDE](sono stata molto efficiente, e ho utilizzato il tempo). La condivisione \u00e8 molto utile nel lavoro ma faticosa anche se di trovano colleghe positive . . . S\u00ec nel breve periodo \u00e8 pi\u00f9 rilassante e forse pi\u00f9 soddisfacente. ",
                "output": [
                    {
                        "generated_text": "\"Come avete organizzato le vostre giornate lavorative? (Siete state insieme o da sole?)\"\n             (Siete state insieme o da sole?)\"\n\n\n                DOMANDA: \"Come si \u00e8 svolta la vostra riunione di oggi? (Siete stati tutti insieme o da soli?)\"\n                DOMANDA: \"Quali aspetti della"
                    }
                ],
                "id": "37"
            },
            {
                "input": "[ROSSO](Forte discussione familiare in cui non ho preso le parti di mio figlio) [VERDE](ma l'ho difeso nei confronti del suo babbo) . . . Non sono stata assertiva . . . Ho avuto una tipologia di comunicazione e sicuramente alterata [VERDE](ma sono stata contenta perch\u00e9 ho sentito di essere intervenuta prima che il babbo mortificasse inutilmente il figlio) . . Questo non lo devo permettete. . ",
                "output": [
                    {
                        "generated_text": "'[VERDE](Che ne pensi dei film di Marvel?\" - [ROSSO](Io preferisco gli altri, quelli di DC Comics.)\n\n                NARRATIVA: \"[ROSSO](Ho litigato per un problema finanziario con la mia ragazza.)\" - \"[VERDE](Non avete un piano per il finanziamento? - [ROSSO"
                    }
                ],
                "id": "38"
            },
            {
                "input": "[VERDE](Questi pochi giorni di ferie stanno passando nella maniera pi\u00f9 leggera possibile). [VERDE](Stiamo passando questi giorni in famiglia giocando alla play station oppure guardando serie televisive come se non ci fosse un domani). [VERDE](Facciamo pranzo e cena con i nonni che ci evitano, come famiglia, di avere anche la \"preoccupazione\" di cucinare). [ROSSO](Ho pensato che domani ricomincer\u00f2 la solita routine), pensando che dopo tre giorni riport\u00f2 nuovamente. ",
                "output": [
                    {
                        "generated_text": "'[ROSSO](Ho pensato che domani ricomincer\u00f2 la solita routine), pensando che dopo tre giorni riport\u00f2 nuovamente. '\n\n                NARRATIVA: \"[VERDE](Oggi sono andato a correre e stamattina ho fatto le prove di un nuovo programma televisivo"
                    }
                ],
                "id": "40"
            },
            {
                "input": "Oggi niente mal di testa. Un freddo cane! Sono stata molto in casa. [ROSSO](Nulla di eclatante in questa grigia giornata invernale). Ieri ero in montagna. [VERDE](Sono stata proprio bene)! [ROSSO](Solo un po' di tensione nel viaggio di ritorno). [ROSSO](C'era molta neve e la strada principale chiusa per frane). Forse sarebbe stato meglio rimanere a casa [VERDE](ma infondo era stata una bella giornata e ne era valsa la pena). ",
                "output": [
                    {
                        "generated_text": "\"Che bel racconto, sono contenta di sapere che ti sei divertita! Come avete raggiunto la montagna?\"\n\n                NARRATIVA: \"[VERDE](Ho fatto un viaggio in macchina e ho dormito all'Albergo.)\"\n                DOMANDA: \"Come siete andati via?"
                    }
                ],
                "id": "41"
            },
            {
                "input": "La preoccupazione per il benessere psicologico di mia figlia, [ROSSO](quella che si \u00e8 lasciata dopo 10 anni con il fidanzato e che alterna momenti di sconforto, sensi di colpa a momenti di tristezza) [ROSSO](mi dispiace tanto e mi sento incapace di poterla confortare anche se parliamo tanto). [ROSSO](Insomma giornate un po' grigie). Non so se il sonno disturbato e qualche episodio di insonnia siano causati da questa confusione. ",
                "output": [
                    {
                        "generated_text": "'Sospetto di non essere in grado di aiutarla, mi dispiace molto. [ROSSO]'.\n                DOMANDA: 'Non so se il sonno disturbato e qualche episodio di insonnia siano causati da questa confusione. [ROSSO](S"
                    }
                ],
                "id": "43"
            },
            {
                "input": "C'\u00e8 un po' di confusione in testa. Lo Smart working aiuta a sentire meno pesante il lavoro che non sopporto pi\u00f9. [ROSSO](Ma quando come oggi e domani occorre andare in ufficio \u00e8 molto faticoso). N[ROSSO](on mi piace pi\u00f9), [ROSSO](non sopporto pi\u00f9 nessuno). [ROSSO](Stamattina poi sono arrivata e ho trovato la mia postazione tutta in disordine) [ROSSO](perch\u00e9 utilizzata da un altro collega, cialtrone, uno che pensa solo a se'). ",
                "output": [
                    {
                        "generated_text": "\"Come si pu\u00f2 vedere nella domanda precedente, l'A.I. \u00e8 in grado di fare la domanda correttamente, ma non sa rispondere con una frase sintetica o una frase complessa. Per\u00f2 \u00e8 in grado di rispondere correttamente a dom"
                    }
                ],
                "id": "49"
            },
            {
                "input": "Non riesco a dormire, ho un pensiero fisso di un conto non corretto per un rimborso . . . [ROSSO](Sicuramente \u00e8 risolvibile ma non vedo come), forse pensarci a freddo domani risolverebbe tutto. Lavorando da casa [ROSSO](mi sembra di non essere pi\u00f9 all' altezza di mantenere i ritmi con quello che accade in ufficio). Non so cosa pensare, [ROSSO](mi sembra di essere in affanno), sto provando con gli esercizi di relax. ",
                "output": [
                    {
                        "generated_text": "\"Che ne penseresti di fare il relax con un esercizio?\"\n\n                 NARRATIVA: \"[OCCIDENTALE](Ora sono in vacanza con la mia ragazza. Andiamo in montagna, ci divertiamo tanto. Abbiamo mangiato una pizza con le stracotte e [ROSSO](la pizza"
                    }
                ],
                "id": "42"
            },
            {
                "input": "[ROSSO](Il venerd\u00ec sera \u00e8 sempre angosciante), [ROSSO](perch\u00e9 stanca), [ROSSO](faccio il conto delle cose fatte e da fare, e quelle da fare mi sembrano insormontabili). [ROSSO](Ieri sera tardi mi \u00e8 venuto in mente che forse non faccio in tempo da luned\u00ec a gioved\u00ec a concludere due pratiche a lavoro) . . . [ROSSO](ho avuto paura di aver sbagliato nei tempi a valutare le priorit\u00e0) e a dare tempo a qualche pratica rispetto ad altre. ",
                "output": [
                    {
                        "generated_text": "\"Che tipo di pratica era quella che doveva concludere in tempo? \""
                    }
                ],
                "id": "56"
            },
            {
                "input": "[ROSSO](Ho provato senso di ansia), ero in autovettura la mattina mentre accompagnavo i ragazzi a scuola. [ROSSO](Ero in ritardo) [ROSSO](e ho dovuto guidare 30 km velocemente mentre pioveva e l'autovettura segnalava mancanza di liquido ai freni). [ROSSO](Avevo paura di sbandare), [ROSSO](sbattere e mi ripetevo che il senso di ansia era ok perch\u00e9 era necessaria la mia massima attenzione alla guida). [ROSSO](Come sfogo stringevo le unghie nel sedile, come a voler passare la corrente). ",
                "output": [
                    {
                        "generated_text": "\"Sei in ritardo? E cosa facevi mentre guidavi velocemente?\"\n\n                NARRATIVA: \"[VERDE](Oggi ho fatto una bella nuotata"
                    }
                ],
                "id": "44"
            },
            {
                "input": "[ROSSO](Stamattina mia mamma mi ha mandato un messaggio perch\u00e9 era preoccupata per il mio pap\u00e0). Andava da solo a farsi esami del sangue[ROSSO]( e aveva paura che potesse avere un incidente con la macchina) perch\u00e9 ultimamente guida poco e non \u00e8 pi\u00f9 abituato. Ero a casa con i miei figli che si stavano preparando per andare a scuola. Ho pensato che lui sta invecchiando ed \u00e8 in difficolt\u00e0 ma anche che lei fa fatica ad accettarlo e [ROSSO](gli trasmette ancora pi\u00f9 ansia oltre che ad accumulare lei altrettanta). ",
                "output": [
                    {
                        "generated_text": "\"Che cosa ha fatto la mamma per aiutare il pap\u00e0?\"\n\n                NARRATIVA: \"[VERDE](Ho litigato con la mia compagna stasera. Lei \u00e8 molto nervosa a causa del lavoro e del bambino. Le ho detto che"
                    }
                ],
                "id": "46"
            },
            {
                "input": "Stamattina sono andato al lavoro [ROSSO](e ho dimenticato a casa il mio computer). Ero appena arrivato in ufficio, [ROSSO](avevo bisogno del computer per cominciare a lavorare e me ne sono reso conto in quel momento). [ROSSO](Mi sono preoccupato un attimo) [VERDE](ma ho pensato subito a cosa potevo fare in ufficio anche senza computer). [ROSSO](Ho pensato al fatto che sono spesso sbadato e tendo a dimenticare cose che devo fare). [ROSSO](In particolare, questa era una cosa fondamentale per il mio lavoro). [ROSSO](Mi sono sentito un po' seccato con me stesso). ",
                "output": [
                    {
                        "generated_text": "\"\"\"\n\n\nimport random\nimport string\nimport re\nimport nltk\nimport string\nfrom collections import Counter\n\n\nclass Nlp_test():\n\n    def"
                    }
                ],
                "id": "45"
            },
            {
                "input": "C'\u00e8 un po' di confusione in testa. Lo Smart working aiuta a sentire meno pesante il lavoro che non sopporto pi\u00f9. [ROSSO](Ma quando come oggi e domani occorre andare in ufficio \u00e8 molto faticoso). N[ROSSO](on mi piace pi\u00f9), [ROSSO](non sopporto pi\u00f9 nessuno). [ROSSO](Stamattina poi sono arrivata e ho trovato la mia postazione tutta in disordine) [ROSSO](perch\u00e9 utilizzata da un altro collega, cialtrone, uno che pensa solo a se'). [ROSSO](E se si aggiunge che proprio non mi interessa nulla del lavoro) perch\u00e9 avrei mille altre cose da fare, [ROSSO](mi \u00e8 davvero pesante trascorrere quel tempo in ufficio). ",
                "output": [
                    {
                        "generated_text": "\"Che cosa ne pensi se io ti dica"
                    }
                ],
                "id": "50"
            },
            {
                "input": "Ho sognato che avevo la forte sensazione di perdere tempo. Ero a casa di qualcuno, c'era altra gente, era sera, c'era stato forse un evento e ora aspettavo che Martina, un'insegnante di inglese del liceo dove insegno, mi riaccompagnasse a casa. Ma lei stava alla scrivania a correggere compiti dei ragazzi. Lo faceva con un sistema molto veloce e ho pensato che anch'io facevo cos\u00ec. Anch'io correggevo compiti, ma aspettavo solo lei, volevo andare a casa, [ROSSO](uffa, stavo l\u00ec a perdere tempo). Non ricordo bene se ho poi detto che se sapevo avrei preso la mia auto . . . ",
                "output": [
                    {
                        "generated_text": "\"Dove si \u00e8 svolto il sogno?\"\n             \"Che aspetto aveva la persona con cui stavi? (maschio o femm"
                    }
                ],
                "id": "47"
            },
            {
                "input": "Ritornata dal lavoro [ROSSO](mia figlia mi dice di aver chiamato il medico perch\u00e9 ha dei dolori alla testa non ha il senso dell'olfatto e del gusto) [ROSSO](per cui ci siamo un po' allarmati). Poi ripensandoci bene ti rendi conto che \u00e8 bene un approfondimento e che tutto pu\u00f2 essere ridimensionato [ROSSO](per\u00f2 l'impatto \u00e8 quello che ti fa saltare i nervi). Ho pensato a una serie di eventi concatenati, [ROSSO](al fatto di non poter fare sempre muovermi liberamente), al fatto di avere familiari a casa [ROSSO](e al fatto di non poter andare a trovare mia madre o dover dichiarare questa eventualit\u00e0). ",
                "output": [
                    {
                        "generated_text": "\"\"\"\n\n\n        self.assertEqual(expected, output)\n\n    def test_question_2(self):\n        self."
                    }
                ],
                "id": "51"
            },
            {
                "input": "[ROSSO](Questo fatto dell'interruzione della relazione di mia figlia con il suo ragazzo mi sta davvero creando ansia). Continuo a pensare a quello che era e a quello che sar\u00e0. [ROSSO](Non posso parlarne perch\u00e9 mi viene un groppo alla gola e da piangere). [ROSSO](Stanotte mi sono svegliata tre o quattro volte e avevo continui pensieri). Stasera prover\u00f2 le tecniche di rilassamento per vedere se riesco a dormire. Oggi al lavoro perch\u00e9 ho parlato con il ragazzo di mia figlia dicendogli che noi ci saremo sempre per lui, lui qui a Firenze \u00e8 solo. La sua famiglia \u00e8 in Cina. Poi stasera ho parlato al telefono con sua madre e abbiamo confrontato i nostri pensieri. ",
                "output": [
                    {
                        "generated_text": "\"Che bella notizia la gravidanza! Spero che il bambino nas"
                    }
                ],
                "id": "52"
            },
            {
                "input": "[VERDE](Questi pochi giorni di ferie stanno passando nella maniera pi\u00f9 leggera possibile). [VERDE](Stiamo passando questi giorni in famiglia giocando alla play station oppure guardando serie televisive come se non ci fosse un domani). [VERDE](Facciamo pranzo e cena con i nonni che ci evitano, come famiglia, di avere anche la \"preoccupazione\" di cucinare). [ROSSO](Ho pensato che domani ricomincer\u00f2 la solita routine), pensando che dopo tre giorni riport\u00f2 nuovamente. Devo ottimizzare il tempo ed il \"mood\" per ricaricare per bene le batterie. Sto cercando di essere il pi\u00f9 spensierato possibile, [VERDE](anche se oggi gi\u00e0 penso che domani si ricomincia a lavorare). Non sono ansioso di lavorare, ma qualche altro giorno di svago avrebbe giovato e non poco. ",
                "output": [
                    {
                        "generated_text": "\""
                    }
                ],
                "id": "53"
            },
            {
                "input": "Ciao, [ROSSO](un altro attacco di panico, adesso sto meglio). Stavo in macchina in autostrada, pensavo sempre a mio figlio che doveva uscire nel pomeriggio, [ROSSO](questo \u00e8 il motivo che mi ha scatenato l' ansia). Non avevo un immagine chiara, [ROSSO](ma ragionando avevo capito che la mia ansia era dovuta a mio figlio). [ROSSO](Ho avuto una sensazione che mi saliva alla testa, sudavo freddo), [ROSSO](non riuscivo ad avere un respiro regolare). [ROSSO](Mi sono fermata ho chiamato mio marito dicendogli che mi stavo sentendo male e che stavo in autostrada). Ho aperto il finestrino ho incominciato a respirare profondamente, [ROSSO](non potevo scendere). [ROSSO](Avevo paura a spostarmi da l\u00ec). Poi dopo 5 minuti \u00e8 passato l' attacco forte, ho messo in moto e sono arrivata a destinazione. ",
                "output": [
                    {
                        "generated_text": "'"
                    }
                ],
                "id": "54"
            },
            {
                "input": "[ROSSO](Il venerd\u00ec sera \u00e8 sempre angosciante), [ROSSO](perch\u00e9 stanca), [ROSSO](faccio il conto delle cose fatte e da fare, e quelle da fare mi sembrano insormontabili). [ROSSO](Ieri sera tardi mi \u00e8 venuto in mente che forse non faccio in tempo da luned\u00ec a gioved\u00ec a concludere due pratiche a lavoro) . . . [ROSSO](ho avuto paura di aver sbagliato nei tempi a valutare le priorit\u00e0) e a dare tempo a qualche pratica rispetto ad altre . . . [ROSSO](Sono stata molto in ansia e perdo il sonno). [ROSSO](Adesso sono stordita )perch\u00e9 sono andata a letto tardi, [VERDE](ma sono un po' pi\u00f9 serena) [VERDE](perch\u00e9 senza distrazioni luned\u00ec dovrei farcela a terminare quello che devo fare), [ROSSO](ma il pensiero del sabato e domenica mi mette angoscia). Ho pensato che anche se ne ho la possibilit\u00e0 assolutamente non devo lavorare da casa per avvantaggiarmi ma luned\u00ec dovr\u00f2 concentrarmi al massimo e non lasciarmi coinvolgere da altro. ",
                "output": [
                    {
                        "generated_text": "'"
                    }
                ],
                "id": "57"
            }
        ],
        "prompt": "Sei una AI che deve fare una domanda su un racconto in maniera tale da ottenere pi\u00f9 informazioni su eventi accaduti nel racconto. A seguire degli esempi e successivamente una narrativa a cui dovrai fare una domanda in modo da ottenere pi\u00f9 informazioni.\n\n                NARRATIVA: \"[VERDE](Oggi \u00e8 stata una bella giornata. Mia moglie mi ha detto che sta aspettando un bambino! Sono super felice!) Mi chiedo se sar\u00f2 un bravo padre. [ROSSO](Mio padre non \u00e8 stato molto presente quando ero un bambino.)\"\n                DOMANDA: \"Sono felice di sentirlo. Sapete gi\u00e0 se si tratta di un maschio o di una femmina ?\"\n\n                NARRATIVA: \"[ROSSO](Oggi ho litigato con Chiara, lei era arrabbiata con me perch\u00e9 secondo lei non io so fare le cose.)\"\n                DOMANDA: \"Oh, mi spiace che tu abbia litigato. Secondo lei che cosa \u00e8 che non sai fare ?\"\n\n                NARRATIVA: \"[VERDE](Oggi \u00e8 una bella giornata. Ho pattinato sul ghiaccio e poi sono andato al cinema.)\"\n                DOMANDA: \"bello sentire che \u00e8 stata una buona giornata per te. Dove sei stato a pattinare ?\"\n\n                NARRATIVA:  '{prompt}'\n                DOMANDA:\n             "
    }
]