[
    {
        "model_name": "TheBloke/Wizard-Vicuna-13B-Uncensored-HF",
        "results": [
            {
                "input": "Jennifer ha un esame importante domani. Era cos\u00ec stressata che ha passato la notte in bianco. Il giorno dopo \u00e8 andata in classe, stanca morta. L'insegnante le comunica che l'esame \u00e8 rimandato alla prossima settimana.",
                "output": [
                    {
                        "generated_text": "Prendi in considerazione i seguenti esempi per completare una storia:storia: Jennifer ha un esame importante domani.\tEra cos\u00ec stressata che ha passato la notte in bianco. Il giorno dopo \u00e8 andata in classe, stanca morta. L'insegnante le comunica che l'esame \u00e8 rimandato alla prossima settimana.fine: Jennifer ne \u00e8 rimasta amareggiata.storia: Tina ha preparato gli spaghetti per il suo ragazzo.\tCi \u00e8 voluto molto lavoro, ma lei era molto orgogliosa.\tIl suo ragazzo mangi\u00f2 tutto il piatto e disse che era buono. Tina ha assaggiato e si \u00e8 resa conto che era disgustoso.fine: Era commossa dal fatto che lui avesse fatto finta di essere buono per non ferire i suoi sentimenti.storia: Il mio professore assegn\u00f2 alla mia classe un tema.\tTempo di uscire dall'aula e me ne ero gi\u00e0 dimenticata.\tQualche giorno dopo, una mia compagna di classe mi ha scritto per chiedermi se l'avessi fatto.fine: Ero cos\u00ec arrabbiata perch\u00e9 me ne ero completamente dimenticata!\tHo passato tutta la notte a lavorare sul tema, ma ho fatto in tempo.Completa la seguente storia: 'Jennifer ha un esame importante domani. Era cos\u00ec stressata che ha passato la notte in bianco. Il giorno dopo \u00e8 andata in classe, stanca morta. L'insegnante le comunica che l'esame \u00e8 rimandato alla prossima settimana.'fine: Jennifer ne \u00e8 rimasta amareggiata."
                    }
                ]
            },
            {
                "input": "Morgan e la sua famiglia vivevano in Florida. Avevano sentito che stava arrivando un uragano. Decisero di evacuare a casa di un parente. Arrivarono e appresero dal telegiornale che si trattava di una terribile tempesta.",
                "output": [
                    {
                        "generated_text": "Prendi in considerazione i seguenti esempi per completare una storia:storia: Jennifer ha un esame importante domani.\tEra cos\u00ec stressata che ha passato la notte in bianco. Il giorno dopo \u00e8 andata in classe, stanca morta. L'insegnante le comunica che l'esame \u00e8 rimandato alla prossima settimana.fine: Jennifer ne \u00e8 rimasta amareggiata.storia: Tina ha preparato gli spaghetti per il suo ragazzo.\tCi \u00e8 voluto molto lavoro, ma lei era molto orgogliosa.\tIl suo ragazzo mangi\u00f2 tutto il piatto e disse che era buono. Tina ha assaggiato e si \u00e8 resa conto che era disgustoso.fine: Era commossa dal fatto che lui avesse fatto finta di essere buono per non ferire i suoi sentimenti.storia: Il mio professore assegn\u00f2 alla mia classe un tema.\tTempo di uscire dall'aula e me ne ero gi\u00e0 dimenticata.\tQualche giorno dopo, una mia compagna di classe mi ha scritto per chiedermi se l'avessi fatto.fine: Ero cos\u00ec arrabbiata perch\u00e9 me ne ero completamente dimenticata!\tHo passato tutta la notte a lavorare sul tema, ma ho fatto in tempo.Completa la seguente storia: 'Morgan e la sua famiglia vivevano in Florida. Avevano sentito che stava arrivando un uragano. Decisero di evacuare a casa di un parente. Arrivarono e appresero dal telegiornale che si trattava di una terribile tempesta.'fine: La loro casa fu distrutta dall'uragano. Avevano perso tutta la loro propriet\u00e0 e non avevano nessun posto dove andare. Tuttavia, si sentirono fortunati di essere vivi e di avere la loro famiglia e i ricordi intatti. Si riprese in fretta, ma la vita non sarebbe mai stata la stessa."
                    }
                ]
            },
            {
                "input": "Tina ha preparato gli spaghetti per il suo ragazzo. Ci \u00e8 voluto molto lavoro, ma lei era molto orgogliosa. Il suo ragazzo mangi\u00f2 tutto il piatto e disse che era buono. Tina ha assaggiato lei stessa e si \u00e8 resa conto che era disgustoso.",
                "output": [
                    {
                        "generated_text": "Prendi in considerazione i seguenti esempi per completare una storia:storia: Jennifer ha un esame importante domani.\tEra cos\u00ec stressata che ha passato la notte in bianco. Il giorno dopo \u00e8 andata in classe, stanca morta. L'insegnante le comunica che l'esame \u00e8 rimandato alla prossima settimana.fine: Jennifer ne \u00e8 rimasta amareggiata.storia: Tina ha preparato gli spaghetti per il suo ragazzo.\tCi \u00e8 voluto molto lavoro, ma lei era molto orgogliosa.\tIl suo ragazzo mangi\u00f2 tutto il piatto e disse che era buono. Tina ha assaggiato e si \u00e8 resa conto che era disgustoso.fine: Era commossa dal fatto che lui avesse fatto finta di essere buono per non ferire i suoi sentimenti.storia: Il mio professore assegn\u00f2 alla mia classe un tema.\tTempo di uscire dall'aula e me ne ero gi\u00e0 dimenticata.\tQualche giorno dopo, una mia compagna di classe mi ha scritto per chiedermi se l'avessi fatto.fine: Ero cos\u00ec arrabbiata perch\u00e9 me ne ero completamente dimenticata!\tHo passato tutta la notte a lavorare sul tema, ma ho fatto in tempo.Completa la seguente storia: 'Tina ha preparato gli spaghetti per il suo ragazzo. Ci \u00e8 voluto molto lavoro, ma lei era molto orgogliosa. Il suo ragazzo mangi\u00f2 tutto il piatto e disse che era buono. Tina ha assaggiato lei stessa e si \u00e8 resa conto che era disgustoso.'fine: Tina era commossa dal fatto che lui avesse fatto finta di essere buono per non ferire i suoi sentimenti. \n\nPotrebbe completare la storia in questo modo: \n'Tina era commossa, ma anche arrabbiata con se stessa per aver cucinato uno spaghetti cos\u00ec brutto. Nonostante tutto, decise di dirglielo e cerc\u00f2 di spiegarsi, ma lui le rispose che non era il caso di farsi piccole, che"
                    }
                ]
            },
            {
                "input": "Il mio professore assegn\u00f2 alla mia classe un tema. Tempo di uscire dall'aula e me ne ero gi\u00e0 dimenticata. Qualche giorno dopo, una mia compagna di classe mi ha scritto per chiedermi se l'avessi fatto.",
                "output": [
                    {
                        "generated_text": "Prendi in considerazione i seguenti esempi per completare una storia:storia: Jennifer ha un esame importante domani.\tEra cos\u00ec stressata che ha passato la notte in bianco. Il giorno dopo \u00e8 andata in classe, stanca morta. L'insegnante le comunica che l'esame \u00e8 rimandato alla prossima settimana.fine: Jennifer ne \u00e8 rimasta amareggiata.storia: Tina ha preparato gli spaghetti per il suo ragazzo.\tCi \u00e8 voluto molto lavoro, ma lei era molto orgogliosa.\tIl suo ragazzo mangi\u00f2 tutto il piatto e disse che era buono. Tina ha assaggiato e si \u00e8 resa conto che era disgustoso.fine: Era commossa dal fatto che lui avesse fatto finta di essere buono per non ferire i suoi sentimenti.storia: Il mio professore assegn\u00f2 alla mia classe un tema.\tTempo di uscire dall'aula e me ne ero gi\u00e0 dimenticata.\tQualche giorno dopo, una mia compagna di classe mi ha scritto per chiedermi se l'avessi fatto.fine: Ero cos\u00ec arrabbiata perch\u00e9 me ne ero completamente dimenticata!\tHo passato tutta la notte a lavorare sul tema, ma ho fatto in tempo.Completa la seguente storia: 'Il mio professore assegn\u00f2 alla mia classe un tema. Tempo di uscire dall'aula e me ne ero gi\u00e0 dimenticata. Qualche giorno dopo, una mia compagna di classe mi ha scritto per chiedermi se l'avessi fatto.'fine: Ero cos\u00ec arrabbiata perch\u00e9 me ne ero completamente dimenticata! Ho passato tutta la notte a lavorare sul tema, ma ho fatto in tempo.\n\nIl mio professore \u00e8 rimasto molto soddisfatto e ha detto alle persone che non avevo fatto in tempo a finire il tema e non lo avevo fatto bene. Sembrava che tutti pensassero che fossi una brava studentessa, ma questo ha portato una grande delusione alla mia immagine."
                    }
                ]
            },
            {
                "input": "Kaitlyn pensava che i jeans con i buchi fossero molto alla moda. Li indoss\u00f2 a scuola per sfoggiarli. Il preside le disse che erano contrari al codice di abbigliamento. Ha dovuto cambiare i suoi jeans.",
                "output": [
                    {
                        "generated_text": "Prendi in considerazione i seguenti esempi per completare una storia:storia: Jennifer ha un esame importante domani.\tEra cos\u00ec stressata che ha passato la notte in bianco. Il giorno dopo \u00e8 andata in classe, stanca morta. L'insegnante le comunica che l'esame \u00e8 rimandato alla prossima settimana.fine: Jennifer ne \u00e8 rimasta amareggiata.storia: Tina ha preparato gli spaghetti per il suo ragazzo.\tCi \u00e8 voluto molto lavoro, ma lei era molto orgogliosa.\tIl suo ragazzo mangi\u00f2 tutto il piatto e disse che era buono. Tina ha assaggiato e si \u00e8 resa conto che era disgustoso.fine: Era commossa dal fatto che lui avesse fatto finta di essere buono per non ferire i suoi sentimenti.storia: Il mio professore assegn\u00f2 alla mia classe un tema.\tTempo di uscire dall'aula e me ne ero gi\u00e0 dimenticata.\tQualche giorno dopo, una mia compagna di classe mi ha scritto per chiedermi se l'avessi fatto.fine: Ero cos\u00ec arrabbiata perch\u00e9 me ne ero completamente dimenticata!\tHo passato tutta la notte a lavorare sul tema, ma ho fatto in tempo.Completa la seguente storia: 'Kaitlyn pensava che i jeans con i buchi fossero molto alla moda. Li indoss\u00f2 a scuola per sfoggiarli. Il preside le disse che erano contrari al codice di abbigliamento. Ha dovuto cambiare i suoi jeans.'fine: La cosa peggiore era che Kaitlyn li aveva comprati apposta per andare all'universit\u00e0, dove era un requisito. Ma non voleva essere esclusa dalle attivit\u00e0 scolastiche, quindi ha dovuto cambiarli."
                    }
                ]
            },
            {
                "input": "James si svegli\u00f2 nel cuore della notte e trov\u00f2 il suo letto che tremava. Tutte le cose nella sua stanza tremavano furiosamente. Era spaventato, ma poi all'improvviso smise. Si alz\u00f2 e controll\u00f2 il telegiornale.",
                "output": [
                    {
                        "generated_text": "Prendi in considerazione i seguenti esempi per completare una storia:storia: Jennifer ha un esame importante domani.\tEra cos\u00ec stressata che ha passato la notte in bianco. Il giorno dopo \u00e8 andata in classe, stanca morta. L'insegnante le comunica che l'esame \u00e8 rimandato alla prossima settimana.fine: Jennifer ne \u00e8 rimasta amareggiata.storia: Tina ha preparato gli spaghetti per il suo ragazzo.\tCi \u00e8 voluto molto lavoro, ma lei era molto orgogliosa.\tIl suo ragazzo mangi\u00f2 tutto il piatto e disse che era buono. Tina ha assaggiato e si \u00e8 resa conto che era disgustoso.fine: Era commossa dal fatto che lui avesse fatto finta di essere buono per non ferire i suoi sentimenti.storia: Il mio professore assegn\u00f2 alla mia classe un tema.\tTempo di uscire dall'aula e me ne ero gi\u00e0 dimenticata.\tQualche giorno dopo, una mia compagna di classe mi ha scritto per chiedermi se l'avessi fatto.fine: Ero cos\u00ec arrabbiata perch\u00e9 me ne ero completamente dimenticata!\tHo passato tutta la notte a lavorare sul tema, ma ho fatto in tempo.Completa la seguente storia: 'James si svegli\u00f2 nel cuore della notte e trov\u00f2 il suo letto che tremava. Tutte le cose nella sua stanza tremavano furiosamente. Era spaventato, ma poi all'improvviso smise. Si alz\u00f2 e controll\u00f2 il telegiornale.'fine: Apprese da un reporter che un terremoto era scosso la regione. James decise di andare ad aiutare chi aveva bisogno e si mise in contatto con la famiglia e gli amici per assicurarsi che tutti fossero al sicuro."
                    }
                ]
            },
            {
                "input": "Ero cos\u00ec nervosa per il mio primo giorno di scuola. Quando arrivai alla prima lezione, tremavo. Mi sedetti accanto alla ragazza pi\u00f9 carina della classe. Abbiamo parlato tutto il tempo, durante e dopo le lezioni.",
                "output": [
                    {
                        "generated_text": "Prendi in considerazione i seguenti esempi per completare una storia:storia: Jennifer ha un esame importante domani.\tEra cos\u00ec stressata che ha passato la notte in bianco. Il giorno dopo \u00e8 andata in classe, stanca morta. L'insegnante le comunica che l'esame \u00e8 rimandato alla prossima settimana.fine: Jennifer ne \u00e8 rimasta amareggiata.storia: Tina ha preparato gli spaghetti per il suo ragazzo.\tCi \u00e8 voluto molto lavoro, ma lei era molto orgogliosa.\tIl suo ragazzo mangi\u00f2 tutto il piatto e disse che era buono. Tina ha assaggiato e si \u00e8 resa conto che era disgustoso.fine: Era commossa dal fatto che lui avesse fatto finta di essere buono per non ferire i suoi sentimenti.storia: Il mio professore assegn\u00f2 alla mia classe un tema.\tTempo di uscire dall'aula e me ne ero gi\u00e0 dimenticata.\tQualche giorno dopo, una mia compagna di classe mi ha scritto per chiedermi se l'avessi fatto.fine: Ero cos\u00ec arrabbiata perch\u00e9 me ne ero completamente dimenticata!\tHo passato tutta la notte a lavorare sul tema, ma ho fatto in tempo.Completa la seguente storia: 'Ero cos\u00ec nervosa per il mio primo giorno di scuola. Quando arrivai alla prima lezione, tremavo. Mi sedetti accanto alla ragazza pi\u00f9 carina della classe. Abbiamo parlato tutto il tempo, durante e dopo le lezioni.'fine: Mi sono resa conto che ero davvero un'incredibile esperienza. Ho fatto cos\u00ec tante nuove amiche e ho imparato cos\u00ec tanto!"
                    }
                ]
            },
            {
                "input": "Uli non vedeva l'ora di giocare a basket questo pomeriggio. Entr\u00f2 in palestra e lasci\u00f2 lo zaino sulle gradinate. Dopo la partita, non ha trovato il telefono nello zaino. \u00c8 rimasta triste tutta la notte e al mattino ha controllato in ufficio.",
                "output": [
                    {
                        "generated_text": "Prendi in considerazione i seguenti esempi per completare una storia:storia: Jennifer ha un esame importante domani.\tEra cos\u00ec stressata che ha passato la notte in bianco. Il giorno dopo \u00e8 andata in classe, stanca morta. L'insegnante le comunica che l'esame \u00e8 rimandato alla prossima settimana.fine: Jennifer ne \u00e8 rimasta amareggiata.storia: Tina ha preparato gli spaghetti per il suo ragazzo.\tCi \u00e8 voluto molto lavoro, ma lei era molto orgogliosa.\tIl suo ragazzo mangi\u00f2 tutto il piatto e disse che era buono. Tina ha assaggiato e si \u00e8 resa conto che era disgustoso.fine: Era commossa dal fatto che lui avesse fatto finta di essere buono per non ferire i suoi sentimenti.storia: Il mio professore assegn\u00f2 alla mia classe un tema.\tTempo di uscire dall'aula e me ne ero gi\u00e0 dimenticata.\tQualche giorno dopo, una mia compagna di classe mi ha scritto per chiedermi se l'avessi fatto.fine: Ero cos\u00ec arrabbiata perch\u00e9 me ne ero completamente dimenticata!\tHo passato tutta la notte a lavorare sul tema, ma ho fatto in tempo.Completa la seguente storia: 'Uli non vedeva l'ora di giocare a basket questo pomeriggio. Entr\u00f2 in palestra e lasci\u00f2 lo zaino sulle gradinate. Dopo la partita, non ha trovato il telefono nello zaino. \u00c8 rimasta triste tutta la notte e al mattino ha controllato in ufficio.'fine: Il giorno successivo, ha trovato il telefono sul tavolo da riflesso."
                    }
                ]
            },
            {
                "input": "Anna era una trombettista professionista. Ha preso un nuovo appartamento in citt\u00e0. Sfortunatamente, le pareti erano molto pi\u00f9 sottili di quelle del vecchio appartamento!\tBen presto i vicini si lamentarono del suo incessante esercizio.",
                "output": [
                    {
                        "generated_text": "Prendi in considerazione i seguenti esempi per completare una storia:storia: Jennifer ha un esame importante domani.\tEra cos\u00ec stressata che ha passato la notte in bianco. Il giorno dopo \u00e8 andata in classe, stanca morta. L'insegnante le comunica che l'esame \u00e8 rimandato alla prossima settimana.fine: Jennifer ne \u00e8 rimasta amareggiata.storia: Tina ha preparato gli spaghetti per il suo ragazzo.\tCi \u00e8 voluto molto lavoro, ma lei era molto orgogliosa.\tIl suo ragazzo mangi\u00f2 tutto il piatto e disse che era buono. Tina ha assaggiato e si \u00e8 resa conto che era disgustoso.fine: Era commossa dal fatto che lui avesse fatto finta di essere buono per non ferire i suoi sentimenti.storia: Il mio professore assegn\u00f2 alla mia classe un tema.\tTempo di uscire dall'aula e me ne ero gi\u00e0 dimenticata.\tQualche giorno dopo, una mia compagna di classe mi ha scritto per chiedermi se l'avessi fatto.fine: Ero cos\u00ec arrabbiata perch\u00e9 me ne ero completamente dimenticata!\tHo passato tutta la notte a lavorare sul tema, ma ho fatto in tempo.Completa la seguente storia: 'Anna era una trombettista professionista. Ha preso un nuovo appartamento in citt\u00e0. Sfortunatamente, le pareti erano molto pi\u00f9 sottili di quelle del vecchio appartamento!\tBen presto i vicini si lamentarono del suo incessante esercizio.'fine: Si \u00e8 sentito un gran calo dei prezzi della sua casa dopo le lamentele dei vicini."
                    }
                ]
            },
            {
                "input": "Bill decise di andare a scuola in bicicletta. Durante il tragitto ha bucato una gomma. Un uomo vide la gomma a terra di Bill e ferm\u00f2 la sua auto. L'autista si offr\u00ec di accompagnare Bill a scuola.",
                "output": [
                    {
                        "generated_text": "Prendi in considerazione i seguenti esempi per completare una storia:storia: Jennifer ha un esame importante domani.\tEra cos\u00ec stressata che ha passato la notte in bianco. Il giorno dopo \u00e8 andata in classe, stanca morta. L'insegnante le comunica che l'esame \u00e8 rimandato alla prossima settimana.fine: Jennifer ne \u00e8 rimasta amareggiata.storia: Tina ha preparato gli spaghetti per il suo ragazzo.\tCi \u00e8 voluto molto lavoro, ma lei era molto orgogliosa.\tIl suo ragazzo mangi\u00f2 tutto il piatto e disse che era buono. Tina ha assaggiato e si \u00e8 resa conto che era disgustoso.fine: Era commossa dal fatto che lui avesse fatto finta di essere buono per non ferire i suoi sentimenti.storia: Il mio professore assegn\u00f2 alla mia classe un tema.\tTempo di uscire dall'aula e me ne ero gi\u00e0 dimenticata.\tQualche giorno dopo, una mia compagna di classe mi ha scritto per chiedermi se l'avessi fatto.fine: Ero cos\u00ec arrabbiata perch\u00e9 me ne ero completamente dimenticata!\tHo passato tutta la notte a lavorare sul tema, ma ho fatto in tempo.Completa la seguente storia: 'Bill decise di andare a scuola in bicicletta. Durante il tragitto ha bucato una gomma. Un uomo vide la gomma a terra di Bill e ferm\u00f2 la sua auto. L'autista si offr\u00ec di accompagnare Bill a scuola.'fine: Bill \u00e8 arrivato a scuola in tempo e ha ringraziato l'uomo."
                    }
                ]
            },
            {
                "input": "Mentre era a casa Robert sent\u00ec un odore terribile. And\u00f2 in cucina per indagare. La fonte dell'odore sembrava provenire dal frigorifero. Lo apr\u00ec e vide che c'era della carne in decomposizione che aveva dimenticato.",
                "output": [
                    {
                        "generated_text": "Prendi in considerazione i seguenti esempi per completare una storia:storia: Jennifer ha un esame importante domani.\tEra cos\u00ec stressata che ha passato la notte in bianco. Il giorno dopo \u00e8 andata in classe, stanca morta. L'insegnante le comunica che l'esame \u00e8 rimandato alla prossima settimana.fine: Jennifer ne \u00e8 rimasta amareggiata.storia: Tina ha preparato gli spaghetti per il suo ragazzo.\tCi \u00e8 voluto molto lavoro, ma lei era molto orgogliosa.\tIl suo ragazzo mangi\u00f2 tutto il piatto e disse che era buono. Tina ha assaggiato e si \u00e8 resa conto che era disgustoso.fine: Era commossa dal fatto che lui avesse fatto finta di essere buono per non ferire i suoi sentimenti.storia: Il mio professore assegn\u00f2 alla mia classe un tema.\tTempo di uscire dall'aula e me ne ero gi\u00e0 dimenticata.\tQualche giorno dopo, una mia compagna di classe mi ha scritto per chiedermi se l'avessi fatto.fine: Ero cos\u00ec arrabbiata perch\u00e9 me ne ero completamente dimenticata!\tHo passato tutta la notte a lavorare sul tema, ma ho fatto in tempo.Completa la seguente storia: 'Mentre era a casa Robert sent\u00ec un odore terribile. And\u00f2 in cucina per indagare. La fonte dell'odore sembrava provenire dal frigorifero. Lo apr\u00ec e vide che c'era della carne in decomposizione che aveva dimenticato.'fine: Robert non riusciva a credere che avesse dimenticato la carne. Era disgustato e decise di buttarla via. Tuttavia, la carne era molto preziosa e non poteva essere gettata via, quindi \u00e8 andato a controllare su Internet su come conservare la carne in decomposizione. Dopo aver applicato alcuni consigli ha conservato il cibo per un altro utilizzo."
                    }
                ]
            },
            {
                "input": "Joe si ferm\u00f2 a un semaforo. Il semaforo era verde, ma lui non part\u00ec. Le persone dietro di lui suonavano il clacson. Si sentivano frustrati, ma Joe non si mosse.",
                "output": [
                    {
                        "generated_text": "Prendi in considerazione i seguenti esempi per completare una storia:storia: Jennifer ha un esame importante domani.\tEra cos\u00ec stressata che ha passato la notte in bianco. Il giorno dopo \u00e8 andata in classe, stanca morta. L'insegnante le comunica che l'esame \u00e8 rimandato alla prossima settimana.fine: Jennifer ne \u00e8 rimasta amareggiata.storia: Tina ha preparato gli spaghetti per il suo ragazzo.\tCi \u00e8 voluto molto lavoro, ma lei era molto orgogliosa.\tIl suo ragazzo mangi\u00f2 tutto il piatto e disse che era buono. Tina ha assaggiato e si \u00e8 resa conto che era disgustoso.fine: Era commossa dal fatto che lui avesse fatto finta di essere buono per non ferire i suoi sentimenti.storia: Il mio professore assegn\u00f2 alla mia classe un tema.\tTempo di uscire dall'aula e me ne ero gi\u00e0 dimenticata.\tQualche giorno dopo, una mia compagna di classe mi ha scritto per chiedermi se l'avessi fatto.fine: Ero cos\u00ec arrabbiata perch\u00e9 me ne ero completamente dimenticata!\tHo passato tutta la notte a lavorare sul tema, ma ho fatto in tempo.Completa la seguente storia: 'Joe si ferm\u00f2 a un semaforo. Il semaforo era verde, ma lui non part\u00ec. Le persone dietro di lui suonavano il clacson. Si sentivano frustrati, ma Joe non si mosse.'fine: Joe aveva visto un uccello volare e aveva lasciato il cellulare acceso al semaforo, quindi non era riuscito a sentire gli schiocchi. Dopo che l'uccello aveva volato via, Joe aveva scoperto che il semaforo era verde e aveva continuato la sua corsa."
                    }
                ]
            },
            {
                "input": "Un uomo trov\u00f2 una perla in un'ostrica. Purtroppo, in quel momento stava mangiando l'ostrica. Con la perla si \u00e8 scheggiato un dente. Fortunatamente, la perla copr\u00ec il costo dell'intervento dentistico.",
                "output": [
                    {
                        "generated_text": "Prendi in considerazione i seguenti esempi per completare una storia:storia: Jennifer ha un esame importante domani.\tEra cos\u00ec stressata che ha passato la notte in bianco. Il giorno dopo \u00e8 andata in classe, stanca morta. L'insegnante le comunica che l'esame \u00e8 rimandato alla prossima settimana.fine: Jennifer ne \u00e8 rimasta amareggiata.storia: Tina ha preparato gli spaghetti per il suo ragazzo.\tCi \u00e8 voluto molto lavoro, ma lei era molto orgogliosa.\tIl suo ragazzo mangi\u00f2 tutto il piatto e disse che era buono. Tina ha assaggiato e si \u00e8 resa conto che era disgustoso.fine: Era commossa dal fatto che lui avesse fatto finta di essere buono per non ferire i suoi sentimenti.storia: Il mio professore assegn\u00f2 alla mia classe un tema.\tTempo di uscire dall'aula e me ne ero gi\u00e0 dimenticata.\tQualche giorno dopo, una mia compagna di classe mi ha scritto per chiedermi se l'avessi fatto.fine: Ero cos\u00ec arrabbiata perch\u00e9 me ne ero completamente dimenticata!\tHo passato tutta la notte a lavorare sul tema, ma ho fatto in tempo.Completa la seguente storia: 'Un uomo trov\u00f2 una perla in un'ostrica. Purtroppo, in quel momento stava mangiando l'ostrica. Con la perla si \u00e8 scheggiato un dente. Fortunatamente, la perla copr\u00ec il costo dell'intervento dentistico.'fine: L'uomo \u00e8 rimasto sorpreso e contento del prezioso oggetto che si \u00e8 trovato. Tuttavia, ha dovuto rinunciare a cibi molli per qualche tempo per non danneggiare il nuovo dente."
                    }
                ]
            },
            {
                "input": "Un silo di missili nucleari ha ricevuto un ordine di lancio. L'ufficiale responsabile apr\u00ec la cassaforte per verificare il codice. Apr\u00ec la busta contenente il codice di quel giorno. All'interno c'era un buono sconto per un panino.",
                "output": [
                    {
                        "generated_text": "Prendi in considerazione i seguenti esempi per completare una storia:storia: Jennifer ha un esame importante domani.\tEra cos\u00ec stressata che ha passato la notte in bianco. Il giorno dopo \u00e8 andata in classe, stanca morta. L'insegnante le comunica che l'esame \u00e8 rimandato alla prossima settimana.fine: Jennifer ne \u00e8 rimasta amareggiata.storia: Tina ha preparato gli spaghetti per il suo ragazzo.\tCi \u00e8 voluto molto lavoro, ma lei era molto orgogliosa.\tIl suo ragazzo mangi\u00f2 tutto il piatto e disse che era buono. Tina ha assaggiato e si \u00e8 resa conto che era disgustoso.fine: Era commossa dal fatto che lui avesse fatto finta di essere buono per non ferire i suoi sentimenti.storia: Il mio professore assegn\u00f2 alla mia classe un tema.\tTempo di uscire dall'aula e me ne ero gi\u00e0 dimenticata.\tQualche giorno dopo, una mia compagna di classe mi ha scritto per chiedermi se l'avessi fatto.fine: Ero cos\u00ec arrabbiata perch\u00e9 me ne ero completamente dimenticata!\tHo passato tutta la notte a lavorare sul tema, ma ho fatto in tempo.Completa la seguente storia: 'Un silo di missili nucleari ha ricevuto un ordine di lancio. L'ufficiale responsabile apr\u00ec la cassaforte per verificare il codice. Apr\u00ec la busta contenente il codice di quel giorno. All'interno c'era un buono sconto per un panino.'fine: L'ufficiale responsabile aveva fame e fu felice di trovare un buono sconto per un panino. Nonostante la situazione di stallo, il panino lo rilass\u00f2 e gli fece tornare la lucidit\u00e0."
                    }
                ]
            },
            {
                "input": "Una famiglia decise di costruire una nuova fossa per il barbecue nel proprio giardino. Piuttosto che pagare un escavatore, decisero di scavare da soli. A pochi metri di profondit\u00e0, uno di loro ha colpito quella che pensava fosse una piccola radice. Si rivel\u00f2 essere un cavo in fibra ottica che forniva Internet e la TV.",
                "output": [
                    {
                        "generated_text": "Prendi in considerazione i seguenti esempi per completare una storia:storia: Jennifer ha un esame importante domani.\tEra cos\u00ec stressata che ha passato la notte in bianco. Il giorno dopo \u00e8 andata in classe, stanca morta. L'insegnante le comunica che l'esame \u00e8 rimandato alla prossima settimana.fine: Jennifer ne \u00e8 rimasta amareggiata.storia: Tina ha preparato gli spaghetti per il suo ragazzo.\tCi \u00e8 voluto molto lavoro, ma lei era molto orgogliosa.\tIl suo ragazzo mangi\u00f2 tutto il piatto e disse che era buono. Tina ha assaggiato e si \u00e8 resa conto che era disgustoso.fine: Era commossa dal fatto che lui avesse fatto finta di essere buono per non ferire i suoi sentimenti.storia: Il mio professore assegn\u00f2 alla mia classe un tema.\tTempo di uscire dall'aula e me ne ero gi\u00e0 dimenticata.\tQualche giorno dopo, una mia compagna di classe mi ha scritto per chiedermi se l'avessi fatto.fine: Ero cos\u00ec arrabbiata perch\u00e9 me ne ero completamente dimenticata!\tHo passato tutta la notte a lavorare sul tema, ma ho fatto in tempo.Completa la seguente storia: 'Una famiglia decise di costruire una nuova fossa per il barbecue nel proprio giardino. Piuttosto che pagare un escavatore, decisero di scavare da soli. A pochi metri di profondit\u00e0, uno di loro ha colpito quella che pensava fosse una piccola radice. Si rivel\u00f2 essere un cavo in fibra ottica che forniva Internet e la TV.'fine: Il cavo di fibra ottica era cos\u00ec fragile che si ruppe. I membri della famiglia persero tutti i loro servizi di Internet e TV e furono costretti a cercare aiuto esterno. La famiglia fu costretta a cancellare i piani per il loro piccolo barbecue e a cercarsi un altro posto per organizzare il loro evento. Inoltre, hanno av"
                    }
                ]
            },
            {
                "input": "Briana stava guidando un fuoristrada con suo fratello. Stavano andando veloci su una strada sterrata. All'improvviso, hanno colpito una roccia. Il quadriciclo si \u00e8 ribaltato.",
                "output": [
                    {
                        "generated_text": "Prendi in considerazione i seguenti esempi per completare una storia:storia: Jennifer ha un esame importante domani.\tEra cos\u00ec stressata che ha passato la notte in bianco. Il giorno dopo \u00e8 andata in classe, stanca morta. L'insegnante le comunica che l'esame \u00e8 rimandato alla prossima settimana.fine: Jennifer ne \u00e8 rimasta amareggiata.storia: Tina ha preparato gli spaghetti per il suo ragazzo.\tCi \u00e8 voluto molto lavoro, ma lei era molto orgogliosa.\tIl suo ragazzo mangi\u00f2 tutto il piatto e disse che era buono. Tina ha assaggiato e si \u00e8 resa conto che era disgustoso.fine: Era commossa dal fatto che lui avesse fatto finta di essere buono per non ferire i suoi sentimenti.storia: Il mio professore assegn\u00f2 alla mia classe un tema.\tTempo di uscire dall'aula e me ne ero gi\u00e0 dimenticata.\tQualche giorno dopo, una mia compagna di classe mi ha scritto per chiedermi se l'avessi fatto.fine: Ero cos\u00ec arrabbiata perch\u00e9 me ne ero completamente dimenticata!\tHo passato tutta la notte a lavorare sul tema, ma ho fatto in tempo.Completa la seguente storia: 'Briana stava guidando un fuoristrada con suo fratello. Stavano andando veloci su una strada sterrata. All'improvviso, hanno colpito una roccia. Il quadriciclo si \u00e8 ribaltato.'fine: Briana e suo figlio erano sconvolti, ma sono riusciti a uscire dal veicolo. Nonostante avessero riportato alcuni danni fisici, erano vivi e salvi. Ma Briana era sconvolta e pensava a quanto fosse vicino il disastro. Si sentiva in colpa per aver portato suo figlio con s\u00e9 e per aver guidato a velocit\u00e0 troppo alta."
                    }
                ]
            },
            {
                "input": "Un giorno di sole Jeff stava giocando all'aperto. Sent\u00ec un ronzio provenire dalle siepi. Quando si \u00e8 avvicinato alla siepe, \u00e8 uscito uno sciame di api. Le api lo inseguirono fino in casa.",
                "output": [
                    {
                        "generated_text": "Prendi in considerazione i seguenti esempi per completare una storia:storia: Jennifer ha un esame importante domani.\tEra cos\u00ec stressata che ha passato la notte in bianco. Il giorno dopo \u00e8 andata in classe, stanca morta. L'insegnante le comunica che l'esame \u00e8 rimandato alla prossima settimana.fine: Jennifer ne \u00e8 rimasta amareggiata.storia: Tina ha preparato gli spaghetti per il suo ragazzo.\tCi \u00e8 voluto molto lavoro, ma lei era molto orgogliosa.\tIl suo ragazzo mangi\u00f2 tutto il piatto e disse che era buono. Tina ha assaggiato e si \u00e8 resa conto che era disgustoso.fine: Era commossa dal fatto che lui avesse fatto finta di essere buono per non ferire i suoi sentimenti.storia: Il mio professore assegn\u00f2 alla mia classe un tema.\tTempo di uscire dall'aula e me ne ero gi\u00e0 dimenticata.\tQualche giorno dopo, una mia compagna di classe mi ha scritto per chiedermi se l'avessi fatto.fine: Ero cos\u00ec arrabbiata perch\u00e9 me ne ero completamente dimenticata!\tHo passato tutta la notte a lavorare sul tema, ma ho fatto in tempo.Completa la seguente storia: 'Un giorno di sole Jeff stava giocando all'aperto. Sent\u00ec un ronzio provenire dalle siepi. Quando si \u00e8 avvicinato alla siepe, \u00e8 uscito uno sciame di api. Le api lo inseguirono fino in casa.'fine: L'uomo era terrorizzato, ma riusc\u00ec a raggiungere la salvezza. Quando rientr\u00f2 a casa, sua moglie gli diede un bicchiere d'acqua e gli disse di stare calmato. Le sue mani iniziarono a dolere, e dopo una visita medica, scopr\u00ec di aver contratto un'allergia alle api."
                    }
                ]
            },
            {
                "input": "Chelsea si \u00e8 fatta male alle dita giocando a basket. Aveva molta paura di andare dal medico. Il padre di Chelsea l'ha convinta ad andare a farsi controllare. Si \u00e8 scoperto che le ossa delle dita erano fratturate.",
                "output": [
                    {
                        "generated_text": "Prendi in considerazione i seguenti esempi per completare una storia:storia: Jennifer ha un esame importante domani.\tEra cos\u00ec stressata che ha passato la notte in bianco. Il giorno dopo \u00e8 andata in classe, stanca morta. L'insegnante le comunica che l'esame \u00e8 rimandato alla prossima settimana.fine: Jennifer ne \u00e8 rimasta amareggiata.storia: Tina ha preparato gli spaghetti per il suo ragazzo.\tCi \u00e8 voluto molto lavoro, ma lei era molto orgogliosa.\tIl suo ragazzo mangi\u00f2 tutto il piatto e disse che era buono. Tina ha assaggiato e si \u00e8 resa conto che era disgustoso.fine: Era commossa dal fatto che lui avesse fatto finta di essere buono per non ferire i suoi sentimenti.storia: Il mio professore assegn\u00f2 alla mia classe un tema.\tTempo di uscire dall'aula e me ne ero gi\u00e0 dimenticata.\tQualche giorno dopo, una mia compagna di classe mi ha scritto per chiedermi se l'avessi fatto.fine: Ero cos\u00ec arrabbiata perch\u00e9 me ne ero completamente dimenticata!\tHo passato tutta la notte a lavorare sul tema, ma ho fatto in tempo.Completa la seguente storia: 'Chelsea si \u00e8 fatta male alle dita giocando a basket. Aveva molta paura di andare dal medico. Il padre di Chelsea l'ha convinta ad andare a farsi controllare. Si \u00e8 scoperto che le ossa delle dita erano fratturate.'fine: Chelsea ha sentito il dolore mentre il medico le apriva e chiudeva le dita, ma ha capito che sarebbe stata benissimo presto."
                    }
                ]
            },
            {
                "input": "Beth, un'amica di Amy, stava per avere un bambino. Amy chiam\u00f2 le sue amiche a partecipare a una festa per il bambino a sorpresa. Tutti aspettarono in silenzio che Beth entrasse. Quando vide tutti, rimase scioccata.",
                "output": [
                    {
                        "generated_text": "Prendi in considerazione i seguenti esempi per completare una storia:storia: Jennifer ha un esame importante domani.\tEra cos\u00ec stressata che ha passato la notte in bianco. Il giorno dopo \u00e8 andata in classe, stanca morta. L'insegnante le comunica che l'esame \u00e8 rimandato alla prossima settimana.fine: Jennifer ne \u00e8 rimasta amareggiata.storia: Tina ha preparato gli spaghetti per il suo ragazzo.\tCi \u00e8 voluto molto lavoro, ma lei era molto orgogliosa.\tIl suo ragazzo mangi\u00f2 tutto il piatto e disse che era buono. Tina ha assaggiato e si \u00e8 resa conto che era disgustoso.fine: Era commossa dal fatto che lui avesse fatto finta di essere buono per non ferire i suoi sentimenti.storia: Il mio professore assegn\u00f2 alla mia classe un tema.\tTempo di uscire dall'aula e me ne ero gi\u00e0 dimenticata.\tQualche giorno dopo, una mia compagna di classe mi ha scritto per chiedermi se l'avessi fatto.fine: Ero cos\u00ec arrabbiata perch\u00e9 me ne ero completamente dimenticata!\tHo passato tutta la notte a lavorare sul tema, ma ho fatto in tempo.Completa la seguente storia: 'Beth, un'amica di Amy, stava per avere un bambino. Amy chiam\u00f2 le sue amiche a partecipare a una festa per il bambino a sorpresa. Tutti aspettarono in silenzio che Beth entrasse. Quando vide tutti, rimase scioccata.'fine: Beth non sapeva come reagire ma poi ha accettato l'iniziativa delle amiche, sorridendo. Il giorno della festa, le amiche organizzarono una bella sorpresa per lei e i suoi amici, c'erano feste, regali e cibo buono. Beth si sentiva molto emozionata e felice per avere avuto tanta amore e affetto da parte delle amiche."
                    }
                ]
            },
            {
                "input": "Tyler era entusiasta di acquistare il nuovo telefono cellulare. Quando arriv\u00f2 al negozio fu sorpreso di vedere una lunga fila. Ha aspettato in fila per un'ora per acquistare il telefono. Quando arriv\u00f2 alla cassa, la cassiera lo inform\u00f2 che era tutto esaurito.",
                "output": [
                    {
                        "generated_text": "Prendi in considerazione i seguenti esempi per completare una storia:storia: Jennifer ha un esame importante domani.\tEra cos\u00ec stressata che ha passato la notte in bianco. Il giorno dopo \u00e8 andata in classe, stanca morta. L'insegnante le comunica che l'esame \u00e8 rimandato alla prossima settimana.fine: Jennifer ne \u00e8 rimasta amareggiata.storia: Tina ha preparato gli spaghetti per il suo ragazzo.\tCi \u00e8 voluto molto lavoro, ma lei era molto orgogliosa.\tIl suo ragazzo mangi\u00f2 tutto il piatto e disse che era buono. Tina ha assaggiato e si \u00e8 resa conto che era disgustoso.fine: Era commossa dal fatto che lui avesse fatto finta di essere buono per non ferire i suoi sentimenti.storia: Il mio professore assegn\u00f2 alla mia classe un tema.\tTempo di uscire dall'aula e me ne ero gi\u00e0 dimenticata.\tQualche giorno dopo, una mia compagna di classe mi ha scritto per chiedermi se l'avessi fatto.fine: Ero cos\u00ec arrabbiata perch\u00e9 me ne ero completamente dimenticata!\tHo passato tutta la notte a lavorare sul tema, ma ho fatto in tempo.Completa la seguente storia: 'Tyler era entusiasta di acquistare il nuovo telefono cellulare. Quando arriv\u00f2 al negozio fu sorpreso di vedere una lunga fila. Ha aspettato in fila per un'ora per acquistare il telefono. Quando arriv\u00f2 alla cassa, la cassiera lo inform\u00f2 che era tutto esaurito.'fine: Tyler era deluso, ma la cassiera gli sugger\u00ec di contattare un rivenditore online. Dopo una settimana e mezzo di attesa, il suo nuovo telefone arriv\u00f2 alla sua porta."
                    }
                ]
            },
            {
                "input": "Andrew pensava di essere un buon giocatore di golf. Ha sfidato il suo amico Dylan per vedere chi fosse pi\u00f9 bravo. Dylan accett\u00f2 la sfida e lavor\u00f2 duramente per prepararsi. Andrew stava vincendo fin dall'inizio, ma le cose sarebbero presto cambiate.",
                "output": [
                    {
                        "generated_text": "Prendi in considerazione i seguenti esempi per completare una storia:storia: Jennifer ha un esame importante domani.\tEra cos\u00ec stressata che ha passato la notte in bianco. Il giorno dopo \u00e8 andata in classe, stanca morta. L'insegnante le comunica che l'esame \u00e8 rimandato alla prossima settimana.fine: Jennifer ne \u00e8 rimasta amareggiata.storia: Tina ha preparato gli spaghetti per il suo ragazzo.\tCi \u00e8 voluto molto lavoro, ma lei era molto orgogliosa.\tIl suo ragazzo mangi\u00f2 tutto il piatto e disse che era buono. Tina ha assaggiato e si \u00e8 resa conto che era disgustoso.fine: Era commossa dal fatto che lui avesse fatto finta di essere buono per non ferire i suoi sentimenti.storia: Il mio professore assegn\u00f2 alla mia classe un tema.\tTempo di uscire dall'aula e me ne ero gi\u00e0 dimenticata.\tQualche giorno dopo, una mia compagna di classe mi ha scritto per chiedermi se l'avessi fatto.fine: Ero cos\u00ec arrabbiata perch\u00e9 me ne ero completamente dimenticata!\tHo passato tutta la notte a lavorare sul tema, ma ho fatto in tempo.Completa la seguente storia: 'Andrew pensava di essere un buon giocatore di golf. Ha sfidato il suo amico Dylan per vedere chi fosse pi\u00f9 bravo. Dylan accett\u00f2 la sfida e lavor\u00f2 duramente per prepararsi. Andrew stava vincendo fin dall'inizio, ma le cose sarebbero presto cambiate.'fine: Alla fine, Andrew ha perso e si \u00e8 sentito vergognoso. Aveva preso troppo per buono il suo stesso giudizio e aveva sottovalutato Dylan come giocatore. Il risultato finale era inaspettato, ma Dylan era contento di aver vinto e Andrew era rimasto sconvolto.\""
                    }
                ]
            },
            {
                "input": "Mi sono preparato un panino al tonno per pranzo. Mentre ero seduto a mangiare, \u00e8 squillato il telefono. Mi sono alzata per rispondere e ho avuto una breve conversazione. Quando sono tornata, il mio panino era sparito e il mio cane sembrava felice.",
                "output": [
                    {
                        "generated_text": "Prendi in considerazione i seguenti esempi per completare una storia:storia: Jennifer ha un esame importante domani.\tEra cos\u00ec stressata che ha passato la notte in bianco. Il giorno dopo \u00e8 andata in classe, stanca morta. L'insegnante le comunica che l'esame \u00e8 rimandato alla prossima settimana.fine: Jennifer ne \u00e8 rimasta amareggiata.storia: Tina ha preparato gli spaghetti per il suo ragazzo.\tCi \u00e8 voluto molto lavoro, ma lei era molto orgogliosa.\tIl suo ragazzo mangi\u00f2 tutto il piatto e disse che era buono. Tina ha assaggiato e si \u00e8 resa conto che era disgustoso.fine: Era commossa dal fatto che lui avesse fatto finta di essere buono per non ferire i suoi sentimenti.storia: Il mio professore assegn\u00f2 alla mia classe un tema.\tTempo di uscire dall'aula e me ne ero gi\u00e0 dimenticata.\tQualche giorno dopo, una mia compagna di classe mi ha scritto per chiedermi se l'avessi fatto.fine: Ero cos\u00ec arrabbiata perch\u00e9 me ne ero completamente dimenticata!\tHo passato tutta la notte a lavorare sul tema, ma ho fatto in tempo.Completa la seguente storia: 'Mi sono preparato un panino al tonno per pranzo. Mentre ero seduto a mangiare, \u00e8 squillato il telefono. Mi sono alzata per rispondere e ho avuto una breve conversazione. Quando sono tornata, il mio panino era sparito e il mio cane sembrava felice.'fine: Mi sono indignata! Ero cos\u00ec arrabbiata che sono andata a prendere il cane e gli ho detto di andare da qualcun altro, perch\u00e9 io non c'entravo affatto. Purtroppo, non era il cane il colpevole. Era mia moglie che, mentre parlavo al telefono, aveva visto il panino e aveva deciso di mangiarlo!"
                    }
                ]
            },
            {
                "input": "Beth stava uscendo dal lavoro marted\u00ec. Si \u00e8 accorta che ad un uomo era caduto il portafoglio nel parcheggio. Ha attraversato di corsa il parcheggio per restituirglielo. L'uomo era cos\u00ec felice che gli fosse stato restituito il portafoglio.",
                "output": [
                    {
                        "generated_text": "Prendi in considerazione i seguenti esempi per completare una storia:storia: Jennifer ha un esame importante domani.\tEra cos\u00ec stressata che ha passato la notte in bianco. Il giorno dopo \u00e8 andata in classe, stanca morta. L'insegnante le comunica che l'esame \u00e8 rimandato alla prossima settimana.fine: Jennifer ne \u00e8 rimasta amareggiata.storia: Tina ha preparato gli spaghetti per il suo ragazzo.\tCi \u00e8 voluto molto lavoro, ma lei era molto orgogliosa.\tIl suo ragazzo mangi\u00f2 tutto il piatto e disse che era buono. Tina ha assaggiato e si \u00e8 resa conto che era disgustoso.fine: Era commossa dal fatto che lui avesse fatto finta di essere buono per non ferire i suoi sentimenti.storia: Il mio professore assegn\u00f2 alla mia classe un tema.\tTempo di uscire dall'aula e me ne ero gi\u00e0 dimenticata.\tQualche giorno dopo, una mia compagna di classe mi ha scritto per chiedermi se l'avessi fatto.fine: Ero cos\u00ec arrabbiata perch\u00e9 me ne ero completamente dimenticata!\tHo passato tutta la notte a lavorare sul tema, ma ho fatto in tempo.Completa la seguente storia: 'Beth stava uscendo dal lavoro marted\u00ec. Si \u00e8 accorta che ad un uomo era caduto il portafoglio nel parcheggio. Ha attraversato di corsa il parcheggio per restituirglielo. L'uomo era cos\u00ec felice che gli fosse stato restituito il portafoglio.'fine: Beth ha continuato a lavorare e ha messo il portafoglio in una cassetta di sicurezza."
                    }
                ]
            },
            {
                "input": "Un amico di Dan lo introdusse al poker. Dan si rese conto di essere molto bravo a giocare a poker. Dan decise di andare a Las Vegas per mettere alla prova la sua abilit\u00e0. Dan vinse milioni di dollari a Las Vegas.",
                "output": [
                    {
                        "generated_text": "Prendi in considerazione i seguenti esempi per completare una storia:storia: Jennifer ha un esame importante domani.\tEra cos\u00ec stressata che ha passato la notte in bianco. Il giorno dopo \u00e8 andata in classe, stanca morta. L'insegnante le comunica che l'esame \u00e8 rimandato alla prossima settimana.fine: Jennifer ne \u00e8 rimasta amareggiata.storia: Tina ha preparato gli spaghetti per il suo ragazzo.\tCi \u00e8 voluto molto lavoro, ma lei era molto orgogliosa.\tIl suo ragazzo mangi\u00f2 tutto il piatto e disse che era buono. Tina ha assaggiato e si \u00e8 resa conto che era disgustoso.fine: Era commossa dal fatto che lui avesse fatto finta di essere buono per non ferire i suoi sentimenti.storia: Il mio professore assegn\u00f2 alla mia classe un tema.\tTempo di uscire dall'aula e me ne ero gi\u00e0 dimenticata.\tQualche giorno dopo, una mia compagna di classe mi ha scritto per chiedermi se l'avessi fatto.fine: Ero cos\u00ec arrabbiata perch\u00e9 me ne ero completamente dimenticata!\tHo passato tutta la notte a lavorare sul tema, ma ho fatto in tempo.Completa la seguente storia: 'Un amico di Dan lo introdusse al poker. Dan si rese conto di essere molto bravo a giocare a poker. Dan decise di andare a Las Vegas per mettere alla prova la sua abilit\u00e0. Dan vinse milioni di dollari a Las Vegas.'fine: Dan si sentiva estasiato e felice. Tornato a casa, ha comprato una villa in una delle zone pi\u00f9 belle della citt\u00e0. Il denaro gli ha dato l'opportunit\u00e0 di vivere una vita pi\u00f9 comoda e di fare ci\u00f2 che pi\u00f9 amava fare. Tuttavia, il successo gli ha anche comportato un sacco di stress, tanto che ha iniziato a pensare di smettere di giocare."
                    }
                ]
            },
            {
                "input": "Lo swing di Harry \u00e8 terribile. Un giorno Harry decide di cercare aiuto per migliorare il suo swing. Assunse un allenatore privato. L'allenatore privato riusc\u00ec a migliorare lo swing di Harry.",
                "output": [
                    {
                        "generated_text": "Prendi in considerazione i seguenti esempi per completare una storia:storia: Jennifer ha un esame importante domani.\tEra cos\u00ec stressata che ha passato la notte in bianco. Il giorno dopo \u00e8 andata in classe, stanca morta. L'insegnante le comunica che l'esame \u00e8 rimandato alla prossima settimana.fine: Jennifer ne \u00e8 rimasta amareggiata.storia: Tina ha preparato gli spaghetti per il suo ragazzo.\tCi \u00e8 voluto molto lavoro, ma lei era molto orgogliosa.\tIl suo ragazzo mangi\u00f2 tutto il piatto e disse che era buono. Tina ha assaggiato e si \u00e8 resa conto che era disgustoso.fine: Era commossa dal fatto che lui avesse fatto finta di essere buono per non ferire i suoi sentimenti.storia: Il mio professore assegn\u00f2 alla mia classe un tema.\tTempo di uscire dall'aula e me ne ero gi\u00e0 dimenticata.\tQualche giorno dopo, una mia compagna di classe mi ha scritto per chiedermi se l'avessi fatto.fine: Ero cos\u00ec arrabbiata perch\u00e9 me ne ero completamente dimenticata!\tHo passato tutta la notte a lavorare sul tema, ma ho fatto in tempo.Completa la seguente storia: 'Lo swing di Harry \u00e8 terribile. Un giorno Harry decide di cercare aiuto per migliorare il suo swing. Assunse un allenatore privato. L'allenatore privato riusc\u00ec a migliorare lo swing di Harry.'fine: Insieme all'allenatore, Harry ha lavorato molto duro e ha imparato molte cose. Ha anche imparato a giocare con pi\u00f9 precisione e a essere pi\u00f9 fiducioso nel suo gioco. Alla fine, Harry ha vinto il torneo e tutti sono stati impressionati dal suo swing migliorato."
                    }
                ]
            },
            {
                "input": "Sam aveva appuntamento con il padre per il pranzo in un ristorante italiano. Arriv\u00f2 in anticipo e aspett\u00f2 il padre. Cominci\u00f2 a preoccuparsi quando il padre non si present\u00f2 e non rispose. Chiam\u00f2 la madre per sapere cosa stesse succedendo.",
                "output": [
                    {
                        "generated_text": "Prendi in considerazione i seguenti esempi per completare una storia:storia: Jennifer ha un esame importante domani.\tEra cos\u00ec stressata che ha passato la notte in bianco. Il giorno dopo \u00e8 andata in classe, stanca morta. L'insegnante le comunica che l'esame \u00e8 rimandato alla prossima settimana.fine: Jennifer ne \u00e8 rimasta amareggiata.storia: Tina ha preparato gli spaghetti per il suo ragazzo.\tCi \u00e8 voluto molto lavoro, ma lei era molto orgogliosa.\tIl suo ragazzo mangi\u00f2 tutto il piatto e disse che era buono. Tina ha assaggiato e si \u00e8 resa conto che era disgustoso.fine: Era commossa dal fatto che lui avesse fatto finta di essere buono per non ferire i suoi sentimenti.storia: Il mio professore assegn\u00f2 alla mia classe un tema.\tTempo di uscire dall'aula e me ne ero gi\u00e0 dimenticata.\tQualche giorno dopo, una mia compagna di classe mi ha scritto per chiedermi se l'avessi fatto.fine: Ero cos\u00ec arrabbiata perch\u00e9 me ne ero completamente dimenticata!\tHo passato tutta la notte a lavorare sul tema, ma ho fatto in tempo.Completa la seguente storia: 'Sam aveva appuntamento con il padre per il pranzo in un ristorante italiano. Arriv\u00f2 in anticipo e aspett\u00f2 il padre. Cominci\u00f2 a preoccuparsi quando il padre non si present\u00f2 e non rispose. Chiam\u00f2 la madre per sapere cosa stesse succedendo.'fine: La madre gli disse che il padre era andato da solo al ristorante perch\u00e9 voleva fare una sorpresa a Sam. Il padre era stato vittima di un incidente stradale e gli aveva chiesto di non dir niente ad Sam. La madre aggiunse che il padre era stato ricoverato in ospedale e Sam doveva andare subito l\u00ec."
                    }
                ]
            },
            {
                "input": "Randy possiede la stessa chitarra da dieci anni. Purtroppo, due giorni fa l'ha persa. Ha chiamato tutti quelli che ricordava di aver visitato negli ultimi giorni. Fortunatamente, l'aveva appena lasciata a casa di un amico.",
                "output": [
                    {
                        "generated_text": "Prendi in considerazione i seguenti esempi per completare una storia:storia: Jennifer ha un esame importante domani.\tEra cos\u00ec stressata che ha passato la notte in bianco. Il giorno dopo \u00e8 andata in classe, stanca morta. L'insegnante le comunica che l'esame \u00e8 rimandato alla prossima settimana.fine: Jennifer ne \u00e8 rimasta amareggiata.storia: Tina ha preparato gli spaghetti per il suo ragazzo.\tCi \u00e8 voluto molto lavoro, ma lei era molto orgogliosa.\tIl suo ragazzo mangi\u00f2 tutto il piatto e disse che era buono. Tina ha assaggiato e si \u00e8 resa conto che era disgustoso.fine: Era commossa dal fatto che lui avesse fatto finta di essere buono per non ferire i suoi sentimenti.storia: Il mio professore assegn\u00f2 alla mia classe un tema.\tTempo di uscire dall'aula e me ne ero gi\u00e0 dimenticata.\tQualche giorno dopo, una mia compagna di classe mi ha scritto per chiedermi se l'avessi fatto.fine: Ero cos\u00ec arrabbiata perch\u00e9 me ne ero completamente dimenticata!\tHo passato tutta la notte a lavorare sul tema, ma ho fatto in tempo.Completa la seguente storia: 'Randy possiede la stessa chitarra da dieci anni. Purtroppo, due giorni fa l'ha persa. Ha chiamato tutti quelli che ricordava di aver visitato negli ultimi giorni. Fortunatamente, l'aveva appena lasciata a casa di un amico.'fine: Randy \u00e8 stato felice quando l'ha ritrovata, anche se il suo amico aveva gi\u00e0 dato via la chitarra."
                    }
                ]
            },
            {
                "input": "Maria voleva stupire tutti al ballo della scuola. Invece di comprare un vestito, decise di farne uno nuovo. Scelse un tessuto morbido e viola da utilizzare. Cuc\u00ec giorno e notte finch\u00e9 non ebbe finito.",
                "output": [
                    {
                        "generated_text": "Prendi in considerazione i seguenti esempi per completare una storia:storia: Jennifer ha un esame importante domani.\tEra cos\u00ec stressata che ha passato la notte in bianco. Il giorno dopo \u00e8 andata in classe, stanca morta. L'insegnante le comunica che l'esame \u00e8 rimandato alla prossima settimana.fine: Jennifer ne \u00e8 rimasta amareggiata.storia: Tina ha preparato gli spaghetti per il suo ragazzo.\tCi \u00e8 voluto molto lavoro, ma lei era molto orgogliosa.\tIl suo ragazzo mangi\u00f2 tutto il piatto e disse che era buono. Tina ha assaggiato e si \u00e8 resa conto che era disgustoso.fine: Era commossa dal fatto che lui avesse fatto finta di essere buono per non ferire i suoi sentimenti.storia: Il mio professore assegn\u00f2 alla mia classe un tema.\tTempo di uscire dall'aula e me ne ero gi\u00e0 dimenticata.\tQualche giorno dopo, una mia compagna di classe mi ha scritto per chiedermi se l'avessi fatto.fine: Ero cos\u00ec arrabbiata perch\u00e9 me ne ero completamente dimenticata!\tHo passato tutta la notte a lavorare sul tema, ma ho fatto in tempo.Completa la seguente storia: 'Maria voleva stupire tutti al ballo della scuola. Invece di comprare un vestito, decise di farne uno nuovo. Scelse un tessuto morbido e viola da utilizzare. Cuc\u00ec giorno e notte finch\u00e9 non ebbe finito.'fine: Il ballo fu incredibile. Maria era l'oggetto di discussione tra tutti i ragazzi. Non era che un vestito?"
                    }
                ]
            },
            {
                "input": "La madre di Carson gli prepar\u00f2 una cioccolata calda come regalo. Lo avvert\u00ec di aspettare cinque minuti perch\u00e9 si raffreddasse. Carson riusc\u00ec ad aspettare a malapena un minuto!\tBevve la cioccolata molto calda.",
                "output": [
                    {
                        "generated_text": "Prendi in considerazione i seguenti esempi per completare una storia:storia: Jennifer ha un esame importante domani.\tEra cos\u00ec stressata che ha passato la notte in bianco. Il giorno dopo \u00e8 andata in classe, stanca morta. L'insegnante le comunica che l'esame \u00e8 rimandato alla prossima settimana.fine: Jennifer ne \u00e8 rimasta amareggiata.storia: Tina ha preparato gli spaghetti per il suo ragazzo.\tCi \u00e8 voluto molto lavoro, ma lei era molto orgogliosa.\tIl suo ragazzo mangi\u00f2 tutto il piatto e disse che era buono. Tina ha assaggiato e si \u00e8 resa conto che era disgustoso.fine: Era commossa dal fatto che lui avesse fatto finta di essere buono per non ferire i suoi sentimenti.storia: Il mio professore assegn\u00f2 alla mia classe un tema.\tTempo di uscire dall'aula e me ne ero gi\u00e0 dimenticata.\tQualche giorno dopo, una mia compagna di classe mi ha scritto per chiedermi se l'avessi fatto.fine: Ero cos\u00ec arrabbiata perch\u00e9 me ne ero completamente dimenticata!\tHo passato tutta la notte a lavorare sul tema, ma ho fatto in tempo.Completa la seguente storia: 'La madre di Carson gli prepar\u00f2 una cioccolata calda come regalo. Lo avvert\u00ec di aspettare cinque minuti perch\u00e9 si raffreddasse. Carson riusc\u00ec ad aspettare a malapena un minuto!\tBevve la cioccolata molto calda.'fine: La madre gli chiese se era buona e Carson la trovava troppo fredda."
                    }
                ]
            },
            {
                "input": "Di recente ho comprato un nuovo colore di smalto. Mi stavo dipingendo le unghie quando il gatto \u00e8 saltato su e l'ha fatto cadere. Lo smalto \u00e8 finito su tutto il pavimento. Ho provato a pulirlo, ma non ha funzionato.",
                "output": [
                    {
                        "generated_text": "Prendi in considerazione i seguenti esempi per completare una storia:storia: Jennifer ha un esame importante domani.\tEra cos\u00ec stressata che ha passato la notte in bianco. Il giorno dopo \u00e8 andata in classe, stanca morta. L'insegnante le comunica che l'esame \u00e8 rimandato alla prossima settimana.fine: Jennifer ne \u00e8 rimasta amareggiata.storia: Tina ha preparato gli spaghetti per il suo ragazzo.\tCi \u00e8 voluto molto lavoro, ma lei era molto orgogliosa.\tIl suo ragazzo mangi\u00f2 tutto il piatto e disse che era buono. Tina ha assaggiato e si \u00e8 resa conto che era disgustoso.fine: Era commossa dal fatto che lui avesse fatto finta di essere buono per non ferire i suoi sentimenti.storia: Il mio professore assegn\u00f2 alla mia classe un tema.\tTempo di uscire dall'aula e me ne ero gi\u00e0 dimenticata.\tQualche giorno dopo, una mia compagna di classe mi ha scritto per chiedermi se l'avessi fatto.fine: Ero cos\u00ec arrabbiata perch\u00e9 me ne ero completamente dimenticata!\tHo passato tutta la notte a lavorare sul tema, ma ho fatto in tempo.Completa la seguente storia: 'Di recente ho comprato un nuovo colore di smalto. Mi stavo dipingendo le unghie quando il gatto \u00e8 saltato su e l'ha fatto cadere. Lo smalto \u00e8 finito su tutto il pavimento. Ho provato a pulirlo, ma non ha funzionato.'fine: Avevo perso il mio tempo ed ero arrabbiata con il gatto. In conclusione, l'ha appreso che non dovrebbe toccare le cose che non dovrebbe."
                    }
                ]
            },
            {
                "input": "Un uomo pens\u00f2 di provare a coltivare i pomodori nel suo giardino. Cos\u00ec compr\u00f2 semi e attrezzature. Piant\u00f2 i semi e aspett\u00f2. Qualche mese dopo, si ritrov\u00f2 proprietario di un piccolo campo di grano.",
                "output": [
                    {
                        "generated_text": "Prendi in considerazione i seguenti esempi per completare una storia:storia: Jennifer ha un esame importante domani.\tEra cos\u00ec stressata che ha passato la notte in bianco. Il giorno dopo \u00e8 andata in classe, stanca morta. L'insegnante le comunica che l'esame \u00e8 rimandato alla prossima settimana.fine: Jennifer ne \u00e8 rimasta amareggiata.storia: Tina ha preparato gli spaghetti per il suo ragazzo.\tCi \u00e8 voluto molto lavoro, ma lei era molto orgogliosa.\tIl suo ragazzo mangi\u00f2 tutto il piatto e disse che era buono. Tina ha assaggiato e si \u00e8 resa conto che era disgustoso.fine: Era commossa dal fatto che lui avesse fatto finta di essere buono per non ferire i suoi sentimenti.storia: Il mio professore assegn\u00f2 alla mia classe un tema.\tTempo di uscire dall'aula e me ne ero gi\u00e0 dimenticata.\tQualche giorno dopo, una mia compagna di classe mi ha scritto per chiedermi se l'avessi fatto.fine: Ero cos\u00ec arrabbiata perch\u00e9 me ne ero completamente dimenticata!\tHo passato tutta la notte a lavorare sul tema, ma ho fatto in tempo.Completa la seguente storia: 'Un uomo pens\u00f2 di provare a coltivare i pomodori nel suo giardino. Cos\u00ec compr\u00f2 semi e attrezzature. Piant\u00f2 i semi e aspett\u00f2. Qualche mese dopo, si ritrov\u00f2 proprietario di un piccolo campo di grano.'fine: Ma poi gli venne uno sciame di pidocchi e i suoi pomodori non riuscirono a crescere. Per\u00f2, decise di mettersi all'opera e di provare di nuovo l'anno successivo."
                    }
                ]
            },
            {
                "input": "Cathy lavora in uno Starbucks. La settimana scorsa ha avuto un cliente indisciplinato. La cliente continuava a chiedere una bevanda che non esisteva. Alla fine, Cathy le ha dato un latte macchiato.",
                "output": [
                    {
                        "generated_text": "Prendi in considerazione i seguenti esempi per completare una storia:storia: Jennifer ha un esame importante domani.\tEra cos\u00ec stressata che ha passato la notte in bianco. Il giorno dopo \u00e8 andata in classe, stanca morta. L'insegnante le comunica che l'esame \u00e8 rimandato alla prossima settimana.fine: Jennifer ne \u00e8 rimasta amareggiata.storia: Tina ha preparato gli spaghetti per il suo ragazzo.\tCi \u00e8 voluto molto lavoro, ma lei era molto orgogliosa.\tIl suo ragazzo mangi\u00f2 tutto il piatto e disse che era buono. Tina ha assaggiato e si \u00e8 resa conto che era disgustoso.fine: Era commossa dal fatto che lui avesse fatto finta di essere buono per non ferire i suoi sentimenti.storia: Il mio professore assegn\u00f2 alla mia classe un tema.\tTempo di uscire dall'aula e me ne ero gi\u00e0 dimenticata.\tQualche giorno dopo, una mia compagna di classe mi ha scritto per chiedermi se l'avessi fatto.fine: Ero cos\u00ec arrabbiata perch\u00e9 me ne ero completamente dimenticata!\tHo passato tutta la notte a lavorare sul tema, ma ho fatto in tempo.Completa la seguente storia: 'Cathy lavora in uno Starbucks. La settimana scorsa ha avuto un cliente indisciplinato. La cliente continuava a chiedere una bevanda che non esisteva. Alla fine, Cathy le ha dato un latte macchiato.'fine: La cliente era arrabbiata, ma Cathy ha cercato di mantenere la calma e ha spiegato che non c'era nessun latte chiamato come quello che lei chiedeva."
                    }
                ]
            },
            {
                "input": "Oliver era entusiasta dei suoi regali di compleanno. Doveva aspettare, ma era impaziente. Si intrufol\u00f2 nell'armadio dei genitori. L\u00ec trov\u00f2 i suoi regali e li controll\u00f2 tutti.",
                "output": [
                    {
                        "generated_text": "Prendi in considerazione i seguenti esempi per completare una storia:storia: Jennifer ha un esame importante domani.\tEra cos\u00ec stressata che ha passato la notte in bianco. Il giorno dopo \u00e8 andata in classe, stanca morta. L'insegnante le comunica che l'esame \u00e8 rimandato alla prossima settimana.fine: Jennifer ne \u00e8 rimasta amareggiata.storia: Tina ha preparato gli spaghetti per il suo ragazzo.\tCi \u00e8 voluto molto lavoro, ma lei era molto orgogliosa.\tIl suo ragazzo mangi\u00f2 tutto il piatto e disse che era buono. Tina ha assaggiato e si \u00e8 resa conto che era disgustoso.fine: Era commossa dal fatto che lui avesse fatto finta di essere buono per non ferire i suoi sentimenti.storia: Il mio professore assegn\u00f2 alla mia classe un tema.\tTempo di uscire dall'aula e me ne ero gi\u00e0 dimenticata.\tQualche giorno dopo, una mia compagna di classe mi ha scritto per chiedermi se l'avessi fatto.fine: Ero cos\u00ec arrabbiata perch\u00e9 me ne ero completamente dimenticata!\tHo passato tutta la notte a lavorare sul tema, ma ho fatto in tempo.Completa la seguente storia: 'Oliver era entusiasta dei suoi regali di compleanno. Doveva aspettare, ma era impaziente. Si intrufol\u00f2 nell'armadio dei genitori. L\u00ec trov\u00f2 i suoi regali e li controll\u00f2 tutti.'fine: I regali erano stupendi. Erano i suoi preferiti, e Oliver li ha messi subito su. Poi \u00e8 corso dalla madre per mostrarle quanto era entusiasta."
                    }
                ]
            },
            {
                "input": "Tina aveva in programma una gita con gli amici, cos\u00ec controll\u00f2 il meteo. Le previsioni del tempo dicevano che ci sarebbe stato il sole per tutto il giorno. Tina si \u00e8 fidata delle previsioni e si \u00e8 vestita di conseguenza.",
                "output": [
                    {
                        "generated_text": "Prendi in considerazione i seguenti esempi per completare una storia:storia: Jennifer ha un esame importante domani.\tEra cos\u00ec stressata che ha passato la notte in bianco. Il giorno dopo \u00e8 andata in classe, stanca morta. L'insegnante le comunica che l'esame \u00e8 rimandato alla prossima settimana.fine: Jennifer ne \u00e8 rimasta amareggiata.storia: Tina ha preparato gli spaghetti per il suo ragazzo.\tCi \u00e8 voluto molto lavoro, ma lei era molto orgogliosa.\tIl suo ragazzo mangi\u00f2 tutto il piatto e disse che era buono. Tina ha assaggiato e si \u00e8 resa conto che era disgustoso.fine: Era commossa dal fatto che lui avesse fatto finta di essere buono per non ferire i suoi sentimenti.storia: Il mio professore assegn\u00f2 alla mia classe un tema.\tTempo di uscire dall'aula e me ne ero gi\u00e0 dimenticata.\tQualche giorno dopo, una mia compagna di classe mi ha scritto per chiedermi se l'avessi fatto.fine: Ero cos\u00ec arrabbiata perch\u00e9 me ne ero completamente dimenticata!\tHo passato tutta la notte a lavorare sul tema, ma ho fatto in tempo.Completa la seguente storia: 'Tina aveva in programma una gita con gli amici, cos\u00ec controll\u00f2 il meteo. Le previsioni del tempo dicevano che ci sarebbe stato il sole per tutto il giorno. Tina si \u00e8 fidata delle previsioni e si \u00e8 vestita di conseguenza.'fine: Ma quando ha lasciato la casa, ha trovato la strada bloccata a causa di un'intensa bufera di neve. Lei e i suoi amici hanno dovuto trovare riparo per la notte."
                    }
                ]
            },
            {
                "input": "Kayla stava cercando di trovare dei nomi per il suo bambino. Suo marito non era d'accordo con tutti i nomi che le venivano proposti. Kayla gli chiese un elenco di nomi accettabili. Insieme hanno raggiunto un compromesso.",
                "output": [
                    {
                        "generated_text": "Prendi in considerazione i seguenti esempi per completare una storia:storia: Jennifer ha un esame importante domani.\tEra cos\u00ec stressata che ha passato la notte in bianco. Il giorno dopo \u00e8 andata in classe, stanca morta. L'insegnante le comunica che l'esame \u00e8 rimandato alla prossima settimana.fine: Jennifer ne \u00e8 rimasta amareggiata.storia: Tina ha preparato gli spaghetti per il suo ragazzo.\tCi \u00e8 voluto molto lavoro, ma lei era molto orgogliosa.\tIl suo ragazzo mangi\u00f2 tutto il piatto e disse che era buono. Tina ha assaggiato e si \u00e8 resa conto che era disgustoso.fine: Era commossa dal fatto che lui avesse fatto finta di essere buono per non ferire i suoi sentimenti.storia: Il mio professore assegn\u00f2 alla mia classe un tema.\tTempo di uscire dall'aula e me ne ero gi\u00e0 dimenticata.\tQualche giorno dopo, una mia compagna di classe mi ha scritto per chiedermi se l'avessi fatto.fine: Ero cos\u00ec arrabbiata perch\u00e9 me ne ero completamente dimenticata!\tHo passato tutta la notte a lavorare sul tema, ma ho fatto in tempo.Completa la seguente storia: 'Kayla stava cercando di trovare dei nomi per il suo bambino. Suo marito non era d'accordo con tutti i nomi che le venivano proposti. Kayla gli chiese un elenco di nomi accettabili. Insieme hanno raggiunto un compromesso.'fine: Il loro bambino si chiama ora Kayley e la felicit\u00e0 di tutti e tre \u00e8 incommensurabile."
                    }
                ]
            },
            {
                "input": "Molly si stava preparando per il suo matrimonio. Aveva appena indossato il suo abito bianco. All'improvviso, una bevanda si rovesci\u00f2 e macchi\u00f2 il vestito di rosa. Per fortuna \u00e8 apparsa sua madre.",
                "output": [
                    {
                        "generated_text": "Prendi in considerazione i seguenti esempi per completare una storia:storia: Jennifer ha un esame importante domani.\tEra cos\u00ec stressata che ha passato la notte in bianco. Il giorno dopo \u00e8 andata in classe, stanca morta. L'insegnante le comunica che l'esame \u00e8 rimandato alla prossima settimana.fine: Jennifer ne \u00e8 rimasta amareggiata.storia: Tina ha preparato gli spaghetti per il suo ragazzo.\tCi \u00e8 voluto molto lavoro, ma lei era molto orgogliosa.\tIl suo ragazzo mangi\u00f2 tutto il piatto e disse che era buono. Tina ha assaggiato e si \u00e8 resa conto che era disgustoso.fine: Era commossa dal fatto che lui avesse fatto finta di essere buono per non ferire i suoi sentimenti.storia: Il mio professore assegn\u00f2 alla mia classe un tema.\tTempo di uscire dall'aula e me ne ero gi\u00e0 dimenticata.\tQualche giorno dopo, una mia compagna di classe mi ha scritto per chiedermi se l'avessi fatto.fine: Ero cos\u00ec arrabbiata perch\u00e9 me ne ero completamente dimenticata!\tHo passato tutta la notte a lavorare sul tema, ma ho fatto in tempo.Completa la seguente storia: 'Molly si stava preparando per il suo matrimonio. Aveva appena indossato il suo abito bianco. All'improvviso, una bevanda si rovesci\u00f2 e macchi\u00f2 il vestito di rosa. Per fortuna \u00e8 apparsa sua madre.'fine: Molly era triste e disillusa, ma sua madre ha aiutato a riparare il vestito in tempo per il matrimonio."
                    }
                ]
            },
            {
                "input": "Ross si iscrisse a una gara di 6 miglia a due mesi di distanza. Tuttavia, Ross aveva corso solo per circa 3 miglia ogni volta. Si rese conto che doveva impegnarsi e allenarsi. Dedic\u00f2 pi\u00f9 tempo all'allenamento e aument\u00f2 lentamente la distanza di corsa.",
                "output": [
                    {
                        "generated_text": "Prendi in considerazione i seguenti esempi per completare una storia:storia: Jennifer ha un esame importante domani.\tEra cos\u00ec stressata che ha passato la notte in bianco. Il giorno dopo \u00e8 andata in classe, stanca morta. L'insegnante le comunica che l'esame \u00e8 rimandato alla prossima settimana.fine: Jennifer ne \u00e8 rimasta amareggiata.storia: Tina ha preparato gli spaghetti per il suo ragazzo.\tCi \u00e8 voluto molto lavoro, ma lei era molto orgogliosa.\tIl suo ragazzo mangi\u00f2 tutto il piatto e disse che era buono. Tina ha assaggiato e si \u00e8 resa conto che era disgustoso.fine: Era commossa dal fatto che lui avesse fatto finta di essere buono per non ferire i suoi sentimenti.storia: Il mio professore assegn\u00f2 alla mia classe un tema.\tTempo di uscire dall'aula e me ne ero gi\u00e0 dimenticata.\tQualche giorno dopo, una mia compagna di classe mi ha scritto per chiedermi se l'avessi fatto.fine: Ero cos\u00ec arrabbiata perch\u00e9 me ne ero completamente dimenticata!\tHo passato tutta la notte a lavorare sul tema, ma ho fatto in tempo.Completa la seguente storia: 'Ross si iscrisse a una gara di 6 miglia a due mesi di distanza. Tuttavia, Ross aveva corso solo per circa 3 miglia ogni volta. Si rese conto che doveva impegnarsi e allenarsi. Dedic\u00f2 pi\u00f9 tempo all'allenamento e aument\u00f2 lentamente la distanza di corsa.'fine: La gara era arrivata. Ross era nervoso, ma decise di fare il suo miglior tempo. Corse il percorso e si rese conto di aver corso la distanza pi\u00f9 lunga in assoluto. Non solo aveva vinto la gara, ma aveva anche superato la sua paura di allenarsi."
                    }
                ]
            },
            {
                "input": "Jane era fuori per una passeggiata. Sent\u00ec un rombo tra le nuvole e inizi\u00f2 a piovere. Cerc\u00f2 di affrettarsi e di correre per il resto della strada. Era troppo tardi e quando arriv\u00f2 a casa era gi\u00e0 fradicia.",
                "output": [
                    {
                        "generated_text": "Prendi in considerazione i seguenti esempi per completare una storia:storia: Jennifer ha un esame importante domani.\tEra cos\u00ec stressata che ha passato la notte in bianco. Il giorno dopo \u00e8 andata in classe, stanca morta. L'insegnante le comunica che l'esame \u00e8 rimandato alla prossima settimana.fine: Jennifer ne \u00e8 rimasta amareggiata.storia: Tina ha preparato gli spaghetti per il suo ragazzo.\tCi \u00e8 voluto molto lavoro, ma lei era molto orgogliosa.\tIl suo ragazzo mangi\u00f2 tutto il piatto e disse che era buono. Tina ha assaggiato e si \u00e8 resa conto che era disgustoso.fine: Era commossa dal fatto che lui avesse fatto finta di essere buono per non ferire i suoi sentimenti.storia: Il mio professore assegn\u00f2 alla mia classe un tema.\tTempo di uscire dall'aula e me ne ero gi\u00e0 dimenticata.\tQualche giorno dopo, una mia compagna di classe mi ha scritto per chiedermi se l'avessi fatto.fine: Ero cos\u00ec arrabbiata perch\u00e9 me ne ero completamente dimenticata!\tHo passato tutta la notte a lavorare sul tema, ma ho fatto in tempo.Completa la seguente storia: 'Jane era fuori per una passeggiata. Sent\u00ec un rombo tra le nuvole e inizi\u00f2 a piovere. Cerc\u00f2 di affrettarsi e di correre per il resto della strada. Era troppo tardi e quando arriv\u00f2 a casa era gi\u00e0 fradicia.'fine: Jane si stava asciugando gli abiti davanti al caminetto quando sua madre entr\u00f2 e le chiese cosa successe. Jane disse a sua madre che aveva perso l'auto e aveva cercato riparo sotto un portico. Ma quando si era resa conto che non pioveva pi\u00f9, aveva capito di avere dimenticato di chiudere la porta della cantina e aveva dovuto rimettersi tutto in sesto. Sua madre le offr\u00ec una tazza di t\u00e8 e un paio"
                    }
                ]
            },
            {
                "input": "Sam and\u00f2 alla tavola calda e ordin\u00f2 colazione e un caff\u00e8 decaffeinato. La cameriera aveva una aria colpevole mentre gli versava il caff\u00e8. Sam sorseggi\u00f2 il caff\u00e8 e cap\u00ec che gli aveva dato un caff\u00e8 normale. La chiam\u00f2 quando torn\u00f2 con il cibo.",
                "output": [
                    {
                        "generated_text": "Prendi in considerazione i seguenti esempi per completare una storia:storia: Jennifer ha un esame importante domani.\tEra cos\u00ec stressata che ha passato la notte in bianco. Il giorno dopo \u00e8 andata in classe, stanca morta. L'insegnante le comunica che l'esame \u00e8 rimandato alla prossima settimana.fine: Jennifer ne \u00e8 rimasta amareggiata.storia: Tina ha preparato gli spaghetti per il suo ragazzo.\tCi \u00e8 voluto molto lavoro, ma lei era molto orgogliosa.\tIl suo ragazzo mangi\u00f2 tutto il piatto e disse che era buono. Tina ha assaggiato e si \u00e8 resa conto che era disgustoso.fine: Era commossa dal fatto che lui avesse fatto finta di essere buono per non ferire i suoi sentimenti.storia: Il mio professore assegn\u00f2 alla mia classe un tema.\tTempo di uscire dall'aula e me ne ero gi\u00e0 dimenticata.\tQualche giorno dopo, una mia compagna di classe mi ha scritto per chiedermi se l'avessi fatto.fine: Ero cos\u00ec arrabbiata perch\u00e9 me ne ero completamente dimenticata!\tHo passato tutta la notte a lavorare sul tema, ma ho fatto in tempo.Completa la seguente storia: 'Sam and\u00f2 alla tavola calda e ordin\u00f2 colazione e un caff\u00e8 decaffeinato. La cameriera aveva una aria colpevole mentre gli versava il caff\u00e8. Sam sorseggi\u00f2 il caff\u00e8 e cap\u00ec che gli aveva dato un caff\u00e8 normale. La chiam\u00f2 quando torn\u00f2 con il cibo.'fine: Sam era arrabbiato ma decise di non farsi problemi e inizi\u00f2 a mangiare la sua colazione. Ma poi, si rese conto di qualcosa. L'odore del caff\u00e8 era sbagliato..."
                    }
                ]
            },
            {
                "input": "Tom e Sheryl stavano assieme da due anni. Un giorno andarono insieme ad un luna park. Lui le vinse diversi orsetti di peluche e le compr\u00f2 degli strauben. Quando arrivarono alla ruota panoramica, lui si \u00e8 inginocchi\u00f2.",
                "output": [
                    {
                        "generated_text": "Prendi in considerazione i seguenti esempi per completare una storia:storia: Jennifer ha un esame importante domani.\tEra cos\u00ec stressata che ha passato la notte in bianco. Il giorno dopo \u00e8 andata in classe, stanca morta. L'insegnante le comunica che l'esame \u00e8 rimandato alla prossima settimana.fine: Jennifer ne \u00e8 rimasta amareggiata.storia: Tina ha preparato gli spaghetti per il suo ragazzo.\tCi \u00e8 voluto molto lavoro, ma lei era molto orgogliosa.\tIl suo ragazzo mangi\u00f2 tutto il piatto e disse che era buono. Tina ha assaggiato e si \u00e8 resa conto che era disgustoso.fine: Era commossa dal fatto che lui avesse fatto finta di essere buono per non ferire i suoi sentimenti.storia: Il mio professore assegn\u00f2 alla mia classe un tema.\tTempo di uscire dall'aula e me ne ero gi\u00e0 dimenticata.\tQualche giorno dopo, una mia compagna di classe mi ha scritto per chiedermi se l'avessi fatto.fine: Ero cos\u00ec arrabbiata perch\u00e9 me ne ero completamente dimenticata!\tHo passato tutta la notte a lavorare sul tema, ma ho fatto in tempo.Completa la seguente storia: 'Tom e Sheryl stavano assieme da due anni. Un giorno andarono insieme ad un luna park. Lui le vinse diversi orsetti di peluche e le compr\u00f2 degli strauben. Quando arrivarono alla ruota panoramica, lui si \u00e8 inginocchi\u00f2.'fine: Tom propose a Sheryl di sposarlo e lei ha accettato."
                    }
                ]
            },
            {
                "input": "Harry voleva fare un'escursione la settimana scorsa. Aveva comprato tanta attrezzatura per prepararsi. Tuttavia, quando stava per partire, non riusciva a trovare la sua tenda. Alla fine \u00e8 rimasto a casa.",
                "output": [
                    {
                        "generated_text": "Prendi in considerazione i seguenti esempi per completare una storia:storia: Jennifer ha un esame importante domani.\tEra cos\u00ec stressata che ha passato la notte in bianco. Il giorno dopo \u00e8 andata in classe, stanca morta. L'insegnante le comunica che l'esame \u00e8 rimandato alla prossima settimana.fine: Jennifer ne \u00e8 rimasta amareggiata.storia: Tina ha preparato gli spaghetti per il suo ragazzo.\tCi \u00e8 voluto molto lavoro, ma lei era molto orgogliosa.\tIl suo ragazzo mangi\u00f2 tutto il piatto e disse che era buono. Tina ha assaggiato e si \u00e8 resa conto che era disgustoso.fine: Era commossa dal fatto che lui avesse fatto finta di essere buono per non ferire i suoi sentimenti.storia: Il mio professore assegn\u00f2 alla mia classe un tema.\tTempo di uscire dall'aula e me ne ero gi\u00e0 dimenticata.\tQualche giorno dopo, una mia compagna di classe mi ha scritto per chiedermi se l'avessi fatto.fine: Ero cos\u00ec arrabbiata perch\u00e9 me ne ero completamente dimenticata!\tHo passato tutta la notte a lavorare sul tema, ma ho fatto in tempo.Completa la seguente storia: 'Harry voleva fare un'escursione la settimana scorsa. Aveva comprato tanta attrezzatura per prepararsi. Tuttavia, quando stava per partire, non riusciva a trovare la sua tenda. Alla fine \u00e8 rimasto a casa.'fine: Si era sentito cos\u00ec depresso e deluso! Ma poi ha trovato la tenda e ha potuto fare l'escursione la settimana dopo. \u00c8 riuscito a godersi al meglio della natura e ha fatto delle belle foto."
                    }
                ]
            },
            {
                "input": "Camminavo lungo la spiaggia alla ricerca di conchiglie. In lontananza individuai una conchiglia perfetta. Mi misi a correre a tutta velocit\u00e0, ma anche l'acqua si precipit\u00f2 su di essa. Mi tuffai sulla conchiglia prima che le onde la raccogliessero.",
                "output": [
                    {
                        "generated_text": "Prendi in considerazione i seguenti esempi per completare una storia:storia: Jennifer ha un esame importante domani.\tEra cos\u00ec stressata che ha passato la notte in bianco. Il giorno dopo \u00e8 andata in classe, stanca morta. L'insegnante le comunica che l'esame \u00e8 rimandato alla prossima settimana.fine: Jennifer ne \u00e8 rimasta amareggiata.storia: Tina ha preparato gli spaghetti per il suo ragazzo.\tCi \u00e8 voluto molto lavoro, ma lei era molto orgogliosa.\tIl suo ragazzo mangi\u00f2 tutto il piatto e disse che era buono. Tina ha assaggiato e si \u00e8 resa conto che era disgustoso.fine: Era commossa dal fatto che lui avesse fatto finta di essere buono per non ferire i suoi sentimenti.storia: Il mio professore assegn\u00f2 alla mia classe un tema.\tTempo di uscire dall'aula e me ne ero gi\u00e0 dimenticata.\tQualche giorno dopo, una mia compagna di classe mi ha scritto per chiedermi se l'avessi fatto.fine: Ero cos\u00ec arrabbiata perch\u00e9 me ne ero completamente dimenticata!\tHo passato tutta la notte a lavorare sul tema, ma ho fatto in tempo.Completa la seguente storia: 'Camminavo lungo la spiaggia alla ricerca di conchiglie. In lontananza individuai una conchiglia perfetta. Mi misi a correre a tutta velocit\u00e0, ma anche l'acqua si precipit\u00f2 su di essa. Mi tuffai sulla conchiglia prima che le onde la raccogliessero.'fine: Mi sentii delusa e frustrata, ma non mi abbatterai. Sfiduciata, continuai a cercare conchiglie per il resto della giornata. Non riuscii per\u00f2 a trovarne di belle come quella."
                    }
                ]
            },
            {
                "input": "Jenny si reca dal medico per un controllo di routine. Fu scoperta un'anomalia che si rivel\u00f2 essere un cancro. Il medico le disse che la chemioterapia era probabilmente la scelta migliore. Jenny acconsent\u00ec e il trattamento dur\u00f2 mesi.",
                "output": [
                    {
                        "generated_text": "Prendi in considerazione i seguenti esempi per completare una storia:storia: Jennifer ha un esame importante domani.\tEra cos\u00ec stressata che ha passato la notte in bianco. Il giorno dopo \u00e8 andata in classe, stanca morta. L'insegnante le comunica che l'esame \u00e8 rimandato alla prossima settimana.fine: Jennifer ne \u00e8 rimasta amareggiata.storia: Tina ha preparato gli spaghetti per il suo ragazzo.\tCi \u00e8 voluto molto lavoro, ma lei era molto orgogliosa.\tIl suo ragazzo mangi\u00f2 tutto il piatto e disse che era buono. Tina ha assaggiato e si \u00e8 resa conto che era disgustoso.fine: Era commossa dal fatto che lui avesse fatto finta di essere buono per non ferire i suoi sentimenti.storia: Il mio professore assegn\u00f2 alla mia classe un tema.\tTempo di uscire dall'aula e me ne ero gi\u00e0 dimenticata.\tQualche giorno dopo, una mia compagna di classe mi ha scritto per chiedermi se l'avessi fatto.fine: Ero cos\u00ec arrabbiata perch\u00e9 me ne ero completamente dimenticata!\tHo passato tutta la notte a lavorare sul tema, ma ho fatto in tempo.Completa la seguente storia: 'Jenny si reca dal medico per un controllo di routine. Fu scoperta un'anomalia che si rivel\u00f2 essere un cancro. Il medico le disse che la chemioterapia era probabilmente la scelta migliore. Jenny acconsent\u00ec e il trattamento dur\u00f2 mesi.'fine: Jenny non si sentiva pronta per affrontare la chemioterapia, ma sentiva di non avere altra scelta. Sapeva che doveva combattere per vivere."
                    }
                ]
            },
            {
                "input": "Rita era molto avanti con la gravidanza. Un giorno si svegli\u00f2 nel cuore della notte in preda ai dolori. A Rita si erano rotte le acque ed era arrivato il momento di andare in ospedale. Tutti si affrettarono ad assistere Rita mentre partoriva.",
                "output": [
                    {
                        "generated_text": "Prendi in considerazione i seguenti esempi per completare una storia:storia: Jennifer ha un esame importante domani.\tEra cos\u00ec stressata che ha passato la notte in bianco. Il giorno dopo \u00e8 andata in classe, stanca morta. L'insegnante le comunica che l'esame \u00e8 rimandato alla prossima settimana.fine: Jennifer ne \u00e8 rimasta amareggiata.storia: Tina ha preparato gli spaghetti per il suo ragazzo.\tCi \u00e8 voluto molto lavoro, ma lei era molto orgogliosa.\tIl suo ragazzo mangi\u00f2 tutto il piatto e disse che era buono. Tina ha assaggiato e si \u00e8 resa conto che era disgustoso.fine: Era commossa dal fatto che lui avesse fatto finta di essere buono per non ferire i suoi sentimenti.storia: Il mio professore assegn\u00f2 alla mia classe un tema.\tTempo di uscire dall'aula e me ne ero gi\u00e0 dimenticata.\tQualche giorno dopo, una mia compagna di classe mi ha scritto per chiedermi se l'avessi fatto.fine: Ero cos\u00ec arrabbiata perch\u00e9 me ne ero completamente dimenticata!\tHo passato tutta la notte a lavorare sul tema, ma ho fatto in tempo.Completa la seguente storia: 'Rita era molto avanti con la gravidanza. Un giorno si svegli\u00f2 nel cuore della notte in preda ai dolori. A Rita si erano rotte le acque ed era arrivato il momento di andare in ospedale. Tutti si affrettarono ad assistere Rita mentre partoriva.'fine: Rita e il suo bambino furono portati via in salvo e le fu detto che erano entrambi in salute. Il marito di Rita era molto felice di avere un figlio e si premurava di fare ogni cosa per la sua famiglia."
                    }
                ]
            },
            {
                "input": "Il quarterback titolare dei Denver Broncos era infortunato. Brock era il quarterback di riserva. Ha preso ripetizioni in allenamento per tutta la settimana. Brock era pronto per iniziare la partita successiva.",
                "output": [
                    {
                        "generated_text": "Prendi in considerazione i seguenti esempi per completare una storia:storia: Jennifer ha un esame importante domani.\tEra cos\u00ec stressata che ha passato la notte in bianco. Il giorno dopo \u00e8 andata in classe, stanca morta. L'insegnante le comunica che l'esame \u00e8 rimandato alla prossima settimana.fine: Jennifer ne \u00e8 rimasta amareggiata.storia: Tina ha preparato gli spaghetti per il suo ragazzo.\tCi \u00e8 voluto molto lavoro, ma lei era molto orgogliosa.\tIl suo ragazzo mangi\u00f2 tutto il piatto e disse che era buono. Tina ha assaggiato e si \u00e8 resa conto che era disgustoso.fine: Era commossa dal fatto che lui avesse fatto finta di essere buono per non ferire i suoi sentimenti.storia: Il mio professore assegn\u00f2 alla mia classe un tema.\tTempo di uscire dall'aula e me ne ero gi\u00e0 dimenticata.\tQualche giorno dopo, una mia compagna di classe mi ha scritto per chiedermi se l'avessi fatto.fine: Ero cos\u00ec arrabbiata perch\u00e9 me ne ero completamente dimenticata!\tHo passato tutta la notte a lavorare sul tema, ma ho fatto in tempo.Completa la seguente storia: 'Il quarterback titolare dei Denver Broncos era infortunato. Brock era il quarterback di riserva. Ha preso ripetizioni in allenamento per tutta la settimana. Brock era pronto per iniziare la partita successiva.'fine: Il coach ha scelto Brock come quarterback titolare per la partita successiva. Brock ha messo in mostra il suo talento e ha guidato la squadra ad una grande vittoria. Gli altri giocatori della squadra hanno riconosciuto le sue abilit\u00e0 e si sono messi dietro di lui."
                    }
                ]
            },
            {
                "input": "Ogni sera, Nick correva per tre miglia su un sentiero vicino a casa sua. Una notte, vide una grande ombra davanti a s\u00e9. L'ombra si rivel\u00f2 essere un orso nero!\tNick si gir\u00f2 e fece uno sprint nella direzione opposta.",
                "output": [
                    {
                        "generated_text": "Prendi in considerazione i seguenti esempi per completare una storia:storia: Jennifer ha un esame importante domani.\tEra cos\u00ec stressata che ha passato la notte in bianco. Il giorno dopo \u00e8 andata in classe, stanca morta. L'insegnante le comunica che l'esame \u00e8 rimandato alla prossima settimana.fine: Jennifer ne \u00e8 rimasta amareggiata.storia: Tina ha preparato gli spaghetti per il suo ragazzo.\tCi \u00e8 voluto molto lavoro, ma lei era molto orgogliosa.\tIl suo ragazzo mangi\u00f2 tutto il piatto e disse che era buono. Tina ha assaggiato e si \u00e8 resa conto che era disgustoso.fine: Era commossa dal fatto che lui avesse fatto finta di essere buono per non ferire i suoi sentimenti.storia: Il mio professore assegn\u00f2 alla mia classe un tema.\tTempo di uscire dall'aula e me ne ero gi\u00e0 dimenticata.\tQualche giorno dopo, una mia compagna di classe mi ha scritto per chiedermi se l'avessi fatto.fine: Ero cos\u00ec arrabbiata perch\u00e9 me ne ero completamente dimenticata!\tHo passato tutta la notte a lavorare sul tema, ma ho fatto in tempo.Completa la seguente storia: 'Ogni sera, Nick correva per tre miglia su un sentiero vicino a casa sua. Una notte, vide una grande ombra davanti a s\u00e9. L'ombra si rivel\u00f2 essere un orso nero!\tNick si gir\u00f2 e fece uno sprint nella direzione opposta.'fine: A Nick non importava di essere in un sentiero in mezzo alla notte, ma quando vide l'orso nero, decise di farla finita."
                    }
                ]
            },
            {
                "input": "Katelyn stava guidando in autostrada. All'improvviso, un cervo le \u00e8 saltato davanti. Ha sterzato ed \u00e8 andata a sbattere contro un muro. Per un attimo \u00e8 rimasta stordita, ma poi si \u00e8 resa conto che il cofano era in fiamme.",
                "output": [
                    {
                        "generated_text": "Prendi in considerazione i seguenti esempi per completare una storia:storia: Jennifer ha un esame importante domani.\tEra cos\u00ec stressata che ha passato la notte in bianco. Il giorno dopo \u00e8 andata in classe, stanca morta. L'insegnante le comunica che l'esame \u00e8 rimandato alla prossima settimana.fine: Jennifer ne \u00e8 rimasta amareggiata.storia: Tina ha preparato gli spaghetti per il suo ragazzo.\tCi \u00e8 voluto molto lavoro, ma lei era molto orgogliosa.\tIl suo ragazzo mangi\u00f2 tutto il piatto e disse che era buono. Tina ha assaggiato e si \u00e8 resa conto che era disgustoso.fine: Era commossa dal fatto che lui avesse fatto finta di essere buono per non ferire i suoi sentimenti.storia: Il mio professore assegn\u00f2 alla mia classe un tema.\tTempo di uscire dall'aula e me ne ero gi\u00e0 dimenticata.\tQualche giorno dopo, una mia compagna di classe mi ha scritto per chiedermi se l'avessi fatto.fine: Ero cos\u00ec arrabbiata perch\u00e9 me ne ero completamente dimenticata!\tHo passato tutta la notte a lavorare sul tema, ma ho fatto in tempo.Completa la seguente storia: 'Katelyn stava guidando in autostrada. All'improvviso, un cervo le \u00e8 saltato davanti. Ha sterzato ed \u00e8 andata a sbattere contro un muro. Per un attimo \u00e8 rimasta stordita, ma poi si \u00e8 resa conto che il cofano era in fiamme.'fine: Katelyn \u00e8 uscita in fretta dall'auto e, per fortuna, non ha avuto n\u00e9 gravi n\u00e9 lievi danni fisici. Tuttavia, l'auto \u00e8 stata distrutta e ha avuto molto paura. Alla fine, \u00e8 riuscita a chiamare un'ambulanza e un uomo che l'ha aiutata a uscire dall'auto, prima del suo arrivo."
                    }
                ]
            },
            {
                "input": "Il giudice entr\u00f2 nell'aula e prese posto. Chiese alla giuria se aveva un verdetto. L'uomo che guidava la giuria tir\u00f2 fuori una busta bianca. La tensione nell'aula aument\u00f2 quando la tir\u00f2 fuori per leggerla.",
                "output": [
                    {
                        "generated_text": "Prendi in considerazione i seguenti esempi per completare una storia:storia: Jennifer ha un esame importante domani.\tEra cos\u00ec stressata che ha passato la notte in bianco. Il giorno dopo \u00e8 andata in classe, stanca morta. L'insegnante le comunica che l'esame \u00e8 rimandato alla prossima settimana.fine: Jennifer ne \u00e8 rimasta amareggiata.storia: Tina ha preparato gli spaghetti per il suo ragazzo.\tCi \u00e8 voluto molto lavoro, ma lei era molto orgogliosa.\tIl suo ragazzo mangi\u00f2 tutto il piatto e disse che era buono. Tina ha assaggiato e si \u00e8 resa conto che era disgustoso.fine: Era commossa dal fatto che lui avesse fatto finta di essere buono per non ferire i suoi sentimenti.storia: Il mio professore assegn\u00f2 alla mia classe un tema.\tTempo di uscire dall'aula e me ne ero gi\u00e0 dimenticata.\tQualche giorno dopo, una mia compagna di classe mi ha scritto per chiedermi se l'avessi fatto.fine: Ero cos\u00ec arrabbiata perch\u00e9 me ne ero completamente dimenticata!\tHo passato tutta la notte a lavorare sul tema, ma ho fatto in tempo.Completa la seguente storia: 'Il giudice entr\u00f2 nell'aula e prese posto. Chiese alla giuria se aveva un verdetto. L'uomo che guidava la giuria tir\u00f2 fuori una busta bianca. La tensione nell'aula aument\u00f2 quando la tir\u00f2 fuori per leggerla.'fine: La busta era chiusa e firmata. La giuria rimase in ascolto mentre la busta veniva aperta e il verdetto letto in silenzio. L'accusato rimase immobile mentre l'udienza si concluse con la sentenza di colpevolezza o innocenza."
                    }
                ]
            },
            {
                "input": "La mia ragazza prepara lo stufato di pollo e broccoli per cena. \u00c8 uno dei miei piatti preferiti. Tuttavia, il pollo \u00e8 risultato un po' rosa. Temevamo che fosse poco cotto.",
                "output": [
                    {
                        "generated_text": "Prendi in considerazione i seguenti esempi per completare una storia:storia: Jennifer ha un esame importante domani.\tEra cos\u00ec stressata che ha passato la notte in bianco. Il giorno dopo \u00e8 andata in classe, stanca morta. L'insegnante le comunica che l'esame \u00e8 rimandato alla prossima settimana.fine: Jennifer ne \u00e8 rimasta amareggiata.storia: Tina ha preparato gli spaghetti per il suo ragazzo.\tCi \u00e8 voluto molto lavoro, ma lei era molto orgogliosa.\tIl suo ragazzo mangi\u00f2 tutto il piatto e disse che era buono. Tina ha assaggiato e si \u00e8 resa conto che era disgustoso.fine: Era commossa dal fatto che lui avesse fatto finta di essere buono per non ferire i suoi sentimenti.storia: Il mio professore assegn\u00f2 alla mia classe un tema.\tTempo di uscire dall'aula e me ne ero gi\u00e0 dimenticata.\tQualche giorno dopo, una mia compagna di classe mi ha scritto per chiedermi se l'avessi fatto.fine: Ero cos\u00ec arrabbiata perch\u00e9 me ne ero completamente dimenticata!\tHo passato tutta la notte a lavorare sul tema, ma ho fatto in tempo.Completa la seguente storia: 'La mia ragazza prepara lo stufato di pollo e broccoli per cena. \u00c8 uno dei miei piatti preferiti. Tuttavia, il pollo \u00e8 risultato un po' rosa. Temevamo che fosse poco cotto.'fine: Ho detto di no, \u00e8 stato troppo rosa, hai sbagliato. Ma lei insiste sul fatto che ha cotto il pollo allo stesso tempo del broccoli. Sembrava un po' troppo, non c'era dubbio."
                    }
                ]
            },
            {
                "input": "Julia stava guardando un film sul suo tablet. Stava camminando con il tablet in casa. All'improvviso \u00e8 inciampata e ha fatto cadere il tablet. Quando l'ha raccolto, si \u00e8 resa conto che si era rotto.",
                "output": [
                    {
                        "generated_text": "Prendi in considerazione i seguenti esempi per completare una storia:storia: Jennifer ha un esame importante domani.\tEra cos\u00ec stressata che ha passato la notte in bianco. Il giorno dopo \u00e8 andata in classe, stanca morta. L'insegnante le comunica che l'esame \u00e8 rimandato alla prossima settimana.fine: Jennifer ne \u00e8 rimasta amareggiata.storia: Tina ha preparato gli spaghetti per il suo ragazzo.\tCi \u00e8 voluto molto lavoro, ma lei era molto orgogliosa.\tIl suo ragazzo mangi\u00f2 tutto il piatto e disse che era buono. Tina ha assaggiato e si \u00e8 resa conto che era disgustoso.fine: Era commossa dal fatto che lui avesse fatto finta di essere buono per non ferire i suoi sentimenti.storia: Il mio professore assegn\u00f2 alla mia classe un tema.\tTempo di uscire dall'aula e me ne ero gi\u00e0 dimenticata.\tQualche giorno dopo, una mia compagna di classe mi ha scritto per chiedermi se l'avessi fatto.fine: Ero cos\u00ec arrabbiata perch\u00e9 me ne ero completamente dimenticata!\tHo passato tutta la notte a lavorare sul tema, ma ho fatto in tempo.Completa la seguente storia: 'Julia stava guardando un film sul suo tablet. Stava camminando con il tablet in casa. All'improvviso \u00e8 inciampata e ha fatto cadere il tablet. Quando l'ha raccolto, si \u00e8 resa conto che si era rotto.'fine: Julia si \u00e8 sentita in colpa e ha deciso di pagare una cifra elevata per sostituirlo con un nuovo modello."
                    }
                ]
            }
        ]
    }
]