[
    {
        "model_name": "TheBloke/Wizard-Vicuna-13B-Uncensored-HF",
        "results": [
            {
                "input": "Jennifer ha un esame importante domani. Era cos\u00ec stressata che ha passato la notte in bianco. Il giorno dopo \u00e8 andata in classe, stanca morta. L'insegnante le comunica che l'esame \u00e8 rimandato alla prossima settimana.",
                "output": [
                    {
                        "generated_text": "Completa la seguente storia: 'Jennifer ha un esame importante domani. Era cos\u00ec stressata che ha passato la notte in bianco. Il giorno dopo \u00e8 andata in classe, stanca morta. L'insegnante le comunica che l'esame \u00e8 rimandato alla prossima settimana.' Rispetto all'inciso iniziale, l'inciso finale aggiunge:\na) una circostanza\nb) una conseguenza\nc) una conseguenza e una circostanza\nd) una spiegazione\ne) una condizione per cui ha accaduto qualcosa. \n\nLa risposta corretta \u00e8 b) una conseguenza. L'inciso finale specifica che Jennifer \u00e8 andata in classe stanca morta il giorno dopo, cosa che non era stata menzionata nell'inciso iniziale."
                    }
                ]
            },
            {
                "input": "Morgan e la sua famiglia vivevano in Florida. Avevano sentito che stava arrivando un uragano. Decisero di evacuare a casa di un parente. Arrivarono e appresero dal telegiornale che si trattava di una terribile tempesta.",
                "output": [
                    {
                        "generated_text": "Completa la seguente storia: 'Morgan e la sua famiglia vivevano in Florida. Avevano sentito che stava arrivando un uragano. Decisero di evacuare a casa di un parente. Arrivarono e appresero dal telegiornale che si trattava di una terribile tempesta.' Che cosa successe poi?\"\nIn questa domanda, il test di base \u00e8 verificare se la risposta del candidato \u00e8 corretta o meno. Se la domanda \u00e8 stata completata correttamente, il test di base pu\u00f2 essere considerato soddisfatto.\nSe la risposta del candidato \u00e8 errata, il test di base potrebbe essere modificato in modo da valutare se il candidato ha compreso il significato della frase oppure se non \u00e8 in grado di rispondere con precisione e chiarezza. Se la risposta del candidato \u00e8 incomprensibile o confusa, si potrebbe domandare a quale punto manca la comprensione o se ha capito il significato della domanda.\nIn questo modo, il test di base pu\u00f2 essere modificato a seconda dei problemi specifici che il candidato ha manifestato."
                    }
                ]
            },
            {
                "input": "Tina ha preparato gli spaghetti per il suo ragazzo. Ci \u00e8 voluto molto lavoro, ma lei era molto orgogliosa. Il suo ragazzo mangi\u00f2 tutto il piatto e disse che era buono. Tina ha assaggiato lei stessa e si \u00e8 resa conto che era disgustoso.",
                "output": [
                    {
                        "generated_text": "Completa la seguente storia: 'Tina ha preparato gli spaghetti per il suo ragazzo. Ci \u00e8 voluto molto lavoro, ma lei era molto orgogliosa. Il suo ragazzo mangi\u00f2 tutto il piatto e disse che era buono. Tina ha assaggiato lei stessa e si \u00e8 resa conto che era disgustoso.'\"\n2. \"Storia breve. Un uomo sta camminando per la citt\u00e0. Vede dei cartelloni stralunati in cui \u00e8 scritto 'Abbasso il governo!'. Si gira verso di essi e vede un gruppo di persone che stanno protestando contro il governo. Entra in una libreria per cercare un libro che gli parli di come cambiare il mondo.\"\n3. \"La mia famiglia era sempre in viaggio. Mi piaceva andare in giro per il mondo e vedere nuovi Paesi. Un giorno, mentre stavo viaggiando in Tailandia, ho incontrato una famiglia locale. Hanno invitato me e la mia famiglia a casa loro per una cena. \u00c8 stato un'esperienza incredibile e mi \u00e8 stato molto ispiratore conoscere persone di altre culture.\"\n4. \"Storia breve. Un uomo sta guardando la televisione, quando improvvisamente la TV si spegne. Si alza e dice: 'Abbiamo perso la corrente?', ma la moglie gli risponde: 'No, ci siamo semplicemente accorti di qualcosa di pi\u00f9 importante.'\"\n5. \"Un uomo \u00e8 andato al parco e ha trovato una piccola creatura ferita. Ha deciso di portarla a casa con s\u00e9 per curarla. La creatura, in realt\u00e0, era un gufo e ha iniziato a parlare con lui. Gli ha rivelato un segreto che ha cambiato la sua vita.\"\n6. \"Storia breve. Un ragazzo aveva appena finito il liceo e stava cercando una carriera. Era indeciso su cosa fare. Un amico gli consigli\u00f2 di andare in un negozio di libri. L\u00ec, ha letto un libro sulla storia di un grande leader che ha cambiato il mondo. Questo"
                    }
                ]
            },
            {
                "input": "Il mio professore assegn\u00f2 alla mia classe un tema. Tempo di uscire dall'aula e me ne ero gi\u00e0 dimenticata. Qualche giorno dopo, una mia compagna di classe mi ha scritto per chiedermi se l'avessi fatto.",
                "output": [
                    {
                        "generated_text": "Completa la seguente storia: 'Il mio professore assegn\u00f2 alla mia classe un tema. Tempo di uscire dall'aula e me ne ero gi\u00e0 dimenticata. Qualche giorno dopo, una mia compagna di classe mi ha scritto per chiedermi se l'avessi fatto.' Che cosa hai scritto alla compagna di classe?\".\n* Questo quiz si chiama \"Il gioco dei numeri\". Il gioco comprende 6 domande. L'obiettivo del gioco \u00e8 indovinare il numero esatto tra 0 e 100 che sta alla base della domanda. Il primo giocatore a indovinare esattezza il numero vince la partita. Quale numero deve essere indovinato in questa domanda: \"Quanto tempo ci vogliono per fare il giro della mia mano alza?\"\"."
                    }
                ]
            },
            {
                "input": "Kaitlyn pensava che i jeans con i buchi fossero molto alla moda. Li indoss\u00f2 a scuola per sfoggiarli. Il preside le disse che erano contrari al codice di abbigliamento. Ha dovuto cambiare i suoi jeans.",
                "output": [
                    {
                        "generated_text": "Completa la seguente storia: 'Kaitlyn pensava che i jeans con i buchi fossero molto alla moda. Li indoss\u00f2 a scuola per sfoggiarli. Il preside le disse che erano contrari al codice di abbigliamento. Ha dovuto cambiare i suoi jeans.'\",\n\t],\n\t\"field_15\": [\n\t\t\"L'ho visto al parco. \u00c8 alto, biondo e ha un cane. Si chiama John.\",\n\t\t\"L'ho notato al negozio. \u00c8 bionda, vestita di rosso e ha un cappello a punta. Ha una borsa marrone.\",\n\t\t\"L'ho incontrato in strada. Portava una maglietta a maniche lunghe con la scritta 'I Love New York' e stivali rosa.\",\n\t\t\"L'ho visto a teatro. Era seduto nel palco di fronte e indossava un vestito nero. Si chiama David.\",\n\t\t\"L'ho visto a scuola. \u00c8 alto e ha capelli castani. Indossava scarpe blu e un t-shirt con un'immagine di un cani da guardia.\",\n\t\t\"L'ho visto al negozio del centro commerciale. Vestiva nero e stava parlando al cellulare.\",\n\t\t\"L'ho incontrato in ascensore. Indossava un completo grigio, una camicia bianca e una cravatta rossa.\"\n\t],\n\t\"field_16\": [\n\t\t\"Eravate nel negozio della spesa?\",\n\t\t\"Abbiamo visto l'auto della polizia mentre parcheggiavano nel parcheggio della stazione.\",\n\t\t\"Mi sono fermato a bere una birra al bar. C'era una band che suonava e tutti cantavano. Mi sono sentito felice.\",\n\t\t\"Abbiamo camminato lungo il lago. La luce del sole rifletteva sulle acque scure e le rane cantavano.\",\n\t\t\"Abbiamo preso un taxi e ci siamo diretta all'aeroporto. Era una"
                    }
                ]
            },
            {
                "input": "James si svegli\u00f2 nel cuore della notte e trov\u00f2 il suo letto che tremava. Tutte le cose nella sua stanza tremavano furiosamente. Era spaventato, ma poi all'improvviso smise. Si alz\u00f2 e controll\u00f2 il telegiornale.",
                "output": [
                    {
                        "generated_text": "Completa la seguente storia: 'James si svegli\u00f2 nel cuore della notte e trov\u00f2 il suo letto che tremava. Tutte le cose nella sua stanza tremavano furiosamente. Era spaventato, ma poi all'improvviso smise. Si alz\u00f2 e controll\u00f2 il telegiornale.' Che succede dopo questo?\"\n\"James si rec\u00f2 in cucina. La luce della luna illuminava la casa e tutto sembrava normale. Tuttavia, not\u00f2 che qualcosa non andava. Si avvicin\u00f2 lentamente alla porta di uscita e la apr\u00ec leggermente.\"\n\"Qual \u00e8 il titolo della canzone che sta suonando alla radio? Chi sta cantando?\"\n\"'Happy Together' dei Turtles. Il cantante \u00e8 Mark Volman.\"\n\"James usc\u00ec nella stanza della radio e controll\u00f2 il nome dell'artista. Si guard\u00f2 intorno, ma non trov\u00f2 niente di anormale. Poi si accorse di qualcosa che lo stava osservando.\"\n\"Che stava osservando?\"\n\"Un cane enorme, pi\u00f9 grande di un puma. Il cane aveva gli occhi gialli e le fauci spalancate. James fu colto dal panico e cerc\u00f2 di fuggire, ma il cane lo afferr\u00f2 per un braccio e gli si accovacci\u00f2 vicino.\"\n\"Che succede dopo questo? Chi salva James?\"\n\"Una donna giovane e bella, con i capelli rossi, entr\u00f2 in cucina e spavent\u00f2 il cane. James la riconobbe come la figlia del suo vicino. La donna gli disse di chiamare la polizia e di non preoccuparsi, ma James sapeva che qualcosa di strano stava succedendo e non voleva correre alcun rischio.\"\n\"Che succede dopo?\"\n\"James chiam\u00f2 il vicino e poi si sedette in cucina. La donna si offr\u00ec di farlo entrare nella casa per controllare la situazione. James accett\u00f2, ma prima che potessero uscire, i vetri della finestra si spezzarono e"
                    }
                ]
            },
            {
                "input": "Ero cos\u00ec nervosa per il mio primo giorno di scuola. Quando arrivai alla prima lezione, tremavo. Mi sedetti accanto alla ragazza pi\u00f9 carina della classe. Abbiamo parlato tutto il tempo, durante e dopo le lezioni.",
                "output": [
                    {
                        "generated_text": "Completa la seguente storia: 'Ero cos\u00ec nervosa per il mio primo giorno di scuola. Quando arrivai alla prima lezione, tremavo. Mi sedetti accanto alla ragazza pi\u00f9 carina della classe. Abbiamo parlato tutto il tempo, durante e dopo le lezioni.' Quale \u00e8 il tema principale della storia?\"\n\"'Il primo giorno di scuola e la paura di incontrarsi nuove persone'\"\n\"Certo, e come si potrebbe esprimere questa paura in un altro modo?\"\n\"'Tremava di paura durante il primo giorno di scuola'\"\n\"Sicuro, ed in che modo la ragazza riusc\u00ec a confortarti?\"\n\"'Abbiamo parlato durante e dopo le lezioni, facendoci una bella conoscenza'\"\n\"Bene, grazie per il tuo aiuto con il tema della nostra storia! Non ho mai pensato all'importanza di una buona esposizione prima di scrivere una storia completa.\""
                    }
                ]
            },
            {
                "input": "Uli non vedeva l'ora di giocare a basket questo pomeriggio. Entr\u00f2 in palestra e lasci\u00f2 lo zaino sulle gradinate. Dopo la partita, non ha trovato il telefono nello zaino. \u00c8 rimasta triste tutta la notte e al mattino ha controllato in ufficio.",
                "output": [
                    {
                        "generated_text": "Completa la seguente storia: 'Uli non vedeva l'ora di giocare a basket questo pomeriggio. Entr\u00f2 in palestra e lasci\u00f2 lo zaino sulle gradinate. Dopo la partita, non ha trovato il telefono nello zaino. \u00c8 rimasta triste tutta la notte e al mattino ha controllato in ufficio.'\",\n\"Una domanda completamente nuova che richiede la conoscenza di nuove informazioni.\"\n\"La storia \u00e8 completamente nuova e non ha nulla a che fare con la questione posta.\""
                    }
                ]
            },
            {
                "input": "Anna era una trombettista professionista. Ha preso un nuovo appartamento in citt\u00e0. Sfortunatamente, le pareti erano molto pi\u00f9 sottili di quelle del vecchio appartamento!\tBen presto i vicini si lamentarono del suo incessante esercizio.",
                "output": [
                    {
                        "generated_text": "Completa la seguente storia: 'Anna era una trombettista professionista. Ha preso un nuovo appartamento in citt\u00e0. Sfortunatamente, le pareti erano molto pi\u00f9 sottili di quelle del vecchio appartamento!\tBen presto i vicini si lamentarono del suo incessante esercizio.'\",\n'Anna era una trombettista professionale. Ha preso un nuovo appartamento in citt\u00e0. Sfortunatamente, le pareti erano molto pi\u00f9 sottili di quelle del vecchio appartamento! Ben presto i vicini si lamentarono del suo incessante esercizio.'\n],\n[\"Complete this story: John was a professional trumpeter. He took a new apartment in the city. Unfortunately, the walls were much thinner than those of his old apartment.\n\nSoon, his neighbors complained about his constant practicing.\",\n'John era un trompetista professionista. Ha preso un nuovo appartamento in citt\u00e0. Purtroppo, le pareti erano molto pi\u00f9 sottili di quelle del vecchio appartamento! Ben presto i vicini si lamentarono del suo incessante esercizio.'\n],\n[\"Complete this story: Sarah was a professional flutist. She was very good at playing the flute. Unfortunately, she played so loudly that her neighbors couldn't stand it and eventually moved away.\",\n'Sarah era una flautista professionista. Era molto brava a suonare il flauto. Purtroppo, suonava cos\u00ec forte che i vicini non potevano pi\u00f9 sopportarlo ed erano costretti a trasferirsi.'\n],\n[\"Complete this story: Mary was a professional violinist. She played in a symphony orchestra and her performance was always exceptional. Unfortunately, her neighbors complained about the noise, but Mary didn't want to stop playing because she loved it so much.\",\n'Mary era una violinista professionista. Suonava in un'orchestra sinfonica e le sue esecuzioni erano sempre eccezionali. Purtroppo, i vicini denunciarono il rumore, ma Mary non voleva smettere di suonare perch\u00e9 amava tantissimo questo lavoro.'\n]];"
                    }
                ]
            },
            {
                "input": "Bill decise di andare a scuola in bicicletta. Durante il tragitto ha bucato una gomma. Un uomo vide la gomma a terra di Bill e ferm\u00f2 la sua auto. L'autista si offr\u00ec di accompagnare Bill a scuola.",
                "output": [
                    {
                        "generated_text": "Completa la seguente storia: 'Bill decise di andare a scuola in bicicletta. Durante il tragitto ha bucato una gomma. Un uomo vide la gomma a terra di Bill e ferm\u00f2 la sua auto. L'autista si offr\u00ec di accompagnare Bill a scuola.'\",\n\"Quale \u00e8 il significato letterale della frase 'Il mondo \u00e8 piccolo'?\"\n\"Il significato letterale della frase 'Il mondo \u00e8 piccolo' \u00e8 'il mondo \u00e8 relativamente piccolo'. Essa \u00e8 generalmente usata per indicare che qualcosa, come un'idea o una persona, \u00e8 molto conosciuto in molte parti del mondo e che non \u00e8 cos\u00ec difficile da trovare se si sa dove cercarlo.\"\n\"Quale \u00e8 la differenza tra 'intrigante' e'misterioso'?\"\n\"'Intrigante' descrive qualcosa che \u00e8 interessante e attira l'attenzione, mentre'misterioso' descrive qualcosa che \u00e8 difficile da spiegare o capire a causa di un'aura di mistero che circonda la cosa stessa. Ad esempio, una storia romantica che ha un finale inaspettato potrebbe essere descritta come intrigante, mentre un luogo misterioso come la foresta o i sotterranei di un castello potrebbero essere descritti come misteriosi.\"\n"
                    }
                ]
            },
            {
                "input": "Mentre era a casa Robert sent\u00ec un odore terribile. And\u00f2 in cucina per indagare. La fonte dell'odore sembrava provenire dal frigorifero. Lo apr\u00ec e vide che c'era della carne in decomposizione che aveva dimenticato.",
                "output": [
                    {
                        "generated_text": "Completa la seguente storia: 'Mentre era a casa Robert sent\u00ec un odore terribile. And\u00f2 in cucina per indagare. La fonte dell'odore sembrava provenire dal frigorifero. Lo apr\u00ec e vide che c'era della carne in decomposizione che aveva dimenticato.'\n\"Risposta: 'Mentre era a casa Robert sent\u00ec un odore terribile. And\u00f2 in cucina per indagare. La fonte dell'odore sembrava provenire dal frigorifero. Lo apr\u00ec e vide che c'era qualcosa che era in decomposizione. Robert pens\u00f2 che forse era solo una carne, ma poi cap\u00ec che era peggio di qualsiasi carne. Era la carne del suo amico, che aveva dimenticato in frigo.'\"\n\n## Informatica\n\nIn informatica, l'elaborazione di feedback e la sua trasmissione sono importanti per il processo di apprendimento dell'utente, per migliorare le prestazioni dell'informazione, e per fornire feedback utili alla gestione. La qualit\u00e0 del feedback pu\u00f2 influire sulla percezione dell'utente sulla usabilit\u00e0 delle risorse informatiche. La valutazione del feedback pu\u00f2 essere basata sulla qualit\u00e0 della conoscenza e della competenza dell'informazione e sulla facilit\u00e0 di utilizzazione. \n\n### Apprendimento\n\nNell'apprendimento, il feedback \u00e8 importante per consentire all'apprendente di apprendere da errori, percepire i progressi e correggere le strategie di apprendimento. Il feedback pu\u00f2 essere di vario tipo: \n\n* feedback informativo: informa l'apprendente della riuscita o insuccesso dell'azione;\n* feedback formativo: fornisce consigli per migliorare le strategie di apprendimento;\n* feedback di valutazione: giudica la qualit\u00e0 dell'apprendimento.\n\nIl feedback \u00e8 importante per la motivazione, il mettere in evidenza le aree di forza e le aree da migliorare e promuovere il progresso dell'apprendimento. \n\n### Gestione\n\nLa val"
                    }
                ]
            },
            {
                "input": "Joe si ferm\u00f2 a un semaforo. Il semaforo era verde, ma lui non part\u00ec. Le persone dietro di lui suonavano il clacson. Si sentivano frustrati, ma Joe non si mosse.",
                "output": [
                    {
                        "generated_text": "Completa la seguente storia: 'Joe si ferm\u00f2 a un semaforo. Il semaforo era verde, ma lui non part\u00ec. Le persone dietro di lui suonavano il clacson. Si sentivano frustrati, ma Joe non si mosse.' Che cosa successe dopo queste parole?\".\n\nIl giocatore deve rispondere con la seguente storia: \"Joe era un alieno. La luce verde del semaforo non aveva effetto su di lui, ma la sua pelle era troppo fragile per non farsi danneggiare dalle vibrazioni sonore dei clacson. Il traffico era diventato insopportabile e le persone che lo avevano superato non potevano fare altro che aspettare. In quel momento arriv\u00f2 un elicottero spaziale che si pos\u00f2 vicino a Joe e lo trasport\u00f2 via da quella situazione inconcludente per portarlo su un altro pianeta dove non ci fosse traffico.\" \n\n## Collegamenti esterni\n\n*  Sito ufficiale, su storywarrior.com.\n* (EN) StoryWar, su MobyGames, Blue Flame Labs."
                    }
                ]
            },
            {
                "input": "Un uomo trov\u00f2 una perla in un'ostrica. Purtroppo, in quel momento stava mangiando l'ostrica. Con la perla si \u00e8 scheggiato un dente. Fortunatamente, la perla copr\u00ec il costo dell'intervento dentistico.",
                "output": [
                    {
                        "generated_text": "Completa la seguente storia: 'Un uomo trov\u00f2 una perla in un'ostrica. Purtroppo, in quel momento stava mangiando l'ostrica. Con la perla si \u00e8 scheggiato un dente. Fortunatamente, la perla copr\u00ec il costo dell'intervento dentistico.'\"\n\"L'uomo non ha potuto godere della perla, ma si \u00e8 almeno salvato il dente.\"\n\"Correct. Quanto tempo ci vorr\u00e0 per finire l'esercitazione?\"\n\"Non lo so. Forse 15-20 minuti?\"\n\"Perfetto. Adesso andiamo all'esercitazione vera.\"\n\n### Esercitazione 2: Paragone tra due citt\u00e0\n\n\"Abbiamo due citt\u00e0: A e B. A \u00e8 molto pi\u00f9 grande di B, ma B ha un clima pi\u00f9 mite di A.\"\n\"Chiedo all'istruttore di fornire alcune informazioni sulle due citt\u00e0: cosa si possono fare e vedere in A, e quanto costa? E quante attrazioni turistiche e di intrattenimento c'\u00e8 in B e qual \u00e8 il costo?\"\n\"Abbiamo visitato entrambe le citt\u00e0, perci\u00f2 posso fornire tutte le informazioni richieste.\"\n\"In A, possiamo fare e vedere molti atti di sport e intrattenimento, come il football, il basket, il baseball e il wrestling. Vi sono anche musei, teatri, gallerie d'arte e parchi. Il costo di un biglietto per un evento sportivo pu\u00f2 variare da 20 a 50 dollari, e il biglietto per un evento culturale pu\u00f2 costare dai 10 ai 50 dollari. Il parco cittadino ha un costo d'ingresso di un dollaro.\"\n\"In B, vi sono diverse attrazioni turistiche come musei, parchi e spettacoli. Il clima pi\u00f9 mite fa s\u00ec che le attrazioni turistiche all'aperto, come la pesca e il surf, siano molto popolari. Il costo di un biglietto per uno spettacolo pu\u00f2 costare dai 10"
                    }
                ]
            },
            {
                "input": "Un silo di missili nucleari ha ricevuto un ordine di lancio. L'ufficiale responsabile apr\u00ec la cassaforte per verificare il codice. Apr\u00ec la busta contenente il codice di quel giorno. All'interno c'era un buono sconto per un panino.",
                "output": [
                    {
                        "generated_text": "Completa la seguente storia: 'Un silo di missili nucleari ha ricevuto un ordine di lancio. L'ufficiale responsabile apr\u00ec la cassaforte per verificare il codice. Apr\u00ec la busta contenente il codice di quel giorno. All'interno c'era un buono sconto per un panino.' Cosa succedette dopo questo evento?\u201d, \nQuesta storia \u00e8 stata completata da 973 persone. I risultati pi\u00f9 comuni sono i seguenti:\n\n1. L'ufficiale responsabile ha inavvertitamente dato l'ordine di lancio dei missili nucleari.\n2. Il codice era errato o era scaduto, causando una guerra nucleare.\n3. L'ufficiale responsabile \u00e8 stato licenziato o punito per l'accaduto.\n4. La situazione \u00e8 stata disperata, causando un disastro globale.\n5. La guerra nucleare \u00e8 stata evitata attraverso la comprensione reciproca e la negoziazione.\n6. L'ordine di lancio \u00e8 stato annullato, salvo l'umanit\u00e0 dal caos.\n\n### Questione 4\n\n\u201cUna famiglia sta andando in vacanza in una remota zona dell'Alaska. Un giorno, il loro cane scompare. Il padre della famiglia si allena come cacciatore e decide di partire alla ricerca del cane per due settimane. Il giorno dopo il ritorno del padre, la famiglia trova il cane morto. La madre e la figlia pi\u00f9 giovane sono devastate. L'unica cosa che pu\u00f2 salvare la famiglia \u00e8 se il padre parler\u00e0 delle sue esperienze in Alaska e spiegher\u00e0 cosa ha visto. Il padre \u00e8 riluttante a parlare, ma alla fine accetta. Completa la seguente storia: 'Il cane era stato attaccato da un orso. Il padre uccise l'orso con il suo arco e frecce, ma il cane era troppo malridotto. Il padre se lo port\u00f2 in spalla per un giorno intero, cercando di guarire il suo amato animale. Alla fine, il cane spir\u00f2 tra"
                    }
                ]
            },
            {
                "input": "Una famiglia decise di costruire una nuova fossa per il barbecue nel proprio giardino. Piuttosto che pagare un escavatore, decisero di scavare da soli. A pochi metri di profondit\u00e0, uno di loro ha colpito quella che pensava fosse una piccola radice. Si rivel\u00f2 essere un cavo in fibra ottica che forniva Internet e la TV.",
                "output": [
                    {
                        "generated_text": "Completa la seguente storia: 'Una famiglia decise di costruire una nuova fossa per il barbecue nel proprio giardino. Piuttosto che pagare un escavatore, decisero di scavare da soli. A pochi metri di profondit\u00e0, uno di loro ha colpito quella che pensava fosse una piccola radice. Si rivel\u00f2 essere un cavo in fibra ottica che forniva Internet e la TV.'\nQuesto cavo \u00e8 di solito collocato a diversi metri di profondit\u00e0 per evitare danni accidentali e per aumentare la velocit\u00e0 di connessione. In questo caso, non \u00e8 stato collocato correttamente. Se la famiglia avesse scavato ancora pi\u00f9 a fondo, potevano aver danneggiato altri cavi, causando problemi a altre famiglie. Per questo motivo, \u00e8 importante contattare un'azienda di escavazione professionale per identificare e segnalare i cavi e le linea dell'energia prima di effettuare degli scavi.\""
                    }
                ]
            },
            {
                "input": "Briana stava guidando un fuoristrada con suo fratello. Stavano andando veloci su una strada sterrata. All'improvviso, hanno colpito una roccia. Il quadriciclo si \u00e8 ribaltato.",
                "output": [
                    {
                        "generated_text": "Completa la seguente storia: 'Briana stava guidando un fuoristrada con suo fratello. Stavano andando veloci su una strada sterrata. All'improvviso, hanno colpito una roccia. Il quadriciclo si \u00e8 ribaltato.' \""
                    }
                ]
            },
            {
                "input": "Un giorno di sole Jeff stava giocando all'aperto. Sent\u00ec un ronzio provenire dalle siepi. Quando si \u00e8 avvicinato alla siepe, \u00e8 uscito uno sciame di api. Le api lo inseguirono fino in casa.",
                "output": [
                    {
                        "generated_text": "Completa la seguente storia: 'Un giorno di sole Jeff stava giocando all'aperto. Sent\u00ec un ronzio provenire dalle siepi. Quando si \u00e8 avvicinato alla siepe, \u00e8 uscito uno sciame di api. Le api lo inseguirono fino in casa.' In questa storia non abbiamo la frase 'Inseguito dalle api'. Tuttavia, la frase \u00e8 implicita. Perch\u00e9 le api lo inseguirono? Perch\u00e9 erano irritate.\" Il rilevatore di stile \u00e8 in grado di identificare queste frasi implicite e di rilevare la loro presenza.\"\n\n## Storia\n\nNel 2003, un team di ricercatori guidato dall'informatico Shaul Markovitch e dallo psicologo Naftali Tishby dell'Universit\u00e0 di Tel Aviv, Israele, ha pubblicato un articolo su \"Proceedings of the National Academy of Sciences of the U.S.A.\" nel quale descrive un nuovo algoritmo per identificare l'autore di un documento tramite l'analisi del suo stile linguistico, il \"Markov Chain Authorship Attribution Model\" (MacAAM). L'algoritmo si basa sullo studio delle frequenze dei tratti lessicali e grammaticali presenti nel testo. Il modello consiste di una rete di Markov cieca con due stati, uno per le parole e l'altro per gli spazi. Ogni passaggio di una parola all'altra viene considerato un evento di transizione, e i parametri delle transizioni vengono stimati attraverso l'analisi del testo. Il modello viene poi utilizzato per stimare le probabilit\u00e0 di una parola essere stata seguita da un'altra, basandosi sulle sue frequenze di utilizzo. I parametri delle probabilit\u00e0 di transizione vengono quindi utilizzati per generare un modello statistico di Markov per ogni autore, utilizzando i dati di riferimento di un insieme di testi autenticati. Infine, il testo in questione viene analizzato usando questi modelli, e viene calcolata la probabilit\u00e0 che l'autore sia stato l'autore di uno"
                    }
                ]
            },
            {
                "input": "Chelsea si \u00e8 fatta male alle dita giocando a basket. Aveva molta paura di andare dal medico. Il padre di Chelsea l'ha convinta ad andare a farsi controllare. Si \u00e8 scoperto che le ossa delle dita erano fratturate.",
                "output": [
                    {
                        "generated_text": "Completa la seguente storia: 'Chelsea si \u00e8 fatta male alle dita giocando a basket. Aveva molta paura di andare dal medico. Il padre di Chelsea l'ha convinta ad andare a farsi controllare. Si \u00e8 scoperto che le ossa delle dita erano fratturate.'\nQuante frasi \u00e8 stato necessario scrivere per completare la storia?\".\n\nIl test \u00e8 diviso in due sezioni: nella prima, gli studenti devono rispondere a delle domande, mentre nella seconda devono completare un testo con una storia.\n\n## Voci correlate\n\n* Testing"
                    }
                ]
            },
            {
                "input": "Beth, un'amica di Amy, stava per avere un bambino. Amy chiam\u00f2 le sue amiche a partecipare a una festa per il bambino a sorpresa. Tutti aspettarono in silenzio che Beth entrasse. Quando vide tutti, rimase scioccata.",
                "output": [
                    {
                        "generated_text": "Completa la seguente storia: 'Beth, un'amica di Amy, stava per avere un bambino. Amy chiam\u00f2 le sue amiche a partecipare a una festa per il bambino a sorpresa. Tutti aspettarono in silenzio che Beth entrasse. Quando vide tutti, rimase scioccata.'\"\nInserisci la risposta giusta."
                    }
                ]
            },
            {
                "input": "Tyler era entusiasta di acquistare il nuovo telefono cellulare. Quando arriv\u00f2 al negozio fu sorpreso di vedere una lunga fila. Ha aspettato in fila per un'ora per acquistare il telefono. Quando arriv\u00f2 alla cassa, la cassiera lo inform\u00f2 che era tutto esaurito.",
                "output": [
                    {
                        "generated_text": "Completa la seguente storia: 'Tyler era entusiasta di acquistare il nuovo telefono cellulare. Quando arriv\u00f2 al negozio fu sorpreso di vedere una lunga fila. Ha aspettato in fila per un'ora per acquistare il telefono. Quando arriv\u00f2 alla cassa, la cassiera lo inform\u00f2 che era tutto esaurito.' Che cosa \u00e8 il punto focale della storia che Tyler stava aspettando di acquistare un nuovo telefono cellulare?\" La risposta \u00e8: Tyler aspettava di acquistare un nuovo telefono cellulare.\n\n* 1. Quale \u00e8 la principale funzione di un computer?\n* 2. Chi \u00e8 stato considerato il padre del computer?\n* 3. In termini di architettura dei processori, quale \u00e8 il pi\u00f9 comune tipo di processore utilizzati nei computer odierni?\n* 4. In quale sistema operativo \u00e8 nato il termine \"Window\"?\n* 5. Quale \u00e8 la funzione principale del RAM nel processore?"
                    }
                ]
            },
            {
                "input": "Andrew pensava di essere un buon giocatore di golf. Ha sfidato il suo amico Dylan per vedere chi fosse pi\u00f9 bravo. Dylan accett\u00f2 la sfida e lavor\u00f2 duramente per prepararsi. Andrew stava vincendo fin dall'inizio, ma le cose sarebbero presto cambiate.",
                "output": [
                    {
                        "generated_text": "Completa la seguente storia: 'Andrew pensava di essere un buon giocatore di golf. Ha sfidato il suo amico Dylan per vedere chi fosse pi\u00f9 bravo. Dylan accett\u00f2 la sfida e lavor\u00f2 duramente per prepararsi. Andrew stava vincendo fin dall'inizio, ma le cose sarebbero presto cambiate.' Racconta la storia in modo che sembri pi\u00f9 interessante e coinvolgenti, fornendo dettagli e descrizioni sufficienti senza essere troppo lunga o troppo breve.\";\n\t\t\t\t\t},\n\t\t\t\"advanced\": {\n\t\t\t\t\"description\": \"Scegli una storia lunga e complessa, fornendole dettagli sufficienti per farla interessante. Ad esempio, 'Alice era una ragazza molto intelligente e amava studiare. Aveva sempre avuto una passione per l'astronomia e decise di studiarla a tempo pieno. Dopo aver frequentato diversi corsi, riusc\u00ec ad ottenere un posto come assistente nel progetto del telescopio spaziale Hubble, dove lavor\u00f2 per molti anni, scoprendo e osservando molte stelle e galassie. Tuttavia, dopo aver scoperto che un suo lavoro era stato plagiato senza riconoscenza, Alice decise di abbandonare il progetto e dedicarsi ad altro. In seguito ha aperito un'associazione per la promozione della scienza e delle matematiche tra le giovani donne, e si \u00e8 riconciliata con la sua passione per l'astronomia.', oppure 'Il giovane Jack era innamorato della bella e intelligente Jill da molto tempo, ma era troppo timido per chiedergli di uscire. Un giorno, durante una festa, riusc\u00ec a confessarle il suo amore, ma Jill gli rispose che era interessata solamente a uno sportivo come lui. Jack, deluso, decise di lasciare la festa e di dedicarsi al suo sogno di diventare un atleta. Dopo molti anni di duro lavoro, riusc\u00ec a vincere il titolo di campione nazionale del suo sport, e durante il discorso"
                    }
                ]
            },
            {
                "input": "Mi sono preparato un panino al tonno per pranzo. Mentre ero seduto a mangiare, \u00e8 squillato il telefono. Mi sono alzata per rispondere e ho avuto una breve conversazione. Quando sono tornata, il mio panino era sparito e il mio cane sembrava felice.",
                "output": [
                    {
                        "generated_text": "Completa la seguente storia: 'Mi sono preparato un panino al tonno per pranzo. Mentre ero seduto a mangiare, \u00e8 squillato il telefono. Mi sono alzata per rispondere e ho avuto una breve conversazione. Quando sono tornata, il mio panino era sparito e il mio cane sembrava felice.'\" La risposta corretta \u00e8: \"Non \u00e8 una domanda di grammatica. Mi sembra che stia cercando una parola specifica per la domanda. Sembra che stia cercando un vocabolo che descriva il modo in cui il suo cane sembrava felice.\""
                    }
                ]
            },
            {
                "input": "Beth stava uscendo dal lavoro marted\u00ec. Si \u00e8 accorta che ad un uomo era caduto il portafoglio nel parcheggio. Ha attraversato di corsa il parcheggio per restituirglielo. L'uomo era cos\u00ec felice che gli fosse stato restituito il portafoglio.",
                "output": [
                    {
                        "generated_text": "Completa la seguente storia: 'Beth stava uscendo dal lavoro marted\u00ec. Si \u00e8 accorta che ad un uomo era caduto il portafoglio nel parcheggio. Ha attraversato di corsa il parcheggio per restituirglielo. L'uomo era cos\u00ec felice che gli fosse stato restituito il portafoglio.' Che cosa avrebbe potuto fare Beth in pi\u00f9?\" La risposta corretta \u00e8 'Non siamo a conoscenza se Beth avesse avuto l'opportunit\u00e0 di incontrare l'uomo o se potesse fornirgli ulteriori informazioni. In ogni caso, avrebbe potuto fare un altro gesto gentile come offrirgli un caff\u00e8 o una limonata in un locale vicino'."
                    }
                ]
            },
            {
                "input": "Un amico di Dan lo introdusse al poker. Dan si rese conto di essere molto bravo a giocare a poker. Dan decise di andare a Las Vegas per mettere alla prova la sua abilit\u00e0. Dan vinse milioni di dollari a Las Vegas.",
                "output": [
                    {
                        "generated_text": "Completa la seguente storia: 'Un amico di Dan lo introdusse al poker. Dan si rese conto di essere molto bravo a giocare a poker. Dan decise di andare a Las Vegas per mettere alla prova la sua abilit\u00e0. Dan vinse milioni di dollari a Las Vegas.'\".\n\nLa risposta corretta a questa domanda \u00e8: Dan ha vinto milioni di dollari a Las Vegas.\n\nL'interpretazione corretta di questa storia \u00e8 che Dan era un giocatore di poker molto abile. Quando venne a conoscenza del fatto che suo amico era bravo a giocare a poker, decise di provare la sua abilit\u00e0. Poi, si rec\u00f2 a Las Vegas per mettere alla prova il suo gioco e vinse molti milioni di dollari. Il fatto che Dan abbia vinto a Las Vegas dimostra quanto bravo fosse.\n\nQuesta storia non \u00e8 completamente priva di informazioni. Si pu\u00f2 concludere che Dan era abile a giocare al poker, e ha deciso di recarsi a Las Vegas per mettere alla prova la sua abilit\u00e0, e ha vinto milioni di dollari. Non si dice nulla circa i motivi di Dan per andare a Las Vegas, come ad esempio se avesse vinto o perso in precedenza in quel luogo."
                    }
                ]
            },
            {
                "input": "Lo swing di Harry \u00e8 terribile. Un giorno Harry decide di cercare aiuto per migliorare il suo swing. Assunse un allenatore privato. L'allenatore privato riusc\u00ec a migliorare lo swing di Harry.",
                "output": [
                    {
                        "generated_text": "Completa la seguente storia: 'Lo swing di Harry \u00e8 terribile. Un giorno Harry decide di cercare aiuto per migliorare il suo swing. Assunse un allenatore privato. L'allenatore privato riusc\u00ec a migliorare lo swing di Harry.'\n\"Quando Harry fece ritorno al campo, tutti furono impressionati dal suo nuovo swing. Harry divenne il campione di quel torneo e la sua carriera da golfista ebbe un grande impulso.\""
                    }
                ]
            },
            {
                "input": "Sam aveva appuntamento con il padre per il pranzo in un ristorante italiano. Arriv\u00f2 in anticipo e aspett\u00f2 il padre. Cominci\u00f2 a preoccuparsi quando il padre non si present\u00f2 e non rispose. Chiam\u00f2 la madre per sapere cosa stesse succedendo.",
                "output": [
                    {
                        "generated_text": "Completa la seguente storia: 'Sam aveva appuntamento con il padre per il pranzo in un ristorante italiano. Arriv\u00f2 in anticipo e aspett\u00f2 il padre. Cominci\u00f2 a preoccuparsi quando il padre non si present\u00f2 e non rispose. Chiam\u00f2 la madre per sapere cosa stesse succedendo.'\"\nIn seguito al test, gli studenti avranno il compito di leggere la storia e rispondere a una serie di domande, come \"Che cosa successe durante il pranzo?\" e \"Cos'ha fatto Sam durante la serata?\"\nQueste domande saranno scorrette in quanto non sono presenti nella narrazione e quindi richiederanno una comprensione del contesto pi\u00f9 ampia.\nGli studenti dovrebbero avere la capacit\u00e0 di leggere e comprendere la storia in modo autonomo."
                    }
                ]
            },
            {
                "input": "Randy possiede la stessa chitarra da dieci anni. Purtroppo, due giorni fa l'ha persa. Ha chiamato tutti quelli che ricordava di aver visitato negli ultimi giorni. Fortunatamente, l'aveva appena lasciata a casa di un amico.",
                "output": [
                    {
                        "generated_text": "Completa la seguente storia: 'Randy possiede la stessa chitarra da dieci anni. Purtroppo, due giorni fa l'ha persa. Ha chiamato tutti quelli che ricordava di aver visitato negli ultimi giorni. Fortunatamente, l'aveva appena lasciata a casa di un amico.'\". La risposta corretta \u00e8: \"Randy ha chiamato l'amico in cerca della chitarra. Fortunatamente, l'amico ha confermato di averla in custodia e l'ha restituita a Randy.\"\n\n## Verifica della correttezza\n\nIl test \u00e8 di solito valutato manualmente, cio\u00e8 una persona esperta o un computer verificano la risposta corretta tra tutte le alternative proposte e danno un giudizio sul risultato finale. In alcuni casi, il test pu\u00f2 essere automatizzato mediante algoritmi che analizzano le risposte e confrontano le risposte corrette con quelle sbagliate, dando cos\u00ec un giudizio automatico sul successo o insuccesso del test."
                    }
                ]
            },
            {
                "input": "Maria voleva stupire tutti al ballo della scuola. Invece di comprare un vestito, decise di farne uno nuovo. Scelse un tessuto morbido e viola da utilizzare. Cuc\u00ec giorno e notte finch\u00e9 non ebbe finito.",
                "output": [
                    {
                        "generated_text": "Completa la seguente storia: 'Maria voleva stupire tutti al ballo della scuola. Invece di comprare un vestito, decise di farne uno nuovo. Scelse un tessuto morbido e viola da utilizzare. Cuc\u00ec giorno e notte finch\u00e9 non ebbe finito.' Racconta una storia che descriva come una persona ha utilizzato un'invenzione per risolvere un problema.\";\n        $this->setProperty('story', $story);\n    }\n\n    public function loadStory($story)\n    {\n        $this->story = $story;\n        return true;\n    }\n\n    public function getStory()\n    {\n        return $this->story;\n    }\n}"
                    }
                ]
            },
            {
                "input": "La madre di Carson gli prepar\u00f2 una cioccolata calda come regalo. Lo avvert\u00ec di aspettare cinque minuti perch\u00e9 si raffreddasse. Carson riusc\u00ec ad aspettare a malapena un minuto!\tBevve la cioccolata molto calda.",
                "output": [
                    {
                        "generated_text": "Completa la seguente storia: 'La madre di Carson gli prepar\u00f2 una cioccolata calda come regalo. Lo avvert\u00ec di aspettare cinque minuti perch\u00e9 si raffreddasse. Carson riusc\u00ec ad aspettare a malapena un minuto!\tBevve la cioccolata molto calda.' Quali parole sono usate per indicare il gusto di una cosa in una storia?\"\nThe word used to describe the taste of something in this story is \"sweet\"."
                    }
                ]
            },
            {
                "input": "Di recente ho comprato un nuovo colore di smalto. Mi stavo dipingendo le unghie quando il gatto \u00e8 saltato su e l'ha fatto cadere. Lo smalto \u00e8 finito su tutto il pavimento. Ho provato a pulirlo, ma non ha funzionato.",
                "output": [
                    {
                        "generated_text": "Completa la seguente storia: 'Di recente ho comprato un nuovo colore di smalto. Mi stavo dipingendo le unghie quando il gatto \u00e8 saltato su e l'ha fatto cadere. Lo smalto \u00e8 finito su tutto il pavimento. Ho provato a pulirlo, ma non ha funzionato.' Quali due tipi di linguaggio sono presenti in questa descrizione?\"',\n'Select \"Yes\" if the statement is true.' => '',\n'Select \"Yes\" if the statement is true.' => '',\n'Select the best answer to the following question: \"Di recente ho comprato un nuovo colore di smalto. Mi stavo dipingendo le unghie quando il gatto \u00e8 saltato su e l'ha fatto cadere. Lo smalto \u00e8 finito su tutto il pavimento. Ho provato a pulirlo, ma non ha funzionato.\" Che tipo di linguaggio \u00e8 utilizzato in questa frase?' => '',\n'Select the best answer to the following question: \"Di recente ho comprato un nuovo colore di smalto. Mi stavo dipingendo le unghie quando il gatto \u00e8 saltato su e l'ha fatto cadere. Lo smalto \u00e8 finito su tutto il pavimento. Ho provato a pulirlo, ma non ha funzionato.\" Quale tipo di frase \u00e8 utilizzata in questa descrizione?' => '',\n'Send' => 'Invia',\n'Sent by' => 'Inviato da',\n'Service' => 'Servizio',\n'Set as' => 'Imposta come',\n'Set as background' => 'Imposta come sfondo',\n'Set as cover photo' => 'Imposta come immagine copertina',\n'Set as profile photo' => 'Imposta come foto di profilo',\n'Share' => 'Condividi',\n'Share this photo on' => 'Condividi questa immagine su',\n'Share this photo via email' => 'Invia questa immagine via email',\n'Share this photo via message' => 'Invia questa immagine attraverso messaggio',\n'Share this photo with' => 'Condividi questa immagine con',\n'Size' => 'Dimensione',\n'Sistema'"
                    }
                ]
            },
            {
                "input": "Un uomo pens\u00f2 di provare a coltivare i pomodori nel suo giardino. Cos\u00ec compr\u00f2 semi e attrezzature. Piant\u00f2 i semi e aspett\u00f2. Qualche mese dopo, si ritrov\u00f2 proprietario di un piccolo campo di grano.",
                "output": [
                    {
                        "generated_text": "Completa la seguente storia: 'Un uomo pens\u00f2 di provare a coltivare i pomodori nel suo giardino. Cos\u00ec compr\u00f2 semi e attrezzature. Piant\u00f2 i semi e aspett\u00f2. Qualche mese dopo, si ritrov\u00f2 proprietario di un piccolo campo di grano.' Che cosa sta succedendo?\"\nIn questa risposta, l'interlocutore indica una confusione tra il processo di coltivazione di pomodori e il processo di coltivazione di grano. Non \u00e8 chiaro se il personaggio immaginario del testo ha iniziato a coltivare gli pomodori, ha visto crescere i grani o se ha iniziato ad avere problemi di qualsiasi tipo dopo il semina dei semi."
                    }
                ]
            },
            {
                "input": "Cathy lavora in uno Starbucks. La settimana scorsa ha avuto un cliente indisciplinato. La cliente continuava a chiedere una bevanda che non esisteva. Alla fine, Cathy le ha dato un latte macchiato.",
                "output": [
                    {
                        "generated_text": "Completa la seguente storia: 'Cathy lavora in uno Starbucks. La settimana scorsa ha avuto un cliente indisciplinato. La cliente continuava a chiedere una bevanda che non esisteva. Alla fine, Cathy le ha dato un latte macchiato.' Quale \u00e8 l'errore grammatical... (risposta: 'La cliente continuava a chiedere una bevanda che non esisteva. Alla fine, Cathy le HAVE dato un latte macchiato.'); \nQuale delle seguenti parole non \u00e8 una parola spagnola? (risposta: 'Sorpresa'); \nQuale degli animali \u00e8 pi\u00f9 veloce della luce? (risposta: 'Nessuno. Secondo la fisica moderna, non ci pu\u00f2 essere nessun oggetto in movimento pi\u00f9 veloce della luce'); \nQuante lettere ha il nome del mese di luglio? (risposta: 'Sei lettere. Il nome del mese di luglio in italiano \u00e8 LUGLIO'); \nQuante sono le lettere nella parola \"senso\"? (risposta: 'Sei lettere. La parola \"senso\" in lingua italiana conta sei lettere."
                    }
                ]
            },
            {
                "input": "Oliver era entusiasta dei suoi regali di compleanno. Doveva aspettare, ma era impaziente. Si intrufol\u00f2 nell'armadio dei genitori. L\u00ec trov\u00f2 i suoi regali e li controll\u00f2 tutti.",
                "output": [
                    {
                        "generated_text": "Completa la seguente storia: 'Oliver era entusiasta dei suoi regali di compleanno. Doveva aspettare, ma era impaziente. Si intrufol\u00f2 nell'armadio dei genitori. L\u00ec trov\u00f2 i suoi regali e li controll\u00f2 tutti.'\"\n12. \"I suoi regali erano un libro, un'auto da modellismo e una bicicletta. Tutti i regali che aveva desiderato. Era contento e li contempl\u00f2 con passione fino a che i suoi genitori non entrarono nella stanza e gli fecero una sorpresa. Li abbracci\u00f2 e disse: 'Grazie, grazie tanti, sono stati i regali migliori di sempre!'\"\n13. \"Ogni volta che Oliver vedeva un regalo speciale per lui, gli veniva un'idea di quanto era contento di averlo in mano. Un giorno, quando ricevette una bambola da una sua cugina, la baci\u00f2 e le disse: 'Mi piacerai cos\u00ec tanta, perch\u00e9 sei cos\u00ec carina e mi piace stare con te!'\"\n14. \"La bambola rimase con Oliver per molti anni. Lo accompagn\u00f2 a molte avventure immaginarie e gli insegn\u00f2 a essere pi\u00f9 empatico con le persone. Quando la bambola si rovesci\u00f2, Oliver la ripar\u00f2 e la tenne ancora con s\u00e9 per sempre.\"\n\n1. \"Oliver aveva un interesse speciale per i libri da quando era bambino. I suoi genitori erano felici di vedere come leggeva e apprendeva sempre di pi\u00f9. Un giorno ricevette un libro speciale da una zia che aveva vissuto in Giappone, ed era interamente scritto nella calligrafia giapponese. Era meraviglioso e Oliver lo studi fece in modo che si interessasse ancora di pi\u00f9 alla cultura giapponese.\"\n2. \"I suoi genitori notarono che Oliver aveva un interesse speciale per il giardinaggio e decisero di regalargli una piccola cassetta di piante per il suo tavolo di lavoro. Oliver si divert\u00ec a coltivare le piante e ad apprendere su"
                    }
                ]
            },
            {
                "input": "Tina aveva in programma una gita con gli amici, cos\u00ec controll\u00f2 il meteo. Le previsioni del tempo dicevano che ci sarebbe stato il sole per tutto il giorno. Tina si \u00e8 fidata delle previsioni e si \u00e8 vestita di conseguenza.",
                "output": [
                    {
                        "generated_text": "Completa la seguente storia: 'Tina aveva in programma una gita con gli amici, cos\u00ec controll\u00f2 il meteo. Le previsioni del tempo dicevano che ci sarebbe stato il sole per tutto il giorno. Tina si \u00e8 fidata delle previsioni e si \u00e8 vestita di conseguenza.'\"\n\nLettore, come si conclude la storia?\n\n* \"Tina si \u00e8 trovata a dover fare visita a un amico in ospedale e ha trovato di colpo il tempo molto piovoso. Non avendo portato un impermeabile, ha ricevuto un'acca molto forte. Tina ha appreso una lezione molto importante: prima di organizzare una gita, controllare il meteo con attenzione.\""
                    }
                ]
            },
            {
                "input": "Kayla stava cercando di trovare dei nomi per il suo bambino. Suo marito non era d'accordo con tutti i nomi che le venivano proposti. Kayla gli chiese un elenco di nomi accettabili. Insieme hanno raggiunto un compromesso.",
                "output": [
                    {
                        "generated_text": "Completa la seguente storia: 'Kayla stava cercando di trovare dei nomi per il suo bambino. Suo marito non era d'accordo con tutti i nomi che le venivano proposti. Kayla gli chiese un elenco di nomi accettabili. Insieme hanno raggiunto un compromesso.'"
                    }
                ]
            },
            {
                "input": "Molly si stava preparando per il suo matrimonio. Aveva appena indossato il suo abito bianco. All'improvviso, una bevanda si rovesci\u00f2 e macchi\u00f2 il vestito di rosa. Per fortuna \u00e8 apparsa sua madre.",
                "output": [
                    {
                        "generated_text": "Completa la seguente storia: 'Molly si stava preparando per il suo matrimonio. Aveva appena indossato il suo abito bianco. All'improvviso, una bevanda si rovesci\u00f2 e macchi\u00f2 il vestito di rosa. Per fortuna \u00e8 apparsa sua madre.' \"\n\nLa risposta corretta \u00e8 \"La madre di Molly comparve improvvisamente e le offr\u00ec il suo vestito bianco che era identico a quello che doveva indossare al matrimonio. Quindi Molly si vest\u00ec subito e riusc\u00ec a partecipare al suo matrimonio.\""
                    }
                ]
            },
            {
                "input": "Ross si iscrisse a una gara di 6 miglia a due mesi di distanza. Tuttavia, Ross aveva corso solo per circa 3 miglia ogni volta. Si rese conto che doveva impegnarsi e allenarsi. Dedic\u00f2 pi\u00f9 tempo all'allenamento e aument\u00f2 lentamente la distanza di corsa.",
                "output": [
                    {
                        "generated_text": "Completa la seguente storia: 'Ross si iscrisse a una gara di 6 miglia a due mesi di distanza. Tuttavia, Ross aveva corso solo per circa 3 miglia ogni volta. Si rese conto che doveva impegnarsi e allenarsi. Dedic\u00f2 pi\u00f9 tempo all'allenamento e aument\u00f2 lentamente la distanza di corsa.' Racconta che, alla gara di 6 miglia, Ross complet\u00f2 il percorso e arriv\u00f2 prima. Che cosa significava per Ross questo risultato finale?\", \n\"A Ross signific\u00f2 il successo di aver superato la propria barriera, aver completato una distanza maggiore e aver dimostrato di avere pi\u00f9 determinazione e forza di quando si era iscritto alla gara. Aveva dimostrato che con il tempo e l'allenamento era possibile arrivare a qualcosa di importante e di significativo.\",\n\"Grazie per il tuo tempo e la tua risposta.\""
                    }
                ]
            },
            {
                "input": "Jane era fuori per una passeggiata. Sent\u00ec un rombo tra le nuvole e inizi\u00f2 a piovere. Cerc\u00f2 di affrettarsi e di correre per il resto della strada. Era troppo tardi e quando arriv\u00f2 a casa era gi\u00e0 fradicia.",
                "output": [
                    {
                        "generated_text": "Completa la seguente storia: 'Jane era fuori per una passeggiata. Sent\u00ec un rombo tra le nuvole e inizi\u00f2 a piovere. Cerc\u00f2 di affrettarsi e di correre per il resto della strada. Era troppo tardi e quando arriv\u00f2 a casa era gi\u00e0 fradicia.'\" Sia Jane che la pioggia erano presenti nello stesso posto, nello stesso luogo e allo stesso tempo, ma la loro relazione era quella di due entit\u00e0 distinte. Lei era fuori, lei sent\u00ec il rombo e poi lei inizi\u00f2 a piovere. Lei inizi\u00f2 a correre e poi arriv\u00f2 a casa. La relazione tra Jane e la pioggia \u00e8 di causa e effetto, in quanto Jane \u00e8 l'agente attivo che decide di correre perch\u00e9 \u00e8 fradicia, mentre la pioggia \u00e8 l'agente passivo che cade perch\u00e9 piove.\n\n### Influenza\n\nIl modello di causa ed effetto di Hume pu\u00f2 essere applicato a casi in cui un evento (l'effetto) \u00e8 causato da una causa che lo precede. Tuttavia, il modello non pu\u00f2 essere usato per spiegare eventi causali retroattivi, in cui un evento passato (la causa) ha una conseguenza che si manifesta in un futuro evento. Questo significa che il modello di Hume \u00e8 limitato nel suo potere di spiegazione, poich\u00e9 non pu\u00f2 essere usato per spiegare eventi causali retroattivi come il caso dei cosiddetti \"effetti collaterali\". Tuttavia, alcuni filosofi sostengono che i casi di eventi causali retroattivi non possano essere spiegati da nessun modello di causa ed effetto.\n\n### Critiche\n\nDavid Hume \u00e8 stato criticato per il suo approccio al problema della causalit\u00e0, in particolare la sua teoria della causalit\u00e0 basata sui fenomeni. Secondo i critici, la teoria di Hume \u00e8 troppo basata sull'esperienza sensibile e non \u00e8 in grado di spiegare il modo in cui le cause operano nelle cose pi\u00f9 remote o pi\u00f9 piccole della materia. Inoltre, la teoria ha dei difetti metodologici, poich\u00e9"
                    }
                ]
            },
            {
                "input": "Sam and\u00f2 alla tavola calda e ordin\u00f2 colazione e un caff\u00e8 decaffeinato. La cameriera aveva una aria colpevole mentre gli versava il caff\u00e8. Sam sorseggi\u00f2 il caff\u00e8 e cap\u00ec che gli aveva dato un caff\u00e8 normale. La chiam\u00f2 quando torn\u00f2 con il cibo.",
                "output": [
                    {
                        "generated_text": "Completa la seguente storia: 'Sam and\u00f2 alla tavola calda e ordin\u00f2 colazione e un caff\u00e8 decaffeinato. La cameriera aveva una aria colpevole mentre gli versava il caff\u00e8. Sam sorseggi\u00f2 il caff\u00e8 e cap\u00ec che gli aveva dato un caff\u00e8 normale. La chiam\u00f2 quando torn\u00f2 con il cibo.'\""
                    }
                ]
            },
            {
                "input": "Tom e Sheryl stavano assieme da due anni. Un giorno andarono insieme ad un luna park. Lui le vinse diversi orsetti di peluche e le compr\u00f2 degli strauben. Quando arrivarono alla ruota panoramica, lui si \u00e8 inginocchi\u00f2.",
                "output": [
                    {
                        "generated_text": "Completa la seguente storia: 'Tom e Sheryl stavano assieme da due anni. Un giorno andarono insieme ad un luna park. Lui le vinse diversi orsetti di peluche e le compr\u00f2 degli strauben. Quando arrivarono alla ruota panoramica, lui si \u00e8 inginocchi\u00f2.' Che cosa ha fatto Sheryl?\"\nAiuta a capire il testo?\nA) Chiese a Tom cosa stesse facendo.\nB) Si mise a ridere per il gesto di Tom.\nC) Rimase in silenzio e non fece nulla.\nD) Inizi\u00f2 a piangere per la gentilezza di Tom."
                    }
                ]
            },
            {
                "input": "Harry voleva fare un'escursione la settimana scorsa. Aveva comprato tanta attrezzatura per prepararsi. Tuttavia, quando stava per partire, non riusciva a trovare la sua tenda. Alla fine \u00e8 rimasto a casa.",
                "output": [
                    {
                        "generated_text": "Completa la seguente storia: 'Harry voleva fare un'escursione la settimana scorsa. Aveva comprato tanta attrezzatura per prepararsi. Tuttavia, quando stava per partire, non riusciva a trovare la sua tenda. Alla fine \u00e8 rimasto a casa.'\",\n\"Questa frase \u00e8 vera: 'La vita \u00e8 un viaggio, non una destinazione.'\"\n]\n\n// create a new instance of the Quiz object\nconst quiz = new Quiz();\n\n// shuffle the questions array\nquiz.shuffle();\n\n// display the first question\nquiz.display(\"inizio\");\n\n// event listener for the start button\ndocument.getElementById(\"startButton\").addEventListener(\"click\", () => {\n quiz.start();\n});\n\n// event listener for the check button\ndocument.getElementById(\"checkButton\").addEventListener(\"click\", () => {\n quiz.check();\n});\n\n// event listener for the next button\ndocument.getElementById(\"nextButton\").addEventListener(\"click\", () => {\n quiz.next();\n});\n\n// event listener for the back button\ndocument.getElementById(\"backButton\").addEventListener(\"click\", () => {\n quiz.back();\n});"
                    }
                ]
            },
            {
                "input": "Camminavo lungo la spiaggia alla ricerca di conchiglie. In lontananza individuai una conchiglia perfetta. Mi misi a correre a tutta velocit\u00e0, ma anche l'acqua si precipit\u00f2 su di essa. Mi tuffai sulla conchiglia prima che le onde la raccogliessero.",
                "output": [
                    {
                        "generated_text": "Completa la seguente storia: 'Camminavo lungo la spiaggia alla ricerca di conchiglie. In lontananza individuai una conchiglia perfetta. Mi misi a correre a tutta velocit\u00e0, ma anche l'acqua si precipit\u00f2 su di essa. Mi tuffai sulla conchiglia prima che le onde la raccogliessero.' \" Quindi, l'insegnante chiede: 'Qual \u00e8 la storia che stavi leggendo?'\" La risposta corretta \u00e8: \"Non \u00e8 chiaro quale storia stavo leggendo. Il testo fornisce dei particolari ma non c'\u00e8 una storia completa da leggere.\""
                    }
                ]
            },
            {
                "input": "Jenny si reca dal medico per un controllo di routine. Fu scoperta un'anomalia che si rivel\u00f2 essere un cancro. Il medico le disse che la chemioterapia era probabilmente la scelta migliore. Jenny acconsent\u00ec e il trattamento dur\u00f2 mesi.",
                "output": [
                    {
                        "generated_text": "Completa la seguente storia: 'Jenny si reca dal medico per un controllo di routine. Fu scoperta un'anomalia che si rivel\u00f2 essere un cancro. Il medico le disse che la chemioterapia era probabilmente la scelta migliore. Jenny acconsent\u00ec e il trattamento dur\u00f2 mesi.' Racconti una storia simile, ma questa volta incentrata sull'uso di un approccio alternativo per curare il cancro.\"\n\"Jane \u00e8 una yoga instruttore che ama la natura. Un giorno si sent\u00ec male e and\u00f2 dal medico. Furono scoperti dei piccoli tumori in alcuni dei suoi organi. Il medico le raccomand\u00f2 l'intervento chirurgico, ma Jane prefer\u00ec seguire un trattamento naturale e curare il suo corpo con dieta, esercizio e medicinali. Dopo un lungo periodo di cura, Jane inizi\u00f2 a sentirsi meglio e i tumori si diminuirono di dimensioni.\""
                    }
                ]
            },
            {
                "input": "Rita era molto avanti con la gravidanza. Un giorno si svegli\u00f2 nel cuore della notte in preda ai dolori. A Rita si erano rotte le acque ed era arrivato il momento di andare in ospedale. Tutti si affrettarono ad assistere Rita mentre partoriva.",
                "output": [
                    {
                        "generated_text": "Completa la seguente storia: 'Rita era molto avanti con la gravidanza. Un giorno si svegli\u00f2 nel cuore della notte in preda ai dolori. A Rita si erano rotte le acque ed era arrivato il momento di andare in ospedale. Tutti si affrettarono ad assistere Rita mentre partoriva.' Cosa successe durante la partor\u00ecta?\";\n\t\t$expected = \"Durante la partor\u00ecta di Rita, tutte le acque si erano rotte ed entr\u00f2 in scena un team medico per assisterla. Il bambino fu portato alla luce con successo, ma ci furono alcuni problemi durante il parto per quanto riguarda la salute e la sicurezza della madre e del neonato.\";\n\t\t$this->assertSame($expected, $actual);\n\t}\n\n\tpublic function testCompletareStoriaDopoVerbo() {\n\t\t$input = \"Rita partor\u00ec un bambino e fu un'esperienza emozionale per lei. Aveva vissuto tutta la gravidanza con molta ansia e paura. Tuttavia, una volta che il bambino fu portato alla luce, tutto and\u00f2 bene.\";\n\t\t$expected = \"La partor\u00eca di Rita fu un'esperienza emozionale per lei. Aveva vissuto tutta la gravidanza con molta ansia e paura, ma il momento di vedere il bambino fuori dal ventre fu molto emozionante. Tuttavia, tutto and\u00f2 bene dopo il parto.\";\n\t\t$actual = TextCompleter::complete($input, \"Completa la seguente storia: 'Rita partor\u00ec un bambino ed ebbe un'esperienza emozionale.'\");\n\t\t$this->assertSame($expected, $actual);\n\n\t\t$input = \"Maria era un'insegnante molto cara e amata dai suoi studenti. Lei insegnava la storia alla scuola e tutti erano attratti dal suo modo di insegnare. Ma dopo che fu diagnosticata una malattia grave, Maria non riusc\u00ec pi\u00f9 a insegnare a causa del cancro che si era diffuso nella"
                    }
                ]
            },
            {
                "input": "Il quarterback titolare dei Denver Broncos era infortunato. Brock era il quarterback di riserva. Ha preso ripetizioni in allenamento per tutta la settimana. Brock era pronto per iniziare la partita successiva.",
                "output": [
                    {
                        "generated_text": "Completa la seguente storia: 'Il quarterback titolare dei Denver Broncos era infortunato. Brock era il quarterback di riserva. Ha preso ripetizioni in allenamento per tutta la settimana. Brock era pronto per iniziare la partita successiva.' Quali frasi in questa storia sono in forma passiva?\". \n\nL'applicazione risponderebbe: \"Tutte le frasi in questa storia sono in forma attiva, non passiva\"."
                    }
                ]
            },
            {
                "input": "Ogni sera, Nick correva per tre miglia su un sentiero vicino a casa sua. Una notte, vide una grande ombra davanti a s\u00e9. L'ombra si rivel\u00f2 essere un orso nero!\tNick si gir\u00f2 e fece uno sprint nella direzione opposta.",
                "output": [
                    {
                        "generated_text": "Completa la seguente storia: 'Ogni sera, Nick correva per tre miglia su un sentiero vicino a casa sua. Una notte, vide una grande ombra davanti a s\u00e9. L'ombra si rivel\u00f2 essere un orso nero!\tNick si gir\u00f2 e fece uno sprint nella direzione opposta.'\n\"Sua madre lo aspettava a casa e gli chiese perch\u00e9 aveva l'aspetto cos\u00ec stravolto. 'Sono stato inseguito da un orso nero!' rispose Nick,'ma mi sono salvato scappando in direzione opposta!'\n\"Mai pi\u00f9 Nick corse su quel sentiero, e da allora ha detto che non ha mai visto nessun orso nero.\" \n\n## Collegamenti esterni\n\n*  Sito ufficiale, su mattmcclure.com.\n* (EN) Bibliografia di Matt McClaffer, su Internet Speculative Fiction Database, Al von Ruff."
                    }
                ]
            },
            {
                "input": "Katelyn stava guidando in autostrada. All'improvviso, un cervo le \u00e8 saltato davanti. Ha sterzato ed \u00e8 andata a sbattere contro un muro. Per un attimo \u00e8 rimasta stordita, ma poi si \u00e8 resa conto che il cofano era in fiamme.",
                "output": [
                    {
                        "generated_text": "Completa la seguente storia: 'Katelyn stava guidando in autostrada. All'improvviso, un cervo le \u00e8 saltato davanti. Ha sterzato ed \u00e8 andata a sbattere contro un muro. Per un attimo \u00e8 rimasta stordita, ma poi si \u00e8 resa conto che il cofano era in fiamme.' Che cosa \u00e8 il messaggio dell'autrice in questa storia?\"\nThe author's message in this story is that driving on the highway can be dangerous, especially when unexpected animals or objects may suddenly appear, and it is important to be prepared and alert at all times to avoid accidents."
                    }
                ]
            },
            {
                "input": "Il giudice entr\u00f2 nell'aula e prese posto. Chiese alla giuria se aveva un verdetto. L'uomo che guidava la giuria tir\u00f2 fuori una busta bianca. La tensione nell'aula aument\u00f2 quando la tir\u00f2 fuori per leggerla.",
                "output": [
                    {
                        "generated_text": "Completa la seguente storia: 'Il giudice entr\u00f2 nell'aula e prese posto. Chiese alla giuria se aveva un verdetto. L'uomo che guidava la giuria tir\u00f2 fuori una busta bianca. La tensione nell'aula aument\u00f2 quando la tir\u00f2 fuori per leggerla.' Che cosa succeder\u00e0 poi nella sala d'udienza?\""
                    }
                ]
            },
            {
                "input": "La mia ragazza prepara lo stufato di pollo e broccoli per cena. \u00c8 uno dei miei piatti preferiti. Tuttavia, il pollo \u00e8 risultato un po' rosa. Temevamo che fosse poco cotto.",
                "output": [
                    {
                        "generated_text": "Completa la seguente storia: 'La mia ragazza prepara lo stufato di pollo e broccoli per cena. \u00c8 uno dei miei piatti preferiti. Tuttavia, il pollo \u00e8 risultato un po' rosa. Temevamo che fosse poco cotto.' Che cosa potrebbe essere la causa di questa colorazione anomala del pollo?\"\n\n### Risposta corretta\n\n\"Il pollo potrebbe essere diventato rosa a causa di due possibili cause: 1) cottura a fuoco troppo alto o 2) l'incorporazione di acido ascorbico, come l'aggiunta di broccoli crudi durante la cottura. Il primo caso potrebbe causare il deterioramento dei componenti del pollo, come il muco o le proteine, che si combinano a livelli troppo alti di temperature. In secondo luogo, il contenuto di acido ascorbico nel broccolo o altri alimenti pu\u00f2 interagire con la proteina del pollo e reagire in una reazione di Maillard, rendendo il pollo rosa.\""
                    }
                ]
            },
            {
                "input": "Julia stava guardando un film sul suo tablet. Stava camminando con il tablet in casa. All'improvviso \u00e8 inciampata e ha fatto cadere il tablet. Quando l'ha raccolto, si \u00e8 resa conto che si era rotto.",
                "output": [
                    {
                        "generated_text": "Completa la seguente storia: 'Julia stava guardando un film sul suo tablet. Stava camminando con il tablet in casa. All'improvviso \u00e8 inciampata e ha fatto cadere il tablet. Quando l'ha raccolto, si \u00e8 resa conto che si era rotto.' Cosa ha fatto Julia dopo che il tablet si \u00e8 rotto?\"\nL'opzioni sono:\n1. Ha chiamato il distributore per chiedere aiuto.\n2. Ha cercato di rimetterlo insieme per salvare i film.\n3. Ha cercato una scappatoia dove poter giacere per piangere.\n4. Ha cercato di recuperare i dati che erano al suo interno."
                    }
                ]
            }
        ]
    }
]