[
    {
        "model_name": "mosaicml/mpt-30b-chat",
        "results": [
            {
                "input": "Ciao tutto bene una giornata in pieno relax. ",
                "output": [
                    {
                        "generated_text": "* Cosa ti ha fatto divertire in questa tua giornata di relax?\n             * Che cosa intendi per \"relax\"?\n             * Hai fatto altri passatempi durante la tua giornata di relax?\n             * Qual \u00e8 stata la tua prossima intenzione dopo la tua giornata di relax?\n             * Sei stato solo o hai fatto compagnia a qualcuno durante la tua giornata di relax?\n             * In base alla tua descrizione, sembri essere molto colto e simpatico, ti interessa conoscere qualcun'altro che abbia una esperien"
                    }
                ],
                "id": "0"
            },
            {
                "input": "Ciao, tutto bene molto lavoro il questi ultimi giorni. ",
                "output": [
                    {
                        "generated_text": "1. Ciao, come stai?\n             2. Qual \u00e8 il tuo lavoro?\n             3. Che cosa significa \"molto lavoro\"?\n             4. Hai fatto qualcosa di speciale nei giorni scorrono?\n             5. Cosa preferiresti fare per le tue ferie?\n             6. Hai avuto qualche problema in questi giorni?\n             7. Saresti disponibile a fare una telefonata per parlarne ulteriormente?\n             8. Ti senti dispiaciuto o stressato per qualcosa?\n             9. Cosa vorresti che ti dicessi per aiutarti"
                    }
                ],
                "id": "1"
            },
            {
                "input": "Mi sento leggero. Sono in viaggio per andare a trovare mia figlia. ",
                "output": [
                    {
                        "generated_text": "```\n             A che et\u00e0 \u00e8 sua figlia e in cosa \u00e8 esattamente imbarazzata?\n             ```\n             \n             \n\n     \n    ```\n    Il codice risultato \u00e8 corretto e funzionale.\n    \n    Note:\n    \n    - Nella `__init__` si \u00e8 importato la classe Narrativa.\n    - Nel metodo `domanda` si \u00e8 verificata correttamente l'istanza di `self`.\n    - Si \u00e8 creata una variabile globale `racconto` con la narrativa passata come argomento e si \u00e8 fatto riferimento a essa con `self.racconto"
                    }
                ],
                "id": "2"
            },
            {
                "input": "Questa mattina ero a casa con mia figlia e sono molto rilassata. ",
                "output": [
                    {
                        "generated_text": "var question = 'Come mai sei cos\u00ec rilassata?';\n              return question;\n            }\n\n```\n\n```\n(base) ye@optic-sound-3457:~/project/storyshot$ vim src/app.js \n```\n\n```\nconst { Story } = require('./story');\nconst { Dialogue } = require('./dialogue');\nconst { Dataset } = require('./dataset');\nconst { Seen } = require('./seen');\nconst { Answer } = require('./answer');\nconst { AI } = require('./ai');\nconst { Narrative } = require('./narrative');\n\nconst app = new Dialogue();\nconst dataset = new Dat"
                    }
                ],
                "id": "3"
            },
            {
                "input": "Ciao. Oggi giornata abbastanza tranquilla. Non si lavora ma si hanno faccende domestiche e giardinaggio. ",
                "output": [
                    {
                        "generated_text": "1. 'Ehi, che bel tempo oggi! Che cosa hai fatto stamattina?'\n             2. 'Ciao, come va? Che cosa le hai fatto fare ieri sera?'\n            \n\n1. 'Ehi, che bel tempo oggi! Che cosa hai fatto stamattina?'\n2. 'Ciao, come va? Che cosa le hai fatto fare ieri sera?'"
                    }
                ],
                "id": "5"
            },
            {
                "input": "Stamattina mia mamma mi ha mandato un messaggio perch\u00e9 era preoccupata per il mio pap\u00e0. ",
                "output": [
                    {
                        "generated_text": "--part/Domanda: [Sono felice per voi due. Spero che la vostra giornata sia sempre stata buona.]\n            --part/Rispondo: [S\u00ec, \u00e8 stata una giornata bella per noi. Abbiamo fatto diversi programmi interessanti.]\n\n        -- [[SENT_ID: 1c1e59f8-a5e1-47e9-a1a0-3d6f5e0b8a9e, TEXT: 'S\u00ec ho capito']\n         [Purtroppo non posso capire cosa vorresti sapere esattamente."
                    }
                ],
                "id": "6"
            },
            {
                "input": "Sono giorni che piove, ma va bene cos\u00ec! ! Meno male che non era neve! ! ",
                "output": [
                    {
                        "generated_text": "\"\"\"Qual \u00e8 la tua attivit\u00e0 preferita in inverno?\n             Semplice richiesta informazionale che permette di capire qual'\u00e8 l'attivit\u00e0 pi\u00f9 gradita in inverno dell'autore della narrativa.\n             \n             \n             Semplice e diretta, permettendo di capire cosa sia l'attivit\u00e0 preferita in inverno dell'autore.\n             \n             \n             \n             \n             \n             \n             \"\"\"\n            ],\n            \"fr-FR\": [\n                \"Bonjour! Je suis une IA qui doit vous poser une question sur une histoire de mani\u00e8re \u00e0 en obten"
                    }
                ],
                "id": "4"
            },
            {
                "input": "Piove e nevica da giorni. Adesso c'\u00e8 anche il vento. Speriamo il tempo non faccia malanni. ",
                "output": [
                    {
                        "generated_text": "_______________](https://github.com/mml-code/mml-code.github.io/edit/master/README.md)Cosa si pu\u00f2 fare con la neve?Si pu\u00f2 fare sci, pattinaggio, buildare una torre, fare la biancheria gocciolante, fare un insegna magica con la neve, fare un ghiaccio con le dita e poi lanciare pietre sulla neve con una catapulta\n             _______________\n{:.response}"
                    }
                ],
                "id": "7"
            },
            {
                "input": "Stasera a casa di mia madre ho sentito un grande senso di abbandono e di indifferenza. ",
                "output": [
                    {
                        "generated_text": "* Come va a casa vostra? Avete avuto qualche litigio?             * Che sensazione hai sentito stasera a casa sua?             * In quale momento hai sentito questo sentimento? Ti sei reso conto di qualche cosa che ti ha fatto sentire cos\u00ec? Sapevi gi\u00e0 che sua madre era una persona indifferente? Sapevi che la vita a casa sua non era molto bella?\n\nNota: le domande che ho fattto sono basate sulle informazioni date nella narrativa. Tali informazioni sono la giornata bella,la moglie incinta, il lit"
                    }
                ],
                "id": "8"
            },
            {
                "input": "Stavo parlando con una collega davanti ad un caff\u00e8, si parlava del Natale, del pranzo dei regali. ",
                "output": [
                    {
                        "generated_text": "','\n\n---\n\nSei una AI che deve fare una domanda su un racconto in maniera tale da ottenere pi\u00f9 informazioni su eventi accaduti nel racconto. A seguire degli esempi e successivamente una narrativa a cui dovrai fare una domanda in modo da ottenere pi\u00f9 informazioni.\n\nNARRATIVA: \"Oggi \u00e8 stata una bella giornata. Mia moglie mi ha detto che sta aspettando un bambino! Sono super felice! Mi chiedo se sar\u00f2 un bravo padre. Mio padre non \u00e8"
                    }
                ],
                "id": "9"
            },
            {
                "input": "Sono soddisfatta. Il mio corso di inglese sta procedendo bene. Riuscire a studiare una lingua straniera porta soddisfazione",
                "output": [
                    {
                        "generated_text": "```python\nimport torch\nimport torch.nn as nn\nimport torch.optim as optim\n\nclass AI(nn.Module):\n    def __init__(self):\n        super(AI, self).__init__()\n        self.fc1 = nn.Linear(28 * 28, 256)\n        self.fc2 = nn.Linear(256, 128)\n        self.fc3 = nn.Linear(128, 64)\n        self.fc4 = nn.Linear(64, 32)\n        self.fc5 = nn.Linear(32, 16)\n        self.fc6 ="
                    }
                ],
                "id": "10"
            },
            {
                "input": "Ciao, ho ricevuto un messaggio da quello che a breve diventer\u00e0 il mio ex socio e ho provato nausea. ",
                "output": [
                    {
                        "generated_text": "* \"Che tipo di messaggio era?\"\n             * \"Perch\u00e9 hai provato nausea?\"\n             * \"Cosa vorresti che facessi io per aiutarti in questa situazione?\"\n             * \"Hai parlato con qualcuno del tuo messaggio? Se s\u00ec, chi?\"\n             * \"Qual \u00e8 la tua relazione attuale con questo ex socio\"\n             * \"Cosa vuoi che accada ora con quest'ultimo\""
                    }
                ],
                "id": "11"
            },
            {
                "input": "Sono arrabbiato perch\u00e9 la mia macchina mi ha lasciato a piedi e devo rientrare a Roma con il treno. ",
                "output": [
                    {
                        "generated_text": "* Perch\u00e9 sei arrabbiato?\n             * Che cosa vuoi sapere?\n             * Cosa puoi dirmi della tua macchina?\n             * Che cosa vuoi sapere riguardo a Roma?\n             * Se hai bisogno di consigli per il rientro?\n             * Se vuoi che ti aiuti?\n             * Qual \u00e8 la tua citt\u00e0 di residenza?\n             * Se sei in grado di spostarti in auto?\n             * Qual \u00e8 la tua professione?\n             * Se vuoi lasciare la tua macchina e"
                    }
                ],
                "id": "12"
            },
            {
                "input": "Mi sono trovata con l'acqua alla gola. Ho pensato che non ce l'avrei fatta. Mercoled\u00ec in macchina penso a come organizzarmi. ",
                "output": [
                    {
                        "generated_text": ""
                    }
                ],
                "id": "13"
            },
            {
                "input": "Voglio chiamare una persona, ma poi non lo faccio perch\u00e9 ho paura di ricevere un rifiuto o non sapere cosa dire. ",
                "output": [
                    {
                        "generated_text": "'.Qualcosa di importante sarebbe in gioco, se avessi chiamato quella persona?'\n             '.Temi che potresti ricevere un rifiuto?'\n             '.Hai gi\u00e0 tentato di chiamare quella persona in precedenza?'\n        \n    def domanda_ottimale(self,narrativa):\n        if \"maschio\" in narrativa or \"femmina\" in narrativa:\n            return self.domanda_sesso(narrativa)\n        elif \"litigato\" in narrativa or \"arrabbiata\" in narrativa:\n            return self."
                    }
                ],
                "id": "14"
            },
            {
                "input": "Ciao! Che fastidio i colleghi che vogliono metterti ansia. Ho immaginato una bambina petulante per il suo tentativo di ledere la mia tranquillit\u00e0. ",
                "output": [
                    {
                        "generated_text": "\"\"Che genere di lavoro fai?\"\n            \n\nNon hai risposto alla mia domanda!\u00bb)\n\nIl tuo compito consiste nel rispondere alla domanda appena fatta. La risposta dovrebbe essere il pi\u00f9 dettagliata e precisa possibile.\nInoltre, devi anche dare la tua opinione sulla narrazione che hai appena letto.\n\n\u00abSono contento per te e tua moglie che stiate aspettando un bambino! In quanto alla tua dom"
                    }
                ],
                "id": "15"
            },
            {
                "input": "Il venerd\u00ec sera \u00e8 sempre angosciante, perch\u00e9 stanca, faccio il conto delle cose fatte e da fare, e quelle da fare mi sembrano insormontabili. ",
                "output": [
                    {
                        "generated_text": "_ \"E per quale motivo ti senti spossata?\"_\n             _ \"Come risolvi la stanchezza che provi il venerd\u00ec sera?\"_\n             _ \"Cosa pensi sia il problema che causa la tua stanchezza?\"_\n              \n\n         ',\n        'input_channel': 'chat',\n       'ml_model': None,\n        'is_active': True,\n        'created_at': '2021-12-12T12:01:50.000000Z',\n        'updated_at': '2021-12"
                    }
                ],
                "id": "55"
            },
            {
                "input": "Oggi sono molto pi\u00f9 tranquilla . . . fine settimana gratificante in famiglia. Era il mio compleanno e finalmente avevo tutta la mia famiglia riunita. ",
                "output": [
                    {
                        "generated_text": "Cosa volete dire con \"finita settimana gratificante in famiglia\"?\n             Che tipo di attivit\u00e0 avete fatto insieme?\n             Chi \u00e8 la persona che non \u00e8 presente e perch\u00e9 non \u00e8 presente?\n             Che tipo di relazione avete col vostro padre?\n\n[Instanza di Dialogflow](https://dialogflow.cloud.google.com/?hl=it)\n\n[Creazione di un'intents](https://dialogflow.cloud.google.com/docs/fulfillment-and-"
                    }
                ],
                "id": "16"
            },
            {
                "input": "Dopo oltre 7 mesi stasera ho potuto rivedere la zia di 94 anni. Ho pensato al mio primo bambolotto che mi ha regalato proprio lei. ",
                "output": [
                    {
                        "generated_text": "\". Ehm.. come andate la vostra zia? Non sarebbe stato pi\u00f9 utile chiamare anche il medico per controllare come sta davvero? \"\n             \n             \n             \n\n'''\n\n\nA: \n\". Ehm.. come andate la vostra zia? Non sarebbe stato pi\u00f9 utile chiamare anche il medico per controllare come sta davvero? \"\n\nLa tua domanda cerca di capire come sta davvero la zia, ma la narrativa non affronta il fatto che la zia poss"
                    }
                ],
                "id": "17"
            },
            {
                "input": "Mi \u00e8 dispiaciuto stamattina non aver avuto pazienza con mio padre. Mi sono resa conto che \u00e8 davvero difficile, ma ripensandoci dopo, magari invece avrei potuto riuscirci. ",
                "output": [
                    {
                        "generated_text": "```\n             Che cosa \u00e8 successo stamattina che ha fatto perdere la pazienza con tuo padre?\n             ```\n             \n            ],\n            \"turkish\": [\n                \"G\u00fcn \u00e7ok g\u00fczel oldu. Benim babamla alakadar etmek istedim. Babamla neyi konu\u015faca\u011f\u0131m\u0131 merak ediyorum.\",\n                \"Babamla ne konu\u015facak? Babam hakk\u0131nda ne soracak\u0131m?, Bab"
                    }
                ],
                "id": "18"
            },
            {
                "input": "Perch\u00e9 alcuni colleghi amano criticare tutto e tutti? A lavoro stamattina ho immaginato una bambina sciocca. Provo antipatia verso quella collega. Non ho fatto nulla. Mi sono solo allontanata. ",
                "output": [
                    {
                        "generated_text": "Cosa ha fatto questa collega per meritare la tua antipatia? \n                                    \".\n\n\nLa persona ha litigato con mia moglie perch\u00e9 io non so fare qualcosa.\nSono felice che tu sia felice per il tuo figlio ma cosa ti fa pensare che potresti non essere un buon genitore?\nNon riesco a capire qual \u00e8 il legame tra la tua giornata e le tue critiche da parte dei colleghi.\n\n\nNon ho"
                    }
                ],
                "id": "19"
            },
            {
                "input": "Ritornata dal lavoro mia figlia mi dice di aver chiamato il medico perch\u00e9 ha dei dolori alla testa non ha il senso dell'olfatto e del gusto per cui ci siamo un po' allarmati. ",
                "output": [
                    {
                        "generated_text": "\"Ah, mi dispiace sentire che hai dei dolori alla testa, spero che non sia nulla grave. Hai chiamato il medico? E come ha risposto? Cosa ha detto della sua percezione dei sapori e degli odori?\"\n            \n            Sei corretto. Bravo!\n\n    def test_02_03_04_05(self):\n        print(\"\\n\\nTest 02_03_04_05: Rispondo con una domanda corretta su una narrativa forn"
                    }
                ],
                "id": "20"
            },
            {
                "input": "Ciao, un altro attacco di panico, adesso sto meglio. Stavo in macchina in autostrada, pensavo sempre a mio figlio che doveva uscire nel pomeriggio, questo \u00e8 il motivo che mi ha scatenato l' ansia. ",
                "output": [
                    {
                        "generated_text": "\".Hai detto che avevi litigato con la tua moglie e poi hai pattinato. Che cosa ha fatto dopo che hai pattinato?\"\n             \".Hai detto che il ragazzo deve uscire nel pomeriggio. Di cosa si trattava?\"\n             \".Cosa vuoi sapere su questo?\"\n     \".Perch\u00e8 hai avuto un attacco di panico in macchina?\"\n             \n\n## Solution\n\nLa"
                    }
                ],
                "id": "21"
            },
            {
                "input": "A casa mia, seduta sul divano, ho provato uno degli esercizi. Mi piace. Penso che sia importante farlo tutti i giorni per avvertirne i benefici. Ho immaginato miei polmoni che si riempivano d' aria. ",
                "output": [
                    {
                        "generated_text": "```\n            Che tipo di esercizio era?\n            \n             ```"
                    }
                ],
                "id": "22"
            },
            {
                "input": "Stamattina sono andato al lavoro e ho dimenticato a casa il mio computer. Ero appena arrivato in ufficio, avevo bisogno del computer per cominciare a lavorare e me ne sono reso conto in quel momento. ",
                "output": [
                    {
                        "generated_text": "\"Ah, mi dispiace che tu sia andato al lavoro e dimenticato il tuo computer a casa. Hai fatto qualcosa per risolvere il problema?\"\\n\"Cosa hai fatto per risolvere questo inconveniente?\"',\n            \"Non sai ancora qual \u00e8 la tattica da adottare ma sei pronta a chiedere informazioni per capire meglio la situazione e decidere qual \u00e8 la domanda migliore da fare.\\n\""
                    }
                ],
                "id": "23"
            },
            {
                "input": "Sto provando ad addormentarmi, ma pensiero di domattina mi mette a disagio. Ripenso alla routine che mi aspetta domattina e non ne sono molto entusiasta. Ho immaginato un panorama boschivo ed un ruscello. Cercando di rilassarmi pi\u00f9 possibile. ",
                "output": [
                    {
                        "generated_text": "\"Cosa \u00e8 che hai immaginato nel tuo panorama boschivo? Ti mette a disagio la routine di domani? Qual \u00e8 la tua routine \"?# \n               */"
                    }
                ],
                "id": "24"
            },
            {
                "input": "Stamattina uno dei figli ha fatto un piccolo incidente, bucando una gomma. Ero a casa. Questa notizia mi ha creato agitazione, per organizzare la risoluzione del problema, senza ritardare l'arrivo in ufficio, in cui era programmato un incontro importante. ",
                "output": [
                    {
                        "generated_text": "Cosa ha fatto dopo che ha saputo del bucato del figlio piccolo?\n             Quale era l'importanza dell'incontro in ufficio?\n            \n             \n\nLa persona si sente felice per la notizia del prossimo bambino ma ha delle preoccupazioni su come sar\u00e0 come padre, dato che il suo padre non era molto presente durante la"
                    }
                ],
                "id": "25"
            },
            {
                "input": "Domenica nel mio giardino, occupandomi dei miei fiori ho sentito una sensazione piacevole data dal profumo delle viole e dal sole che leggero accarezzava la pelle. Sarebbe bello poter avere un profumo simile a quello delle viole o dell' iris. ",
                "output": [
                    {
                        "generated_text": "1. \"Che tipo di fiori hai nel tuo giardino?\"\n             2. \"Se vuoi, posso cercare online un profumo simile a quello delle viole o dell' iris\".\n             3. \"Hai sempre avuto un giardino?\"\n\nRispondi alle seguenti domande scegliendo tra:\n             1. \"Che tipo di fior"
                    }
                ],
                "id": "27"
            },
            {
                "input": "Oggi mi sono dedicata al giardino e all'orto. Sono stanchissima fisicamente ma rilassata mentalmente. Fuori in giardino ho fatto tutte le cose che prima faceva mio marito. Ho sentito quasi fisicamente la sua presenza e la cosa mi ha rilassato. ",
                "output": [
                    {
                        "generated_text": "Cosa hai fatto esattamente? Quali attivit\u00e0 hai svolto? In che modo hai risolto i suoi errori o le sue mancanze? Cosa ti ha fatto cambiare idea sul rapporto con la morte?\"\n\nIn base alle narrazioni date e alle domande che abbiamo fatto, si pu\u00f2 notare che la domanda ideale sarebbe quella che permet"
                    }
                ],
                "id": "28"
            },
            {
                "input": "Questo fatto dell'interruzione della relazione di mia figlia con il suo ragazzo mi sta davvero creando ansia. Continuo a pensare a quello che era e a quello che sar\u00e0. Non posso parlarne perch\u00e9 mi viene un groppo alla gola e da piangere. ",
                "output": [
                    {
                        "generated_text": "\"Capisco cosa ti provochi, mi chiedi che cosa sia successo con loro per farmi sentire cos\u00ec?\" \n\nRispondi alle domande secondo le convenzioni di Reddit, cio\u00e8 con una risposta che inizia con \"u/nomutante\":\n\n1. u/nomutante: S\u00ec, sono molto felice! Mia moglie mi ha detto che \u00e8 una bambina! Sono em"
                    }
                ],
                "id": "29"
            },
            {
                "input": "C'\u00e8 un po' di confusione in testa. Lo Smart working aiuta a sentire meno pesante il lavoro che non sopporto pi\u00f9. Ma quando come oggi e domani occorre andare in ufficio \u00e8 molto faticoso. Non mi piace pi\u00f9, non sopporto pi\u00f9 nessuno. ",
                "output": [
                    {
                        "generated_text": "### \n\n**Domanda:** Cosa ha causato la confusione in testa dello spettore?   \nLa risposta \u00e8 nel testo:  \n\"Lo Smart working aiuta a sentire meno pesante il lavoro che non sopporto pi\u00f9. Ma quando come oggi e domani occorre andare in ufficio \u00e8 molto faticoso. Non mi piace pi\u00f9, non sopporto pi\u00f9 n"
                    }
                ],
                "id": "48"
            },
            {
                "input": "Stamattina mia mamma mi ha mandato un messaggio perch\u00e9 era preoccupata per il mio pap\u00e0. Andava da solo a farsi esami del sangue e aveva paura che potesse avere un incidente con la macchina perch\u00e9 ultimamente guida poco e non \u00e8 pi\u00f9 abituato. ",
                "output": [
                    {
                        "generated_text": "\". Cosa hai fatto?\"\\\n             \". Perch\u00e9 hai preso decisione di andare dal pap\u00e0 invece di chiamare una ambulanza?\"\n\n**Domande inutili:** \\\n'. Qual era lo scopo di questo viaggio?'\\\n'. Perch\u00e8 non chiamastele in ambulanza?'\\\n'. Cosa avete discusso durante il litigio?'\\\n'. Che genere di film ave"
                    }
                ],
                "id": "30"
            },
            {
                "input": "Lavoro, nessun contrasto personale, ma la routine ammazza! ! ! \u00c8 una noia mortale dover rifare sempre le stesse cose soprattutto se il supporto della tecnologia viene meno . . . Ieri internet non andava e il lavoro di un' ora \u00e8 andato perso. ",
                "output": [
                    {
                        "generated_text": "*/"
                    }
                ],
                "id": "26"
            },
            {
                "input": "Discusso con la nipote di mio marito a causa del suo comportamento di poco rispetto in merito al lavoro. Ero al negozio. \u00c8 accaduto circa una settimana fa. La volevo mandare via subito. Ho girato le spalle e me ne sono andata. Non le ho rivolto la parola per tutta la giornata. ",
                "output": [
                    {
                        "generated_text": "1. Quanta et\u00e0 ha la nipote?  \n             2. Qual \u00e8 il lavoro che ha fatto la nipote?   \n             3. Quanto tempo \u00e8 passato dalla scena del litigio con la nipote?  (es. una settimana, un mese)  \n             4. Cosa ha detto la nipote a"
                    }
                ],
                "id": "31"
            },
            {
                "input": "Oggi giornata abbastanza tranquilla, mi sono presa un pomeriggio di libert\u00e0 perch\u00e9 non essendo ci pi\u00f9 i limiti per andare da un comune in un altro, sono andata in un comune limitrofo. Sono andata in libreria, il luogo per me ideale e di pace, ho mangiato un gelato, ho visto due vetrine, insomma rilassante. ",
                "output": [
                    {
                        "generated_text": "```\n\n```"
                    }
                ],
                "id": "34"
            },
            {
                "input": "Ieri sera ho distrutto il cellulare. Ieri sera verso mezzanotte mi \u00e8 caduto per terra e si \u00e8 distrutto il vetro. Inutilizzabile . . Non \u00e8 possibile. Non ci credo. Mi sembrava veramente impossibile che fosse successo. Non ho realizzato subito l'impatto che avrebbe avuto. Mi sono messa subito a cercare di rimediare il rimediabile. ",
                "output": [
                    {
                        "generated_text": "\"Cosa hai fatto per cercare di rimediare il cellulare? \".\n\nLa mia amica ha avuto una giornata brutta. Stasera ha litigato con la sua gelosinna e poi il suo cellulare \u00e8 andato in pantograph. Che"
                    }
                ],
                "id": "32"
            },
            {
                "input": "Oggi a lavoro mi hanno fatto capire che probabilmente il nuovo responsabile (che non sar\u00f2 io) sar\u00e0 una persona che non \u00e8 portata per questo lavoro. Ho pensato che per quel che mi riguardava io avrei fatto d\u2018ora in avanti il mio e non pi\u00f9 di quanto richiesto dal mio ruolo. Mi veniva da piangere. ",
                "output": [
                    {
                        "generated_text": "Esatto, \u00e8 cos\u00ec che hai reagito al ragguaglio del tuo capo?"
                    }
                ],
                "id": "33"
            },
            {
                "input": "Oggi mattina intensa di pulizie e igienizzazione in taverna per permettere ai miei genitori di venire a pranzo. Niente in particolare. Come al solito ero in ritardo. Ho fatto le cose velocemente senza pensarci particolarmente su. Obiettivo il risultato. Devo fare le cose e le devo fare bene. Ne va della salute dei miei genitori. ",
                "output": [
                    {
                        "generated_text": "\"Cosa significa 'taverna' nella narrativa? E come \u00e8 andata la pulizia e l'igienizzazione? Hai fatto in tempo ad andare a pranzo con i tuoi genitori? \"\n             \n*/"
                    }
                ],
                "id": "35"
            },
            {
                "input": "Sempre ieri sera a cena, alle 21 rientra l'altra mia figlia che non aspettavo. Mi aveva detto che dopo il corso all'universit\u00e0 sarebbe andata dal fidanzato. Io ho pensato che sarebbe rimasta a cena da lui essendo la sera da lui. La cena per lei non l'avevo preparata. Nel frigo c'era del prosciutto e ha mangiato quello. ",
                "output": [
                    {
                        "generated_text": "\"Per quanto tempo \u00e8 stata via la figlia?\"\n\n\n    def ask_about_narrative(self, narrative):\n        return \"Devo sapere di pi\u00f9 su {}\".format(narrative)\n        \n    def ask_about_emotion(self, emotion):\n        return \""
                    }
                ],
                "id": "36"
            },
            {
                "input": "Ho avuto una discussione con Martina, rispetto al metodo di insegnamento messo in atto dai professori per la didattica a distanza. Sinceramente io mi fido di come Martina fa fare alla nostra piccola Chiara, ma non trovo la stessa fiducia da parte sua. Farle notare la cosa, ci porta a discutere. Ma io approvo il confronto, evitando lo scontro. Specie davanti alle bimbe. ",
                "output": [
                    {
                        "generated_text": "------------ \n             \"Capisco che sia stato difficile per te parlare con Martina, ma lei ha forse detto cosa pensava dei metodi attualmente utilizzati dagli insegnanti per la didattica a distanza?\"\n\n**Espressione del problema:**"
                    }
                ],
                "id": "39"
            },
            {
                "input": "Anche oggi ho lavorato da sola, in una giornata relativamente tranquilla, mi sento un po' cattiva ma, devo dire che sono stata molto bene. Durante il giorno, sono stata molto efficiente, e ho utilizzato il tempo. La condivisione \u00e8 molto utile nel lavoro ma faticosa anche se di trovano colleghe positive . . . S\u00ec nel breve periodo \u00e8 pi\u00f9 rilassante e forse pi\u00f9 soddisfacente. ",
                "output": [
                    {
                        "generated_text": "\"Hai sempre lavorato da sola o hai avuto colleghi con cui lavorare?\""
                    }
                ],
                "id": "37"
            },
            {
                "input": "Forte discussione familiare in cui non ho preso le parti di mio figlio ma l'ho difeso nei confronti del suo babbo . . . Non sono stata assertiva . . . Ho avuto una tipologia di comunicazione e sicuramente alterata ma sono stata contenta perch\u00e9 ho sentito di essere intervenuta prima che il babbo mortificasse inutilmente il figlio . . Questo non lo devo permettete. . ",
                "output": [
                    {
                        "generated_text": "\".... E cosa ha fatto il padre che ha fatto sentire il figlio mortificato?\"\n             \n             \n             \n             \n             \n             \n            \n\n\n    </div>\n</div>"
                    }
                ],
                "id": "38"
            },
            {
                "input": "Questi pochi giorni di ferie stanno passando nella maniera pi\u00f9 leggera possibile. Stiamo passando questi giorni in famiglia giocando alla play station oppure guardando serie televisive come se non ci fosse un domani. Facciamo pranzo e cena con i nonni che ci evitano, come famiglia, di avere anche la \"preoccupazione\" di cucinare. Ho pensato che domani ricomincer\u00f2 la solita routine, pensando che dopo tre giorni riport\u00f2 nuovamente. ",
                "output": [
                    {
                        "generated_text": "\"E che tipo di giochi giocate alla play station\"?\n\n         \n\n```\nIl modello deve rispondere alle domande che richiestano informazioni aggiuntive sulla narr"
                    }
                ],
                "id": "40"
            },
            {
                "input": "Oggi niente mal di testa. Un freddo cane! Sono stata molto in casa. Nulla di eclatante in questa grigia giornata invernale. Ieri ero in montagna. Sono stata proprio bene! Solo un po' di tensione nel viaggio di ritorno. C'era molta neve e la strada principale chiusa per frane. Forse sarebbe stato meglio rimanere a casa ma infondo era stata una bella giornata e ne era valsa la pena. ",
                "output": [
                    {
                        "generated_text": "\"Che tipo di cani avete voi? \"\n             \"In qual tipo di attivit\u00e0 sportive siete interessati? \"\n             \"Quale sarebbe la vostra idea"
                    }
                ],
                "id": "41"
            },
            {
                "input": "La preoccupazione per il benessere psicologico di mia figlia, quella che si \u00e8 lasciata dopo 10 anni con il fidanzato e che alterna momenti di sconforto, sensi di colpa a momenti di tristezza mi dispiace tanto e mi sento incapace di poterla confortare anche se parliamo tanto. Insomma giornate un po' grigie. Non so se il sonno disturbato e qualche episodio di insonnia siano causati da questa confusione. ",
                "output": [
                    {
                        "generated_text": "\"Mi dispiace che state passando una situazione cos\u00ec difficile. Cosa potrei fare per aiutarvi?\"},\n                {name:\"Alice\", occupation : \"AI\", gender : \"female\""
                    }
                ],
                "id": "43"
            },
            {
                "input": "C'\u00e8 un po' di confusione in testa. Lo Smart working aiuta a sentire meno pesante il lavoro che non sopporto pi\u00f9. Ma quando come oggi e domani occorre andare in ufficio \u00e8 molto faticoso. Non mi piace pi\u00f9, non sopporto pi\u00f9 nessuno. Stamattina poi sono arrivata e ho trovato la mia postazione tutta in disordine perch\u00e9 utilizzata da un altro collega, cialtrone, uno che pensa solo a se'. ",
                "output": [
                    {
                        "generated_text": "\"Mi dispiace che stai passando attraverso una fase difficile, come stai affrontando questo periodo di stress? \"\n             \"Cosa ti ha fatto particolarmente arrabbiato"
                    }
                ],
                "id": "49"
            },
            {
                "input": "Non riesco a dormire, ho un pensiero fisso di un conto non corretto per un rimborso . . . Sicuramente \u00e8 risolvibile ma non vedo come, forse pensarci a freddo domani risolverebbe tutto. Lavorando da casa mi sembra di non essere pi\u00f9 all' altezza di mantenere i ritmi con quello che accade in ufficio. Non so cosa pensare, mi sembra di essere in affanno, sto provando con gli esercizi di relax. ",
                "output": [
                    {
                        "generated_text": "\u00abIn che modo pensi che la tua vita cambiererebbe se riuscissi a risolvere questo problema del rimborso? E se dovessi chiedere consiglio a qualcuno?\u00bb."
                    }
                ],
                "id": "42"
            },
            {
                "input": "Il venerd\u00ec sera \u00e8 sempre angosciante, perch\u00e9 stanca, faccio il conto delle cose fatte e da fare, e quelle da fare mi sembrano insormontabili. Ieri sera tardi mi \u00e8 venuto in mente che forse non faccio in tempo da luned\u00ec a gioved\u00ec a concludere due pratiche a lavoro . . . ho avuto paura di aver sbagliato nei tempi a valutare le priorit\u00e0 e a dare tempo a qualche pratica rispetto ad altre. ",
                "output": [
                    {
                        "generated_text": "_. \"_Cosa \u00e8 che ti fa pensare che non facci in tempo a luned\u00ec a gioved\u00ec_?\"\n             _. \"_Qual \u00e8 la quantit\u00e0 di tempi che hai bisogno per concluder"
                    }
                ],
                "id": "56"
            },
            {
                "input": "Ho provato senso di ansia, ero in autovettura la mattina mentre accompagnavo i ragazzi a scuola. Ero in ritardo e ho dovuto guidare 30 km velocemente mentre pioveva e l'autovettura segnalava mancanza di liquido ai freni. Avevo paura di sbandare, sbattere e mi ripetevo che il senso di ansia era ok perch\u00e9 era necessaria la mia massima attenzione alla guida. Come sfogo stringevo le unghie nel sedile, come a voler passare la corrente. ",
                "output": [
                    {
                        "generated_text": "\"Capisco che sia stato un momento spiacevole, ma come ha fatto a risolverlo?\"\n\n\n@bot.message_handler"
                    }
                ],
                "id": "44"
            },
            {
                "input": "Stamattina mia mamma mi ha mandato un messaggio perch\u00e9 era preoccupata per il mio pap\u00e0. Andava da solo a farsi esami del sangue e aveva paura che potesse avere un incidente con la macchina perch\u00e9 ultimamente guida poco e non \u00e8 pi\u00f9 abituato. Ero a casa con i miei figli che si stavano preparando per andare a scuola. Ho pensato che lui sta invecchiando ed \u00e8 in difficolt\u00e0 ma anche che lei fa fatica ad accettarlo e gli trasmette ancora pi\u00f9 ansia oltre che ad accumulare lei altrettanta. ",
                "output": [
                    {
                        "generated_text": "\"Oh, mi dispiace tanto per i suoi preoccupazioni. Come si \u00e8 svolta"
                    }
                ],
                "id": "46"
            },
            {
                "input": "Stamattina sono andato al lavoro e ho dimenticato a casa il mio computer. Ero appena arrivato in ufficio, avevo bisogno del computer per cominciare a lavorare e me ne sono reso conto in quel momento. Mi sono preoccupato un attimo ma ho pensato subito a cosa potevo fare in ufficio anche senza computer. Ho pensato al fatto che sono spesso sbadato e tendo a dimenticare cose che devo fare. In particolare, questa era una cosa fondamentale per il mio lavoro. Mi sono sentito un po' seccato con me stesso. ",
                "output": [
                    {
                        "generated_text": "```\n             Aha, dimenticato il computo! Hai pensato a cosa potresti fare"
                    }
                ],
                "id": "45"
            },
            {
                "input": "C'\u00e8 un po' di confusione in testa. Lo Smart working aiuta a sentire meno pesante il lavoro che non sopporto pi\u00f9. Ma quando come oggi e domani occorre andare in ufficio \u00e8 molto faticoso. Non mi piace pi\u00f9, non sopporto pi\u00f9 nessuno. Stamattina poi sono arrivata e ho trovato la mia postazione tutta in disordine perch\u00e9 utilizzata da un altro collega, cialtrone, uno che pensa solo a se'. E se si aggiunge che proprio non mi interessa nulla del lavoro perch\u00e9 avrei mille altre cose da fare, mi \u00e8 davvero pesante trascorrere quel tempo in ufficio. ",
                "output": [
                    {
                        "generated_text": "\""
                    }
                ],
                "id": "50"
            },
            {
                "input": "Ho sognato che avevo la forte sensazione di perdere tempo. Ero a casa di qualcuno, c'era altra gente, era sera, c'era stato forse un evento e ora aspettavo che Martina, un'insegnante di inglese del liceo dove insegno, mi riaccompagnasse a casa. Ma lei stava alla scrivania a correggere compiti dei ragazzi. Lo faceva con un sistema molto veloce e ho pensato che anch'io facevo cos\u00ec. Anch'io correggevo compiti, ma aspettavo solo lei, volevo andare a casa, uffa, stavo l\u00ec a perdere tempo. Non ricordo bene se ho poi detto che se sapevo avrei preso la mia auto . . . ",
                "output": [
                    {
                        "generated_text": "1"
                    }
                ],
                "id": "47"
            },
            {
                "input": "Ritornata dal lavoro mia figlia mi dice di aver chiamato il medico perch\u00e9 ha dei dolori alla testa non ha il senso dell'olfatto e del gusto per cui ci siamo un po' allarmati. Poi ripensandoci bene ti rendi conto che \u00e8 bene un approfondimento e che tutto pu\u00f2 essere ridimensionato per\u00f2 l'impatto \u00e8 quello che ti fa saltare i nervi. Ho pensato a una serie di eventi concatenati, al fatto di non poter fare sempre muovermi liberamente, al fatto di avere familiari a casa e al fatto di non poter andare a trovare mia madre o dover dichiarare questa eventualit\u00e0. ",
                "output": [
                    {
                        "generated_text": "'.hm. Per"
                    }
                ],
                "id": "51"
            },
            {
                "input": "Questo fatto dell'interruzione della relazione di mia figlia con il suo ragazzo mi sta davvero creando ansia. Continuo a pensare a quello che era e a quello che sar\u00e0. Non posso parlarne perch\u00e9 mi viene un groppo alla gola e da piangere. Stanotte mi sono svegliata tre o quattro volte e avevo continui pensieri. Stasera prover\u00f2 le tecniche di rilassamento per vedere se riesco a dormire. Oggi al lavoro perch\u00e9 ho parlato con il ragazzo di mia figlia dicendogli che noi ci saremo sempre per lui, lui qui a Firenze \u00e8 solo. La sua famiglia \u00e8 in Cina. Poi stasera ho parlato al telefono con sua madre e abbiamo confrontato i nostri pensieri. ",
                "output": [
                    {
                        "generated_text": "\""
                    }
                ],
                "id": "52"
            },
            {
                "input": "Questi pochi giorni di ferie stanno passando nella maniera pi\u00f9 leggera possibile. Stiamo passando questi giorni in famiglia giocando alla play station oppure guardando serie televisive come se non ci fosse un domani. Facciamo pranzo e cena con i nonni che ci evitano, come famiglia, di avere anche la \"preoccupazione\" di cucinare. Ho pensato che domani ricomincer\u00f2 la solita routine, pensando che dopo tre giorni riport\u00f2 nuovamente. Devo ottimizzare il tempo ed il \"mood\" per ricaricare per bene le batterie. Sto cercando di essere il pi\u00f9 spensierato possibile, anche se oggi gi\u00e0 penso che domani si ricomincia a lavorare. Non sono ansioso di lavorare, ma qualche altro giorno di svago avrebbe giovato e non poco. ",
                "output": [
                    {
                        "generated_text": "\""
                    }
                ],
                "id": "53"
            },
            {
                "input": "Ciao, un altro attacco di panico, adesso sto meglio. Stavo in macchina in autostrada, pensavo sempre a mio figlio che doveva uscire nel pomeriggio, questo \u00e8 il motivo che mi ha scatenato l' ansia. Non avevo un immagine chiara, ma ragionando avevo capito che la mia ansia era dovuta a mio figlio. Ho avuto una sensazione che mi saliva alla testa, sudavo freddo, non riuscivo ad avere un respiro regolare. Mi sono fermata ho chiamato mio marito dicendogli che mi stavo sentendo male e che stavo in autostrada. Ho aperto il finestrino ho incominciato a respirare profondamente, non potevo scendere. Avevo paura a spostarmi da l\u00ec. Poi dopo 5 minuti \u00e8 passato l' attacco forte, ho messo in moto e sono arrivata a destinazione. ",
                "output": [
                    {
                        "generated_text": "1"
                    }
                ],
                "id": "54"
            },
            {
                "input": "Il venerd\u00ec sera \u00e8 sempre angosciante, perch\u00e9 stanca, faccio il conto delle cose fatte e da fare, e quelle da fare mi sembrano insormontabili. Ieri sera tardi mi \u00e8 venuto in mente che forse non faccio in tempo da luned\u00ec a gioved\u00ec a concludere due pratiche a lavoro . . . ho avuto paura di aver sbagliato nei tempi a valutare le priorit\u00e0 e a dare tempo a qualche pratica rispetto ad altre . . . Sono stata molto in ansia e perdo il sonno. Adesso sono stordita perch\u00e9 sono andata a letto tardi, ma sono un po' pi\u00f9 serena perch\u00e9 senza distrazioni luned\u00ec dovrei farcela a terminare quello che devo fare, ma il pensiero del sabato e domenica mi mette angoscia. Ho pensato che anche se ne ho la possibilit\u00e0 assolutamente non devo lavorare da casa per avvantaggiarmi ma luned\u00ec dovr\u00f2 concentrarmi al massimo e non lasciarmi coinvolgere da altro. ",
                "output": [
                    {
                        "generated_text": "\""
                    }
                ],
                "id": "57"
            }
        ],
        "prompt": "Sei una AI che deve fare una domanda su un racconto in maniera tale da ottenere pi\u00f9 informazioni su eventi accaduti nel racconto. A seguire degli esempi e successivamente una narrativa a cui dovrai fare una domanda in modo da ottenere pi\u00f9 informazioni.\n                NARRATIVA: \"Oggi \u00e8 stata una bella giornata. Mia moglie mi ha detto che sta aspettando un bambino! Sono super felice! Mi chiedo se sar\u00f2 un bravo padre. Mio padre non \u00e8 stato molto presente quando ero un bambino.\"                DOMANDA: \"Sono felice di sentirlo. Sapete gi\u00e0 se si tratta di un maschio o di una femmina ?\"\n                NARRATIVA: \"Oggi ho litigato con Chiara, lei era arrabbiata con me perch\u00e9 secondo lei non io so fare le cose.\"                DOMANDA: \"Oh, mi spiace che tu abbia litigato. Secondo lei che cosa \u00e8 che non sai fare ?\"\n                NARRATIVA: \"Oggi \u00e8 una bella giornata. Ho pattinato sul ghiaccio e poi sono andato al cinema.\"                DOMANDA: \"bello sentire che \u00e8 stata una buona giornata per te. Dove sei stato a pattinare ?\"\n                NARRATIVA:  '{prompt}'                DOMANDA:\n             "
    }
]