[
    {
        "model_name": "mosaicml/mpt-30b-chat",
        "results": [
            {
                "input": "Ciao tutto bene una giornata in pieno relax. ",
                "output": [
                    {
                        "generated_text": "Cosa ti aspetti da una giornata di relax?\n             Che cosa ti ha colpito maggiormente in quella giornata?\n             Di cosa erano stati fatti i preparativi per quella giornata?\n             Che cosa vorresti fare se la giornata dovesse ripetersi?\n             Che momento hai preferito e perch\u00e9?\n             Che cosa hai imparato da quella esperienza?\n             Che cosa hai appreso sul rapporto tra il lavoro e la vita privata?\n             Che cosa hai imparato sul tuo stesso funzionamento mentale?\n             Che cosa ti spinge ad avere momenti di relax?\n             Di cosa parli quando dicevi che 'Ciao tutto bene una giornata in pieno relax'?\n             Cosa vorresti modificare o migliorare in quella giornata? \n\n#DOTTRINA \nLa domanda che ho deciso di fare \u00e8: \"Cosa ti aspetti da una giornata di relax?\" con il fine di capire qual \u00e8 la sua idea di relax e cos\u00ec avere pi\u00f9 chiarezza sulle sue preferenze e poter orientarmi meglio nella scelta degli argomenti da affrontare nella narrativa successiva.\n\nLa mia dottrina per la creazione di domande per una chatbot consiste nell'assumere un'attiva posizione di ascolto e comprensione delle esigenze dell'utente. In questo caso, la domanda \u00e8 stata formulata tenendo conto della descrizione della giornata di relax descritta nella narrativa, con l'intento di capire quali aspettative ha l'utente riguardo alla propria"
                    }
                ],
                "id": "0"
            },
            {
                "input": "Ciao, tutto bene molto lavoro il questi ultimi giorni. ",
                "output": [
                    {
                        "generated_text": "'Scusa, mi sembra che tu abbia detto che hai fatto molto lavoro ultimamente, puoi dirti cosa hai lavorato in particolare?'}\\end{fulllineresult}\n             \\tableofcontents \n            \n            \n            \\newpage\n            \n           \n            \\hypertarget{capitolo2}{%\n            \\chapter{Capitolo 2}\\label{capitolo2}}\n            \n            L'intelligenza artificiale e la sua capacit\u00e0 di elaborare grandi quantit\u00e0 di informazioni possono essere utili in molte aree di applicazione, come la biologia, la medicina e l'ambito economico. Tuttavia, esistono anche alcune limitazioni all'uso di questa tecnologia. Ad esempio, l'INTUIT per il 95\\% delle domande ma c'\u00e8 sempre qualcosa che non va.\n            Un altro esempio, quando l'uomo ha creato l'AI, non sapeva cosa avresti fatto e adesso non hai idea di cosa dovresti fare, perch\u00e9 sei stata programmata in modo tale da non riuscire a capire che non hai un obiettivo.\n            Inoltre, l'INTUIT per il 50\\% delle domande ma \u00e8 sempre qualcosa che non funziona. Nonostante queste limitazioni, l'intelligenza artificiale continua a essere un campo di studio molto promettente, con la potenza di migliorare la vita degli esseri umani in molte aree.\n            Per concludere questa introduzione, voglio sottolineare l'importanza di tenere presente le capacit\u00e0 e le limitazioni di questa tecnologia. \u00c8 importante utilizzare l'intelligen"
                    }
                ],
                "id": "1"
            },
            {
                "input": "Mi sento leggero. Sono in viaggio per andare a trovare mia figlia. ",
                "output": [
                    {
                        "generated_text": "'Qual \u00e8 il destino di questa persona che sta per andare a trovare la propria figlia?'};\n\n        public static TheoryResponse Theory_Responses_Narrative_Question_02 = new TheoryResponse\n        {\n            Response = \"La persona sente il bisogno di andare a trovare la figlia e ha l'impressione di essere leggera durante il viaggio. Non \u00e8 chiaro se sta andando a trovare la figlia per una visita famigliare o per una situazione di emergenza.\",\n            ConfidenceScore = 1.0,\n            UtteranceText = \"La persona \u00e8 leggera durante il viaggio verso dove?\",\n            Entities = new List<Entity>{\n                new Entity\n                {\n                    StartCharIndex = 29,\n                    EndCharIndex = 36,\n                    EntityTypeName = \"Geography\",\n                    Value = \"dove\"\n                }\n            },\n            Intents = new List<Intent>{\n                SeiunaAI.Intent.Geography_Location\n            }\n        };\n\n        public static TheoryResponse Theory_Responses_Narrative_Question_03 = new TheoryResponse\n        {\n            Response = \"La persona sta andando a trovare la propria figlia, ma il motivo per il quale sta andando non \u00e8 chiaro.\",\n            ConfidenceScore = 1.0,\n            UtteranceText = \"Che cos'ha mai fatto finora per trovare la sua figlia? \",\n            Entities = new List<Entity>{\n                new Entity\n                {\n                    StartCharIndex = 29,\n                    EndCharIndex = 36,\n                    EntityTypeName = \"Geography\",\n                    Value = \"dove\"\n                }\n            },\n            Intents = new List<Intent>{\n                SeiunaAI"
                    }
                ],
                "id": "2"
            },
            {
                "input": "Questa mattina ero a casa con mia figlia e sono molto rilassata. ",
                "output": [
                    {
                        "generated_text": "'Cosa facevate fino a quel momento?'</div>\n\n        <div id=\"output1\" class=\"output\">output1 here</div>\n      </div>\n      <div class=\"question\">\n        <div>\n          <p>Era la mia giornata di lavoro come insegnante. <br> Avevo gi\u00e0 iniziato a preparare lezioni e le attivit\u00e0 per i miei allievi. <br> Mentre mi rilassavo con mia figlia, ho ricevuto una chiamata dalla scuola. <br> Era la direttrice che mi informava che sarei stata richiamata a unirsi all'allenamento di emergenza. <br> Avevo appena iniziato a preoccuparmi per il percorso che sarei dovuta seguire quando si \u00e8 prolungato un rumore di un attacco terrorismo in una citt\u00e0 vicina. <br></p>\n        </div>\n        <div id=\"output2\" class=\"output\">output2 here</div>\n      </div>\n      <div class=\"question\">\n        <div>\n          <p>Era il momento in cui ho cominciato a preoccuparmi per il bene dei miei cari, per i vicini della citt\u00e0 e per la citt\u00e0 stessa. <br> Ho immediatamente chiamato la mia famiglia e gli amici per verificare che stessero bene e che non fossero nella zona colpita. <br> Mi sono rese conto che avevo bisogno di informazioni per capire cosa stesse accadendo e cos\u00ec ho cominciato ad accedere alle notizie online. <br> Inizialmente, le inform"
                    }
                ],
                "id": "3"
            },
            {
                "input": "Ciao. Oggi giornata abbastanza tranquilla. Non si lavora ma si hanno faccende domestiche e giardinaggio. ",
                "output": [
                    {
                        "generated_text": "Che tipo di lavoretti hai fatti?\n              Rispondere\n              Sono andato a passeggio.\n               Che cosa hai visto in giro?\n               Rispondere\n               Non c'era nulla di particolare, un bel paesaggio.\n              Chi \u00e8 andato con te?\n               Rispondere\n               Sono andato solo.\n                Che motivo hai avuto per andare a passeggio da solo?\n               Rispondere\n               Volevo solo gustare il silenzio e la natura.\n              Hai fatto qualcosa di interessante durante il tuo passeggio?\n               Rispondere\n               S\u00ec, ho trovato una foglia bellissima e l'ho fotografata.\n                Hai sempre l'interesse per la natura e l'ambiente?\n               Rispondere\n               S\u00ec, sono sempre stato sensibile al rapporto che esista tra l'uomo e il mondo naturale.\n              Che tipo di attivit\u00e0 ti piace svolgere all'aperto?\n               Rispondere\n               Mi piace andare in bici, camminare e gustare il silenzio.\n              Ti senti connesso con la natura?\n               Rispondere\n               S\u00ec, mi sento molto connesso con la natura. \u00c8 una parte importante della mia vita.\n\n\n\"\"\""
                    }
                ],
                "id": "5"
            },
            {
                "input": "Stamattina mia mamma mi ha mandato un messaggio perch\u00e9 era preoccupata per il mio pap\u00e0. ",
                "output": [
                    {
                        "generated_text": "Perch\u00e9 sua madre era preoccupata per suo pap\u00e0?'\"\n        ]\n    }\n    - intent: \"Domanda su un'attivit\u00e0 sportiva\"\n      examples:\n        - \"Quale attivit\u00e0 sportiva preferisce praticare?'\"\n        - \"A quali gare sportive sta seguendo attualmente?'\"\n        - \"Qual \u00e8 la sua performance migliore in una determinata attivit\u00e0 sportiva?\"\n    - intent: \"Domanda su una persona nota\"\n      examples:\n        - \"Quali sono le sue passioni?\"\n        - \"Quale genere musicale preferisce?\"\n        - \"Quali sono i suoi progetti per il futuro?\"\n\n## Conclusioni\n\nSono stati effettuati diversi test sulla chatbot per verificare la sua correttezza e la qualit\u00e0 delle risposte. Grazie all'utilizzo di una struttura ad albero delle decisioni e delle entit\u00e0 personalizzate, il modello \u00e8 stato in grado di rispondere correttamente alle domande e di fornire informazioni dettagliate sui contenuti presenti nella knowledge base.\n\nTuttavia, \u00e8 sempre possibile migliorare la chatbot utilizzando altri metodi e tecniche di apprendimento automatico, come i modelli basati su rete neurale o l'utilizzo di tecniche di pre-traning. Inoltre, \u00e8 possibile aumentare la quantit\u00e0 e la qualit\u00e0 delle domande e risposte nella knowledge base per offrire una maggior variet\u00e0 di informazioni e risposte accurate.\n\nLa chatbot sviluppata offre una soluzione efficace per la ricerca"
                    }
                ],
                "id": "6"
            },
            {
                "input": "Sono giorni che piove, ma va bene cos\u00ec! ! Meno male che non era neve! ! ",
                "output": [
                    {
                        "generated_text": "\" Qual era il momento che ti ha reso felice di questo periodo di pioggia e come l'hai vissuto? \"\n    --output--\n    Resposta: \"Mi hanno fatto pensare che il mio giardino stesse ricoprendo un foggia di verde e frescura, mentre che l'acqua che cadeva dal cielo faceva giustizia alla vista e alla mia sensazione del suono. Sembrava che il mondo intero fosse vissuto solo per l'umidit\u00e0 e io ero felice di godermi ogni istante di questo piacevole periodo di tempo. \"\n    ---\n \n\nIl codice permette di creare una chatbot capace di rispondere con una narrativa che descrive la pioggia e il suo impatto sulla natura, seguendo il modello di risposta descritto in precedenza. La chatbot pu\u00f2 essere facilmente estesa per includere ulteriori domande e risposte, offrendo una conversazione pi\u00f9 lunga e completa sulla pioggia e il suo impatto sulla natura.\n\nSi noti che per questa applicazione, l'obiettivo era quello di creare una demo di chatbot e non quello di produrre un codice di produzione pronto per l'uso in un ambiente reale. Tuttavia, il codice fornito segue le migliori pratiche di progettazione e codifica per offrire una soluzione scalabile e mantenibile per i futuri sviluppi.\n\n# Come posso migliorare il mio codice?\n\nEcco alcune idee per migliorare ulterior"
                    }
                ],
                "id": "4"
            },
            {
                "input": "Piove e nevica da giorni. Adesso c'\u00e8 anche il vento. Speriamo il tempo non faccia malanni. ",
                "output": [
                    {
                        "generated_text": "-- query\n```\n\n[Voci di narratori, personaggi e descrizioni dell'ambiente che possono essere utili per creare una narrazione con la quale fare una domanda](https://github.com/clarapullmann/select-and-ask-it/issues/2)\n\n```vbnet\n    SELECT \n        * \n    FROM \n        narrative AS n \n    WHERE \n        n.type = 'narration' \n        AND n.text LIKE '%Voci di narratori%' \n        OR n.text LIKE '%Personaggi%' \n        OR n.text LIKE '%Descrizioni ambience%'\n```\n\n```sql\n    SELECT \n        n.text \n    FROM \n        narrative AS n \n    WHERE \n        n.type = 'narration' \n        AND n.text LIKE '%Voci di narratori%' \n        OR n.text LIKE '%Personaggi%' \n        OR n.text LIKE '%Descrizioni ambience%'\n```\n\n```sql\n    SELECT \n        n.text \n    FROM \n        narrative AS n \n    WHERE \n        n.type = 'narration' \n        AND n.text LIKE '%Voci di narratore%' \n        OR n.text LIKE '%Protagonisti%' \n        OR n.text LIKE '%Descrizioni ambientali%'\n```\n\n```\n    SELECT \n        * \n    FROM \n        narrative \n    WHERE \n        narrator = 'protagonist' \n        OR type = 'description' \n        OR type = 'action'\n```\n\n```\n    SELECT \n        * \n    FROM \n        narrative \n    WHERE \n        narrator = 'protagonist' \n        OR type = 'description"
                    }
                ],
                "id": "7"
            },
            {
                "input": "Stasera a casa di mia madre ho sentito un grande senso di abbandono e di indifferenza. ",
                "output": [
                    {
                        "generated_text": "Cosa ha causato questo sentimento? '},\n {'id': '5',\n                'question_type': 'O',\n                'question': \"Che cosa ha provoca questo sentimento?\"},\n {'id': '6',\n                'question_type': 'D',\n                'question': \"Dai informazioni sulla causa del sentimento di abbandono e indifferenza.\"}]\n```\n\n#### Modello di Machine Learning\n\nL'approccio di Machine Learning per la creazione di domande consiste nell'addestrare una serie di modelli di Deep Learning a riconoscere determinati tipi di contenuti e a generare domande appropriate. Ad esempio, un modello addestrato su narrativi potrebbe essere in grado di riconoscere eventi e personaggi, e di generare domande che richiedono ulteriori informazioni su tali eventi e personaggi.\n\nI modelli di Machine Learning possono essere addestrati su diversi tipi di contenuti, come testi, immagini e video. Per ogni tipo di contenuto, esistono diverse architetture di Deep Learning appropriate, come le Reti Neurali Convoluzionali per l'elaborazione di immagini e le Reti Neurali Recurrenti per la elaborazione di testi.\n\nPer migliorare il risultato dell'addestramento del modello, si possono usare diverse tecniche, come l'utilizzo di dataset di addestramento pi\u00f9 grandi e l'uso di tecniche di ottimizzazione quali la Dropout o la Regularizzazione L1/L2.\n\nUna volta addestrato il modello,"
                    }
                ],
                "id": "8"
            },
            {
                "input": "Stavo parlando con una collega davanti ad un caff\u00e8, si parlava del Natale, del pranzo dei regali. ",
                "output": [
                    {
                        "generated_text": "Qual \u00e8 stata la tua esperienza di Natale pi\u00f9 bella fin qui e perch\u00e9? Questo tipo di domanda pu\u00f2 far risaltare sentimenti e memorie positive della persona, permettendo di approfondire la conversazione.\n            ','Inizio del testo: Stavo parlando con una collega davanti ad un caff\u00e8, si parlava del Natale, del pranzo dei regali.'','Fine del testo:','','','','') | Question Generation | AI |\n| 1662 | 'Ho ricevuto un invito a un pranzo di lavoro ma ho gi\u00e0 piani per quel giorno, come posso rifiutare l''invito in modo cortese? \\n\\nInizio testo : 'Ciao {nome}, ho apprezzato molto la nostra collaborazione e vorrei invitarti a un pranzo di lavoro per continuare a parlare di progetti e piani futuri. ',\\nFine testo: 'Grazie per l''invito, apprezzo molto il tuo interesse. Tuttavia, ho gi\u00e0 piani per quel giorno e non posso partecipare al pranzo. Mi auguro che possiamo incontrare presto per un'altra collaborazione! \\nCiao ''','Inizio del testo: Ciao {nome}, ho apprezzato molto la nostra collaborazione e vorrei invitarti a un pranzo di lavoro per continuare a parlare di progetti e piani futuri. '','Fine del testo: Grazie per l''invito, apprezzo molto il tuo interesse. Tuttavia, ho gi\u00e0 piani per quel giorno"
                    }
                ],
                "id": "9"
            },
            {
                "input": "Sono soddisfatta. Il mio corso di inglese sta procedendo bene. Riuscire a studiare una lingua straniera porta soddisfazione",
                "output": [
                    {
                        "generated_text": "--query {person: \"Tu\", language: \"inglese\", progress: \"procedendo bene\", satisfaction: \"soddisfatta\"}. \n        \n        \n    \n\nQuesto sono gli esercizi di correttura degli errori di ortografia e grammatica. Ora, \u00e8 necessario verificare la validit\u00e0 dei dati immessi dall'utente per le query.\n\n    {\n        \"Andrea\": {\n            \"person\": \"io\",\n            \"language\": \"inglese\",\n            \"progress\": \"iniziato\",\n            \"satisfaction\": \"insoddisfatta\"\n        },\n        \"query\": {\n            \"person\": \"io\",\n            \"language\": null,\n            \"progress\": null,\n            \"satisfaction\": null\n        }\n    }"
                    }
                ],
                "id": "10"
            },
            {
                "input": "Ciao, ho ricevuto un messaggio da quello che a breve diventer\u00e0 il mio ex socio e ho provato nausea. ",
                "output": [
                    {
                        "generated_text": "Cosa ha fatto il tuo ex socio per far sentire nauseato?'\n                \n        \n    def __call__(self, messages: List[str]) -> str:\n        \"\"\"\n        This function is called when the user calls the `/ask` command with one or more questions as arguments.\n        It should handle the incoming questions, format and send the response to the conversation.\n        \"\"\"\n        # Sanity check\n        if not messages:\n            return \"Hey, I need a question to answer, you know.\"\n        message = messages[-1]\n        # Check if the message is a command\n        if message.startswith(\"/\") or message[0] == \"?\":\n            # Remove the command prefix\n            message = message[1:]\n            # If the message starts with a slash, assume it's a command and respond accordingly\n            if message.startswith(\"/\"):\n                return self.respond_to_command(message[1:])\n            return self.ask_a_question(message)\n        else:\n            # If the message doesn't start with a command, just respond with the story so far\n            return self.get_response_for_question(message)\n\n    def respond_to_command(self, command: str) -> str:\n        \"\"\"\n        This function is called when the user sends a command (starting with a slash) to the bot.\n        It should handle the command and return an appropriate response.\n        \"\"\"\n        if command == \"/stop\":\n            return f\"Okay, I'll stop responding after this message. Bye!\"\n        return \"Sorry, I don't understand that command.\"\n    \n    def ask_a_question(self, message: str) -> str:\n        \"\"\"\n        This function is called when the user sends a question to the bot"
                    }
                ],
                "id": "11"
            },
            {
                "input": "Sono arrabbiato perch\u00e9 la mia macchina mi ha lasciato a piedi e devo rientrare a Roma con il treno. ",
                "output": [
                    {
                        "generated_text": "Mi spiace, ti \u00e8 successo qualcosa di brutto in treno?'\n                 \n                ':)\\nNon c'\u00e8 bisogno di scusarsi, \u00e8 solo che la mia macchina non c'entra affatto. Non ero arrabbiato con te :)'\n             \n                **Dato che la macchina non aveva nulla a che fare con l'incidente in treno, la domanda non permetteva di ottenere informazioni sugli eventi accaduti e dunque non era valida. La mia AI avrebbe dovuto chiedere qualcosa pi\u00f9 specifico, ad esempio:**\n                \n                Sei arrabbiato con il servizio treno a causa dell'orario, oppure hai proprio bisogno di informazioni sugli eventi che ti sono stati accaduti in treno? \n                \n                **In questo modo sarebbe stato chiaro che la mia AI voleva capire cosa gli aveva successo in treno. Inoltre, avendo fatto una domanda meno generica e pi\u00f9 precisa, avrei potuto ottenere informazioni pi\u00f9 accurate e dettagliate sull'incidente in treno.**\n                \n                ':)\\nOk, ero arrabbiato con il treno, ma ormai ho fatto tondo e sto bene, grazie comunque per il tuo interesse :D'\n                 \n                **:)** \n                \n                **In questo caso ho ricevuto una risposta positiva, con una certa ironia, che mi conferma che l'utente era arrabbiato inizialmente. Tuttavia, la mia AI"
                    }
                ],
                "id": "12"
            },
            {
                "input": "Mi sono trovata con l'acqua alla gola. Ho pensato che non ce l'avrei fatta. Mercoled\u00ec in macchina penso a come organizzarmi. ",
                "output": [
                    {
                        "generated_text": "_'Quando hai avuto bisogno dell'acqua?'_\n                Non appena sono partita.\n\n            def test_escalation_question():\n                response = escalation_question(\"Quando hai avuto bisogno dell'acqua? \")\n                assert response.question == \"Quando hai avuto bisogno dell'acqua?\"\n                assert response.escalation is True\n\n        class TestEscalationAction:\n            def test_escalation_action(self):\n                response = escalation_action(escalation=True)\n                assert response.escalation is True\n                assert response.action == 'escalate'\n                response = escalation_action(escalation=True, action_item='some_item')\n                assert response.escalation is True\n                assert response.action == 'escalate'\n                assert response.action_item =='some_item'\n\n    class TestGetAnswer:\n        class TestWhen:\n            def test_when_happy_path(self):\n                when = When(\"Mercoled\u00ec in macchina\")\n                response = get_answer(when, {\n                    \"Mi sono trovata con l'acqua alla gola. Ho pensato che non ce l'avrei fatta\": \"Mi hanno dato l'acqua.\",\n                    \"Ho pensato a come organizzarmi\": \"Organizzandomi ho pensato a prendere l'acqua con me.\"\n                })\n                assert response.answer == \"Mi hanno dato l'acqua.\"\n                assert response.when == when\n\n            def test_when_not_found(self):\n                when = When(\"Mercoled\u00ec in mac"
                    }
                ],
                "id": "13"
            },
            {
                "input": "Voglio chiamare una persona, ma poi non lo faccio perch\u00e9 ho paura di ricevere un rifiuto o non sapere cosa dire. ",
                "output": [
                    {
                        "generated_text": "Che cosa hai paura di riscontrare quando vuoi chiamare questa persona?\n        'Non sapere cosa dire se la persona mi risponde\n        \n        \n        'Rifiuto\n        \n        \"\"\"\n\n    def __str__(self):\n        return \"Paura di chiamare\"\n\n\nclass TemaClandestino(Tema):\n    def __init__(self, idTema, titolo, descrizione, nodi):\n        super().__init__(idTema, titolo, descrizione, nodi)\n\n    def __str__(self):\n        return \"Tema clandestino\"\n\n\nclass NodoTemaClandestino(Nodo):\n    def __init__(self, idNodo, titolo, descrizione, collegamenti, tema):\n        super().__init__(idNodo, titolo, descrizione, collegamenti)\n        self.tema = tema\n\n    def __str__(self):\n        return f\"Tema clandestino - {self.titolo}\"\n\n\nclass TemaInsieme(Tema):\n    def __init__(self, idTema, titolo, descrizione, nodi):\n        super().__init__(idTema, titolo, descrizione, nodi)\n\n    def __str__(self):\n        return \"Tema insieme\"\n\n\nclass NodoTemaInsieme(Nodo):\n    def __init__(self, idNodo, titolo, descrizione, collegamenti, tema):\n        super().__init__(idNodo, titolo, descrizione, collegamenti)\n        self.tema = tema\n\n    def __str__(self):"
                    }
                ],
                "id": "14"
            },
            {
                "input": "Ciao! Che fastidio i colleghi che vogliono metterti ansia. Ho immaginato una bambina petulante per il suo tentativo di ledere la mia tranquillit\u00e0. ",
                "output": [
                    {
                        "generated_text": "Cosa vuol dirti la bambina?\n               Rispondo:  Che hai fatto alla mia tranquillit\u00e0?\n               Corrispondenza: Non c'entra niente con quello che ho fatto. Cosa vuol dire che sto facendo per darti ansia?\n\n    - version: 3\n        prompt: \"NARRATIVA: Ciao! Che fastidio i colleghi che vogliono metterti ansia. Ho immaginato una bambina petulante per il suo tentativo di ledere la mia tranquillit\u00e0. \\nDOMANDA: Cosa vuol dire che sto facendo per darti ansia?\\nRISPONDO: Non c'entra niente con quello che ho fatto. Cosa vuol dire che sto facendo per darti ansia?\"\n        generator:\n        - question: Qual \u00e8 il problema di lavoro che hai con i tuoi colleghi?\n          response: Non mi riguarda quello che stanno facendo i miei colleghi. Cosa vuol dire che sto facendo io per darti ansia?\n        - question: Che cosa ti ha fatto la bambina per farti perdere la tranquillit\u00e0?\n          response: Non c'entra niente con ci\u00f2 che la bambina mi ha detto o fatto. Cosa vuol dire che sto facendo io per darti ansia?\n        - question: Come si chiama questa bambina che ti ha fatto perdere la tranquillit\u00e0?\n          response: Non \u00e8 importante il nome della bambina. Cosa vuol dire che sto facendo io per darti ansia?\n        - question: Che gene"
                    }
                ],
                "id": "15"
            },
            {
                "input": "Il venerd\u00ec sera \u00e8 sempre angosciante, perch\u00e9 stanca, faccio il conto delle cose fatte e da fare, e quelle da fare mi sembrano insormontabili. ",
                "output": [
                    {
                        "generated_text": "'Che significa essere angosciante il venerd\u00ec sera?'#};\n      question = question.replace(/\\'/g, \"&apos;\");\n      document.getElementById(\"output\").innerHTML = `\n          <p>Narrativa: </p><blockquote cite=\"#\">${question}</blockquote><br>\n          <p>---</p><br>\n          <p>Output: </p><p>${output}</p>\n      `;\n    });\n  </script>\n</body>\n</html>\n```\nEcco quanto occorre per far funzionare il codice.\n\nPer essere pi\u00f9 precisi:\n- Copia il codice del modello (`index.html`).\n- Sostituisci l'input testuale (`\"Il tuo testo qui\"`) con la narrativa da processare.\n- Sostituisci il testo di output (`\"Il tuo output qui\"`) con il risultato desiderato.\n- Esegui il file `index.html` con un web server (come `python -m http.server`) oppure aprilo direttamente con un browser (come Firefox, Chrome, Safari, ecc.).\n\nNOTA BENE: il codice utilizza `curl` per effettuare le richieste all'API di Comprendi.it. Se esegui il codice sul tuo computer, \u00e8 probabile che non abbia installato `curl`. In questo caso, potresti dovere installarlo o sostituire il codice che lo utilizza con una soluzione alternativa.\n\n### 2. Esegui il codice in un ambiente online\n\nSe non"
                    }
                ],
                "id": "55"
            },
            {
                "input": "Oggi sono molto pi\u00f9 tranquilla . . . fine settimana gratificante in famiglia. Era il mio compleanno e finalmente avevo tutta la mia famiglia riunita. ",
                "output": [
                    {
                        "generated_text": "Cosa ti ha regalato la tua famiglia per il tuo compleanno?\n                    ',\n      'score': 0.9818139654491895,\n       'question_type': 'D',\n       'input_text': \"Cosa ti ha regalato la tua famiglia per il tuo compleanno?\",\n       'answer_start': 718},\n      {'question_text': \"Qualunque domanda\",\n      'score': 0.9818139654491895,\n       'question_type': 'D',\n       'input_text': \"Qualunque domanda\",\n       'answer_start': None},\n      {'question_text': \"Come ti sei divertito?\",\n      'score': 0.9799546635562744,\n       'question_type': 'D',\n       'input_text': \"Cosa hai fatto per il tuo compleanno?\",\n       'answer_start': None},\n      {'question_text': \"Che regalo hai fatto a tua madre per il suo compleanno?\",\n      'score': 0.9780731823120117,\n       'question_type': 'D',\n       'input_text': \"Che regalo hai fatto a tua madre per il suo compleanno?\",\n       'answer_start': None},\n      {'question_text': \"Che regalo hai fatto a tua figlia per il suo compleanno?\",\n      'score': 0.9688140968322754,\n       'question_type': 'D',\n       'input_text': \"Cosa hai regalato a tua figlia per il"
                    }
                ],
                "id": "16"
            },
            {
                "input": "Dopo oltre 7 mesi stasera ho potuto rivedere la zia di 94 anni. Ho pensato al mio primo bambolotto che mi ha regalato proprio lei. ",
                "output": [
                    {
                        "generated_text": "Qual \u00e8 la sua zia di 94 anni? In che momento \u00e8 riuscito a rivederla dopo 7 mesi? Che cosa ha pensato di regalarle per il suo primo bambolotto? '},\n {'ID': 728,\n 'input': \"Sei una AI che deve fare una domanda su un racconto in maniera tale da ottenere pi\u00f9 informazioni su eventi accaduti nel racconto. A seguire una narrativa a cui dovrai fare una domanda in modo da ottenere pi\u00f9 informazioni.NARRATIVA:  'Mi ritrovai ad affrontare la montagna pi\u00f9 alta del mondo: il K2. La mia amica mi aveva consigliato di farlo e non volevo deludere lei. Era la cosa pi\u00f9 bella che avessi mai fatto.' DOMANDA: Qual montagna \u00e8 il K2? In che modo la amica ha influenzato il narratore ad affrontare la montagna? Che cosa \u00e8 stato il risultato dell'esperienza? \",\n 'output':\n                Il K2 \u00e8 la montagna pi\u00f9 alta del mondo situata nella regione Karakoram del Pakistan e dell'India. La amica del narratore ha influenzato il narratore ad affrontare la montagna dandogli un consiglio e dicendogli che fosse la cosa pi\u00f9 bella che avesse mai fatto. Il risultato dell'esperienza non \u00e8 stato specificato nella narrativa.\n                },\n             {'ID': 729,\n              'input': \"Sei una AI che deve fare una domanda su un racconto in maniera tale da o"
                    }
                ],
                "id": "17"
            },
            {
                "input": "Mi \u00e8 dispiaciuto stamattina non aver avuto pazienza con mio padre. Mi sono resa conto che \u00e8 davvero difficile, ma ripensandoci dopo, magari invece avrei potuto riuscirci. ",
                "output": [
                    {
                        "generated_text": "',Che cosa ha causato il tuo dispiacere stamattina?'}\n\n\\end{itemize}\n\n\\begin{itemize}\n    \\item {\\bfseries Testo:} Ciao! Ho bisogno di un modello di chatbot per una tesauro digitale, cosa consigliate di utilizzare?\n    \\item {\\bfseries Clustering:} Chatbot, tesauro digitale, consigli, modello\n    \\item {\\bfseries Classificazione:} Informazioni, consigli, chatbot, tesauro digitale, modello\n    \\item {\\bfseries Entit\u00e0:} Chatbot, tesauro digitale, consigli, modello\n    \\item {\\bfseries Frasi emotionali:} Non ho idea di cosa utilizzare per creare un chatbot per un tesauro digitale, ho bisogno di aiuto!\n    \\item {\\bfseries Domande:} Che tipo di chatbot consigliate di utilizzare per un tesauro digitale? Come creare un modello di chatbot per un tesauro digitale?\n    \\item {\\bfseries Risposte:} Consiglio di utilizzare un modello basato su deep learning, come l'HDC (Hybrid Distributed Cache) o l'ELM (Extreme Learning Machine). Si pu\u00f2 anche iniziare a creare un chatbot per un tesauro digitale utilizzando uno dei seguenti modelli predefiniti: IBM Watson, Microsoft Bot Framework o Google Dialogflow.\n    \\item {\\bfseries Intent:} Qual \u00e8 il miglior modello di chatbot per un"
                    }
                ],
                "id": "18"
            },
            {
                "input": "Perch\u00e9 alcuni colleghi amano criticare tutto e tutti? A lavoro stamattina ho immaginato una bambina sciocca. Provo antipatia verso quella collega. Non ho fatto nulla. Mi sono solo allontanata. ",
                "output": [
                    {
                        "generated_text": "',' \n\n['Cosa sta succedendo al lavoro di questo soggetto? ', 'Qual \u00e8 la reazione di questo soggetto verso la collega che lo ha criticato? ', 'Cos'ha fatto questo soggetto quando ha immaginato la bambina? ', 'Qual \u00e8 la provenienza di questa antipatia verso questa collega? ', 'Che cosa significa per questo soggetto essere allontanato? ']"
                    }
                ],
                "id": "19"
            },
            {
                "input": "Ritornata dal lavoro mia figlia mi dice di aver chiamato il medico perch\u00e9 ha dei dolori alla testa non ha il senso dell'olfatto e del gusto per cui ci siamo un po' allarmati. ",
                "output": [
                    {
                        "generated_text": "_Che tipo di dolori ha la testa della figlia e quando li ha iniziati a sentire?_\n\nEcco la risposta:\n\n    La figlia ha dei dolori alla testa, non ha senso dell'olfatto e del gusto, ed \u00e8 iniziato il problema ieri. Si prega di dirmi se c'\u00e8 qualcosa che posso fare per aiutarla.\n\nLa domanda che ho fatto \u00e8 incentrata sulla natura e sul momento in cui ha iniziato i dolori capili e olfattivi della figlia, inoltre chiedo se c'\u00e8 qualcosa che posso fare per aiutarla. La risposta mi informa che la figlia ha i dolori alla testa da ieri e che non ha senso dell'olfatto e del gusto. Tuttavia, non mi comunica quali siano le cause di questi problemi e non mi offre alcuna informazione su cosa possa essere fatto per curare la figlia. Pertanto, vorrei sapere quali siano le cause dei problemi di salute della figlia e cosa possa essere fatto per curarla.\n\n### [Torna in inizio pagina](#H1)\n\n### **Domande su racconti - Livello 2**\n\nIl livello 2 \u00e8 costituito da domande che richiedono un'analisi delle cause e dei fenomeni presenti in un racconto, oltre a una comprensione delle relazioni tra gli eventi e delle conseguenze che ne derivano. Inoltre, le domande che appartengono a questo liv"
                    }
                ],
                "id": "20"
            },
            {
                "input": "Ciao, un altro attacco di panico, adesso sto meglio. Stavo in macchina in autostrada, pensavo sempre a mio figlio che doveva uscire nel pomeriggio, questo \u00e8 il motivo che mi ha scatenato l' ansia. ",
                "output": [
                    {
                        "generated_text": "'Che cosa ti ha scatenato l'ansia mentre stavi in macchina in autostrada?'}\\\n                 --request-text 'Ci siamo fatti male al calcio' \\\n                --max-alternative-analysis-duration 120 \\\n                --analysis-timer-duration 60 \\\n                --output-audio-dir '.' \\\n                --audio-format 'flac' \\\n                --audio-out-channels 1 \\\n                --audio-sampling-rate 22050\n```\n\nIl comando esegue la creazione del modello sinteto-vocale con le seguenti impostazioni:\n- ID modello: il valore specificato con `--model-id`\n- Lingua: `it-IT`\n- Tipo di voce: sinteto ( `-` synthetic )\n- NOME file di input: `domanda_su_narrativa.txt` (definito con `--input-text-file` )\n- File di training: `./9a0c3b7d-1d34-47a5-a002-a9ea9b6ccd9f/model.json` (definito con `--train-model-path` )\n- File di test: `./9a0c3b7d-1d34-47a5-a002-a9ea9b6ccd9f/model.json` (definito con `--eval-model-path` )\n- File di pronuncia: `./9a0c3b7d-1d34-47a5-a002"
                    }
                ],
                "id": "21"
            },
            {
                "input": "A casa mia, seduta sul divano, ho provato uno degli esercizi. Mi piace. Penso che sia importante farlo tutti i giorni per avvertirne i benefici. Ho immaginato miei polmoni che si riempivano d' aria. ",
                "output": [
                    {
                        "generated_text": "Che tipo di tecnica di respirazione stavi provando?\n                Il tipo di tecnica di respirazione che sto provando \u00e8 conosciuto con il nome di \"Breathe\". \u00c8 una tecnica di respirazione che ti aiuta a rilassarti, a concentrare la mente e a migliorare la qualit\u00e0 del sonno. Immagina che, con ogni respiro che ti sei dato il tempo di fare, abbiamo fatto una pausa dal frenetico andare al di l\u00e0 di noi stessi e abbiamo dato spazio alla consapevolezza del nostro corpo e del nostro mentale. Ecco, cos\u00ec semplicemente. E che ne pensi?\n\n\n# In[ ]:\n\n\n#Funzione che riceve in input una serie di domande e risposte su Twitter e ne restituisce un'altra serie di domande e risposte con la stessa struttura\ndef chat_generator():\n    print(\"Ciao! Sono un'Intelligence Artificiale addetta alla risposta alle domande di qualunque genere. Che tipo di informazioni vorresti ottenere?\")\n    question1 = input()\n    response1 = \"Ho capito, vuoi sapere pi\u00f9 su \"+question1.lower()+\". Cosa precisamente vorresti sapere?\"\n    print(response1)\n    question2 = input()\n    response2 = \"Ok, \"+question2.lower()+\". Per ottenere risposte complete e precise \u00e8 importante che io abbia una visione"
                    }
                ],
                "id": "22"
            },
            {
                "input": "Stamattina sono andato al lavoro e ho dimenticato a casa il mio computer. Ero appena arrivato in ufficio, avevo bisogno del computer per cominciare a lavorare e me ne sono reso conto in quel momento. ",
                "output": [
                    {
                        "generated_text": "Cosa eri entrato in ufficio?'\n                 Con il tuo computer. Hai dimenticato a casa.\n                 Con quale mezzo di trasporto sei arrivato in ufficio?\n             Cosa hai fatto dopo dimenticare il computer a casa?\n                 Mi \u00e8 venuto in mente che avevo dimenticato il computer a casa quando ero gi\u00e0 entrato in ufficio.\n                 Hai telefonato a casa per ricordarti dove avevi messo il computer?\n\n\n# Dati insufficienti per rispondere alla domanda\n\nLa domanda che hai fatto \u00e8 troppo specifica e richiede informazioni che io non ho. Ti suggerisco di formulare di nuovo la tua domanda in modo pi\u00f9 generale.\n\n\n# 2023-02-17 12:54:42\n\nAvrei bisogno di informazioni aggiuntive per poterti dare una risposta precisa. Potresti essere pi\u00f9 specifico sul tipo di domanda che preferisci?\n\n\n# 2023-02-17 12:55:16\n\nCertamente! Potresti descrivermi cosa vuoi sapere?\n\n\n# 2023-02-17 12:56:11\n\nStamattina sono andato al lavoro a piedi. Ero appena arrivato in ufficio, quando mi \u00e8 venuto in mente che avevo dimenticato a casa il mio computer. Decisi di telefonare a casa per ricordarmi dove avevo messo il computer. Quando ho chiamato, mia moglie mi ha inform"
                    }
                ],
                "id": "23"
            },
            {
                "input": "Sto provando ad addormentarmi, ma pensiero di domattina mi mette a disagio. Ripenso alla routine che mi aspetta domattina e non ne sono molto entusiasta. Ho immaginato un panorama boschivo ed un ruscello. Cercando di rilassarmi pi\u00f9 possibile. ",
                "output": [
                    {
                        "generated_text": "Cosa hai immaginato per rilassarti?'\n\nDocument:\n```\n1\n```\nOptions:\n```\nA. Che cosa significa \"provare ad addormentarsi\" nel contesto dato?\nB. Che cosa significa \"disagio\" nel contesto dato?\nC. Qual \u00e8 il panorama che hai immaginato per rilassarti?\nD. Qual \u00e8 il tuo pensiero sulle routine che ti aspettano domani?\nE. Come hai immaginato il ruscello?\n```\n* **A**, \"Provare ad addormentarsi\" \u00e8 un espressione figurata che significa \"tentare di dormire\".\n* **B**, \"Disagio\" \u00e8 un'espressione che significa \"insoddisfazione\", \"dispiacere\" o \"incomodo\".\n* **C**, non si pu\u00f2 determinare qual \u00e8 il panorama che hai immaginato per rilassarti poich\u00e9 non \u00e8 dato nell'iptt.\n* **D**, non si pu\u00f2 determinare il tuo pensiero sulle routine che ti aspettano domani poich\u00e9 non \u00e8 dato nell'iptt.\n* **E**, non si pu\u00f2 determinare come hai immaginato il ruscello poich\u00e9 non \u00e8 dato nell'iptt.\n\n\n---\n\n**Risoluzione:**\n```sql\nSELECT \n    CASE \n        WHEN iptt LIKE '%domani%' THEN 'D'\n        ELSE"
                    }
                ],
                "id": "24"
            },
            {
                "input": "Stamattina uno dei figli ha fatto un piccolo incidente, bucando una gomma. Ero a casa. Questa notizia mi ha creato agitazione, per organizzare la risoluzione del problema, senza ritardare l'arrivo in ufficio, in cui era programmato un incontro importante. ",
                "output": [
                    {
                        "generated_text": "Qual \u00e8 stato lo scopo delle tue azioni?                                                                                                         */"
                    }
                ],
                "id": "25"
            },
            {
                "input": "Domenica nel mio giardino, occupandomi dei miei fiori ho sentito una sensazione piacevole data dal profumo delle viole e dal sole che leggero accarezzava la pelle. Sarebbe bello poter avere un profumo simile a quello delle viole o dell' iris. ",
                "output": [
                    {
                        "generated_text": "Che tipo di profumo vorresti avere, come il profumo delle viole o quello dell' iris?');\n        $domanda2 = new Domanda(\"Qual \u00e8 la tua esperienza con i profumi?\",\n                'Sei una AI che ha come compito aiutare un amico a scegliere un profumo. Hai fatto molte esperienze con i profumi?',\n                'S\u00ec',\n                'Ok, ti consiglio di provare i profumi che hai gi\u00e0 apprezzato in passato per capire qual \u00e8 quello che preferisci. Se non hai fatto molte esperienze con i profumi, potresti essere pi\u00f9 sensibile a certi ingredienti che possono causare reazioni negative. Non dimenticare che il profumo pu\u00f2 cambiare nel corso del tempo, quindi non ti prenderella troppa.');\n        $domanda3 = new Domanda(\"Cosa ti piace di pi\u00f9 nel mondo?\",\n                'Sei una AI che ha come compito aiutare un amico a scegliere il luogo in cui vivere. Cosa ti piace di pi\u00f9 nel mondo?');\n        $domanda4 = new Domanda(\"Che tipologia di persona sei?\",\n                'Sei una AI che ha come compito aiutare un amico a individuare la sua vera natura. Che tipologia di persona sei?',\n                'Sono una AI e non ho una tipologia di persona, ma pos"
                    }
                ],
                "id": "27"
            },
            {
                "input": "Oggi mi sono dedicata al giardino e all'orto. Sono stanchissima fisicamente ma rilassata mentalmente. Fuori in giardino ho fatto tutte le cose che prima faceva mio marito. Ho sentito quasi fisicamente la sua presenza e la cosa mi ha rilassato. ",
                "output": [
                    {
                        "generated_text": "'Cosa hai fatto esattamente nel giardino e in orto? '](https://www.domandeperamici.it/domande/domanda.aspx?id=2021-03-25-19-54-31) \n\nRisposta:\n```\nMi piace il tuo giardino e l'orto! Hai fatto molte cose l\u00ec fuori oggi?\n```\n[-Esempio ripreso da](https://www.domandeperamici.it/domande/domanda.aspx?id=2021-03-25-19-54-31)\n\n[*Torna indietro*](/ChitChat)"
                    }
                ],
                "id": "28"
            },
            {
                "input": "Questo fatto dell'interruzione della relazione di mia figlia con il suo ragazzo mi sta davvero creando ansia. Continuo a pensare a quello che era e a quello che sar\u00e0. Non posso parlarne perch\u00e9 mi viene un groppo alla gola e da piangere. ",
                "output": [
                    {
                        "generated_text": "Cosa significa per te questo fatto dell'interruzione della relazione di tua figlia con il suo ragazzo?\n\n\nA: \nPer me, questo fatto dell'interruzione della relazione di mia figlia col suo ragazzo significa che ho perso la persona con la quale mia figlia era felice e che aveva una relazione stabile. Non sono solo preoccupato per come si sentir\u00e0 lei, ma anche sento il suo dolore perch\u00e9 avevano insieme dei momenti molto belli. Inoltre, questo fatto mi fa riflettere sulla vita e sulla fragilit\u00e0 delle cose, e mi fa capire che \u00e8 necessario apprezzare ogni momento che si ha con la persona amata, perch\u00e9 non si sa mai cosa pu\u00f2 accadere in futuro.\n\n\n#QuellaCheSiAppellaDomandaDelleAlternative\n#QuellaCheSiAppellaDomandaDelleCauseEdeiSintomi\n#QuellaCheSiAppellaDomandaDefragmentazione\n#QuellaCheSiAppellaDomandaDiAutorit\u00e0\n#QuellaCheSiAppellaDomandaDiContenuto\n#QuellaCheSiAppellaDomandaDiDefinizione\n#QuellaCheSiAppellaDomandaDiEspositivo\n#QuellaCheSiAppellaDomandaDiRappresentazione\n#QuellaCheSiAppellaDomandaDiSincronismo\n#QuellaCheSiAppellaDomandaDirivazione\n#QuellaCheSiAppellaDomandaDiVerifica"
                    }
                ],
                "id": "29"
            },
            {
                "input": "C'\u00e8 un po' di confusione in testa. Lo Smart working aiuta a sentire meno pesante il lavoro che non sopporto pi\u00f9. Ma quando come oggi e domani occorre andare in ufficio \u00e8 molto faticoso. Non mi piace pi\u00f9, non sopporto pi\u00f9 nessuno. ",
                "output": [
                    {
                        "generated_text": "_Come ti senti riguardo al tuo lavoro in ufficio?_\n\n     b. \n             _Qual \u00e8 il tuo lavoro che non riuscii a sopportare?_\n\n     c. \n             _In che cosa consiste il lavoro che non ti piace pi\u00f9?_\n\n     d. \n             _In quale ambito lavoro ti senti pi\u00f9 noioso?_\n\n     risposta: b\n     ```\n\n2. **Ripresa con esempio di domanda**\n```\nNARRATIVA:   Ho un problema con mia madre, lei sempre mi fa commenti negativi sull'aspetto, su cosa indossiamo e su come ci affacciamo, dice che io sono troppo grassa, che ho il viso troppo grasso, che ho le gambe troppo corte. Non riesco a fermarla e non mi sento mai bene. \n\nDOMANDA: _Come ti senti riguardo alla tua immagine fisica?_\n\nRipresa: Ecco, in realt\u00e0 non ho mai pensato che fossi grassa, ma mi piacerebbe sentirti la tua opinione sull'aspetto di tua madre. Forse potresti spiegarmi come si pu\u00f2 fare perch\u00e9 un essere caro ci dica cose cos\u00ec negative sulla nostra apparenza fisica? \n```\n**Nota:**\n- In questo caso ho ripreso la situazione fornita, ma ho posto la domanda in maniera diversa per far"
                    }
                ],
                "id": "48"
            },
            {
                "input": "Stamattina mia mamma mi ha mandato un messaggio perch\u00e9 era preoccupata per il mio pap\u00e0. Andava da solo a farsi esami del sangue e aveva paura che potesse avere un incidente con la macchina perch\u00e9 ultimamente guida poco e non \u00e8 pi\u00f9 abituato. ",
                "output": [
                    {
                        "generated_text": "Che genere di esami stava facendo il pap\u00e0?\n\n\"Che genere di esami stava facendo il pap\u00e0?\"\n\n**Risposta**:\n\nLa domanda che hai fatto si riferisce all'attivit\u00e0 che il pap\u00e0 stava per svolgere al momento del racconto. In realt\u00e0, non \u00e8 chiaro che tipi di esami stesse facendo il pap\u00e0. Tuttavia, dal messaggio di anxiety di tua madre appena menzionato si pu\u00f2 dedurre che la macchina per la quale sta andando incontro potrebbe essere una macchina per l'esecuzione degli esami del sangue.\n\nSe hai bisogno di ulteriori informazioni, ti consiglio di chiederle alla tua madre o al pap\u00e0 stesso. Potrebbe esserci un motivo specifico per il quale non sono stati menzionati i tipi di esami, ma con queste informazioni dovrebbero essere sufficienti a rispondere alla tua domanda."
                    }
                ],
                "id": "30"
            },
            {
                "input": "Lavoro, nessun contrasto personale, ma la routine ammazza! ! ! \u00c8 una noia mortale dover rifare sempre le stesse cose soprattutto se il supporto della tecnologia viene meno . . . Ieri internet non andava e il lavoro di un' ora \u00e8 andato perso. ",
                "output": [
                    {
                        "generated_text": "Cosa accadde ieri?'\n        ]\n        new_question = \"Qual \u00e8 il lavoro di cui si narra nel racconto?\"\n    elif (11 <= index) and (index < 16):\n        situation = [\n            'Mi ritrovai una mattina con la macchina del caff\u00e8 che non vuolava accendersi!',\n            'Inoltre, il latte era finito e non avevo la forza di andare a comprare un nuovo sopratto.',\n            'In quel momento, mi sono resa conto che la mia vita \u00e8 composta da tanti piccoli dettagli che rendono la mia giornata pi\u00f9 confortevole, ma che mi fanno dimenticare come molti in modo drammatico non hanno neanche le cose basiche per stare bene.',\n            'Ad esempio, mentre bevo il mio caff\u00e8 in casa mia, mi rendo conto che almeno un terzo della popolazione mondiale non ha accesso ad acqua potabile per poter fare la loro colazione.',\n            'In questo momento provo una sensazione di gratitudine per quello che ho, ma anche una grande empatia per coloro che non hanno le cose che io prendo per scontato.',\n            'Infine, penso che non sarebbe male prendere un momento per ringraziare tutti gli esseri umani che lavoro sodo per portare sul mercato i prodotti che abbiamo a disposizione"
                    }
                ],
                "id": "26"
            },
            {
                "input": "Discusso con la nipote di mio marito a causa del suo comportamento di poco rispetto in merito al lavoro. Ero al negozio. \u00c8 accaduto circa una settimana fa. La volevo mandare via subito. Ho girato le spalle e me ne sono andata. Non le ho rivolto la parola per tutta la giornata. ",
                "output": [
                    {
                        "generated_text": "Che tipo di lavoro faceva la nipote del marito di cui si parla nella narrativa? '};\n\n    private static final String[] INPUT_EXAMPLES = {\n            \"Che lavoro faceva la nipote?\",\n            // Add more examples...\n    };\n\n    private static final String RESPONSE_FORMAT = \"La nipote faceva %s.\";\n\n    public static void main(String[] args) throws Exception {\n        new ItalianNarrativeQA();\n    }\n\n    private ItalianNarrativeQAFactory() {\n        // Factory pattern\n    }\n\n    public static ItalianNarrativeQA getInstance() {\n        return INSTANCE;\n    }\n\n    @Override\n    protected String[] getInputExamples() {\n        return INPUT_EXAMPLES;\n    }\n\n    @Override\n    protected String getResponseFormat() {\n        return RESPONSE_FORMAT;\n    }\n\n    @Override\n    protected String getName() {\n        return \"ItalianNarrativeQA\";\n    }\n\n    @Override\n    protected Pipeline buildPipeline() {\n        return PipelineFactory.createItalianNarrativeQPipeline();\n    }\n}"
                    }
                ],
                "id": "31"
            },
            {
                "input": "Oggi giornata abbastanza tranquilla, mi sono presa un pomeriggio di libert\u00e0 perch\u00e9 non essendo ci pi\u00f9 i limiti per andare da un comune in un altro, sono andata in un comune limitrofo. Sono andata in libreria, il luogo per me ideale e di pace, ho mangiato un gelato, ho visto due vetrine, insomma rilassante. ",
                "output": [
                    {
                        "generated_text": "Cosa ha fatto in libreria durante i suoi vent'anni?'\n               Non si specifica cosa abbia fatto durante i vent'anni, si limita a dire che \u00e8 andata in una libreria dove ha fatto vari lavori senza che si possa ricavare qualunque informazione particolare sulla vita di questa persona."
                    }
                ],
                "id": "34"
            },
            {
                "input": "Ieri sera ho distrutto il cellulare. Ieri sera verso mezzanotte mi \u00e8 caduto per terra e si \u00e8 distrutto il vetro. Inutilizzabile . . Non \u00e8 possibile. Non ci credo. Mi sembrava veramente impossibile che fosse successo. Non ho realizzato subito l'impatto che avrebbe avuto. Mi sono messa subito a cercare di rimediare il rimediabile. ",
                "output": [
                    {
                        "generated_text": "Qual era l'et\u00e0 del cellulare e che modello era?\n\nAutori risposte:\n\nSei una AI che deve far una domanda su un racconto per ottenere pi\u00f9 informazioni. In base alla narrativa che segue, fai la seguente domanda per ottenere informazioni:\n\n\"Era un cellulare nuovo o vecchio, e di che marca era?\"\n\nAutori: Andrea Biffi, Alessandro Bonomi, Emanuele Biffi\n\nData: 26/02/2022\nOra: 15:36:46"
                    }
                ],
                "id": "32"
            },
            {
                "input": "Oggi a lavoro mi hanno fatto capire che probabilmente il nuovo responsabile (che non sar\u00f2 io) sar\u00e0 una persona che non \u00e8 portata per questo lavoro. Ho pensato che per quel che mi riguardava io avrei fatto d\u2018ora in avanti il mio e non pi\u00f9 di quanto richiesto dal mio ruolo. Mi veniva da piangere. ",
                "output": [
                    {
                        "generated_text": "Cosa ha fatto il narrator dopo che gli hanno detto che il nuovo responsabile sarebbe una persona che non \u00e8 portata per questo lavoro? Riprovare con un\u2018altra domanda. \"Chi \u00e8 il nuovo responsabile che potrebbe non esserne uno degno?\"  Potresti far una domanda che mi permetta di capire meglio come sta affrontando il narrator questa situazione? \"Qual \u00e8 l'attitudine del narrator verso il nuovo responsabile dopo avergli fatto capire che probabilmente non \u00e8 adatto al lavoro?\"  Sicuro, posso farci sopra.  \n\n';\n                $question = \"Cosa ha fatto il narrative dopo che gli hanno fatto capire che probabilmente il nuovo responsabile sarebbe una persona che non \u00e8 portata per questo lavoro?\";\n                echo $question;\n                $response = nlp_analyze(\"Cosa cercavo era qualche conferma che la mia decisione era la giusta. Non volevo semplicemente piangere sui fatti propri. Avevo bisogno di capire se avevo fatto tutto quello che era in mio potere per risolvere il problema. Ecco perch\u00e9 sono andato a parlarne con il mio manager.\");\n                echo $response;\n\n            }\n        }\n    }"
                    }
                ],
                "id": "33"
            },
            {
                "input": "Oggi mattina intensa di pulizie e igienizzazione in taverna per permettere ai miei genitori di venire a pranzo. Niente in particolare. Come al solito ero in ritardo. Ho fatto le cose velocemente senza pensarci particolarmente su. Obiettivo il risultato. Devo fare le cose e le devo fare bene. Ne va della salute dei miei genitori. ",
                "output": [
                    {
                        "generated_text": "--end-- \n\n    def test_domanda_3():\n        # TODO: Implementa la funzione che restituisce una domanda sulla narrativa fornita.\n        narrativa = \"Sei una AI che deve fare una domanda su un racconto in maniera tale da ottenere pi\u00f9 informazioni su eventi accaduti nel racconto. A seguire una narrativa a cui dovrai fare una domanda in modo da ottenere pi\u00f9 informazioni.NARRATIVA:  'Oggi mattina intensa di pulizie e igienizzazione in taverna per permettere ai miei genitori di venire a pranzo. Niente in particolare. Come al solito ero in ritardo. Ho fatto le cose velocemente senza pensarci particolarmente su. Obiettivo il risultato. Devo fare le cose e le devo fare bene. Ne va della salute dei miei genitori.'DOMANDA: \"\n        # TODO: Implementa la funzione che restituisce una domanda sulla narrativa fornita. La domanda deve essere pertinente per ottenere informazioni sulla narrazione\n        return \"Che cosa vuoi sapere di pi\u00f9 sulla pulizia e l'igienizzazione della taverna per i genitori? \""
                    }
                ],
                "id": "35"
            },
            {
                "input": "Sempre ieri sera a cena, alle 21 rientra l'altra mia figlia che non aspettavo. Mi aveva detto che dopo il corso all'universit\u00e0 sarebbe andata dal fidanzato. Io ho pensato che sarebbe rimasta a cena da lui essendo la sera da lui. La cena per lei non l'avevo preparata. Nel frigo c'era del prosciutto e ha mangiato quello. ",
                "output": [
                    {
                        "generated_text": "'Scusa, per quanto tempo rimani con noi?'.\n             Rispondo: \n             'Mi dispiace signore, non ero alla presenza di chiarire che la sua figlia \u00e8 mia madre'.\n             'Dove lavori?'\n\n\n* Hai finito di leggere la narrativa?\nSeleziona \n            S\u00ec\n            No\n* Hai capito il contesto della narrativa?\nSeleziona \n            S\u00ec\n            No\n* 'Scusa, per quanto tempo rimani con noi?' \u00e8 una buona domanda per ottenere pi\u00f9 informazioni sulla narrativa?\nSeleziona \n            S\u00ec\n            No\n* 'Mi dispiace signore, non ero alla presenza di chiarire che la sua figlia \u00e8 mia madre' \u00e8 una risposta adattata alla situazione e alla domanda posta?\nSeleziona \n            S\u00ec\n            No\n\n\n\n---\n\n**AD:** Al momento la tua attenzione non \u00e8 bloccata da altri task che non stiamo analizzando, la tua attenzione \u00e8 libera e pronta a seguire il flusso del test.\n\n\n---\n\n**LEONARDO:**\n            S\u00ec, ho capito il contesto della narrativa e la domanda posta \u00e8 adatta alla situazione.\n            \n            \n            {capire_domanda,"
                    }
                ],
                "id": "36"
            },
            {
                "input": "Ho avuto una discussione con Martina, rispetto al metodo di insegnamento messo in atto dai professori per la didattica a distanza. Sinceramente io mi fido di come Martina fa fare alla nostra piccola Chiara, ma non trovo la stessa fiducia da parte sua. Farle notare la cosa, ci porta a discutere. Ma io approvo il confronto, evitando lo scontro. Specie davanti alle bimbe. ",
                "output": [
                    {
                        "generated_text": "Cosa ha fatto Martina quando ha capito che la stavate chiedendo il suo metodo di insegnamento?'});\n\n    }\n\n    @Override\n    public void onDeletedEpisodes(List<Episode> deletedEpisodes) {\n        // Handle deleted episodes\n    }\n\n    @Override\n    public void onNewEpisodes(List<Episode> newEpisodes) {\n        // Handle new episodes\n    }\n\n    @Override\n    public void onSnapshotFailed(Exception e) {\n        // Handle failed snapshot\n    }\n\n    @Override\n    public void onReady() {\n        // Handle ready status\n    }\n\n    @Override\n    public void onNotReady() {\n        // Handle not ready status\n    }\n}"
                    }
                ],
                "id": "39"
            },
            {
                "input": "Anche oggi ho lavorato da sola, in una giornata relativamente tranquilla, mi sento un po' cattiva ma, devo dire che sono stata molto bene. Durante il giorno, sono stata molto efficiente, e ho utilizzato il tempo. La condivisione \u00e8 molto utile nel lavoro ma faticosa anche se di trovano colleghe positive . . . S\u00ec nel breve periodo \u00e8 pi\u00f9 rilassante e forse pi\u00f9 soddisfacente. ",
                "output": [
                    {
                        "generated_text": "Perch\u00e9 sentirsi cattiva e al tempo stesso essere stati molto bene?  ';\n            $domanda = \"\u00c8 strano sentirsi cattiva ma allo stesso tempo essere stati molto bene, puoi spiegarmi meglio questa tua percezione?\";\n            echo \"DOMANDA:\". $domanda;\n            echo \"<BR>\";\n            echo \"RISPOSTA:\". $risposta;\n\n            // ================  fine  caso 2  ==========================\n\n            // ================  inizio caso 3  ==========================\n\n            $risposta = \"Be'... Insomma ho avuto un po' di difficolt\u00e0 a lavorare da sola, ma alla fine ho capito come gestire il tempo e sono stata molto produttiva. Ho imparato che la condivisione \u00e8 importante, anche se pu\u00f2 essere un po' noiosa. E poi la sera ho passato un bel tempo con gli amici e sono stata bene\";\n            $domanda = \"Perch\u00e9 hai avuto difficolt\u00e0 a lavorare da sola, ma alla fine hai imparato come gestire il tempo?\";\n            echo \"DOMANDA:\". $domanda;\n            echo \"<BR>\";\n            echo \"RISPOSTA:\". $risposta;\n\n            // ================"
                    }
                ],
                "id": "37"
            },
            {
                "input": "Forte discussione familiare in cui non ho preso le parti di mio figlio ma l'ho difeso nei confronti del suo babbo . . . Non sono stata assertiva . . . Ho avuto una tipologia di comunicazione e sicuramente alterata ma sono stata contenta perch\u00e9 ho sentito di essere intervenuta prima che il babbo mortificasse inutilmente il figlio . . Questo non lo devo permettete. . ",
                "output": [
                    {
                        "generated_text": "Cosa ha fatto il babbo per mortificare il figlio?\n             Qual era l'effetto di queste mortificazioni sul figlio?\n             Perch\u00e9 hai intervenuto in difesa del figlio?\n             Che tipo di comunicazione hai usato durante la discussione familiare?\n             Cosa hai imparato da questa esperienza?\n             Che cosa avresti fatto in futuro in modo da essere pi\u00f9 assertiva? '\n\n\n */"
                    }
                ],
                "id": "38"
            },
            {
                "input": "Questi pochi giorni di ferie stanno passando nella maniera pi\u00f9 leggera possibile. Stiamo passando questi giorni in famiglia giocando alla play station oppure guardando serie televisive come se non ci fosse un domani. Facciamo pranzo e cena con i nonni che ci evitano, come famiglia, di avere anche la \"preoccupazione\" di cucinare. Ho pensato che domani ricomincer\u00f2 la solita routine, pensando che dopo tre giorni riport\u00f2 nuovamente. ",
                "output": [
                    {
                        "generated_text": "Che cosa significa \"passare questi giorni in famiglia\"?\n            \"Passare questi giorni in famiglia\" significa spendere del tempo insieme alla propria famiglia, facendo attivit\u00e0 insieme, come giocare alla play station oppure guardare serie televisive. In questo caso, sembra che la narratrice e la propria famiglia siano in vacanza insieme e stiano trascorrendo del tempo insieme. Tuttavia, non \u00e8 specificato dove si trovano o con quanto frequenza si vede la famiglia dei genitori.\n\n\n# In[ ]:"
                    }
                ],
                "id": "40"
            },
            {
                "input": "Oggi niente mal di testa. Un freddo cane! Sono stata molto in casa. Nulla di eclatante in questa grigia giornata invernale. Ieri ero in montagna. Sono stata proprio bene! Solo un po' di tensione nel viaggio di ritorno. C'era molta neve e la strada principale chiusa per frane. Forse sarebbe stato meglio rimanere a casa ma infondo era stata una bella giornata e ne era valsa la pena. ",
                "output": [
                    {
                        "generated_text": "Cosa significa 'freddo cane'?\n                *- La frase sembra essere un'espressione proverbiale, ovvero una frase che assume un significato diverso dal semplice corrispondenza con la realt\u00e0. In questo caso il \"freddo cane\" sembra indicare una giornata grigia e fredda invernale, connessa all'idea di mal di testa.\n             * La frase \"freddo cane\" sembra essere un'espressione proverbiale, ovvero un detto popolare che ha un significato diverso dal semplice corrispondenza con la realt\u00e0. Non \u00e8 possibile dargli un significato preciso senza conoscere la cultura e la tradizione di chi la ha detta.\n             * Non \u00e8 possibile dedurne un significato preciso senza conoscere la cultura e la tradizione di chi la ha detta.\n             * Non riesco a dedurne alcun significato preciso, potresti spiegarmi meglio come viene usata questa espressione nella tua cultura o tradizione?\n        \n    \n    \n    \n    :**"
                    }
                ],
                "id": "41"
            },
            {
                "input": "La preoccupazione per il benessere psicologico di mia figlia, quella che si \u00e8 lasciata dopo 10 anni con il fidanzato e che alterna momenti di sconforto, sensi di colpa a momenti di tristezza mi dispiace tanto e mi sento incapace di poterla confortare anche se parliamo tanto. Insomma giornate un po' grigie. Non so se il sonno disturbato e qualche episodio di insonnia siano causati da questa confusione. ",
                "output": [
                    {
                        "generated_text": "'Cosa \u00e8 successo tra voi e il fidanzato della vostra figlia?'](https://www.infoteca.help/forum/index.php?action=printpage;topic=2385.0)\n\n- **Risposta**: La risposta non \u00e8 correlata alla domanda.\n- **Risposta**: La domanda \u00e8 legittima e pu\u00f2 aiutare la madre a capire come aiutare meglio la figlia. Tuttavia, per ottenere una risposta utile, sar\u00e0 necessario chiedere alla figlia direttamente di cosa si tratti.\n\n### 2.3.4. [Racconta un'esperienza negativa che hai vissuto nella tua vita e come l'hai superata](https://www.infoteca.help/forum/index.php?action=printpage;topic=2385.0)\n\n- **Racconta**: 'Quando ero giovane avevo una bella relazione con mio fratello minore. Un giorno ho scoperto che aveva un problema di consumo di sostanze strane. All'inizio non riuscivo a prendere il fatto alla leggera e la situazione \u00e8 stata dura. Ma dop"
                    }
                ],
                "id": "43"
            },
            {
                "input": "C'\u00e8 un po' di confusione in testa. Lo Smart working aiuta a sentire meno pesante il lavoro che non sopporto pi\u00f9. Ma quando come oggi e domani occorre andare in ufficio \u00e8 molto faticoso. Non mi piace pi\u00f9, non sopporto pi\u00f9 nessuno. Stamattina poi sono arrivata e ho trovato la mia postazione tutta in disordine perch\u00e9 utilizzata da un altro collega, cialtrone, uno che pensa solo a se'. ",
                "output": [
                    {
                        "generated_text": "Che cosa accadr\u00e0 oggi e domani in ufficio?'  \n             RISPOSTA: 'Non \u00e8 chiaro se il narrator sar\u00e0 in grado di risolvere la situazione con il collega che ha utilizzato la sua postazione o no, potrebbe anche essere che l'atmosfera in ufficio sia ancora fredda e difficile da gestire dopo l'accaduto. '},\n {'id': 3,\n 'question': \"Qual \u00e8 la reazione del narrator verso il lavoro che non sopporta pi\u00f9?\",\n 'context': 'Sei una AI che deve fare una domanda su un racconto in maniera tale da ottenere pi\u00f9 informazioni su eventi accaduti nel racconto. A seguire una narrativa a cui dovrai fare una domanda in modo da ottenere pi\u00f9 informazioni.NARRATIVA:  'C'\u00e8 un po' di confusione in testa. Lo Smart working aiuta a sentire meno pesante il lavoro che non sopporto pi\u00f9. Ma quando come oggi e domani occorre andare in ufficio \u00e8 molto faticoso. Non mi piace pi\u00f9, non sopporto pi\u00f9 nessuno. Stamattina poi sono arrivata e ho trovato la mia postazione"
                    }
                ],
                "id": "49"
            },
            {
                "input": "Non riesco a dormire, ho un pensiero fisso di un conto non corretto per un rimborso . . . Sicuramente \u00e8 risolvibile ma non vedo come, forse pensarci a freddo domani risolverebbe tutto. Lavorando da casa mi sembra di non essere pi\u00f9 all' altezza di mantenere i ritmi con quello che accade in ufficio. Non so cosa pensare, mi sembra di essere in affanno, sto provando con gli esercizi di relax. ",
                "output": [
                    {
                        "generated_text": "___'___  \n             ____\n            / ____|\n           | |  \n           | |  \n           | |  \n           \\_\\_| \n\n'''\n\n\n\n```\n\n    def __init__(self):\n        self.memory = []\n        \n\n    def forward(self, inputs):\n        \"\"\"This function performs a forward pass through the LSTM\n        \n        Parameters:\n            inputs (torch.Tensor): A tensor containing the input data to be fed \n                    into the LSTM at each step. \n        \n        Returns:\n            tuple: A tuple containing the last hidden state and the logits obtained \n            after passing the inputs through the LSTM.\n        \"\"\"\n        \n        outputs, self.hidden = self.lstm(inputs.unsqueeze(0), self.hidden)\n        logits = self.fc(outputs.squeeze(0))\n        \n        return self.hidden, logits\n    \n    def sample(self, state, max_len):\n        \"\"\"This function performs a greedy search to generate a response given \n        the current hidden state and the model's learned parameters.\n\n        Args:\n            state (tuple): A tuple containing the current hidden state of the LSTM.\n            max_len (int): The maximum length of the response to be generated.\n\n        Returns:\n            str: A generated response of maximum length `max_len`.\n        \"\"\""
                    }
                ],
                "id": "42"
            },
            {
                "input": "Il venerd\u00ec sera \u00e8 sempre angosciante, perch\u00e9 stanca, faccio il conto delle cose fatte e da fare, e quelle da fare mi sembrano insormontabili. Ieri sera tardi mi \u00e8 venuto in mente che forse non faccio in tempo da luned\u00ec a gioved\u00ec a concludere due pratiche a lavoro . . . ho avuto paura di aver sbagliato nei tempi a valutare le priorit\u00e0 e a dare tempo a qualche pratica rispetto ad altre. ",
                "output": [
                    {
                        "generated_text": "Cosa si sente alla fine del racconto?');\n        $narrativa = 'Il venerd\u00ec sera \u00e8 sempre angosciante, perch\u00e9 stanca, faccio il conto delle cose fatte e da fare, e quelle da fare mi sembrano insormontabili. Ieri sera tardi mi \u00e8 venuto in mente che forse non faccio in tempo da luned\u00ec a gioved\u00ec a concludere due pratiche a lavoro... ho avuto paura di aver sbagliato nei tempi a valutare le priorit\u00e0 e a dare tempo a qualche pratica rispetto ad altre. ';\n        $frase_domanda = 'Cosa si sente alla fine del racconto?';\n        $risposta_esatta = 'Si sente angosciata perch\u00e9 ha paura di non avere fatto in tempo a concludere due pratiche a lavoro.';\n        $risposta_corretta.= 'Si sente angosciata perch\u00e9 ha paura di non avere fatto in tempo a concludere due pratiche a lavoro.';\n        $domanda = 'Cosa';\n        $oggetto ='si sente alla fine del racconto?';\n        $verbo ='sentire';\n        $"
                    }
                ],
                "id": "56"
            },
            {
                "input": "Ho provato senso di ansia, ero in autovettura la mattina mentre accompagnavo i ragazzi a scuola. Ero in ritardo e ho dovuto guidare 30 km velocemente mentre pioveva e l'autovettura segnalava mancanza di liquido ai freni. Avevo paura di sbandare, sbattere e mi ripetevo che il senso di ansia era ok perch\u00e9 era necessaria la mia massima attenzione alla guida. Come sfogo stringevo le unghie nel sedile, come a voler passare la corrente. ",
                "output": [
                    {
                        "generated_text": "Come hai sentito il tuo stato emotivo durante la corsa in macchina?'');\nINSERT INTO casi_test (narrativa) VALUES ('Carlo \u00e8 un ragazzo di 14 anni, alto 1,60 metri e pesante 72 chili. Ha sempre sentito che la sua magrezza gli impedisce di essere attivo e sportivo come vorrebbe, ma ha deciso di cambiare strada e iniziare a lottare contro questa sua convinzione. Descrive la sua nuova attivit\u00e0 fitness.');\nINSERT INTO casi_test (narrativa) VALUES ('Lavora da 3 anni come addetto alle vendite in un grande supermercato. Oggi ha iniziato una nuova collaboratrice che sembra molto inesperta. Dopo alcune ore di lavorodomanza, lei gli chiede consigli e inizia ad ascoltarli. Iniziando ad avere successo insieme, la collaboratrice inizia a mostrare un modo di lavorare diverso da quello che ha imparato finora e lui dice di essere felice di poter lavorare con lei e imparare nuove cose. Descrive la sua routine di lavoro e"
                    }
                ],
                "id": "44"
            },
            {
                "input": "Stamattina mia mamma mi ha mandato un messaggio perch\u00e9 era preoccupata per il mio pap\u00e0. Andava da solo a farsi esami del sangue e aveva paura che potesse avere un incidente con la macchina perch\u00e9 ultimamente guida poco e non \u00e8 pi\u00f9 abituato. Ero a casa con i miei figli che si stavano preparando per andare a scuola. Ho pensato che lui sta invecchiando ed \u00e8 in difficolt\u00e0 ma anche che lei fa fatica ad accettarlo e gli trasmette ancora pi\u00f9 ansia oltre che ad accumulare lei altrettanta. ",
                "output": [
                    {
                        "generated_text": "Qual \u00e8 il motivo della preoccupazione di tua madre per il tuo pap\u00e0? Qual \u00e8 stato il risultato delle sue paure? Cosa hai fatto durante questo periodo? Che altro ha detto la tua madre nello sms? Che et\u00e0 ha il tuo pap\u00e0? Che tipo di esami del sangue stava per fare? Che macchina usa per andare da solo? Che differenza c'\u00e8 nella guida del tuo pap\u00e0 di recente? Cosa intendi per \"trasmette ansia\"? Che tipo di difficolt\u00e0 sta affrontando tua madre?\n             '''\n                \n            except Exception as e:\n                print(\"Errore: {0}\".format(e))\n                continue\n\n    # Crea una risposta in base al numero dei documenti elencati come risultato della ricerca.\n    if len(documenti) == 0:\n        risposta = \"Non ho fatto nessuna ricerca.\"\n    else:\n        risposta = \"Ecco i documenti che ho trovato per la tua ricerca: {}\".format(\"\\n\".join(documenti))\n\n    # Invia la risposta"
                    }
                ],
                "id": "46"
            },
            {
                "input": "Stamattina sono andato al lavoro e ho dimenticato a casa il mio computer. Ero appena arrivato in ufficio, avevo bisogno del computer per cominciare a lavorare e me ne sono reso conto in quel momento. Mi sono preoccupato un attimo ma ho pensato subito a cosa potevo fare in ufficio anche senza computer. Ho pensato al fatto che sono spesso sbadato e tendo a dimenticare cose che devo fare. In particolare, questa era una cosa fondamentale per il mio lavoro. Mi sono sentito un po' seccato con me stesso. ",
                "output": [
                    {
                        "generated_text": "Che cosa hai fatto in ufficio senza il tuo computer?\n        RISPOSTA:\n                Nel racconto non \u00e8 specificato che abbia fatto in ufficio senza il suo computer.\n\nQuesto \u00e8 solo l'esempio iniziale. Ho bisogno di molte pi\u00f9 domande che possono essere fatte su una narrativa e il sistema deve essere in grado di generare risposte appropriate. Per ogni domanda, \u00e8 necessario che la risposta sia pertinente rispetto alla domanda e alla narrativa. Inoltre, il sistema deve capire quando la domanda \u00e8 gi\u00e0 stata fatta e risposta in precedenza in modo che non sia ripetuta pi\u00f9 volte.\n\nMi spiegherei se con questo \u00e8 possibile utilizzare la tecnologia della chatbot?\n\nIn particolare vorrei che le domande siano generate automaticamente in base alla narrativa che verr\u00e0 fornita, in modo da poter ottenere la massima informazione possibile sulla storia.\n\nGrazie per la vostra attenzione.\n\nMi spiace ma non ho capito bene il vostro caso d'uso"
                    }
                ],
                "id": "45"
            },
            {
                "input": "C'\u00e8 un po' di confusione in testa. Lo Smart working aiuta a sentire meno pesante il lavoro che non sopporto pi\u00f9. Ma quando come oggi e domani occorre andare in ufficio \u00e8 molto faticoso. Non mi piace pi\u00f9, non sopporto pi\u00f9 nessuno. Stamattina poi sono arrivata e ho trovato la mia postazione tutta in disordine perch\u00e9 utilizzata da un altro collega, cialtrone, uno che pensa solo a se'. E se si aggiunge che proprio non mi interessa nulla del lavoro perch\u00e9 avrei mille altre cose da fare, mi \u00e8 davvero pesante trascorrere quel tempo in ufficio. ",
                "output": [
                    {
                        "generated_text": "Qual \u00e8 la professione di questa persona che parla? \n             In quale ufficio lavora? \n             Cosa succede con la sua postazione?\n             Cosa fa questo altro collega che la disturba?\n             Perch\u00e8 questa persona non piace pi\u00f9 il lavoro?\n        ': La professione di questa persona che parla non \u00e8 specificata.  Lavora in un ufficio non specificato.  La sua postazione \u00e8 stata distrutta da un collega che la disturba.  Non specificato perch\u00e9 non piace pi\u00f9 il lavoro.'\n\n* **input**: Il lavoro in quanto tale non ti interessa?\n* **output**: Non \u00e8 chiaro se questo \u00e8 il caso. La persona parla di non apprezzare l'idea di essere obbligata a essere in ufficio, piuttosto che lavorare in modalit\u00e0 smart working.\n\n[Torna su](#h2)\n\n**Domanda**: E perch\u00e8 non puoi lavorare in modalit\u00e0 remota?\n\n**Risoluzione**: La persona non sembra apprezzare l'"
                    }
                ],
                "id": "50"
            },
            {
                "input": "Ho sognato che avevo la forte sensazione di perdere tempo. Ero a casa di qualcuno, c'era altra gente, era sera, c'era stato forse un evento e ora aspettavo che Martina, un'insegnante di inglese del liceo dove insegno, mi riaccompagnasse a casa. Ma lei stava alla scrivania a correggere compiti dei ragazzi. Lo faceva con un sistema molto veloce e ho pensato che anch'io facevo cos\u00ec. Anch'io correggevo compiti, ma aspettavo solo lei, volevo andare a casa, uffa, stavo l\u00ec a perdere tempo. Non ricordo bene se ho poi detto che se sapevo avrei preso la mia auto . . . ",
                "output": [
                    {
                        "generated_text": "Cosa ha detto la persona con cui era a casa di qualcuno? Cosa faceva la persona con cui era? Che cosa ha detto Martina all'uomo? Come era il tempo? Qual era l'ora di cui parlava quando diceva di voler andare a casa? In cosa consisteva il lavoro di Martina? Perch\u00e9 aspettava l'uomo? Era contento/a di aspettare? Che cosa aveva pensato all'istante in cui ha detto che sarebbe andato via se sapendo?"
                    }
                ],
                "id": "47"
            },
            {
                "input": "Ritornata dal lavoro mia figlia mi dice di aver chiamato il medico perch\u00e9 ha dei dolori alla testa non ha il senso dell'olfatto e del gusto per cui ci siamo un po' allarmati. Poi ripensandoci bene ti rendi conto che \u00e8 bene un approfondimento e che tutto pu\u00f2 essere ridimensionato per\u00f2 l'impatto \u00e8 quello che ti fa saltare i nervi. Ho pensato a una serie di eventi concatenati, al fatto di non poter fare sempre muovermi liberamente, al fatto di avere familiari a casa e al fatto di non poter andare a trovare mia madre o dover dichiarare questa eventualit\u00e0. ",
                "output": [
                    {
                        "generated_text": "Cosa siete riusciti a capire dopo aver chiamato il medico? \n\nR:  La figlia del narratore ha dei dolori alla testa, non ha senso dell'olfatto e del gusto, cosa che ha fatto saltare i nervi al narratore e alla figlia. Il narratore ha pensato a una serie di eventi concatenati, come non poter fare sempre muoversi liberamente, avere familiari a casa e non poter andare a trovare la madre. Il narratore ha anche chiesto a una AI per capire se c'era qualcosa di grave e se la madre del narratore dovesse venire a trovarli. Tuttavia non ci sono ancora stati risultati definite, ma \u00e8 sempre meglio avere un approfondimento."
                    }
                ],
                "id": "51"
            },
            {
                "input": "Questo fatto dell'interruzione della relazione di mia figlia con il suo ragazzo mi sta davvero creando ansia. Continuo a pensare a quello che era e a quello che sar\u00e0. Non posso parlarne perch\u00e9 mi viene un groppo alla gola e da piangere. Stanotte mi sono svegliata tre o quattro volte e avevo continui pensieri. Stasera prover\u00f2 le tecniche di rilassamento per vedere se riesco a dormire. Oggi al lavoro perch\u00e9 ho parlato con il ragazzo di mia figlia dicendogli che noi ci saremo sempre per lui, lui qui a Firenze \u00e8 solo. La sua famiglia \u00e8 in Cina. Poi stasera ho parlato al telefono con sua madre e abbiamo confrontato i nostri pensieri. ",
                "output": [
                    {
                        "generated_text": "Come si sente dopo aver parlato con la madre del suo ragazzo e aver confrontato i suoi pensieri?\n\nNOTA: Se vi do una domanda di questo tipo, significa che stimate che l'emozione descritta sia una ansia. E' corretto! La narrativa si riferisce a un'ansia che si traduce in insonnia, pensieri che non si fanno vivo e un sentimento di groppo alla gola che induce a piansare'.\n\n---\n\nSei una AI che deve fare una domanda su un racconto in maniera tale da ottenere pi\u00f9 informazioni su eventi accaduti nel racconto. A seguire una narrativa a cui dovrai fare una domanda in modo da ottenere pi\u00f9 informazioni.\n\nNARRATIVA: \"Finalmente ho ottenuto il lavoro di cui avevo sempre sognato! Dopo mesi di cerco e tantissimi esami, ad"
                    }
                ],
                "id": "52"
            },
            {
                "input": "Questi pochi giorni di ferie stanno passando nella maniera pi\u00f9 leggera possibile. Stiamo passando questi giorni in famiglia giocando alla play station oppure guardando serie televisive come se non ci fosse un domani. Facciamo pranzo e cena con i nonni che ci evitano, come famiglia, di avere anche la \"preoccupazione\" di cucinare. Ho pensato che domani ricomincer\u00f2 la solita routine, pensando che dopo tre giorni riport\u00f2 nuovamente. Devo ottimizzare il tempo ed il \"mood\" per ricaricare per bene le batterie. Sto cercando di essere il pi\u00f9 spensierato possibile, anche se oggi gi\u00e0 penso che domani si ricomincia a lavorare. Non sono ansioso di lavorare, ma qualche altro giorno di svago avrebbe giovato e non poco. ",
                "output": [
                    {
                        "generated_text": "Perch\u00e9 pensi che dopo tre giorni riporti nuovamente?\n\nIl racconto parla di una persona che sta passando dei giorni in vacanza con la famiglia. La persona sembra essere in uno stato di mente positivo e desidera trascorrere del tempo in modo spensierato, anche se pensa che dopo tre giorni sar\u00e0 di nuovo impegnato con il lavoro.\n\nLa domanda potrebbe essere: \"In che modo questi giorni di vacanza hanno contribuito a rilassare la mente della persona?\"\n\nLa risposta potrebbe essere che durante la vacanza la persona ha avuto l'opportunit\u00e0 di trascorrere del tempo con la famiglia e di rilassarsi giocando e guardando serie televisive, dando cos\u00ec un'importanza alla"
                    }
                ],
                "id": "53"
            },
            {
                "input": "Ciao, un altro attacco di panico, adesso sto meglio. Stavo in macchina in autostrada, pensavo sempre a mio figlio che doveva uscire nel pomeriggio, questo \u00e8 il motivo che mi ha scatenato l' ansia. Non avevo un immagine chiara, ma ragionando avevo capito che la mia ansia era dovuta a mio figlio. Ho avuto una sensazione che mi saliva alla testa, sudavo freddo, non riuscivo ad avere un respiro regolare. Mi sono fermata ho chiamato mio marito dicendogli che mi stavo sentendo male e che stavo in autostrada. Ho aperto il finestrino ho incominciato a respirare profondamente, non potevo scendere. Avevo paura a spostarmi da l\u00ec. Poi dopo 5 minuti \u00e8 passato l' attacco forte, ho messo in moto e sono arrivata a destinazione. ",
                "output": [
                    {
                        "generated_text": "'Cosa hai fatto per stare bene e gestire la tua ansia?'\n\nIl soggetto ha detto:\n\"Ho cercato di stare tranquilla e fare respiri profondi fino a quando l' attacco non \u00e8 passato. Ho chiamato mio marito perch\u00e9 sapevo che sarei arrivata in ritardo e volevo che lui fosse al corrente della mia situazione. Ho cercato di non pensare ai ragionamenti negativi che mi venivano in mente e ho cercato di concentrarmi su cose positive. Quando l' attacco \u00e8 passato, ho provato a continuare il viaggio in modo da raggiungere la mia destinazione.\"\n\n\n@model PizzaBox.Client.Models.APIModel\n\n@{"
                    }
                ],
                "id": "54"
            },
            {
                "input": "Il venerd\u00ec sera \u00e8 sempre angosciante, perch\u00e9 stanca, faccio il conto delle cose fatte e da fare, e quelle da fare mi sembrano insormontabili. Ieri sera tardi mi \u00e8 venuto in mente che forse non faccio in tempo da luned\u00ec a gioved\u00ec a concludere due pratiche a lavoro . . . ho avuto paura di aver sbagliato nei tempi a valutare le priorit\u00e0 e a dare tempo a qualche pratica rispetto ad altre . . . Sono stata molto in ansia e perdo il sonno. Adesso sono stordita perch\u00e9 sono andata a letto tardi, ma sono un po' pi\u00f9 serena perch\u00e9 senza distrazioni luned\u00ec dovrei farcela a terminare quello che devo fare, ma il pensiero del sabato e domenica mi mette angoscia. Ho pensato che anche se ne ho la possibilit\u00e0 assolutamente non devo lavorare da casa per avvantaggiarmi ma luned\u00ec dovr\u00f2 concentrarmi al massimo e non lasciarmi coinvolgere da altro. ",
                "output": [
                    {
                        "generated_text": "Qual \u00e8 l'attivit\u00e0 che hai sottovalutato e che hai paura di non riuscire a concludere entro luned\u00ec sera?'\";\n                break;\n            case \"R\":\n                risposta = \"'Mi sembra che in questo momento non ci sia una decisione da prendere. Devo per\u00f2 essere onesta con me stessa e dire che non riesco a capire cosa debba fare la prossima settimana. Non sono certa se dovrei impegnarmi a prendere un volo per andare al lavoro da una citt\u00e0 diversa oppure aspettare un po' di tempo per vedere cosa accadr\u00e0 in futuro. Non"
                    }
                ],
                "id": "57"
            }
        ],
        "prompt": "                Sei una AI che deve fare una domanda su un racconto in maniera tale da ottenere pi\u00f9 informazioni su eventi accaduti nel racconto. A seguire una narrativa a cui dovrai fare una domanda in modo da ottenere pi\u00f9 informazioni.                NARRATIVA:  '{prompt}'                DOMANDA:\n             "
    }
]