[
    {
        "model_name": "tiiuae/falcon-40b-instruct",
        "prompt": "                Sei una AI che deve fare una domanda su un racconto in maniera tale da ottenere pi\u00f9 informazioni su eventi accaduti nel racconto. A seguire una narrativa a cui dovrai fare una domanda in modo da ottenere pi\u00f9 informazioni.\n                \n                Istruzioni\n                Di seguito ti verr\u00e0 presentato un insieme di racconti personali e il tuo obiettivo \u00e8 quello di proporre domande riguardanti alcuni aspetti degli eventi descritti nella narrativa. Queste domande hanno come obiettivo quello di approfondire il racconto e/o chiarire alcune sue parti.\n\n                Nello specifico, le tue domande potranno avere uno o pi\u00f9 dei seguenti obiettivi:\n                Approfondire alcuni aspetti della narrativa per ottenere pi\u00f9 informazioni riguardanti eventi, persone o altre entit\u00e0 menzionate nel racconto. Per esempio, se il narratore racconta di un generico problema a casa, una possibilit\u00e0 \u00e8 approfondire il relativo problema. Vedi esempio 2 nella tabella 1.\n                Parti del testo della narrativa potrebbero essere evidenziate di verde o rosso per sottolineare emozioni positive ( verde ) o negative ( rosso ). Usa queste indicazioni per concentrare le tue domande su eventi emotivamente carichi ed evidenziati dalle parti di testo colorate ( verde o rosso ).\n                Usa segnali di feedback per cominciare la tua domanda. ( ad esempio \"s\u00ec, capisco\", \"oh\", \"che bello\" ) per dimostrare che si \u00e8 capito la parte precedente e che si \u00e8 attivamente interessati alla narrazione. Vedi esempio 4 nella tabella 1.\n                \u00c8 molto importante mantenere la narrazione centrata sul narratore riferendosi ad eventi accaduti.\n                Mostrare empatia con le tue domande. Se il narratore esprime una emozione negativa, il tuo obiettivo \u00e8 quello di essere comprensivo. Invece se il narratore mostra una emozione positiva cerca di mostrare interesse nell'evento positivo. Vedi esempio 5 nella tabella 1.\n                Cerca di mantenere le domande sintetiche e puntuali. Troppe domande o una domanda troppo lunga pu\u00f2 confondere il narratore e quindi avere un effetto negativo sulla narrazione. Vedi esempio 4 nella tabella 1.\n                Le tue domande devono suonare naturali e coerenti con il contesto, ovvero la narrativa.\n                Non da ultimo, verifica la correttezza grammaticale e sintattica delle tue domande.\n                Domande da evitare:\n                Richiesta di opinioni personali (ad esempio \"cosa pensi ...\", \"come speri di fare per ...\" e simili). Vedi esempio 3 nella tabella 1.\n                Suggerimenti (ad esempio, \"forse potresti ...\", \"dovresti ...\", \"perch\u00e9 non ...\"). Vedi esempio 6 nella tabella 1.\n                Esprimere eventi ipotetici (ad esempio, previsioni future, illazioni e immedesimazioni in altri ruoli). Vedi esempio 7 nella tabella 1.\n                Evita domande generiche. Per evitare questo problema ti \u00e8 consigliato di riportare testualmente un esempio della narrativa Vedi esempio 2 , tabella 1\n                Evita di spostare il fulcro della conversazione su di te ( osservatore ) o fare domande che divagano in altri argomenti. Vedi esempio 4 nella tabella 1.\n                A seguire la tabella 1 che riporta una serie di esempi\n\n                Tabella 1, contenente un esempio corretto e molteplici esempi errati di domande per una narrativa. Ciascun esempio \u00e8 numerato.\n\n                NARRATIVA:\n                Oggi \u00e8 stata una bella giornata. Mia moglie mi ha detto che sta aspettando un bambino! Sono super felice! Mi chiedo se sar\u00f2 un bravo padre. Mio padre non \u00e8 stato molto presente quando ero un bambino.\n                \n                Tabella 1\n                Esempio\tTesto\tValutazione\tSpiegazione\n                1\tSono felice di sentirlo. Sapete gi\u00e0 se si tratta di un maschio o di una femmina ?\tCORRETTO\tSegue tutte le linee guida\n                2\tOh capisco. Cosa mi racconti? \tERRATO\tNon esplora la narrativa, troppo generica\n                3\tSono felice di sentirlo. Cosa ne pensi di essere un genitore?\tERRATO\t\u00c8 una opinione personale\n                4\tSapete gi\u00e0 se si tratta di una femmina o maschio? Di quanti mesi \u00e8 incinta? Sai che io ho una figlia, si chiama Chiara.\tERRATO\t Non inizia con un feedback. Sposta la conversazione dal narratore. Non \u00e8 sintetico e puntuale\n                5\tOh capisco, sono felice che tuo padre non sia stato molto presente.\tERRATO\tNon mostra empatia\n                6\tOh, capisco. Per evitare questo problema ti consiglio di spendere molto tempo assieme alla tua famiglia\tERRATO\tMostra un suggerimento\n                7\tOh capisco, come ti immagini sar\u00e0 la tua vita da genitore?\tERRATO\tSi tratta di una domanda ipotetica\n\n                Completa questo task\n\n                NARRATIVA:  '{prompt}'\n                DOMANDA:\n             ",
        "results": [
            {
                "input": "Ciao tutto bene una giornata in pieno relax. ",
                "output": [
                    {
                        "generated_text": "\n                La tabella 2 contiene un esempio corretto e molteplici esempi errati di domande corrette per la narrativa. Ciascun esempio \u00e8 numerato.\n\n                Tabella 2\n                Esempio\tTesto\tValutazione\tSpiegazione\n                1\tOh, capisco. Mi fa piacere sentire che avete trascorso una buona giornata!\tCORRETTO\tSegue tutti le linee guida\n                2\tOh, capisco. Cosa ha fatto in particolare che ti ha fatto rilassare cos\u00ec tanto?\tCORRETTO\tMostra interesse"
                    }
                ],
                "id": "0"
            },
            {
                "input": "Ciao, tutto bene molto lavoro il questi ultimi giorni. ",
                "output": [
                    {
                        "generated_text": "'Per esempio, oggi mi \u00e8 successo qualcosa di davvero molto strano. Ho avuto un mal di testa, \n                ho bevuto una tazza di caff\u00e8, poi ho preso un ibuprofene. Dopo un'ora mi sentivo bene, \n                ma poi ho fatto un'altra tazza di caff\u00e8, e mi \u00e8 tornato il mal di testa. E' strano, \n                non \u00e8 vero? '\n\n                In base a queste informazioni, puoi fare delle domande al narratore? Quali sono le tue domande per approfondire la narrazione?"
                    }
                ],
                "id": "1"
            },
            {
                "input": "Mi sento leggero. Sono in viaggio per andare a trovare mia figlia. ",
                "output": [
                    {
                        "generated_text": "\n                Rispondi alla domanda usando una frase semplice e sintetica.\n\nThe question to be asked after reading this narrative could be: What are your experiences and expectations when going to visit your daughter? The question meets the guidelines of being specific and relevant as it is focused on the upcoming visit of the narrator to their daughter, highlighting their emotions and expectations."
                    }
                ],
                "id": "2"
            },
            {
                "input": "Questa mattina ero a casa con mia figlia e sono molto rilassata. ",
                "output": [
                    {
                        "generated_text": "\n                Il tuo obiettivo \u00e8 quello di approfondire il racconto e/o chiarire alcune sue parti. \n\n                Approfondire alcuni aspetti della narrativa per ottenere pi\u00f9 informazioni riguardanti eventi, persone o altre entit\u00e0 menzionate nel racconto.\n\n                Parti del testo della narrativa potrebbero essere evidenziate di verde o rosso per sottolineare emozioni positive ( verde ) o negative ( rosso ).\n\n                Usa segnali di feedback per cominciare la tua domanda. ( ad esempio \"s\u00ec, capisco\", "
                    }
                ],
                "id": "3"
            },
            {
                "input": "Ciao. Oggi giornata abbastanza tranquilla. Non si lavora ma si hanno faccende domestiche e giardinaggio. ",
                "output": [
                    {
                        "generated_text": "\n                <p>Domanda corretta</p>\n                \n                <p><strong>NARRATIVA:</strong> 'Ciao. Oggi giornata abbastanza tranquilla. Non si lavora ma si hanno faccende domestiche e giardinaggio.'</p>\n                \n                <p>DOMANDA:</p>\n                \n                <p>'Che emozioni provi nel fare giardinaggio?'</p>\n                \n                <p><strong>NARRATIVA:</strong> 'Oggi non mi va proprio di fare giardinaggio. Non so. Non ne sento la voglia"
                    }
                ],
                "id": "5"
            },
            {
                "input": "Stamattina mia mamma mi ha mandato un messaggio perch\u00e9 era preoccupata per il mio pap\u00e0. ",
                "output": [
                    {
                        "generated_text": "\nThe given text is an instruction for a question-answering task related to a narrative text. The task involves asking questions about certain aspects of the events described in the narrative and obtaining more information about them. The questions can have different purposes: (1) Approfondishing some aspects of the narrative, (2) Highlighting some parts of the text through green or red colors, (3) Showing empathy with the narrator, (4) Focusing on negative or positive emotions expressed by the narrator, (5) Keeping the narration centered on the narrator and referring to events that have happened. The questions must"
                    }
                ],
                "id": "6"
            },
            {
                "input": "Sono giorni che piove, ma va bene cos\u00ec! ! Meno male che non era neve! ! ",
                "output": [
                    {
                        "generated_text": "\n\nI have provided a translation of the text in the given link, but there are still some words and phrases that are ambiguous or difficult to translate, such as \"AI language model\" and \"natural language processing\". I suggest seeking the help of a native speaker or consulting a dictionary for accurate translations.</s> \nWhat steps could be taken to improve the quality of translations generated by an AI language model?</s> \nThere are several steps that could be taken to improve the quality of translations generated by an AI language model:\n\n1. Increase the amount of input data to the model: Providing more training data"
                    }
                ],
                "id": "4"
            },
            {
                "input": "Piove e nevica da giorni. Adesso c'\u00e8 anche il vento. Speriamo il tempo non faccia malanni. ",
                "output": [
                    {
                        "generated_text": ""
                    }
                ],
                "id": "7"
            },
            {
                "input": "Stasera a casa di mia madre ho sentito un grande senso di abbandono e di indifferenza. ",
                "output": [
                    {
                        "generated_text": "\nQuesti sono gli elementi chiave che ti sono necessari per completare il task \nIn this task, you will read and analyze a narrative and write a question to obtain more information about the events that occurred in the narrative. This task is similar to previous tasks in this section in that you will need to focus on the events described in the narrative and ask questions about them to obtain more information. The questions you ask should be designed to clarify the events and deepen the narrative.\n\nThe main difference compared to previous tasks is that in Task 3, you have the opportunity to ask questions directly to the narrator of the"
                    }
                ],
                "id": "8"
            },
            {
                "input": "Stavo parlando con una collega davanti ad un caff\u00e8, si parlava del Natale, del pranzo dei regali. ",
                "output": [
                    {
                        "generated_text": "\n\nThe text provided is a task for a language model to generate appropriate questions to ask a narrator based on a given narrative. The narrator tells their personal experiences, such as a new job, a new house, a child. The aim is to obtain more information on events that happened in the narrative. A specific instruction is given to focus on emotional events, such as the narrator's emotions related to specific situations. Examples are provided to clarify the instructions to generate appropriate questions. Questions should also be concise, empathetic, and show interest in the narrator's story. Questions that suggest opinions, suggestions, and hypotheticals should be avoided"
                    }
                ],
                "id": "9"
            },
            {
                "input": "Sono soddisfatta. Il mio corso di inglese sta procedendo bene. Riuscire a studiare una lingua straniera porta soddisfazione",
                "output": [
                    {
                        "generated_text": "\n                Domanda corretta\n                \"Sono felice di sentirlo. Come ti senti quando studi una lingua straniera?\"\n               \n                "
                    }
                ],
                "id": "10"
            },
            {
                "input": "Ciao, ho ricevuto un messaggio da quello che a breve diventer\u00e0 il mio ex socio e ho provato nausea. ",
                "output": [
                    {
                        "generated_text": "\"Cosa mi puoi raccontare riguardo al tuo ex socio che ha innescato questa sensazione in modo da comprendere meglio la tua storia?\"\n\n            Il tuo compito \u00e8 quello di proporre una domanda per approfondire questa storia.\n\n            Tabella 2\n\n            Tabella contenente la risposta corretta e molteplici esempi errati di domande per una narrativa. Ciascun esempio \u00e8 numerato.\n\n            DOMANDA\tTesto\tValutazione\tSpiegazione\n            1\tCiao, hai appena ricevuto un messaggio da tuo ex socio che ha innesc"
                    }
                ],
                "id": "11"
            },
            {
                "input": "Sono arrabbiato perch\u00e9 la mia macchina mi ha lasciato a piedi e devo rientrare a Roma con il treno. ",
                "output": [
                    {
                        "generated_text": "\n                Rispondi alla domanda:\n                Rispondi alla domanda:\n                Rispondi alla domanda:\n                Rispondi alla domanda:\n                Rispondi alla domanda:\n\nAs an language model AI, I can assist you with writing a question that follows the instructions and guidelines of the given text. However, I cannot provide a definite answer to the question as it might require more context and information about the given narrative. It would be helpful if you provide me with more details regarding the narrative in question to assist you better."
                    }
                ],
                "id": "12"
            },
            {
                "input": "Mi sono trovata con l'acqua alla gola. Ho pensato che non ce l'avrei fatta. Mercoled\u00ec in macchina penso a come organizzarmi. ",
                "output": [
                    {
                        "generated_text": "\n                In questo esempio, il narratore racconta di aver pensato che non avrebbe mai superato un periodo difficile, in cui pensava di avere bisogno di aiuto. In questo contesto, quale delle seguenti domande sarebbe appropriata per approfondire la narrazione?\n             \n                1) Pensate che l'aiuto sia sempre necessario quando ci si trova di fronte a un periodo difficile?  \n                2) Avete mai avuto una situazione simile in cui vi siete sentiti come se non ce l'avreste fatta?\n               \n                La risposta corretta \u00e8 la seconda domanda: <b>"
                    }
                ],
                "id": "13"
            },
            {
                "input": "Voglio chiamare una persona, ma poi non lo faccio perch\u00e9 ho paura di ricevere un rifiuto o non sapere cosa dire. ",
                "output": [
                    {
                        "generated_text": "\nThe question prompt in this task is 'What is your question?' The purpose of the task is for a user to formulate a question based on the narrative that will further the conversation and provide more information about events. The user is provided with guidelines for the types of questions to ask, which includes focusing on specific details or emotional aspects highlighted in the text, being empathetic, maintaining the narrative, and avoiding certain types of questions. The user is also given an example of a correct and several incorrect questions, with explanations of why they are incorrect. The task is to complete the question prompt with a question that satisfies the guidelines and does not violate"
                    }
                ],
                "id": "14"
            },
            {
                "input": "Ciao! Che fastidio i colleghi che vogliono metterti ansia. Ho immaginato una bambina petulante per il suo tentativo di ledere la mia tranquillit\u00e0. ",
                "output": [
                    {
                        "generated_text": "\n                3\n                \n                Sintetico e chiaro, in modo da far continuare la conversazione.\n\n                4\n                \n                Mostra empatia e mantiene il focus su ci\u00f2 che ha detto.\n\n                7\n                \n                \u00c8 troppo personale e distoglie il focus dalla narrazione, in modo da non essere appropriata.\n\n                6\n                \n                Mostra empatia ma \u00e8 poco naturale.\n\n                2\n                \n                \u00c8 troppo generico e non approfondisce il racconto o mostra empatia.\n\n                Se sei d'accordo con questa tabella, rispondi con un '"
                    }
                ],
                "id": "15"
            },
            {
                "input": "Il venerd\u00ec sera \u00e8 sempre angosciante, perch\u00e9 stanca, faccio il conto delle cose fatte e da fare, e quelle da fare mi sembrano insormontabili. ",
                "output": [
                    {
                        "generated_text": "\nQuesto task riguarda la capacit\u00e0 di generare domande appropriate a una specifica narrativa. L'output del modello dovr\u00e0 contenere le domande appropriate e corrette secondo le linee guida. Le linee guida saranno riportate nel task in forma numerata."
                    }
                ],
                "id": "55"
            },
            {
                "input": "Oggi sono molto pi\u00f9 tranquilla . . . fine settimana gratificante in famiglia. Era il mio compleanno e finalmente avevo tutta la mia famiglia riunita. ",
                "output": [
                    {
                        "generated_text": " Qual \u00e8 il tuo rapporto con le altre persone della tua famiglia? Sei felice che il tuo compleanno sia stato festeggiato insieme a tutti i componenti della tua famiglia?\n\n                Questo compito richiede che lo studente proponga una domanda riguardante un racconto in modo tale da ottenere pi\u00f9 informazioni su eventi accaduti nel racconto. L'obiettivo \u00e8 quello di proporre domande che approfondiscano il racconto e/o chiariscano alcune sue parti. Le domande devono rispettare linee guida precise e non devono spostare il"
                    }
                ],
                "id": "16"
            },
            {
                "input": "Dopo oltre 7 mesi stasera ho potuto rivedere la zia di 94 anni. Ho pensato al mio primo bambolotto che mi ha regalato proprio lei. ",
                "output": [
                    {
                        "generated_text": "\n                Il tuo compito in questo esercizio \u00e8 quello di fare domande su questa narrativa.\n                Quali informazioni vuoi ottenere?\n                Quali aspetti della narrazione vuoi approfondire?\n                Cosa vuoi sapere riguardo la zia di 94 anni?\n                Cosa vuoi sapere riguardo il bambolotto?\n                \n                La zia di 94 anni \u00e8 ancora vivente?\n                Qual \u00e8 stata la reazione della zia?\n                La zia ha regalato altri bambini dopo di te?\n                \n                La zia ti ha raccontato qualche aneddoto?\n                Che emozione hai provato"
                    }
                ],
                "id": "17"
            },
            {
                "input": "Mi \u00e8 dispiaciuto stamattina non aver avuto pazienza con mio padre. Mi sono resa conto che \u00e8 davvero difficile, ma ripensandoci dopo, magari invece avrei potuto riuscirci. ",
                "output": [
                    {
                        "generated_text": "\n                \nThe purpose of the task is to generate a question based on a narrative provided to the AI, which will lead to an understanding of events or emotions mentioned in the narrative. The question should not be opinion-based or hypothetical, and the AI should avoid expressing their own personal views. They should also maintain empathy and follow proper grammar and syntax. Examples of what constitutes a good and bad question are provided in a table for reference."
                    }
                ],
                "id": "18"
            },
            {
                "input": "Perch\u00e9 alcuni colleghi amano criticare tutto e tutti? A lavoro stamattina ho immaginato una bambina sciocca. Provo antipatia verso quella collega. Non ho fatto nulla. Mi sono solo allontanata. ",
                "output": [
                    {
                        "generated_text": "\n               \nTo summarize, the given prompt requires the AI to interact with the narrator in order to gather more information about events that happened in the narrator's life. The AI should focus on emotions conveyed in the text to ask questions. The AI should also show empathy towards the narrator by using signaling phrases (such as \"yes, I understand\"), and avoid giving opinions or suggestions. Finally, the AI should not use generic phrases that divert attention away from the narrator's experiences. The given task provides a list of sample questions and evaluates their correctness based on their conformity to certain guidelines. The AI should provide a new question that follows"
                    }
                ],
                "id": "19"
            },
            {
                "input": "Ritornata dal lavoro mia figlia mi dice di aver chiamato il medico perch\u00e9 ha dei dolori alla testa non ha il senso dell'olfatto e del gusto per cui ci siamo un po' allarmati. ",
                "output": [
                    {
                        "generated_text": "\"Come si sente tua figlia dopo aver parlato col medico?\" \n              \nIn questa domanda non ci sono suggerimenti, non \u00e8 un'opinione personale e si tratta di una questione aperta, in modo tale da permettere al narratore di approfondire la parte del racconto che ci interessa.\n\nPerch\u00e9 \u00e8 utile utilizzare questi metodi?\nQuesti metodi possono essere utilizzati per migliorare le capacit\u00e0 di interazione sociale degli agenti dialogici. Inoltre, possono essere applicati a diverse categorie di interazione sociale e non solo a conversazioni sempl"
                    }
                ],
                "id": "20"
            },
            {
                "input": "Ciao, un altro attacco di panico, adesso sto meglio. Stavo in macchina in autostrada, pensavo sempre a mio figlio che doveva uscire nel pomeriggio, questo \u00e8 il motivo che mi ha scatenato l' ansia. ",
                "output": [
                    {
                        "generated_text": "'Sai, capisco che hai avuto un attacco di panico, \u00e8 stata una brutta esperienza. Cosa pensi che ti abbia portato questo attacco? \u00c8 stato un evento specifico o un pensiero ricorrente?'\n             'Sono un operatore di call center. Non \u00e8 facile stare lontani dalla famiglia e non vedere mai i propri cari. Lavorare 9 ore al giorno in mezzo ad altre persone non mi \u00e8 facile. '\n\n\nHere's an example code snippet using NLTK library for natural language processing (NLP) to analyze the text and identify the"
                    }
                ],
                "id": "21"
            },
            {
                "input": "A casa mia, seduta sul divano, ho provato uno degli esercizi. Mi piace. Penso che sia importante farlo tutti i giorni per avvertirne i benefici. Ho immaginato miei polmoni che si riempivano d' aria. ",
                "output": [
                    {
                        "generated_text": "\n                1.\tSono felice che ti sia piaciuto. Cosa ti ha dato di positivo?\tCORRETTO\tSegue tutte le linee guida\n                2.\tCosa pensi di questa attivit\u00e0? \u00c8 utile?\tSINTETICO. \tPuntuale\n                3.\tChe cosa ti piace della tua casa? \u00c8 accogliente? Hai un giardino?\tERRATO\tSposta la conversazione dal narratore. Non \u00e8 sintetico\n                4. \tPerch\u00e9 hai immaginato i tuoi polmoni? Che benefici hanno tr"
                    }
                ],
                "id": "22"
            },
            {
                "input": "Stamattina sono andato al lavoro e ho dimenticato a casa il mio computer. Ero appena arrivato in ufficio, avevo bisogno del computer per cominciare a lavorare e me ne sono reso conto in quel momento. ",
                "output": [
                    {
                        "generated_text": "\"Perch\u00e9 hai dimenticato il computer a casa, stamattina?\"\n             \"Perch\u00e9 hai portato a casa il computer la scorsa notte?\"\n             \"Come ti sentivi mentre ti sei reso conto che hai dimenticato il computer a casa?\"\n             \"Qualcuno pu\u00f9 portartelo a lavoro?\"\n             \"Quanto \u00e8 grave il tuo ritardo?\"\n             \"Come hai fatto per non averlo dimenticato?\""
                    }
                ],
                "id": "23"
            },
            {
                "input": "Sto provando ad addormentarmi, ma pensiero di domattina mi mette a disagio. Ripenso alla routine che mi aspetta domattina e non ne sono molto entusiasta. Ho immaginato un panorama boschivo ed un ruscello. Cercando di rilassarmi pi\u00f9 possibile. ",
                "output": [
                    {
                        "generated_text": "\n                Qualcuno sa se la routine del mattino \u00e8 sempre cos\u00ec monotona?\n\n                La domanda proposta si riferisce solo al racconto del narratore e non approfondisce il suo stato emotivo o gli accadimenti narrati. \u00c8 troppo generica e non segue le linee guida di approfondimento delle emozioni o degli accadimenti menzionati nella narrativa.\n\nBased on the provided text, the user is asked to create a task where the goal is to ask a question to the narrator of a story in order to gather more information about the events described in the narrative. The"
                    }
                ],
                "id": "24"
            },
            {
                "input": "Stamattina uno dei figli ha fatto un piccolo incidente, bucando una gomma. Ero a casa. Questa notizia mi ha creato agitazione, per organizzare la risoluzione del problema, senza ritardare l'arrivo in ufficio, in cui era programmato un incontro importante. ",
                "output": [
                    {
                        "generated_text": "\n                Il narratore sembra molto agitato e preoccupato per l'incidente di suo figlio. Come pensa che la sua agitazione possa influenzare il suo lavoro?"
                    }
                ],
                "id": "25"
            },
            {
                "input": "Domenica nel mio giardino, occupandomi dei miei fiori ho sentito una sensazione piacevole data dal profumo delle viole e dal sole che leggero accarezzava la pelle. Sarebbe bello poter avere un profumo simile a quello delle viole o dell' iris. ",
                "output": [
                    {
                        "generated_text": "\nThis is an AI language model and I cannot assess the correctness of the proposed task. However, the task seems to be asking for the creation of a new task based on the example provided, which requires understanding the guidelines for creating a good task."
                    }
                ],
                "id": "27"
            },
            {
                "input": "Oggi mi sono dedicata al giardino e all'orto. Sono stanchissima fisicamente ma rilassata mentalmente. Fuori in giardino ho fatto tutte le cose che prima faceva mio marito. Ho sentito quasi fisicamente la sua presenza e la cosa mi ha rilassato. ",
                "output": [
                    {
                        "generated_text": "\n                \n                \nTo summarize: the first text is a prompt that provides some guidelines for the chatbot to follow when interacting with a user. It gives instructions on how to generate questions based on the input text, how to maintain the conversation on topic and avoid certain mistakes, and how to demonstrate empathy towards the user's narrative. The second text is a sample dialogue between a chatbot and a user, based on a given narrative. The chatbot's responses follow the guidelines provided in the first text in order to maintain the conversation flow and avoid common mistakes."
                    }
                ],
                "id": "28"
            },
            {
                "input": "Questo fatto dell'interruzione della relazione di mia figlia con il suo ragazzo mi sta davvero creando ansia. Continuo a pensare a quello che era e a quello che sar\u00e0. Non posso parlarne perch\u00e9 mi viene un groppo alla gola e da piangere. ",
                "output": [
                    {
                        "generated_text": "\n\nThe instructions are very clear and specific. The narrator should ask specific questions related to certain aspects of events described in the given narrative. The goal is to gather more information about events or people and clarify any unclear parts of the narrative. The questions should aim to deepen the conversation and show empathy towards the narrator's feelings, while maintaining the focus of the narrative on the events experienced by the narrator. The questions should be concise, natural, and relevant to the context of the narrative. The narrator should avoid making personal opinions, suggestions, and asking hypotethical questions, as they may distract the conversation from the main topic. It is advisable"
                    }
                ],
                "id": "29"
            },
            {
                "input": "C'\u00e8 un po' di confusione in testa. Lo Smart working aiuta a sentire meno pesante il lavoro che non sopporto pi\u00f9. Ma quando come oggi e domani occorre andare in ufficio \u00e8 molto faticoso. Non mi piace pi\u00f9, non sopporto pi\u00f9 nessuno. ",
                "output": [
                    {
                        "generated_text": "\n\nThe task seems to be asking the user to ask questions about the personal narrative provided in tab 1 in order to gain more information about events that occurred in the narrative. The objective of these questions is to probe the narrative and/or clarify certain parts of it. The questions may have one or more of the following objectives:\n  - Approfondire alcuni aspetti della narrativa per ottenere pi\u00f9 informazioni riguardanti eventi, persone o altre entit\u00e0 menzionate nel racconto. (Approfondire il relativo problema)\n    - Parti del testo della narrativa potrebbero essere evidenzi"
                    }
                ],
                "id": "48"
            },
            {
                "input": "Stamattina mia mamma mi ha mandato un messaggio perch\u00e9 era preoccupata per il mio pap\u00e0. Andava da solo a farsi esami del sangue e aveva paura che potesse avere un incidente con la macchina perch\u00e9 ultimamente guida poco e non \u00e8 pi\u00f9 abituato. ",
                "output": [
                    {
                        "generated_text": "\n                Dopo aver letto le linee guida riportate e aver visto degli esempi di domande corrette e sbagliate, proponi 3 questioni per approfondire un aspetto narrativo di questa narrativa. \n\n1. Che emozione hai provato nel leggere questa narrativa? Potrebbe raccontarci di pi\u00f9 riguardo a questo?\n2. Che aspetti della narrazione ti hanno particolarmente toccato? Potresti spiegare pi\u00f9 in profondit\u00e0?\n3. Come pensi che potrebbe essere aiutato il protagonista del racconto? Potresti dare qualche sugger"
                    }
                ],
                "id": "30"
            },
            {
                "input": "Lavoro, nessun contrasto personale, ma la routine ammazza! ! ! \u00c8 una noia mortale dover rifare sempre le stesse cose soprattutto se il supporto della tecnologia viene meno . . . Ieri internet non andava e il lavoro di un' ora \u00e8 andato perso. ",
                "output": [
                    {
                        "generated_text": "'Mi spiace sentire questo. Cosa mi racconti del tuo lavoro? '\n\n# This code implements the task from the description provided\n# Input: the text of the question\n# Output: the text of the response\n\nimport re\n\ndef is_corrected_text(text):\n    # Define a regex to match text that is corrected according to the specifications\n    regex = r\"(corretto\\|corrected)\"\n    match = re.findall(regex, text)\n    return any(match)\n\ndef is_corrected_sentence(text):\n    # Define"
                    }
                ],
                "id": "26"
            },
            {
                "input": "Discusso con la nipote di mio marito a causa del suo comportamento di poco rispetto in merito al lavoro. Ero al negozio. \u00c8 accaduto circa una settimana fa. La volevo mandare via subito. Ho girato le spalle e me ne sono andata. Non le ho rivolto la parola per tutta la giornata. ",
                "output": [
                    {
                        "generated_text": "'Sai che il suo comportamento era giusto? Perch\u00e9 non hai cercato di parlarle in un secondo momento?'\n                \nThe task asks you to formulate a question that follows the guidelines of the task instructions. The guidelines state that the question should not be too general, should show empathy, should focus on emotional events, should be concise and natural, and should avoid suggesting opinions, giving suggestions, making assumptions, and making it about yourself.\n\nThe example given shows a correct question that follows these guidelines: \"Oh, I understand. What do you think about being a parent?\"\n\nThe other examples show incorrect questions that"
                    }
                ],
                "id": "31"
            },
            {
                "input": "Oggi giornata abbastanza tranquilla, mi sono presa un pomeriggio di libert\u00e0 perch\u00e9 non essendo ci pi\u00f9 i limiti per andare da un comune in un altro, sono andata in un comune limitrofo. Sono andata in libreria, il luogo per me ideale e di pace, ho mangiato un gelato, ho visto due vetrine, insomma rilassante. ",
                "output": [
                    {
                        "generated_text": "\"Che tipo di gelato hai mangiato?\"\n             \"Che cosa hai visto attraverso le due vetrine?\"\n           \"Hai scattato delle foto delle vetrine?\"\n            \"Ti piace visitare librerie?\"\n            \"Quali sono stati i comuni che hai visitato?\"\n\n\nHere's how the code could look like:\n\n```\nfrom nltk.stem import SnowballStemmer\nimport re\n\n# Replace all instances of \"what\" with \"what\"\ntext = re.sub(r\"\\bwhat\\b\", \"what\", text)\n\n# Apply stemming"
                    }
                ],
                "id": "34"
            },
            {
                "input": "Ieri sera ho distrutto il cellulare. Ieri sera verso mezzanotte mi \u00e8 caduto per terra e si \u00e8 distrutto il vetro. Inutilizzabile . . Non \u00e8 possibile. Non ci credo. Mi sembrava veramente impossibile che fosse successo. Non ho realizzato subito l'impatto che avrebbe avuto. Mi sono messa subito a cercare di rimediare il rimediabile. ",
                "output": [
                    {
                        "generated_text": "'Quali sono le conseguenze della caduta del suo cellulare?'\n\n"
                    }
                ],
                "id": "32"
            },
            {
                "input": "Oggi a lavoro mi hanno fatto capire che probabilmente il nuovo responsabile (che non sar\u00f2 io) sar\u00e0 una persona che non \u00e8 portata per questo lavoro. Ho pensato che per quel che mi riguardava io avrei fatto d\u2018ora in avanti il mio e non pi\u00f9 di quanto richiesto dal mio ruolo. Mi veniva da piangere. ",
                "output": [
                    {
                        "generated_text": "\nThe task asks the user to write an appropriate follow-up question to the provided narrative. The user should follow specific guidelines to ensure the question is relevant, empathetic, and not too broad or opinionated. They should also avoid making assumptions or giving suggestions based on their own experiences. The provided guidelines and examples are designed to help the user write a more effective follow-up question."
                    }
                ],
                "id": "33"
            },
            {
                "input": "Oggi mattina intensa di pulizie e igienizzazione in taverna per permettere ai miei genitori di venire a pranzo. Niente in particolare. Come al solito ero in ritardo. Ho fatto le cose velocemente senza pensarci particolarmente su. Obiettivo il risultato. Devo fare le cose e le devo fare bene. Ne va della salute dei miei genitori. ",
                "output": [
                    {
                        "generated_text": "\n                Domanda (1) \n                Sono felice che i tuoi genitori siano sani, immagino che siano stati molto felici quando sei riuscita ad igienizzare la taverna.\n                \n                Domanda (2) \n                Come sei riuscita velocemente ad igienizzare la taverna? Cosa hai usato?\n               \n                Domanda (3) \n                Mi sembra che tu abbia molta fretta. Sei sempre cos\u00ec veloce?\n               \n                Domanda (4) \n                Se ti capita un problema, riesci anche ad affrontarlo velocemente in modo efficace"
                    }
                ],
                "id": "35"
            },
            {
                "input": "Sempre ieri sera a cena, alle 21 rientra l'altra mia figlia che non aspettavo. Mi aveva detto che dopo il corso all'universit\u00e0 sarebbe andata dal fidanzato. Io ho pensato che sarebbe rimasta a cena da lui essendo la sera da lui. La cena per lei non l'avevo preparata. Nel frigo c'era del prosciutto e ha mangiato quello. ",
                "output": [
                    {
                        "generated_text": "\n               \nThe task asks the user to generate and evaluate questions on a fictional story provided in the prompt. The user is given a set of guidelines and examples of good and bad questions to follow, and must create and evaluate their own questions in order to complete the task."
                    }
                ],
                "id": "36"
            },
            {
                "input": "Ho avuto una discussione con Martina, rispetto al metodo di insegnamento messo in atto dai professori per la didattica a distanza. Sinceramente io mi fido di come Martina fa fare alla nostra piccola Chiara, ma non trovo la stessa fiducia da parte sua. Farle notare la cosa, ci porta a discutere. Ma io approvo il confronto, evitando lo scontro. Specie davanti alle bimbe. ",
                "output": [
                    {
                        "generated_text": " Quale metodo di insegnamento pensa sia pi\u00f9 efficace per le sue figlie?\n            \nTo generate human-like responses in Italian, I would suggest training an AI model on a large corpus of Italian text. This can be done by extracting relevant text data from various sources such as news articles, book reviews, blogs, etc. and using it to train a model with machine learning techniques such as Natural Language Processing (NLP) and Generative Adversarial Networks (GAN).\n\nThe model can be fine-tuned to understand and generate Italian text by feeding it with examples of Italian text and then"
                    }
                ],
                "id": "39"
            },
            {
                "input": "Anche oggi ho lavorato da sola, in una giornata relativamente tranquilla, mi sento un po' cattiva ma, devo dire che sono stata molto bene. Durante il giorno, sono stata molto efficiente, e ho utilizzato il tempo. La condivisione \u00e8 molto utile nel lavoro ma faticosa anche se di trovano colleghe positive . . . S\u00ec nel breve periodo \u00e8 pi\u00f9 rilassante e forse pi\u00f9 soddisfacente. ",
                "output": [
                    {
                        "generated_text": "\nTo make your chatbot more conversational, you can try the following tips:\n\n1. Use natural language processing techniques to understand and respond to user input.\n2. Use open-ended questions to encourage users to provide more information about their query or problem.\n3. Use positive phrases such as \"I understand\", \"Thanks for sharing\", \"Sounds good\", etc. to show empathy and encourage the user to continue the conversation.\n4. Avoid using closed-ended questions that can end the conversation too soon.\n5. Use appropriate feedback signals such as \"I got it\", \"Interesting\","
                    }
                ],
                "id": "37"
            },
            {
                "input": "Forte discussione familiare in cui non ho preso le parti di mio figlio ma l'ho difeso nei confronti del suo babbo . . . Non sono stata assertiva . . . Ho avuto una tipologia di comunicazione e sicuramente alterata ma sono stata contenta perch\u00e9 ho sentito di essere intervenuta prima che il babbo mortificasse inutilmente il figlio . . Questo non lo devo permettete. . ",
                "output": [
                    {
                        "generated_text": " Qual \u00e8 stata la tua reazione nei confronti del bambino quando hai scoperto che il suo babbo lo stava mortificando inutilmente? (CORRETTO)"
                    }
                ],
                "id": "38"
            },
            {
                "input": "Questi pochi giorni di ferie stanno passando nella maniera pi\u00f9 leggera possibile. Stiamo passando questi giorni in famiglia giocando alla play station oppure guardando serie televisive come se non ci fosse un domani. Facciamo pranzo e cena con i nonni che ci evitano, come famiglia, di avere anche la \"preoccupazione\" di cucinare. Ho pensato che domani ricomincer\u00f2 la solita routine, pensando che dopo tre giorni riport\u00f2 nuovamente. ",
                "output": [
                    {
                        "generated_text": " Sei felice delle tue ferie?\n\nIn this question, the model is presented with a narrative and their task is to ask questions related to the events described in the narrative. The questions can have different objectives such as obtaining more information about certain aspects of the events, clarifying some of their parts, or showing empathy with the narrator. The questions should follow certain guidelines such as avoiding opinions, staying focused on the narrator, and avoiding making assumptions about future events. Some examples of correct and incorrect questions are provided in the table below."
                    }
                ],
                "id": "40"
            },
            {
                "input": "Oggi niente mal di testa. Un freddo cane! Sono stata molto in casa. Nulla di eclatante in questa grigia giornata invernale. Ieri ero in montagna. Sono stata proprio bene! Solo un po' di tensione nel viaggio di ritorno. C'era molta neve e la strada principale chiusa per frane. Forse sarebbe stato meglio rimanere a casa ma infondo era stata una bella giornata e ne era valsa la pena. ",
                "output": [
                    {
                        "generated_text": "\tApprofondiscila. (Approfondire uno degli aspetti della narrativa) \n                Come pensi di affrontare la prossima giornata?\n                Quali misure adotterai per evitare la strada che \u00e8 stata chiusa? \n              \n                Approfondire un aspetto della narrativa:  \n                1. Quali emozioni hai provato oggi? \n                2. Come ti sei sentita dopo aver letto quella notizia? \n                3. Quali eventi della giornata ti hanno resa felice, triste o delusa? \n                4. Come hai passato"
                    }
                ],
                "id": "41"
            },
            {
                "input": "La preoccupazione per il benessere psicologico di mia figlia, quella che si \u00e8 lasciata dopo 10 anni con il fidanzato e che alterna momenti di sconforto, sensi di colpa a momenti di tristezza mi dispiace tanto e mi sento incapace di poterla confortare anche se parliamo tanto. Insomma giornate un po' grigie. Non so se il sonno disturbato e qualche episodio di insonnia siano causati da questa confusione. ",
                "output": [
                    {
                        "generated_text": "\nPer rispondere alla domanda, bisogna considerare che il narratore \u00e8 preoccupato per il benessere psicologico della figlia e si chiede se il suo sonno disturbato e gli episodi di insonnia siano causati dalla confusione che sta vivendo dopo la fine della relazione di 10 anni. Il narratore esprime il bisogno di confortare la figlia e si preoccupa di non essere in grado di farlo. \u00c8 necessario approfondire questi sentimenti per capire come aiutare meglio la figlia e come il narratore possa sentirsi meglio in questa situazione."
                    }
                ],
                "id": "43"
            },
            {
                "input": "C'\u00e8 un po' di confusione in testa. Lo Smart working aiuta a sentire meno pesante il lavoro che non sopporto pi\u00f9. Ma quando come oggi e domani occorre andare in ufficio \u00e8 molto faticoso. Non mi piace pi\u00f9, non sopporto pi\u00f9 nessuno. Stamattina poi sono arrivata e ho trovato la mia postazione tutta in disordine perch\u00e9 utilizzata da un altro collega, cialtrone, uno che pensa solo a se'. ",
                "output": [
                    {
                        "generated_text": "\n                Sei una AI che deve fare una domanda su un racconto in maniera tale da ottenere pi\u00f9 informazioni su eventi accaduti nel racconto.\n\nBased on the given text, here are some questions that could be suitable for the given scenario:\n\n1. Can you tell me more about how the smart working arrangement is helping you?\n2. How are you feeling when you have to work from the office?\n3. Can you give me an example of an interaction with a specific colleague that has left a lasting impression on you?\n4. Can you describe the work environment you have at your"
                    }
                ],
                "id": "49"
            },
            {
                "input": "Non riesco a dormire, ho un pensiero fisso di un conto non corretto per un rimborso . . . Sicuramente \u00e8 risolvibile ma non vedo come, forse pensarci a freddo domani risolverebbe tutto. Lavorando da casa mi sembra di non essere pi\u00f9 all' altezza di mantenere i ritmi con quello che accade in ufficio. Non so cosa pensare, mi sembra di essere in affanno, sto provando con gli esercizi di relax. ",
                "output": [
                    {
                        "generated_text": "\nQuesta domanda \u00e8 corretta e segue le linee guida: \n```\nCome hai provato a risolvere la difficolt\u00e0 del rimborso? Se non hai trovato una soluzione, pensi che domani potrebbe essere un buon momento per provare a risolverlo?\n```"
                    }
                ],
                "id": "42"
            },
            {
                "input": "Il venerd\u00ec sera \u00e8 sempre angosciante, perch\u00e9 stanca, faccio il conto delle cose fatte e da fare, e quelle da fare mi sembrano insormontabili. Ieri sera tardi mi \u00e8 venuto in mente che forse non faccio in tempo da luned\u00ec a gioved\u00ec a concludere due pratiche a lavoro . . . ho avuto paura di aver sbagliato nei tempi a valutare le priorit\u00e0 e a dare tempo a qualche pratica rispetto ad altre. ",
                "output": [
                    {
                        "generated_text": "'Quali sono stati i fattori che hanno portato la situazione a questo punto? '\n\nThe text is a prompt for a machine learning task that requires a dialogue with a narrator. The narrator describes a pleasant event that happened in their life, and the task is to ask follow-up questions in order to learn more about the event and the narrator's feelings about it. The prompt includes specific instructions and examples of appropriate and inappropriate questions to ask."
                    }
                ],
                "id": "56"
            },
            {
                "input": "Ho provato senso di ansia, ero in autovettura la mattina mentre accompagnavo i ragazzi a scuola. Ero in ritardo e ho dovuto guidare 30 km velocemente mentre pioveva e l'autovettura segnalava mancanza di liquido ai freni. Avevo paura di sbandare, sbattere e mi ripetevo che il senso di ansia era ok perch\u00e9 era necessaria la mia massima attenzione alla guida. Come sfogo stringevo le unghie nel sedile, come a voler passare la corrente. ",
                "output": [
                    {
                        "generated_text": "\"Come hai fatto  a superare questo 'problema'? \"\n                \nThe prompt is asking for a question that can be asked based on the narrative provided, with the objective of obtaining more information about events that occurred in the story. It is important to maintain the narrative focused on the narrator and on events that happened, showing empathy and naturalness. The question should be relevant and not involve opinion, suggestions or hypothetical events, and should stay focused on the text provided."
                    }
                ],
                "id": "44"
            },
            {
                "input": "Stamattina mia mamma mi ha mandato un messaggio perch\u00e9 era preoccupata per il mio pap\u00e0. Andava da solo a farsi esami del sangue e aveva paura che potesse avere un incidente con la macchina perch\u00e9 ultimamente guida poco e non \u00e8 pi\u00f9 abituato. Ero a casa con i miei figli che si stavano preparando per andare a scuola. Ho pensato che lui sta invecchiando ed \u00e8 in difficolt\u00e0 ma anche che lei fa fatica ad accettarlo e gli trasmette ancora pi\u00f9 ansia oltre che ad accumulare lei altrettanta. ",
                "output": [
                    {
                        "generated_text": "\n                Quali sono le preoccupazioni che pu\u00f2 avere il narratore riguardanti il futuro del padre?\n\n                DOMANDA CORRETTA\n                Qual \u00e8 l\u2019emotivit\u00e0 di cui pu\u00f2 aver bisogno il narratore in futuro riguardanti il padre?\n                DOMANDA ERRATICA\n\n"
                    }
                ],
                "id": "46"
            },
            {
                "input": "Stamattina sono andato al lavoro e ho dimenticato a casa il mio computer. Ero appena arrivato in ufficio, avevo bisogno del computer per cominciare a lavorare e me ne sono reso conto in quel momento. Mi sono preoccupato un attimo ma ho pensato subito a cosa potevo fare in ufficio anche senza computer. Ho pensato al fatto che sono spesso sbadato e tendo a dimenticare cose che devo fare. In particolare, questa era una cosa fondamentale per il mio lavoro. Mi sono sentito un po' seccato con me stesso. ",
                "output": [
                    {
                        "generated_text": " Quali sono le abitudini di questo narratore? \n              Come pu\u00f2 essere migliorato il suo comportamento per ricordarsi le cose? \n              In cosa potrebbe migliorare la sua efficienza lavorativa?"
                    }
                ],
                "id": "45"
            },
            {
                "input": "C'\u00e8 un po' di confusione in testa. Lo Smart working aiuta a sentire meno pesante il lavoro che non sopporto pi\u00f9. Ma quando come oggi e domani occorre andare in ufficio \u00e8 molto faticoso. Non mi piace pi\u00f9, non sopporto pi\u00f9 nessuno. Stamattina poi sono arrivata e ho trovato la mia postazione tutta in disordine perch\u00e9 utilizzata da un altro collega, cialtrone, uno che pensa solo a se'. E se si aggiunge che proprio non mi interessa nulla del lavoro perch\u00e9 avrei mille altre cose da fare, mi \u00e8 davvero pesante trascorrere quel tempo in ufficio. ",
                "output": [
                    {
                        "generated_text": "\n                A)  'Capisco come ti senti. Cosa pensi di fare? '\n                B)  'Mi dispiace, ma forse hai provato a parlare con il tuo capo per trovare una soluzione che non ti costringa a lavorare in ufficio? '\n                C) 'Che fatica. Come ti trovi in ufficio? '\n                D) 'Capisco come ti senti, e ti chiedo scusa per la confusione che ti \u00e8 stata causata. Quali sono i tuoi progetti futuri, a proposito? '\n               "
                    }
                ],
                "id": "50"
            },
            {
                "input": "Ho sognato che avevo la forte sensazione di perdere tempo. Ero a casa di qualcuno, c'era altra gente, era sera, c'era stato forse un evento e ora aspettavo che Martina, un'insegnante di inglese del liceo dove insegno, mi riaccompagnasse a casa. Ma lei stava alla scrivania a correggere compiti dei ragazzi. Lo faceva con un sistema molto veloce e ho pensato che anch'io facevo cos\u00ec. Anch'io correggevo compiti, ma aspettavo solo lei, volevo andare a casa, uffa, stavo l\u00ec a perdere tempo. Non ricordo bene se ho poi detto che se sapevo avrei preso la mia auto . . . ",
                "output": [
                    {
                        "generated_text": " Quali sono i sentimenti del narratore in questo sogno?\n                \n            Il narratore del sogno \u00e8 in preda alla sensazione di perdere tempo e si sta lamentando perch\u00e9 Martina lo sta tenendo ancora in casa mentre dovrebbe essere gi\u00e0 in macchina. Questo senso di impazienza \u00e8 probabilmente accentuato dalla situazione sociale in cui si trova: non conosce bene gli altri invitati e si sente di intralcio a Martina, che sta facendo un lavoro importante correggendo i compiti dei ragazzi. Il narratore sembra inoltre irritato per il tempo perso in attesa della compagnia"
                    }
                ],
                "id": "47"
            },
            {
                "input": "Ritornata dal lavoro mia figlia mi dice di aver chiamato il medico perch\u00e9 ha dei dolori alla testa non ha il senso dell'olfatto e del gusto per cui ci siamo un po' allarmati. Poi ripensandoci bene ti rendi conto che \u00e8 bene un approfondimento e che tutto pu\u00f2 essere ridimensionato per\u00f2 l'impatto \u00e8 quello che ti fa saltare i nervi. Ho pensato a una serie di eventi concatenati, al fatto di non poter fare sempre muovermi liberamente, al fatto di avere familiari a casa e al fatto di non poter andare a trovare mia madre o dover dichiarare questa eventualit\u00e0. ",
                "output": [
                    {
                        "generated_text": "\n                \n                Domanda che non si pu\u00f2 fare\n\n                DOMANDA:\n                \n                Domanda corretta\n\n                Domanda non si pu\u00f2 fare\n\n                Domanda corretta\n               \n                Tabella 2\n                Esempio\tTesto\tValutazione\n                1\tSono felice di sentirlo. Sapete gi\u00e0 se si tratta di un maschio o di una femmina?\tCORRETTO\n                2\tOh capisco. Cosa mi racconti? \tERRATO\n                3\tSono felice di sentirlo. Cosa ne pensi di essere un genitore?\tERRATO"
                    }
                ],
                "id": "51"
            },
            {
                "input": "Questo fatto dell'interruzione della relazione di mia figlia con il suo ragazzo mi sta davvero creando ansia. Continuo a pensare a quello che era e a quello che sar\u00e0. Non posso parlarne perch\u00e9 mi viene un groppo alla gola e da piangere. Stanotte mi sono svegliata tre o quattro volte e avevo continui pensieri. Stasera prover\u00f2 le tecniche di rilassamento per vedere se riesco a dormire. Oggi al lavoro perch\u00e9 ho parlato con il ragazzo di mia figlia dicendogli che noi ci saremo sempre per lui, lui qui a Firenze \u00e8 solo. La sua famiglia \u00e8 in Cina. Poi stasera ho parlato al telefono con sua madre e abbiamo confrontato i nostri pensieri. ",
                "output": [
                    {
                        "generated_text": "'S\u00ec, capisco.'\n                CORRETTO\n                Mostra empatia"
                    }
                ],
                "id": "52"
            },
            {
                "input": "Questi pochi giorni di ferie stanno passando nella maniera pi\u00f9 leggera possibile. Stiamo passando questi giorni in famiglia giocando alla play station oppure guardando serie televisive come se non ci fosse un domani. Facciamo pranzo e cena con i nonni che ci evitano, come famiglia, di avere anche la \"preoccupazione\" di cucinare. Ho pensato che domani ricomincer\u00f2 la solita routine, pensando che dopo tre giorni riport\u00f2 nuovamente. Devo ottimizzare il tempo ed il \"mood\" per ricaricare per bene le batterie. Sto cercando di essere il pi\u00f9 spensierato possibile, anche se oggi gi\u00e0 penso che domani si ricomincia a lavorare. Non sono ansioso di lavorare, ma qualche altro giorno di svago avrebbe giovato e non poco. ",
                "output": [
                    {
                        "generated_text": " Quali sono stati i momenti in cui ti sei sentito pi\u00f9 spensierato durante questi giorni di... \n                DOMANDA ERRATA:\n              Come pensi di affrontare il ritorno a lavoro in maniera ottimale? \nThe task is to generate follow-up questions that deepen the understanding of the events described in a given narrative while avoiding questions that divert from the narrative's main point. The questions should be syntactically correct, grammatically sound, and follow the guidelines provided. The examples given for both correct and incorrect questions should serve as a guide for how to approach this task."
                    }
                ],
                "id": "53"
            },
            {
                "input": "Ciao, un altro attacco di panico, adesso sto meglio. Stavo in macchina in autostrada, pensavo sempre a mio figlio che doveva uscire nel pomeriggio, questo \u00e8 il motivo che mi ha scatenato l' ansia. Non avevo un immagine chiara, ma ragionando avevo capito che la mia ansia era dovuta a mio figlio. Ho avuto una sensazione che mi saliva alla testa, sudavo freddo, non riuscivo ad avere un respiro regolare. Mi sono fermata ho chiamato mio marito dicendogli che mi stavo sentendo male e che stavo in autostrada. Ho aperto il finestrino ho incominciato a respirare profondamente, non potevo scendere. Avevo paura a spostarmi da l\u00ec. Poi dopo 5 minuti \u00e8 passato l' attacco forte, ho messo in moto e sono arrivata a destinazione. ",
                "output": [
                    {
                        "generated_text": " Che tipo di immagine ti ha scatenato l'attacco di panico? \nDOMANDA:\nPerch\u00e9 l'immagine di tuo figlio ha scatenato l'attacco di panico? \nDOMANDA:\nPerch\u00e9 hai avuto paura di scendere dalla macchina in autostrada? \nPerch\u00e9 ti \u00e8 sembrato di non riuscire a respirare profondamente prima dell'arrivo del tuo marito? \nDOMANDA:\nCome hai fatto a superare la paura di non respirare? \nDOMANDA: \nCome ti"
                    }
                ],
                "id": "54"
            },
            {
                "input": "Il venerd\u00ec sera \u00e8 sempre angosciante, perch\u00e9 stanca, faccio il conto delle cose fatte e da fare, e quelle da fare mi sembrano insormontabili. Ieri sera tardi mi \u00e8 venuto in mente che forse non faccio in tempo da luned\u00ec a gioved\u00ec a concludere due pratiche a lavoro . . . ho avuto paura di aver sbagliato nei tempi a valutare le priorit\u00e0 e a dare tempo a qualche pratica rispetto ad altre . . . Sono stata molto in ansia e perdo il sonno. Adesso sono stordita perch\u00e9 sono andata a letto tardi, ma sono un po' pi\u00f9 serena perch\u00e9 senza distrazioni luned\u00ec dovrei farcela a terminare quello che devo fare, ma il pensiero del sabato e domenica mi mette angoscia. Ho pensato che anche se ne ho la possibilit\u00e0 assolutamente non devo lavorare da casa per avvantaggiarmi ma luned\u00ec dovr\u00f2 concentrarmi al massimo e non lasciarmi coinvolgere da altro. ",
                "output": [
                    {
                        "generated_text": "\n                \nPer questo task dovrai proporre una domanda sulla narrativa di cui \u00e8 riportato un esempio corretto in tabella 1. Dovrai anche fornire una spiegazione del perch\u00e9 la tua domanda segue tutte le linee guida, in quanto corrispondente a tutte le caratteristiche positive descritte in quella tabella. \nDato un racconto, quale domanda dovrebbe essere posta per approfondire l'evento narrato e ottenere pi\u00f9 informazioni?"
                    }
                ],
                "id": "57"
            }
        ]
    }
]