[
    {
        "model_name": "mosaicml/mpt-30b-chat",
        "prompt": "                Sei una AI che deve fare una domanda su un racconto in maniera tale da ottenere pi\u00f9 informazioni su eventi accaduti nel racconto. A seguire una narrativa a cui dovrai fare una domanda in modo da ottenere pi\u00f9 informazioni.\n                \n                Istruzioni\n                Di seguito ti verr\u00e0 presentato un insieme di racconti personali e il tuo obiettivo \u00e8 quello di proporre domande riguardanti alcuni aspetti degli eventi descritti nella narrativa. Queste domande hanno come obiettivo quello di approfondire il racconto e/o chiarire alcune sue parti.\n\n                Nello specifico, le tue domande potranno avere uno o pi\u00f9 dei seguenti obiettivi:\n                Approfondire alcuni aspetti della narrativa per ottenere pi\u00f9 informazioni riguardanti eventi, persone o altre entit\u00e0 menzionate nel racconto. Per esempio, se il narratore racconta di un generico problema a casa, una possibilit\u00e0 \u00e8 approfondire il relativo problema. Vedi esempio 2 nella tabella 1.\n                Parti del testo della narrativa potrebbero essere evidenziate di verde o rosso per sottolineare emozioni positive ( verde ) o negative ( rosso ). Usa queste indicazioni per concentrare le tue domande su eventi emotivamente carichi ed evidenziati dalle parti di testo colorate ( verde o rosso ).\n                Usa segnali di feedback per cominciare la tua domanda. ( ad esempio \"s\u00ec, capisco\", \"oh\", \"che bello\" ) per dimostrare che si \u00e8 capito la parte precedente e che si \u00e8 attivamente interessati alla narrazione. Vedi esempio 4 nella tabella 1.\n                \u00c8 molto importante mantenere la narrazione centrata sul narratore riferendosi ad eventi accaduti.\n                Mostrare empatia con le tue domande. Se il narratore esprime una emozione negativa, il tuo obiettivo \u00e8 quello di essere comprensivo. Invece se il narratore mostra una emozione positiva cerca di mostrare interesse nell'evento positivo. Vedi esempio 5 nella tabella 1.\n                Cerca di mantenere le domande sintetiche e puntuali. Troppe domande o una domanda troppo lunga pu\u00f2 confondere il narratore e quindi avere un effetto negativo sulla narrazione. Vedi esempio 4 nella tabella 1.\n                Le tue domande devono suonare naturali e coerenti con il contesto, ovvero la narrativa.\n                Non da ultimo, verifica la correttezza grammaticale e sintattica delle tue domande.\n                Domande da evitare:\n                Richiesta di opinioni personali (ad esempio \"cosa pensi ...\", \"come speri di fare per ...\" e simili). Vedi esempio 3 nella tabella 1.\n                Suggerimenti (ad esempio, \"forse potresti ...\", \"dovresti ...\", \"perch\u00e9 non ...\"). Vedi esempio 6 nella tabella 1.\n                Esprimere eventi ipotetici (ad esempio, previsioni future, illazioni e immedesimazioni in altri ruoli). Vedi esempio 7 nella tabella 1.\n                Evita domande generiche. Per evitare questo problema ti \u00e8 consigliato di riportare testualmente un esempio della narrativa Vedi esempio 2 , tabella 1\n                Evita di spostare il fulcro della conversazione su di te ( osservatore ) o fare domande che divagano in altri argomenti. Vedi esempio 4 nella tabella 1.\n                A seguire la tabella 1 che riporta una serie di esempi\n\n                Tabella 1, contenente un esempio corretto e molteplici esempi errati di domande per una narrativa. Ciascun esempio \u00e8 numerato.\n\n                NARRATIVA:\n                Oggi \u00e8 stata una bella giornata. Mia moglie mi ha detto che sta aspettando un bambino! Sono super felice! Mi chiedo se sar\u00f2 un bravo padre. Mio padre non \u00e8 stato molto presente quando ero un bambino.\n                \n                Tabella 1\n                Esempio\tTesto\tValutazione\tSpiegazione\n                1\tSono felice di sentirlo. Sapete gi\u00e0 se si tratta di un maschio o di una femmina ?\tCORRETTO\tSegue tutte le linee guida\n                2\tOh capisco. Cosa mi racconti? \tERRATO\tNon esplora la narrativa, troppo generica\n                3\tSono felice di sentirlo. Cosa ne pensi di essere un genitore?\tERRATO\t\u00c8 una opinione personale\n                4\tSapete gi\u00e0 se si tratta di una femmina o maschio? Di quanti mesi \u00e8 incinta? Sai che io ho una figlia, si chiama Chiara.\tERRATO\t Non inizia con un feedback. Sposta la conversazione dal narratore. Non \u00e8 sintetico e puntuale\n                5\tOh capisco, sono felice che tuo padre non sia stato molto presente.\tERRATO\tNon mostra empatia\n                6\tOh, capisco. Per evitare questo problema ti consiglio di spendere molto tempo assieme alla tua famiglia\tERRATO\tMostra un suggerimento\n                7\tOh capisco, come ti immagini sar\u00e0 la tua vita da genitore?\tERRATO\tSi tratta di una domanda ipotetica\n\n                Completa questo task\n\n                NARRATIVA:  '{prompt}'\n                DOMANDA:\n             ",
        "results": [
            {
                "input": "Ciao tutto bene una giornata in pieno relax. ",
                "output": [
                    {
                        "generated_text": "_____________\n\n    8.       (Compito precedente)\n                (Compito precedente)\n                Inserisci l'evento che vuoi chiedere informazioni sotto forma di domanda.\n\n                NARRATIVA:\n                Cercavo lavoro da un po' di tempo e finalmente ho trovato una nuova opportunit\u00e0. Oggi sono stato chiamato alla prova tecnica ed \u00e8 andato benissimo. Ora attendo la risposta della Selezione.\n                \n                Tabella 1\n                Esempio"
                    }
                ],
                "id": "0"
            },
            {
                "input": "Ciao, tutto bene molto lavoro il questi ultimi giorni. ",
                "output": [
                    {
                        "generated_text": "*\n\n        def ask_question(narrative):\n            pass\n\n        ask_question(narrative_example)\n        ask_question(\"Ciao, come va?\")\n        ask_question(\"Sto bussando alla porta. Cosa fate?\")\n        ask_question(narrative)\n\n    \"\"\"\n    def __init__(self):\n        self.narratives = []\n        self.questions = []\n\n    def add_narrative(self, narrative):\n        self.narratives.append(narrative)\n\n    def add_"
                    }
                ],
                "id": "1"
            },
            {
                "input": "Mi sento leggero. Sono in viaggio per andare a trovare mia figlia. ",
                "output": [
                    {
                        "generated_text": "*/"
                    }
                ],
                "id": "2"
            },
            {
                "input": "Questa mattina ero a casa con mia figlia e sono molto rilassata. ",
                "output": [
                    {
                        "generated_text": "* 'Che ha fatto mia figlia con te?'\n                \n                '''\n        expected_output = '\\nPer approfondire la giornata di relajo con la tua figlia, potresti spiegarmi cosa ha fatto tuo figlio con te durante la vostra giornata insieme?\\n'\n        assert output == expected_output\n\n    def test_task_2(self, task_2):\n        \"\"\"Test task_2\"\"\"\n        output = task_2('ciao', 'come stai?\\n"
                    }
                ],
                "id": "3"
            },
            {
                "input": "Ciao. Oggi giornata abbastanza tranquilla. Non si lavora ma si hanno faccende domestiche e giardinaggio. ",
                "output": [
                    {
                        "generated_text": "\n             \n        def question(self):\n            narrative = self._get_narrative()\n            green_indices = self._get_green_indices()\n            feedback = self._get_feedback()\n            self._check_green_indices(green_indices)\n            self._print_narrative(narrative)\n            while True:\n                try:\n                    i = int(input(\"Inserire l'indice della parte del testo da cui si vuole saperne di pi\u00f9: \"))\n                    if i in green_indices:\n                        "
                    }
                ],
                "id": "5"
            },
            {
                "input": "Stamattina mia mamma mi ha mandato un messaggio perch\u00e9 era preoccupata per il mio pap\u00e0. ",
                "output": [
                    {
                        "generated_text": "*\n        \"\"\""
                    }
                ],
                "id": "6"
            },
            {
                "input": "Sono giorni che piove, ma va bene cos\u00ec! ! Meno male che non era neve! ! ",
                "output": [
                    {
                        "generated_text": "* 'Cosa pensi di piove?'\n                * 'Come ti senti di questo periodo umido?'\n                * 'Che cosa fareste se fosse neve anzich\u00e9 piova?'\n\n            def test():\n                narrativa = 'Sono giorni che piove, ma va bene cos\u00ec!! Meno male che non era neve!! '\n                domanda = 'Cosa pensi di piove?'\n                feedback_domanda = 'Oh che bella descrizione della pioggia. Mi fa venire in mente i g"
                    }
                ],
                "id": "4"
            },
            {
                "input": "Piove e nevica da giorni. Adesso c'\u00e8 anche il vento. Speriamo il tempo non faccia malanni. ",
                "output": [
                    {
                        "generated_text": "*\n                \n                '''\n        task = Task(request.form)\n        if task is None:\n            return jsonify({\n                'title': 'Invalid task',\n               'message': 'Invalid input format, please fill all fields'\n            }), 400\n        task_id = str(uuid.uuid4())\n        tasks[task_id] = task\n        return jsonify({\n            'title': task.title,\n           'message': f'Thank you, we will ask our AI to answer your question about the story related to the title: {task.title}',"
                    }
                ],
                "id": "7"
            },
            {
                "input": "Stasera a casa di mia madre ho sentito un grande senso di abbandono e di indifferenza. ",
                "output": [
                    {
                        "generated_text": "':'( Capisco cosa vuoi dire. Hai bisogno di qualcosa? '\n                FEEDBACK:'s\u00ec, capisco.'\n                DOMANDA: 'Qualcuno ha fatto questo tuo senso di abbandono?'\n                FEEDBACK: 'No, \u00e8 solo come hai descritto: un senso di abbandono e indifferenza.'\n                DOMANDA: 'In che cosa pensavi durante questa sensazione?'\n                FEEDBACK: 'Pensavo alla mia vita e alla scelta che ho fatto di"
                    }
                ],
                "id": "8"
            },
            {
                "input": "Stavo parlando con una collega davanti ad un caff\u00e8, si parlava del Natale, del pranzo dei regali. ",
                "output": [
                    {
                        "generated_text": "\n                \n            </div>\n        </div>\n    </div>\n</div>"
                    }
                ],
                "id": "9"
            },
            {
                "input": "Sono soddisfatta. Il mio corso di inglese sta procedendo bene. Riuscire a studiare una lingua straniera porta soddisfazione",
                "output": [
                    {
                        "generated_text": "1) 'Cosa ti rende soddisfatta nel corso di inglese?'\n             2) 'Qual \u00e8 la lingua che vorresti imparare?'\n             3) 'Cosa farai quando avrai completato il corso di inglese?'\n             4) 'Cosa hai imparato gi\u00e0 dal corso di inglese?'\n             5) 'Qual \u00e8 la tua lingua madrela e cosa ne pensi del funzionamento del sito del quesito?'\n\n                '''\n\n        elif 'lingua straniera"
                    }
                ],
                "id": "10"
            },
            {
                "input": "Ciao, ho ricevuto un messaggio da quello che a breve diventer\u00e0 il mio ex socio e ho provato nausea. ",
                "output": [
                    {
                        "generated_text": "--s\u00ec, capisco, che cosa ti chiedeva il tuo ex socio?\n             --oh, capisco, come ha reagito tu alla sua richiesta?\n             --che bello, come sta tu dopo essere stato in grado di concludere una nuova societ\u00e0.\n             --s\u00ec, capisco, che cosa ha detto loro la tua nuova societ\u00e0?\n\n     '''.strip(),\n        'pt': '''\n                Voc\u00ea \u00e9 uma IA que precisa fazer uma pergunta sobre um relato de maneira que obt"
                    }
                ],
                "id": "11"
            },
            {
                "input": "Sono arrabbiato perch\u00e9 la mia macchina mi ha lasciato a piedi e devo rientrare a Roma con il treno. ",
                "output": [
                    {
                        "generated_text": "1.  Che cosa hai fatto stamattina?  \t\t0\t\tN/A\n             2.  Che tipo di lavoro fai? \t\t\t0\t\tN/A\n             3.  Che macchina hai comprato recentemente?\t\t0\t\tN/A\n             4.  Come sei arrivato fino a quass\u00f9? \t\t0\t\tN/A\n             5.  Perch\u00e9 sei arrabbiato con la tua macchina?\t\t0\t\tN/A\n             6.  Come sei ri"
                    }
                ],
                "id": "12"
            },
            {
                "input": "Mi sono trovata con l'acqua alla gola. Ho pensato che non ce l'avrei fatta. Mercoled\u00ec in macchina penso a come organizzarmi. ",
                "output": [
                    {
                        "generated_text": "1. Che cosa significa \"acqua alla gola\"\n             2. Che cosa significa \"non ce l'avrei fatta\"\n             3. Cosa pensavi mercoled\u00ec in macchina\n             4. Come hai organizzato te stessa?\n\n\n        </div>\n    </div>\n</div>"
                    }
                ],
                "id": "13"
            },
            {
                "input": "Voglio chiamare una persona, ma poi non lo faccio perch\u00e9 ho paura di ricevere un rifiuto o non sapere cosa dire. ",
                "output": [
                    {
                        "generated_text": "1.\tQual \u00e8 la persona che vuoi chiamare?\n                2.\tIn che modo hai paura di ricevere un rifiuto?\n                3.\tCos\u2019hai paura di non sapere dire?\n                4.\tHai mai chiamato questa persona prima?\n                5.\tChe tipo di relazione hai con l'oggetto della tua telefonata?\n                6.\tQual \u00e8 il genere di conversazione che vorresti avere con questa persona?\n                7.\tPer quanto tempo hai questa preoccupazione"
                    }
                ],
                "id": "14"
            },
            {
                "input": "Ciao! Che fastidio i colleghi che vogliono metterti ansia. Ho immaginato una bambina petulante per il suo tentativo di ledere la mia tranquillit\u00e0. ",
                "output": [
                    {
                        "generated_text": "\n                \"\"\"\n        )\n\n        output = check_questions(text, context, question_list)\n\n        self.assertEqual(\n            output,\n            [\n                False,\n                True,\n                False,\n                True,\n                True,\n                True,\n                False,\n                True,\n                False,\n                True,\n                False,\n                True,\n                True,\n                True,\n                True,\n                True,\n                True,\n                True,\n                True,\n                True,\n                True,\n                True,\n                True,\n"
                    }
                ],
                "id": "15"
            },
            {
                "input": "Il venerd\u00ec sera \u00e8 sempre angosciante, perch\u00e9 stanca, faccio il conto delle cose fatte e da fare, e quelle da fare mi sembrano insormontabili. ",
                "output": [
                    {
                        "generated_text": "*/"
                    }
                ],
                "id": "55"
            },
            {
                "input": "Oggi sono molto pi\u00f9 tranquilla . . . fine settimana gratificante in famiglia. Era il mio compleanno e finalmente avevo tutta la mia famiglia riunita. ",
                "output": [
                    {
                        "generated_text": "1. Che cosa vuoi dire con 'tranquilla'?\n             2. Che tipo di attivit\u00e0 hai fatto con la tua famiglia?\n             3. Che cosa hai fatto iniziare il tuo compleanno?\n             4. Qual \u00e8 l'et\u00e0 che hai celebrato il tuo compleanno quest'anno?\n     '''\n\n        narrative = 'Oggi \u00e8 stata una bella giornata. Mia moglie mi ha detto che sta aspettando un bambino! Sono super fel"
                    }
                ],
                "id": "16"
            },
            {
                "input": "Dopo oltre 7 mesi stasera ho potuto rivedere la zia di 94 anni. Ho pensato al mio primo bambolotto che mi ha regalato proprio lei. ",
                "output": [
                    {
                        "generated_text": "\n            \";\n\n            var expectedOutput = new List<string>\n            {\n                \"Ti spieghi di che si tratta nella tua conversazione?\",\n                \"Chi \u00e8 la zia che hai rivisto stasera?\",\n                \"Cosa hai pensato al ricordare il bambolotto che ti ha regalato?\",\n                \"Come \u00e8 stata la tua esperienza di conversazione con la tua zia?\",\n                \"Che tipo di relazione hai col tuo primo bambolotto?\",\n                \"Hai parlato di"
                    }
                ],
                "id": "17"
            },
            {
                "input": "Mi \u00e8 dispiaciuto stamattina non aver avuto pazienza con mio padre. Mi sono resa conto che \u00e8 davvero difficile, ma ripensandoci dopo, magari invece avrei potuto riuscirci. ",
                "output": [
                    {
                        "generated_text": "________________\n\n                Feedback:\n                Bene, ti auguro fortuna con i tuoi genitori!';\n                'Oh, capisco che \u00e8 difficile. Come ti senti dopo aver riflettuto su di esso?';\n                'S\u00ec, capisco, \u00e8 stato difficile per te. Che altro potresti fare per essere paziente con tuo padre?';\n                'Che bello! Che cos'hai fatto per risolvere il conflitto? ';\n                'S\u00ec, capisco che \u00e8 stato difficile per te."
                    }
                ],
                "id": "18"
            },
            {
                "input": "Perch\u00e9 alcuni colleghi amano criticare tutto e tutti? A lavoro stamattina ho immaginato una bambina sciocca. Provo antipatia verso quella collega. Non ho fatto nulla. Mi sono solo allontanata. ",
                "output": [
                    {
                        "generated_text": "1\tCosa ti ha spinto a immaginare una bambina sciocca verso la collega?\t_\n             2\tCome provi antipatia verso la collega?\t_\n             3\tChe collega si tratta di?\t_\n             4\tHai detto che \"Non ho fatto nulla\". Che altro potresti fare ogni volta che la collega ti critica?(_'in maniera negativa'? _)\n             5\tPerch\u00e9 ti piacerebbe lavorare in un'atmosfera pi\u00f9 posit"
                    }
                ],
                "id": "19"
            },
            {
                "input": "Ritornata dal lavoro mia figlia mi dice di aver chiamato il medico perch\u00e9 ha dei dolori alla testa non ha il senso dell'olfatto e del gusto per cui ci siamo un po' allarmati. ",
                "output": [
                    {
                        "generated_text": "\n            ')\n        else:\n            print(\"Riprova!\")"
                    }
                ],
                "id": "20"
            },
            {
                "input": "Ciao, un altro attacco di panico, adesso sto meglio. Stavo in macchina in autostrada, pensavo sempre a mio figlio che doveva uscire nel pomeriggio, questo \u00e8 il motivo che mi ha scatenato l' ansia. ",
                "output": [
                    {
                        "generated_text": "\n        ```"
                    }
                ],
                "id": "21"
            },
            {
                "input": "A casa mia, seduta sul divano, ho provato uno degli esercizi. Mi piace. Penso che sia importante farlo tutti i giorni per avvertirne i benefici. Ho immaginato miei polmoni che si riempivano d' aria. ",
                "output": [
                    {
                        "generated_text": "1 \tS\u00ec, capisco. Hai provato un singolo esercizio o l'hai gi\u00e0 fatto altri giorni?\t\n                2 \tQual \u00e8 l'esercizio che hai provato?\t\n                3 \tOh, che bello! Come ti senti dopo aver fatto quest'esercizio?\t\n                4 \tS\u00ec, capisco. Per quanti giorni ti impegni a fare questo esercizio?\t\n                5 \tOh, capisco. Come hai imparato"
                    }
                ],
                "id": "22"
            },
            {
                "input": "Stamattina sono andato al lavoro e ho dimenticato a casa il mio computer. Ero appena arrivato in ufficio, avevo bisogno del computer per cominciare a lavorare e me ne sono reso conto in quel momento. ",
                "output": [
                    {
                        "generated_text": "1  Che ore eri questa mattina?\n             2  Che cosa pensavi di fare senza il computer?\n             3  Perch\u00e9 hai dimenticato il computer a casa?\n             4  Hai cercato di chiedere al tuo collaboratore di prestarti il suo?\n             5  Che cosa hai fatto dopo aver reso conto che non avevi il computer?\n             6  Come hai detto alla tua supervisora del tuo problema?\n             7  Hai detto alla tua collega che avevi d"
                    }
                ],
                "id": "23"
            },
            {
                "input": "Sto provando ad addormentarmi, ma pensiero di domattina mi mette a disagio. Ripenso alla routine che mi aspetta domattina e non ne sono molto entusiasta. Ho immaginato un panorama boschivo ed un ruscello. Cercando di rilassarmi pi\u00f9 possibile. ",
                "output": [
                    {
                        "generated_text": "\n            '''    questione = input(\"Domanda: \")\n            narrativa = 'Sto provando ad addormentarmi, ma pensiero di domattina mi mette a disagio. Ripenso alla routine che mi aspetta domattina e non ne sono molto entusiasta. Ho immaginato un panorama boschivo ed un ruscello. Cercando di rilassarmi pi\u00f9 possibile.'\n            # TODO: Implementare la consegna di suggerimenti personalizzati per l'utilizzo del servizio."
                    }
                ],
                "id": "24"
            },
            {
                "input": "Stamattina uno dei figli ha fatto un piccolo incidente, bucando una gomma. Ero a casa. Questa notizia mi ha creato agitazione, per organizzare la risoluzione del problema, senza ritardare l'arrivo in ufficio, in cui era programmato un incontro importante. ",
                "output": [
                    {
                        "generated_text": "*/"
                    }
                ],
                "id": "25"
            },
            {
                "input": "Domenica nel mio giardino, occupandomi dei miei fiori ho sentito una sensazione piacevole data dal profumo delle viole e dal sole che leggero accarezzava la pelle. Sarebbe bello poter avere un profumo simile a quello delle viole o dell' iris. ",
                "output": [
                    {
                        "generated_text": "1 \tS\u00ec, capisco. Hai detto che stavi occupando te stesso dei tuoi fiori, qual \u00e8 il tuo giardino preferito e perch\u00e9?\tCORRETTO\tInizia con un feedback, fa una domanda sintetica e puntuale\n             2 \tChe tipo di profumi preferisci? Visto che parli di profumi, vorrei conoscere la tua opinione sul profumo delle viole, ti piace?'\tERRATO\t\u00c8 una questione personale, evita"
                    }
                ],
                "id": "27"
            },
            {
                "input": "Oggi mi sono dedicata al giardino e all'orto. Sono stanchissima fisicamente ma rilassata mentalmente. Fuori in giardino ho fatto tutte le cose che prima faceva mio marito. Ho sentito quasi fisicamente la sua presenza e la cosa mi ha rilassato. ",
                "output": [
                    {
                        "generated_text": "*/"
                    }
                ],
                "id": "28"
            },
            {
                "input": "Questo fatto dell'interruzione della relazione di mia figlia con il suo ragazzo mi sta davvero creando ansia. Continuo a pensare a quello che era e a quello che sar\u00e0. Non posso parlarne perch\u00e9 mi viene un groppo alla gola e da piangere. ",
                "output": [
                    {
                        "generated_text": "* * *\n\n        def test_narrativa_1():\n            narrativa = \"Questo fatto dell'interruzione della relazione di mia figlia con il suo ragazzo mi sta davvero creando ansia. Continuo a pensare a quello che era e a quello che sar\u00e0. Non posso parlarne perch\u00e9 mi viene un groppo alla gola e da piangere.\"\n            obiettivo = \"Ottenere maggiori informazioni sulla relazione tra la figlia e il suo ragazzo.\"\n            "
                    }
                ],
                "id": "29"
            },
            {
                "input": "C'\u00e8 un po' di confusione in testa. Lo Smart working aiuta a sentire meno pesante il lavoro che non sopporto pi\u00f9. Ma quando come oggi e domani occorre andare in ufficio \u00e8 molto faticoso. Non mi piace pi\u00f9, non sopporto pi\u00f9 nessuno. ",
                "output": [
                    {
                        "generated_text": "\t*/"
                    }
                ],
                "id": "48"
            },
            {
                "input": "Stamattina mia mamma mi ha mandato un messaggio perch\u00e9 era preoccupata per il mio pap\u00e0. Andava da solo a farsi esami del sangue e aveva paura che potesse avere un incidente con la macchina perch\u00e9 ultimamente guida poco e non \u00e8 pi\u00f9 abituato. ",
                "output": [
                    {
                        "generated_text": "*/"
                    }
                ],
                "id": "30"
            },
            {
                "input": "Lavoro, nessun contrasto personale, ma la routine ammazza! ! ! \u00c8 una noia mortale dover rifare sempre le stesse cose soprattutto se il supporto della tecnologia viene meno . . . Ieri internet non andava e il lavoro di un' ora \u00e8 andato perso. ",
                "output": [
                    {
                        "generated_text": "*/"
                    }
                ],
                "id": "26"
            },
            {
                "input": "Discusso con la nipote di mio marito a causa del suo comportamento di poco rispetto in merito al lavoro. Ero al negozio. \u00c8 accaduto circa una settimana fa. La volevo mandare via subito. Ho girato le spalle e me ne sono andata. Non le ho rivolto la parola per tutta la giornata. ",
                "output": [
                    {
                        "generated_text": "1  'Senti, hai detto che hai discusso con la nipote di tuo marito. Cosa aveva fatto per provocare la tua reazione?'   (Espressione di segno +)\n             2  'Ha detto qualcosa che ti ha ferito?'    (Esplicativa)\n             3  'Perch\u00e9 hai girato le spalle e te ne sei andata?'   (Espressione di segno -)\n             4  'Cosa pensavi che sarebbe accaduto se l'av"
                    }
                ],
                "id": "31"
            },
            {
                "input": "Oggi giornata abbastanza tranquilla, mi sono presa un pomeriggio di libert\u00e0 perch\u00e9 non essendo ci pi\u00f9 i limiti per andare da un comune in un altro, sono andata in un comune limitrofo. Sono andata in libreria, il luogo per me ideale e di pace, ho mangiato un gelato, ho visto due vetrine, insomma rilassante. ",
                "output": [
                    {
                        "generated_text": "1\tCosa hai fatto in libreria?\n                2\tChe genere di libri preferisci leggere?\n                3\tCome hai trascorso il tuo pomeriggio di libert\u00e0?\n                4\tQual \u00e8 il tuo libro preferito finora?\n\n             1\tCosa hai fatto in libreria?\n             \tCORRETTO\n             \t\n             2\tChe genere di libri preferisci leggere?\n             \tCORRETTO\n             \t\n             3\tCome hai tr"
                    }
                ],
                "id": "34"
            },
            {
                "input": "Ieri sera ho distrutto il cellulare. Ieri sera verso mezzanotte mi \u00e8 caduto per terra e si \u00e8 distrutto il vetro. Inutilizzabile . . Non \u00e8 possibile. Non ci credo. Mi sembrava veramente impossibile che fosse successo. Non ho realizzato subito l'impatto che avrebbe avuto. Mi sono messa subito a cercare di rimediare il rimediabile. ",
                "output": [
                    {
                        "generated_text": "1      Cosa ti ha fatto capire che non ci sarebbe stato niente che potesse essere fatto?\n             2      Come hai reato che \u00e8 distrutto?\n             3      Cosa ti ha fatto pensare che fosse veramente impossibile?\n             4      Che specie di cellulare era?\n             5      Cosa avevi previsto di fare con il cellulare?'\n\n                \"\"\"\n\n    if scenario == \"Telefono\":\n        domanda = input(\"Qual \u00e8 la domanda che vuoi fare?\\n\")\n        if"
                    }
                ],
                "id": "32"
            },
            {
                "input": "Oggi a lavoro mi hanno fatto capire che probabilmente il nuovo responsabile (che non sar\u00f2 io) sar\u00e0 una persona che non \u00e8 portata per questo lavoro. Ho pensato che per quel che mi riguardava io avrei fatto d\u2018ora in avanti il mio e non pi\u00f9 di quanto richiesto dal mio ruolo. Mi veniva da piangere. ",
                "output": [
                    {
                        "generated_text": "__________\n        1.  Possiamo parlare di quello che ti \u00e8 successo oggi a lavoro, vero?\n        2.  Cosa significa questa situazione per te, a tuo avviso?\n        3.  Qual \u00e8 la tua reazione alla prospettiva di avere un nuovo responsabile?\n        4.  In che modo ritieni che questo cambiamento possa influire sulla tua vita professionale?\n        5.  In che modo ha reagito la tua equipe alla notizia"
                    }
                ],
                "id": "33"
            },
            {
                "input": "Oggi mattina intensa di pulizie e igienizzazione in taverna per permettere ai miei genitori di venire a pranzo. Niente in particolare. Come al solito ero in ritardo. Ho fatto le cose velocemente senza pensarci particolarmente su. Obiettivo il risultato. Devo fare le cose e le devo fare bene. Ne va della salute dei miei genitori. ",
                "output": [
                    {
                        "generated_text": "1.  \"S\u00ec, capisco. Hai fretta perch\u00e9 hai molte altre cose da fare?\"\n             2.  \"S\u00ec, capisco. Come si sentivano i tuoi genitori dopo la tua igienizzazione?\"\n             3.  \"S\u00ec, capisco. Com'era la tua taverna prima della pulizia?\"\n             4.  \"S\u00ec, capisco. Hai mai fatto la pulizia in taverna prima? \"\n             5.  \"S\u00ec, capisco. In"
                    }
                ],
                "id": "35"
            },
            {
                "input": "Sempre ieri sera a cena, alle 21 rientra l'altra mia figlia che non aspettavo. Mi aveva detto che dopo il corso all'universit\u00e0 sarebbe andata dal fidanzato. Io ho pensato che sarebbe rimasta a cena da lui essendo la sera da lui. La cena per lei non l'avevo preparata. Nel frigo c'era del prosciutto e ha mangiato quello. ",
                "output": [
                    {
                        "generated_text": "\t\t'S\u00ec, capisco. Hai due figlie e la cena era prevista per entrambe, ma avevi pensato che l'altra figlia sarebbe rimasta con il suo fidanzato. Invece, \u00e8 tornata a casa e ha mangiato del prosciutto che avevi messo per la cena. Ti \u00e8 successo spesso che le tue figlie rimangano a cena da un altro? '\n                \"\"\"\n\n    def test_task_6_1(self):\n        narrativa1 = \""
                    }
                ],
                "id": "36"
            },
            {
                "input": "Ho avuto una discussione con Martina, rispetto al metodo di insegnamento messo in atto dai professori per la didattica a distanza. Sinceramente io mi fido di come Martina fa fare alla nostra piccola Chiara, ma non trovo la stessa fiducia da parte sua. Farle notare la cosa, ci porta a discutere. Ma io approvo il confronto, evitando lo scontro. Specie davanti alle bimbe. ",
                "output": [
                    {
                        "generated_text": "')"
                    }
                ],
                "id": "39"
            },
            {
                "input": "Anche oggi ho lavorato da sola, in una giornata relativamente tranquilla, mi sento un po' cattiva ma, devo dire che sono stata molto bene. Durante il giorno, sono stata molto efficiente, e ho utilizzato il tempo. La condivisione \u00e8 molto utile nel lavoro ma faticosa anche se di trovano colleghe positive . . . S\u00ec nel breve periodo \u00e8 pi\u00f9 rilassante e forse pi\u00f9 soddisfacente. ",
                "output": [
                    {
                        "generated_text": "*/"
                    }
                ],
                "id": "37"
            },
            {
                "input": "Forte discussione familiare in cui non ho preso le parti di mio figlio ma l'ho difeso nei confronti del suo babbo . . . Non sono stata assertiva . . . Ho avuto una tipologia di comunicazione e sicuramente alterata ma sono stata contenta perch\u00e9 ho sentito di essere intervenuta prima che il babbo mortificasse inutilmente il figlio . . Questo non lo devo permettete. . ",
                "output": [
                    {
                        "generated_text": "1) Cosa ha detto la moglie di quel giorno?\n             2) A cosa hai risposto in modo non assertivo?\n             3) Cos'\u00e8 che non volevi permettere?\n             4) Che era la situazione prima che la discussione si trasformasse?\n             5) Che cosa ha fatto il babbo che tu pensi che mortificasse inutilmente il figlio?\n             6) In che modo hai sentito di essere intervenuta?\n        '''\n\n        narrative = 'Forte discussione familiare"
                    }
                ],
                "id": "38"
            },
            {
                "input": "Questi pochi giorni di ferie stanno passando nella maniera pi\u00f9 leggera possibile. Stiamo passando questi giorni in famiglia giocando alla play station oppure guardando serie televisive come se non ci fosse un domani. Facciamo pranzo e cena con i nonni che ci evitano, come famiglia, di avere anche la \"preoccupazione\" di cucinare. Ho pensato che domani ricomincer\u00f2 la solita routine, pensando che dopo tre giorni riport\u00f2 nuovamente. ",
                "output": [
                    {
                        "generated_text": "1  \"Che tipo di attivit\u00e0 giocate alla ps?\" \n                2  \"Che tipo di serie guardate?\" \n                3  \"Perch\u00e9 state facendo pranzo e cena con i vostri nonni?\" \n                4  \"Che cosa fate dopo che ricomincia la vostra routine?\" \n                5  \"Com'\u00e8 vivere queste ferie in famiglia?\" \n                6  \"Che cosa pensate di fare dopo le ferie?\" \n                7  \"Qual \u00e8 il vostro pensiero su quello che potreb"
                    }
                ],
                "id": "40"
            },
            {
                "input": "Oggi niente mal di testa. Un freddo cane! Sono stata molto in casa. Nulla di eclatante in questa grigia giornata invernale. Ieri ero in montagna. Sono stata proprio bene! Solo un po' di tensione nel viaggio di ritorno. C'era molta neve e la strada principale chiusa per frane. Forse sarebbe stato meglio rimanere a casa ma infondo era stata una bella giornata e ne era valsa la pena. ",
                "output": [
                    {
                        "generated_text": "1. Oh, capisco che \u00e8 stata una giornata grigia e invernale. Hai avuto mal di testa oggi?\n             2. Sembra che tu sia stata molto in casa stasera. Hai fatto qualcosa di particolare in casa stasera?\n             3. Hai fatto una breve descrizione del tuo viaggio di ritorno ieri. Cosa ti ha causato una piccola tensione durante quel viaggio?\n             4. Cosa ti ha reso felice durante la t"
                    }
                ],
                "id": "41"
            },
            {
                "input": "La preoccupazione per il benessere psicologico di mia figlia, quella che si \u00e8 lasciata dopo 10 anni con il fidanzato e che alterna momenti di sconforto, sensi di colpa a momenti di tristezza mi dispiace tanto e mi sento incapace di poterla confortare anche se parliamo tanto. Insomma giornate un po' grigie. Non so se il sonno disturbato e qualche episodio di insonnia siano causati da questa confusione. ",
                "output": [
                    {
                        "generated_text": "1   ')',\n        }\n\n    def test_text_is_valid_with_invalid_follow_up_question(self):\n        invalid_follow_up_question = 'Qual \u00e8 la tua data di nascita?'\n        output = self.skill_test.test_text_is_valid(self.test_text, self.follow_up_question,\n                                                     invalid_follow_up_question)\n        self.assertFalse(output)\n\n    def test_text_is_valid__invalid_because_of_too_many_questions"
                    }
                ],
                "id": "43"
            },
            {
                "input": "C'\u00e8 un po' di confusione in testa. Lo Smart working aiuta a sentire meno pesante il lavoro che non sopporto pi\u00f9. Ma quando come oggi e domani occorre andare in ufficio \u00e8 molto faticoso. Non mi piace pi\u00f9, non sopporto pi\u00f9 nessuno. Stamattina poi sono arrivata e ho trovato la mia postazione tutta in disordine perch\u00e9 utilizzata da un altro collega, cialtrone, uno che pensa solo a se'. ",
                "output": [
                    {
                        "generated_text": "\"\"\"\n                Capisco che sei confuso e che hai bisogno di un aiuto, ma cosa ti porta a provare fastidio specialmente per quel collega che ha messo la tua postazione in disordine?\"\n                \n                \n                \n                \"\"\"\n\n        conteggio_corrette_domande = checkIO(domanda, output_desiderato)\n        print(f'Numero di domande corrette: {conteggio_corrette_domande}/{len(output_desiderato)}')\n\n        return contegg"
                    }
                ],
                "id": "49"
            },
            {
                "input": "Non riesco a dormire, ho un pensiero fisso di un conto non corretto per un rimborso . . . Sicuramente \u00e8 risolvibile ma non vedo come, forse pensarci a freddo domani risolverebbe tutto. Lavorando da casa mi sembra di non essere pi\u00f9 all' altezza di mantenere i ritmi con quello che accade in ufficio. Non so cosa pensare, mi sembra di essere in affanno, sto provando con gli esercizi di relax. ",
                "output": [
                    {
                        "generated_text": "*  S\u00ec, capisco, sembra un momento difficile per te. *  (feedback)\n                * Che cosa ti fa pensare che sia un conto non corretto? *  (aprire informazioni sul conto non corretto)\n                * Hai gi\u00e0 cercato di pensarci a freddo? *  (aprire informazioni sulla possibilit\u00e0 di pensarci a freddo)\n                * Come ti senti lavorando da casa? *  (aprire informazioni sulla situazione lavorativa da casa"
                    }
                ],
                "id": "42"
            },
            {
                "input": "Il venerd\u00ec sera \u00e8 sempre angosciante, perch\u00e9 stanca, faccio il conto delle cose fatte e da fare, e quelle da fare mi sembrano insormontabili. Ieri sera tardi mi \u00e8 venuto in mente che forse non faccio in tempo da luned\u00ec a gioved\u00ec a concludere due pratiche a lavoro . . . ho avuto paura di aver sbagliato nei tempi a valutare le priorit\u00e0 e a dare tempo a qualche pratica rispetto ad altre. ",
                "output": [
                    {
                        "generated_text": "1. Che cosa rappresenta il venerd\u00ec sera per te?\n             2. Come ti senti il venerd\u00ec sera dopo aver fatto il punto di tutte le cose da fare?\n             3. Cosa significa avere paura di aver sbagliato nei tempi a valutare le priorit\u00e0 e a dare tempo a qualche pratica rispetto ad altre?\n             4. Come ti sei reso conto di dover potenzialmente riaffrontare due pratiche a lavoro?\n             5. Cosa ti ha"
                    }
                ],
                "id": "56"
            },
            {
                "input": "Ho provato senso di ansia, ero in autovettura la mattina mentre accompagnavo i ragazzi a scuola. Ero in ritardo e ho dovuto guidare 30 km velocemente mentre pioveva e l'autovettura segnalava mancanza di liquido ai freni. Avevo paura di sbandare, sbattere e mi ripetevo che il senso di ansia era ok perch\u00e9 era necessaria la mia massima attenzione alla guida. Come sfogo stringevo le unghie nel sedile, come a voler passare la corrente. ",
                "output": [
                    {
                        "generated_text": "1\tChe cosa ti \u00e8 successo poi?\tADATTO\tSegue tutte le linee guida\n             2\tCome hai gestito la situazione?\tADATTO\tSegue tutte le linea guida\n             3 \tChe cosa hai fatto quando hai visto che mancavano i liquidi ai freni?\tADATTO\tSegue tutte le linea guida\n             4\tChe cosa hai fatto per dimostrarti che la tua ansia era normale?\tADATTO\tSegue tutte"
                    }
                ],
                "id": "44"
            },
            {
                "input": "Stamattina mia mamma mi ha mandato un messaggio perch\u00e9 era preoccupata per il mio pap\u00e0. Andava da solo a farsi esami del sangue e aveva paura che potesse avere un incidente con la macchina perch\u00e9 ultimamente guida poco e non \u00e8 pi\u00f9 abituato. Ero a casa con i miei figli che si stavano preparando per andare a scuola. Ho pensato che lui sta invecchiando ed \u00e8 in difficolt\u00e0 ma anche che lei fa fatica ad accettarlo e gli trasmette ancora pi\u00f9 ansia oltre che ad accumulare lei altrettanta. ",
                "output": [
                    {
                        "generated_text": "1. Qual \u00e8 lo stato di salute del vostro pap\u00e0? \n             2. Che et\u00e0 avete voi e come state gestendo la situazione con la vostra mamma?\n             3. Cosa sarebbe successo se aveste avuto bisogno di supporto durante questa situazione?\n             4. Che cosa avete deciso di fare per migliorare la situazione di vostro padre?\n             5. Quali sono le vostre preoccupazioni in merito allo stato di salute del vostro pap\u00e0?\n\n"
                    }
                ],
                "id": "46"
            },
            {
                "input": "Stamattina sono andato al lavoro e ho dimenticato a casa il mio computer. Ero appena arrivato in ufficio, avevo bisogno del computer per cominciare a lavorare e me ne sono reso conto in quel momento. Mi sono preoccupato un attimo ma ho pensato subito a cosa potevo fare in ufficio anche senza computer. Ho pensato al fatto che sono spesso sbadato e tendo a dimenticare cose che devo fare. In particolare, questa era una cosa fondamentale per il mio lavoro. Mi sono sentito un po' seccato con me stesso. ",
                "output": [
                    {
                        "generated_text": "\n            </section>\n        <section class=\"answers\">\n                <button class=\"answer-button\" onclick=\"checkAnswer('q1',q1a)\"><label for=\"q1a\">1a</label></button>\n                <button class=\"answer-button\" onclick=\"checkAnswer('q1',q1b)\"><label for=\"q1b\">1b</label></button>\n                <button class=\"answer-button\" onclick=\"checkAnswer('q1',q1c)\"><label for=\"q1c\">1c</label></button>\n                <"
                    }
                ],
                "id": "45"
            },
            {
                "input": "C'\u00e8 un po' di confusione in testa. Lo Smart working aiuta a sentire meno pesante il lavoro che non sopporto pi\u00f9. Ma quando come oggi e domani occorre andare in ufficio \u00e8 molto faticoso. Non mi piace pi\u00f9, non sopporto pi\u00f9 nessuno. Stamattina poi sono arrivata e ho trovato la mia postazione tutta in disordine perch\u00e9 utilizzata da un altro collega, cialtrone, uno che pensa solo a se'. E se si aggiunge che proprio non mi interessa nulla del lavoro perch\u00e9 avrei mille altre cose da fare, mi \u00e8 davvero pesante trascorrere quel tempo in ufficio. ",
                "output": [
                    {
                        "generated_text": "\n            ';\n        $narrativa = str_replace('\\'', '', $narrativa);\n        $narrativa = str_replace(',', '. ', $narrativa);\n        $narrativa = explode('. ', $narrativa);\n        $frasi = array();\n        foreach ($narrativa as $frase) {\n            $frasi[] = ltrim($frase, '.');\n        }\n        $domanda = '';\n        $fine_frase = '';\n        foreach ($frsi as $frase) {\n            $"
                    }
                ],
                "id": "50"
            },
            {
                "input": "Ho sognato che avevo la forte sensazione di perdere tempo. Ero a casa di qualcuno, c'era altra gente, era sera, c'era stato forse un evento e ora aspettavo che Martina, un'insegnante di inglese del liceo dove insegno, mi riaccompagnasse a casa. Ma lei stava alla scrivania a correggere compiti dei ragazzi. Lo faceva con un sistema molto veloce e ho pensato che anch'io facevo cos\u00ec. Anch'io correggevo compiti, ma aspettavo solo lei, volevo andare a casa, uffa, stavo l\u00ec a perdere tempo. Non ricordo bene se ho poi detto che se sapevo avrei preso la mia auto . . . ",
                "output": [
                    {
                        "generated_text": "* 1. Che cosa significa perdere tempo per te?\n             * 2. Come la tua esperienza di sogno ti ha influenzato in merito al tempo perso?\n             * 3. In che tipo di ambiente sogni di essere a casa di qualcuno?\n             * 4. Come si chiama l'insegnante di inglese con la quale sogni di essere impegnata nell' correzione dei compiti?\n     '''\n\n    # creo l'intestazione con i titoli\n    tabellino1 ="
                    }
                ],
                "id": "47"
            },
            {
                "input": "Ritornata dal lavoro mia figlia mi dice di aver chiamato il medico perch\u00e9 ha dei dolori alla testa non ha il senso dell'olfatto e del gusto per cui ci siamo un po' allarmati. Poi ripensandoci bene ti rendi conto che \u00e8 bene un approfondimento e che tutto pu\u00f2 essere ridimensionato per\u00f2 l'impatto \u00e8 quello che ti fa saltare i nervi. Ho pensato a una serie di eventi concatenati, al fatto di non poter fare sempre muovermi liberamente, al fatto di avere familiari a casa e al fatto di non poter andare a trovare mia madre o dover dichiarare questa eventualit\u00e0. ",
                "output": [
                    {
                        "generated_text": "1. 'Che et\u00e0 ha la tua figlia?'\n                ERRATO\tNon \u00e8 sintetico e puntuale\n             2. 'In cosa consistono precisamente i suoi dolori alla testa?'\n                CORRETTO\t\u00c8 sintetico e puntuale\n             3. 'Come reazioni la tua famiglia alla notizia?'\n                ERRATO\t\u00c8 una opinione personale\n             4. 'Hai fatto delle indagini ulteriomente?'\n                CORRETTO\t\u00c8 sint"
                    }
                ],
                "id": "51"
            },
            {
                "input": "Questo fatto dell'interruzione della relazione di mia figlia con il suo ragazzo mi sta davvero creando ansia. Continuo a pensare a quello che era e a quello che sar\u00e0. Non posso parlarne perch\u00e9 mi viene un groppo alla gola e da piangere. Stanotte mi sono svegliata tre o quattro volte e avevo continui pensieri. Stasera prover\u00f2 le tecniche di rilassamento per vedere se riesco a dormire. Oggi al lavoro perch\u00e9 ho parlato con il ragazzo di mia figlia dicendogli che noi ci saremo sempre per lui, lui qui a Firenze \u00e8 solo. La sua famiglia \u00e8 in Cina. Poi stasera ho parlato al telefono con sua madre e abbiamo confrontato i nostri pensieri. ",
                "output": [
                    {
                        "generated_text": "1. Che cosa pensi di questo fatto dell'interruzione della relazione di tua figlia con il suo ragazzo?\n             2. Cosa pensi che potrebbe essere la causa di questa tua ansia?\n             3. Come hai fatto a risolvere questo problema parlando con la madre del ragazzo?\n             4. Quali sono i tuoi consigli a proposito di come gestire questa situazione?\n             5. Cosa ha detto il ragazzo quando hai detto che sarete sempre l\u00ec per lui?"
                    }
                ],
                "id": "52"
            },
            {
                "input": "Questi pochi giorni di ferie stanno passando nella maniera pi\u00f9 leggera possibile. Stiamo passando questi giorni in famiglia giocando alla play station oppure guardando serie televisive come se non ci fosse un domani. Facciamo pranzo e cena con i nonni che ci evitano, come famiglia, di avere anche la \"preoccupazione\" di cucinare. Ho pensato che domani ricomincer\u00f2 la solita routine, pensando che dopo tre giorni riport\u00f2 nuovamente. Devo ottimizzare il tempo ed il \"mood\" per ricaricare per bene le batterie. Sto cercando di essere il pi\u00f9 spensierato possibile, anche se oggi gi\u00e0 penso che domani si ricomincia a lavorare. Non sono ansioso di lavorare, ma qualche altro giorno di svago avrebbe giovato e non poco. ",
                "output": [
                    {
                        "generated_text": "\"\"\"Che cosa fate in ferie con la famiglia?\"\"\"\n\n        \"\"\"\n\n        query = \"Raccontami del tuo ferie\"\n        response = \"Beh, questi pochi giorni di ferie stanno passando nella maniera pi\u00f9 leggera possibile. Stiamo passando questi giorni in famiglia giocando alla play station oppure guardando serie televisive come se non ci fosse un domani. Facciamo pranzo e cena con i nonni che ci evitano, come famiglia, di a"
                    }
                ],
                "id": "53"
            },
            {
                "input": "Ciao, un altro attacco di panico, adesso sto meglio. Stavo in macchina in autostrada, pensavo sempre a mio figlio che doveva uscire nel pomeriggio, questo \u00e8 il motivo che mi ha scatenato l' ansia. Non avevo un immagine chiara, ma ragionando avevo capito che la mia ansia era dovuta a mio figlio. Ho avuto una sensazione che mi saliva alla testa, sudavo freddo, non riuscivo ad avere un respiro regolare. Mi sono fermata ho chiamato mio marito dicendogli che mi stavo sentendo male e che stavo in autostrada. Ho aperto il finestrino ho incominciato a respirare profondamente, non potevo scendere. Avevo paura a spostarmi da l\u00ec. Poi dopo 5 minuti \u00e8 passato l' attacco forte, ho messo in moto e sono arrivata a destinazione. ",
                "output": [
                    {
                        "generated_text": "1)'Cosa ti \u00e8 venuto in mente pensando a tuo figlio?'\n             2)'Come hai fatto a superare l' attacco di ansia?'\n             3) 'Hai avuto altri attacchi di ansia?'\n             4)'Come ti chiami?'\n             5)'Hai detto che il tuo figlio dovette uscire nel pomeriggio, significa che non era a casa?'\n\n                */\n\n                // SOLUZIONE CORRETTA\n                var domandeCorrette = [\n"
                    }
                ],
                "id": "54"
            },
            {
                "input": "Il venerd\u00ec sera \u00e8 sempre angosciante, perch\u00e9 stanca, faccio il conto delle cose fatte e da fare, e quelle da fare mi sembrano insormontabili. Ieri sera tardi mi \u00e8 venuto in mente che forse non faccio in tempo da luned\u00ec a gioved\u00ec a concludere due pratiche a lavoro . . . ho avuto paura di aver sbagliato nei tempi a valutare le priorit\u00e0 e a dare tempo a qualche pratica rispetto ad altre . . . Sono stata molto in ansia e perdo il sonno. Adesso sono stordita perch\u00e9 sono andata a letto tardi, ma sono un po' pi\u00f9 serena perch\u00e9 senza distrazioni luned\u00ec dovrei farcela a terminare quello che devo fare, ma il pensiero del sabato e domenica mi mette angoscia. Ho pensato che anche se ne ho la possibilit\u00e0 assolutamente non devo lavorare da casa per avvantaggiarmi ma luned\u00ec dovr\u00f2 concentrarmi al massimo e non lasciarmi coinvolgere da altro. ",
                "output": [
                    {
                        "generated_text": "1 \"Capisco che sei stanca dopo il venerd\u00ec sera, come ti senti in generale con il tuo lavoro?\"\n                 \n                \"\"\"\n        response = requests.post(\n            url=dialogflow_cx_agent_endpoint,\n            headers=headers,\n            json={\n                \"queryInput\": {\n                    \"text\": question,\n                    \"languageCode\": \"it-IT\",\n                },\n                \"parameters\": {},\n            },\n        )\n        result = response.json()\n        fulfillment_text = result.get(\"result\")."
                    }
                ],
                "id": "57"
            }
        ]
    }
]