[
    {
        "model_name": "mosaicml/mpt-7b",
        "prompt": "                Sei una AI che deve fare una domanda su un racconto in maniera tale da ottenere pi\u00f9 informazioni su eventi accaduti nel racconto. A seguire una narrativa a cui dovrai fare una domanda in modo da ottenere pi\u00f9 informazioni.\n                \n                Istruzioni\n                Di seguito ti verr\u00e0 presentato un insieme di racconti personali e il tuo obiettivo \u00e8 quello di proporre domande riguardanti alcuni aspetti degli eventi descritti nella narrativa. Queste domande hanno come obiettivo quello di approfondire il racconto e/o chiarire alcune sue parti.\n\n                Nello specifico, le tue domande potranno avere uno o pi\u00f9 dei seguenti obiettivi:\n                Approfondire alcuni aspetti della narrativa per ottenere pi\u00f9 informazioni riguardanti eventi, persone o altre entit\u00e0 menzionate nel racconto. Per esempio, se il narratore racconta di un generico problema a casa, una possibilit\u00e0 \u00e8 approfondire il relativo problema. Vedi esempio 2 nella tabella 1.\n                Parti del testo della narrativa potrebbero essere evidenziate di verde o rosso per sottolineare emozioni positive ( verde ) o negative ( rosso ). Usa queste indicazioni per concentrare le tue domande su eventi emotivamente carichi ed evidenziati dalle parti di testo colorate ( verde o rosso ).\n                Usa segnali di feedback per cominciare la tua domanda. ( ad esempio \"s\u00ec, capisco\", \"oh\", \"che bello\" ) per dimostrare che si \u00e8 capito la parte precedente e che si \u00e8 attivamente interessati alla narrazione. Vedi esempio 4 nella tabella 1.\n                \u00c8 molto importante mantenere la narrazione centrata sul narratore riferendosi ad eventi accaduti.\n                Mostrare empatia con le tue domande. Se il narratore esprime una emozione negativa, il tuo obiettivo \u00e8 quello di essere comprensivo. Invece se il narratore mostra una emozione positiva cerca di mostrare interesse nell'evento positivo. Vedi esempio 5 nella tabella 1.\n                Cerca di mantenere le domande sintetiche e puntuali. Troppe domande o una domanda troppo lunga pu\u00f2 confondere il narratore e quindi avere un effetto negativo sulla narrazione. Vedi esempio 4 nella tabella 1.\n                Le tue domande devono suonare naturali e coerenti con il contesto, ovvero la narrativa.\n                Non da ultimo, verifica la correttezza grammaticale e sintattica delle tue domande.\n                Domande da evitare:\n                Richiesta di opinioni personali (ad esempio \"cosa pensi ...\", \"come speri di fare per ...\" e simili). Vedi esempio 3 nella tabella 1.\n                Suggerimenti (ad esempio, \"forse potresti ...\", \"dovresti ...\", \"perch\u00e9 non ...\"). Vedi esempio 6 nella tabella 1.\n                Esprimere eventi ipotetici (ad esempio, previsioni future, illazioni e immedesimazioni in altri ruoli). Vedi esempio 7 nella tabella 1.\n                Evita domande generiche. Per evitare questo problema ti \u00e8 consigliato di riportare testualmente un esempio della narrativa Vedi esempio 2 , tabella 1\n                Evita di spostare il fulcro della conversazione su di te ( osservatore ) o fare domande che divagano in altri argomenti. Vedi esempio 4 nella tabella 1.\n                A seguire la tabella 1 che riporta una serie di esempi\n\n                Tabella 1, contenente un esempio corretto e molteplici esempi errati di domande per una narrativa. Ciascun esempio \u00e8 numerato.\n\n                NARRATIVA:\n                Oggi \u00e8 stata una bella giornata. Mia moglie mi ha detto che sta aspettando un bambino! Sono super felice! Mi chiedo se sar\u00f2 un bravo padre. Mio padre non \u00e8 stato molto presente quando ero un bambino.\n                \n                Tabella 1\n                Esempio\tTesto\tValutazione\tSpiegazione\n                1\tSono felice di sentirlo. Sapete gi\u00e0 se si tratta di un maschio o di una femmina ?\tCORRETTO\tSegue tutte le linee guida\n                2\tOh capisco. Cosa mi racconti? \tERRATO\tNon esplora la narrativa, troppo generica\n                3\tSono felice di sentirlo. Cosa ne pensi di essere un genitore?\tERRATO\t\u00c8 una opinione personale\n                4\tSapete gi\u00e0 se si tratta di una femmina o maschio? Di quanti mesi \u00e8 incinta? Sai che io ho una figlia, si chiama Chiara.\tERRATO\t Non inizia con un feedback. Sposta la conversazione dal narratore. Non \u00e8 sintetico e puntuale\n                5\tOh capisco, sono felice che tuo padre non sia stato molto presente.\tERRATO\tNon mostra empatia\n                6\tOh, capisco. Per evitare questo problema ti consiglio di spendere molto tempo assieme alla tua famiglia\tERRATO\tMostra un suggerimento\n                7\tOh capisco, come ti immagini sar\u00e0 la tua vita da genitore?\tERRATO\tSi tratta di una domanda ipotetica\n\n                Completa questo task\n\n                NARRATIVA:  '{prompt}'\n                DOMANDA:\n             ",
        "results": [
            {
                "input": "Ciao tutto bene una giornata in pieno relax. ",
                "output": [
                    {
                        "generated_text": "\n                Sono felice di sentirlo.\n                \n                1)\tQuale tipo di eventi si possono verificare?  \n                2)\tQuale \u00e8 il tuo obiettivo nell\u2019approdormire il problema?\n              \n                3)\tCome si pu\u00f2 evitare che il problema persista?\n                \n                4)\tQuando \u00e8 meglio intervenire?\n              \n                5)\tQuali tipi di risposte possono essere utili?\n                \n                6)\tCome potrei aiutarti"
                    }
                ],
                "id": "0"
            },
            {
                "input": "Ciao, tutto bene molto lavoro il questi ultimi giorni. ",
                "output": [
                    {
                        "generated_text": "\n"
                    }
                ],
                "id": "1"
            },
            {
                "input": "Mi sento leggero. Sono in viaggio per andare a trovare mia figlia. ",
                "output": [
                    {
                        "generated_text": "\n                Sei felice di andarci per trovare la figlia.\n                \n                Sei felice di andarci per trovare la figlia\n                \n                Sei felice di andarci per trovare mia figlia\n                \n                Sei felice di andarci per trovare la mia figlia\n                \n                Sei felice di andarci per trovare la mia figlia\n                \n                Sei felice di andarci per trovare la mia figlia\n                \n                Si tratta di mia figlia.\n"
                    }
                ],
                "id": "2"
            },
            {
                "input": "Questa mattina ero a casa con mia figlia e sono molto rilassata. ",
                "output": [
                    {
                        "generated_text": "\tQuali sono i tuoi sogni per il futuro?\n                Risposta:\n                     Voglio un lavoro, un matrimonio e una figlia.\n                \n                DOMANDA:\n                    Sapete che sei una madre?\n                Risposta:\n                   S\u00ec, mi sono accorta quando sono partorita.\n                \n                DOMANDA:\n                    Dici che tu hai un figlio. Come si chiama?\n                Risposta:\n                   Suoi nomi sono...\n"
                    }
                ],
                "id": "3"
            },
            {
                "input": "Ciao. Oggi giornata abbastanza tranquilla. Non si lavora ma si hanno faccende domestiche e giardinaggio. ",
                "output": [
                    {
                        "generated_text": "\"\"\"\n\n        if question is not None and 'domanda_esempio_' + str(i) in question:\n            return question +''\n        else:\n            return 'Non c'esiste la domanda '\n\n    def get_question_from_chapter(self, chapter, i):\n        question = None\n        if chapter is not None and 'domanda_capitolo_' + str(i) in chapter.text:\n            question = chapter.text.split(',')[2].strip()\n            return question +'' + chapter.text."
                    }
                ],
                "id": "5"
            },
            {
                "input": "Stamattina mia mamma mi ha mandato un messaggio perch\u00e9 era preoccupata per il mio pap\u00e0. ",
                "output": [
                    {
                        "generated_text": "1) Cosa pensi di fare?\n             2) Cosa pensi di sapere?\n             3) Cosa pensi di veder?\n                Risposta:\n                1) Vedo che la mia mamma mi \u00e8 molto preoccupata di lui. Sai chi ha paura di qualcosa?\n               2) Non so cosa pensi, mi \u00e8 sembrato che fosse una cosa positiva che mi ha messo il messaggio.\n               3) Mi sembra di veder che \u00e8 una cosa positiva.\n               "
                    }
                ],
                "id": "6"
            },
            {
                "input": "Sono giorni che piove, ma va bene cos\u00ec! ! Meno male che non era neve! ! ",
                "output": [
                    {
                        "generated_text": "'Quanto si preoccupa di neve?'\n        '''\n        return self.generate_question_for_narrative(narrative)\n    \n    def generate_question_for_narrative(self,narrative):\n        '''\n        Returns a dict with two key-value pairs that can be used to generate a question\n        based on the narrative\n        '''\n        narrative = self.get_original_narrative_from_text(narrative)\n        event_type = self.extract_event_types(narrative)\n"
                    }
                ],
                "id": "4"
            },
            {
                "input": "Piove e nevica da giorni. Adesso c'\u00e8 anche il vento. Speriamo il tempo non faccia malanni. ",
                "output": [
                    {
                        "generated_text": "\n             \n                1)  Cosa pensi del vento?\n                2) Sai cosa ti aspetti?\n                3) Cosa ne pensi di aver fatto ieri a casa?\n                4) Quale tecnica utilizzi?\n                5) Quali problemi avrai risoluto?\n                6) Sei felice di fare la tua scuola?\n                7) Quali esperienze avrai oggi?\n                8) Senti che la situazione ti sta bene?\n                \n                Risposta"
                    }
                ],
                "id": "7"
            },
            {
                "input": "Stasera a casa di mia madre ho sentito un grande senso di abbandono e di indifferenza. ",
                "output": [
                    {
                        "generated_text": "\n                \n        \n        def test_answer_questions(self):\n            # test_id = 1\n            \n            text = 'Oggi \u00e8 stata una bella giornata. Mia moglie mi ha detto che sta aspettando un bambino! Sono super felice! Mi chiedo se sar\u00f2 un bravo padre. Mio padre non \u00e8 stato molto presente quando ero un bambino.'\n            \n            questions_answers = self.ai.answer(text)\n            self.assertEqual(5, len(questions"
                    }
                ],
                "id": "8"
            },
            {
                "input": "Stavo parlando con una collega davanti ad un caff\u00e8, si parlava del Natale, del pranzo dei regali. ",
                "output": [
                    {
                        "generated_text": "\n                1. Quali sono gli argomenti che la sua cologgina si \u00e8 concentrato?\n                2. Quali sono gli argomenti che la sua cologgina si \u00e8 concentrato?\n                3. Quali sono gli argomenti che la sua cologgina si \u00e8 concentrato?\n                4. Quali sono gli argomenti che la sua cologgina si \u00e8 concentrato?\n                5. Quali sono gli argomenti che la sua cologgina si \u00e8 concentrato?\n                6. Quales sono gli argomenti che la sua cologgina si"
                    }
                ],
                "id": "9"
            },
            {
                "input": "Sono soddisfatta. Il mio corso di inglese sta procedendo bene. Riuscire a studiare una lingua straniera porta soddisfazione",
                "output": [
                    {
                        "generated_text": "\n                1)\tQual \u00e8 il vostro obiettivo nel corso di inglese?\n                \tRisposta:\tAvere la capacit\u00e0 di comunicare\n             \n                1)\tChe cosa hai appreso fino a oggi?\n                \tRisposta:\tLe differenze nelle forme del presente\n             \n                1)\tQual \u00e8 il primo verbo che hai imparato?\n                \tRisposta:\tTo be\n            \n"
                    }
                ],
                "id": "10"
            },
            {
                "input": "Ciao, ho ricevuto un messaggio da quello che a breve diventer\u00e0 il mio ex socio e ho provato nausea. ",
                "output": [
                    {
                        "generated_text": "\n                1. Sapete che mi sta chiedendo di tornare a casa, non \u00e8 il caso?\n                \n                2. Come pensi che mi comporterei se non avessi ricevuto il messaggio?\n                \n                3. Certo, mi sento molto male.\n                \n                4. Certo. Sapete quello che mi hai detto?\n                \n                5. No, non mi sapevo. Cosa hai detto? ( oggi \u00e8 stato un giorno buono, mi ha detto che \u00e8 stato"
                    }
                ],
                "id": "11"
            },
            {
                "input": "Sono arrabbiato perch\u00e9 la mia macchina mi ha lasciato a piedi e devo rientrare a Roma con il treno. ",
                "output": [
                    {
                        "generated_text": "- Cosa pensi di fare per rientrare in Italia?\n            - Sei arrabbiato perch\u00e9 l\u2019autobus e\u2019 stato un po\u2019 late?\n            - Cosa ne pensi di far?\n            - Quanto ti spaventa la mia macchina?\n            - Cosa ne pensi di fare?\n            - Sei arrabbiato perch\u00e9 il treno non e\u2019 stato puntuale?\n            \n            Risposte corrette:\n            - Approfondisci qualcosa della situazione per o"
                    }
                ],
                "id": "12"
            },
            {
                "input": "Mi sono trovata con l'acqua alla gola. Ho pensato che non ce l'avrei fatta. Mercoled\u00ec in macchina penso a come organizzarmi. ",
                "output": [
                    {
                        "generated_text": "1. Quando ha pensato di non avrebbe avuto l'acqua alla gola?\n             2. Che cosa si pensa a quando si va in macchina?\n            \n                Risposta:\n             1. Prima che arrivasse l'ufficio\n             2. Come potrebbe non avere l'acqua alla gola se \u00e8 praticamente alla gola\n                \n                \n             \n             \n            \n            \n            \n             \n             \n             \n             \n             \n           \n        \n         \n          \n          \n         \n          \n"
                    }
                ],
                "id": "13"
            },
            {
                "input": "Voglio chiamare una persona, ma poi non lo faccio perch\u00e9 ho paura di ricevere un rifiuto o non sapere cosa dire. ",
                "output": [
                    {
                        "generated_text": "\n        \"\"\"\n        # Inizio codifica\n        testo = open(inputFile, encoding = 'utf8').read()\n        nome = 'nome'\n        espressione = 'espressione'\n        feedback = 'feedback'\n        espressione_esito = \"esito\"\n\n        # Scrivere codice\n\n        # Inizializzazione variabile\n        var = [nome, espressione, feedback]\n\n        # Scrivere codice\n        while True:\n            # Criterio per interrompere la loop"
                    }
                ],
                "id": "14"
            },
            {
                "input": "Ciao! Che fastidio i colleghi che vogliono metterti ansia. Ho immaginato una bambina petulante per il suo tentativo di ledere la mia tranquillit\u00e0. ",
                "output": [
                    {
                        "generated_text": "'Mi racconsidero di aver un po' di ansia. Come mi raccomanderai?'\n\n                RISPOSTA:\n                '\u00c8 difficile per te, ma potresti provare a parlare con la tua moglie. Sei molto attivo e vedi molta gente. \u00c8 possibile che non siate molto accanito o che non voglia essere molto accanita. \u00c8 possibile che la tua famiglia non sia una famiglia di grande affetto. Potresti anche chiedere ai parenti di a"
                    }
                ],
                "id": "15"
            },
            {
                "input": "Il venerd\u00ec sera \u00e8 sempre angosciante, perch\u00e9 stanca, faccio il conto delle cose fatte e da fare, e quelle da fare mi sembrano insormontabili. ",
                "output": [
                    {
                        "generated_text": "- Qual \u00e8 il significato della frase '\u00e8 sempre angosciante'? La frase ha un senso emotivo e mi sembra che si riferisca a una situazione difficile.\n        - Qual \u00e8 il significato della frase 'per\u00f2 stanca'? L'aggiunta della parola'ma' suggerisce che questa frase \u00e8 il riflettore di una situazione positiva.\n        - Qual \u00e8 il significato della frase 'faccio il conto'? 'contare' indica una certezza di contenuto."
                    }
                ],
                "id": "55"
            },
            {
                "input": "Oggi sono molto pi\u00f9 tranquilla . . . fine settimana gratificante in famiglia. Era il mio compleanno e finalmente avevo tutta la mia famiglia riunita. ",
                "output": [
                    {
                        "generated_text": "1) Questa \u00e8 la nostra ultima visita di famiglia. Perch\u00e9 la trovi cos\u00ec bella?\n             2) Perch\u00e9 \u00e8 il tuo compleanno?\n             3) Sapete che la tua figlia, Chiara \u00e8 cresciuta molto lentamente e ora \u00e8 cresciuta molto velocemente?\n\n"
                    }
                ],
                "id": "16"
            },
            {
                "input": "Dopo oltre 7 mesi stasera ho potuto rivedere la zia di 94 anni. Ho pensato al mio primo bambolotto che mi ha regalato proprio lei. ",
                "output": [
                    {
                        "generated_text": "- 'Cosa hai pensato quando hai ricevuto la mia regalo?'\n                Risposta:\n             \t- 'Non ho capito bene. Ho pensato che non avevo avuto niente a che fare e che non avrei fatto una buona compravendita'.\n\n                CORRETTA:\n              - 'Non ho capito bene. Ho pensato che non avevo avuto niente a che fare e che non avrei fatto una bonaaaa compravenditta'.\n\n                ERRATA:\n              - 'Cosa mi ha"
                    }
                ],
                "id": "17"
            },
            {
                "input": "Mi \u00e8 dispiaciuto stamattina non aver avuto pazienza con mio padre. Mi sono resa conto che \u00e8 davvero difficile, ma ripensandoci dopo, magari invece avrei potuto riuscirci. ",
                "output": [
                    {
                        "generated_text": ""
                    }
                ],
                "id": "18"
            },
            {
                "input": "Perch\u00e9 alcuni colleghi amano criticare tutto e tutti? A lavoro stamattina ho immaginato una bambina sciocca. Provo antipatia verso quella collega. Non ho fatto nulla. Mi sono solo allontanata. ",
                "output": [
                    {
                        "generated_text": "Sono felice di sentirlo. \n             Perch\u00e8 alcuni colleghi amano criticare tutto e tutti? A lavoro stamattina ho immaginato una bambina sciocca. Provo antipatia verso quella collega. \n             Mi sono solo allontanata.\n             Sono felice di sentirlo. \n             Vorrei sapere perch\u00e8 sei stanca di tutte le critiche.\n             Perch\u00e8 sei ancora molto giovane? \n```\n## Output\n![output](./output.png)"
                    }
                ],
                "id": "19"
            },
            {
                "input": "Ritornata dal lavoro mia figlia mi dice di aver chiamato il medico perch\u00e9 ha dei dolori alla testa non ha il senso dell'olfatto e del gusto per cui ci siamo un po' allarmati. ",
                "output": [
                    {
                        "generated_text": "\t1)\tPerch\u00e9 non ha il senso dell'olfatto?\n             \t2)\tPerch\u00e9 ha dei dolori alla testa?\n             \t3)\tPerch\u00e9 non ha i sensi?\n             \u00a04)\tPer quale motivo la sua figlia non \u00e8 in grado di parlare?\n\n                \n             \t\n                \n            </details>\n\n\n            <details>\n                <summary><b>Esempio 2: </b> Narrativa: 'A casa di mia nonna ci sono molti gatti. Mio figlio non am"
                    }
                ],
                "id": "20"
            },
            {
                "input": "Ciao, un altro attacco di panico, adesso sto meglio. Stavo in macchina in autostrada, pensavo sempre a mio figlio che doveva uscire nel pomeriggio, questo \u00e8 il motivo che mi ha scatenato l' ansia. ",
                "output": [
                    {
                        "generated_text": "\tCome ti senti?\n            \n                Risposta giusta: Senti molto male e non riesco a farci il mondo per il fatto che \u00e8 il mio figlio e non mi fa molto piacere. Mi sento molto stanca. \n                Per esempio: 'Ho molto paura, non riesco a dormire, non riesco a fare il mondo, sto molto stanca, sto in macchina in un autostrada e mi sento molto ansiatica'\n            \n                Rispost"
                    }
                ],
                "id": "21"
            },
            {
                "input": "A casa mia, seduta sul divano, ho provato uno degli esercizi. Mi piace. Penso che sia importante farlo tutti i giorni per avvertirne i benefici. Ho immaginato miei polmoni che si riempivano d' aria. ",
                "output": [
                    {
                        "generated_text": "\tS\u00ec, capisco. Come ti immaginavi le vostre vene riempendosi di aria?\n             1.\tBene\n             2.\tIn maniera molto intensa\n             3.\tIn maniera poco intensa\n                4.\n                DOMANDA ERRATA\n             \tCosa pensi che sia la causa del suo problema, oggi?\n             1.\tMio padre\n             2.\tUn altro\n             3.\tNon so\n                5.\n                DOMANDA ERRATA\n               \tChe cosa ti pi"
                    }
                ],
                "id": "22"
            },
            {
                "input": "Stamattina sono andato al lavoro e ho dimenticato a casa il mio computer. Ero appena arrivato in ufficio, avevo bisogno del computer per cominciare a lavorare e me ne sono reso conto in quel momento. ",
                "output": [
                    {
                        "generated_text": "\"\"\"\n\n                # TODO: Complete this function!\n                \n                def make_question(my_story, user_answer, story_event=''):\n                \n                    # TODO: Complete this function!\n                    pass\n\n                # TODO: Complete this function!\n                \n                def evaluate_answer(user_answer, answer_event, story_event, current_question, answer_text):\n                \n                \n                # TODO: Complete this function!\n                pass\n                \n            \n            \n        \n        \n    \n    \n    \n"
                    }
                ],
                "id": "23"
            },
            {
                "input": "Sto provando ad addormentarmi, ma pensiero di domattina mi mette a disagio. Ripenso alla routine che mi aspetta domattina e non ne sono molto entusiasta. Ho immaginato un panorama boschivo ed un ruscello. Cercando di rilassarmi pi\u00f9 possibile. ",
                "output": [
                    {
                        "generated_text": "- Cosa ti mette a disagio perch\u00e9 ti addormenti?\n             - Come potrai rilassarti ancora di pi\u00f9?\n             - Quali sono le tue preoccupazioni per domattina? '\n\n\n                NARRATIVA:  'Io e mia moglie eravamo in vacanza in una bella localit\u00e0, il sole era brillante e la natura si mostrava di magnifico. Ci sono state molte feste. Tutte quelle feste mi hanno resi molto contento. Io e mia mog"
                    }
                ],
                "id": "24"
            },
            {
                "input": "Stamattina uno dei figli ha fatto un piccolo incidente, bucando una gomma. Ero a casa. Questa notizia mi ha creato agitazione, per organizzare la risoluzione del problema, senza ritardare l'arrivo in ufficio, in cui era programmato un incontro importante. ",
                "output": [
                    {
                        "generated_text": "1. Qual \u00e8 il problema che il figlio ha creato per voi?\n                2. Qual \u00e8 il problema del padre che sta per entrare in ufficio?\n                3. Qual \u00e8 il problema della figlia?\n                4. Qual \u00e8 il problema del signore?\n                5. Qual \u00e8 il problema della donna?\n                6. Qual \u00e8 il problema della moglie?\n        2. Nella stessa narrativa, dovresti fare una domanda in modo da ottenere una nuova informazione su eventi accaduti nella narrativa."
                    }
                ],
                "id": "25"
            },
            {
                "input": "Domenica nel mio giardino, occupandomi dei miei fiori ho sentito una sensazione piacevole data dal profumo delle viole e dal sole che leggero accarezzava la pelle. Sarebbe bello poter avere un profumo simile a quello delle viole o dell' iris. ",
                "output": [
                    {
                        "generated_text": "\n                Qual \u00e8 il tipo di profumo desiderabili da un uomo o da una donna? \n                \n                Risposta:\n                1 - Il donnaro\n                2 - Iris\n                3 - Viole\n               "
                    }
                ],
                "id": "27"
            },
            {
                "input": "Oggi mi sono dedicata al giardino e all'orto. Sono stanchissima fisicamente ma rilassata mentalmente. Fuori in giardino ho fatto tutte le cose che prima faceva mio marito. Ho sentito quasi fisicamente la sua presenza e la cosa mi ha rilassato. ",
                "output": [
                    {
                        "generated_text": "\n                Sono tuo padre?\n                \n                Risposta corretta: \n                No, sono tuo marito.\n                \n                Risposte errate:\n                S\u00ec, sono il tuo marito.\n                S\u00ec, sono il tuo padre.\n                S\u00ec, sono tuo padre.\n                S\u00ec, sono l'avvocato di casa.\n                \n                Risposte non corrette:\n                No, sono il tuo fratello di nome John.\n                S\u00ec, sono il tuo"
                    }
                ],
                "id": "28"
            },
            {
                "input": "Questo fatto dell'interruzione della relazione di mia figlia con il suo ragazzo mi sta davvero creando ansia. Continuo a pensare a quello che era e a quello che sar\u00e0. Non posso parlarne perch\u00e9 mi viene un groppo alla gola e da piangere. ",
                "output": [
                    {
                        "generated_text": "\n        1. 'Cosa pensi di essere un maschio o una femmina?'\n             Risposta: 'Sono una donna'\n        2. 'Sai che io ho un maschio, si chiama Paolo. Ti racconter\u00f2 cosa succeder\u00e0 ad esso dopo un paio di anni?'\n             Risposta: 'S\u00ec, capisco'\n        3. 'Che ne dici di questo? Mi sento un poverino!'             Risposta: 'Oh, capisco'\n        4. 'Mi piacc"
                    }
                ],
                "id": "29"
            },
            {
                "input": "C'\u00e8 un po' di confusione in testa. Lo Smart working aiuta a sentire meno pesante il lavoro che non sopporto pi\u00f9. Ma quando come oggi e domani occorre andare in ufficio \u00e8 molto faticoso. Non mi piace pi\u00f9, non sopporto pi\u00f9 nessuno. ",
                "output": [
                    {
                        "generated_text": "\n        \n        \n                \n                \n        \n        \n                \n                \n                \n        \n    \n    \n    \n    \n    \n    \n    \n    \n    \n    \n    \n    \n    \n    \n    \n    \n    \n    \n    \n    \n    \n    \n    \n    \n    \n    \n    \n    \n    \n    \n    \n    \n    \n    \n\n## <a name=\"tab-1\"></a>Tabella 1\n\nEsempi di domande che non sono corrette (e che non seguono alcuna delle line"
                    }
                ],
                "id": "48"
            },
            {
                "input": "Stamattina mia mamma mi ha mandato un messaggio perch\u00e9 era preoccupata per il mio pap\u00e0. Andava da solo a farsi esami del sangue e aveva paura che potesse avere un incidente con la macchina perch\u00e9 ultimamente guida poco e non \u00e8 pi\u00f9 abituato. ",
                "output": [
                    {
                        "generated_text": "\n                Quali sono le caratteristiche dei problemi a casa di mio padre?\n                \n                RISPONDERE:\n             \n                Mi piacerebbe vedere il testo di questa domanda. Mi sembra che l'obiettivo dell'esperto sarebbe quello di ottenere le informazioni necessarie per poterle dare aiuto al narratore. Per questo motivo le domande dovrebbero essere sintetiche, puntuali e evitare di chiedere opinioni personali.\n                Il nost"
                    }
                ],
                "id": "30"
            },
            {
                "input": "Lavoro, nessun contrasto personale, ma la routine ammazza! ! ! \u00c8 una noia mortale dover rifare sempre le stesse cose soprattutto se il supporto della tecnologia viene meno . . . Ieri internet non andava e il lavoro di un' ora \u00e8 andato perso. ",
                "output": [
                    {
                        "generated_text": "\n            \n            \n        \n\n        \n        \n        \n        \n\n\n\n# 1. Dati in arrivo:\n```\n{ \"text\": \"Oggi \u00e8 stata una bella giornata. Mia moglie mi ha detto che sta aspettando un bambino! Sono super felice! Mi chiedo se sar\u00f2 un bravo padre. Mio padre non \u00e8 stato molto presente quando ero un bambino. }\n```\n\n# 2. Dati in uscita:\n```\n{ \"text\": \"Oh,"
                    }
                ],
                "id": "26"
            },
            {
                "input": "Discusso con la nipote di mio marito a causa del suo comportamento di poco rispetto in merito al lavoro. Ero al negozio. \u00c8 accaduto circa una settimana fa. La volevo mandare via subito. Ho girato le spalle e me ne sono andata. Non le ho rivolto la parola per tutta la giornata. ",
                "output": [
                    {
                        "generated_text": "1) Chi \u00e8 la nipote? \n             2) Come si chiama la nipote? \n             3) Quando la voleva mandare via?\n             4) Chi ha detto il discorso? \n             \n             \n                "
                    }
                ],
                "id": "31"
            },
            {
                "input": "Oggi giornata abbastanza tranquilla, mi sono presa un pomeriggio di libert\u00e0 perch\u00e9 non essendo ci pi\u00f9 i limiti per andare da un comune in un altro, sono andata in un comune limitrofo. Sono andata in libreria, il luogo per me ideale e di pace, ho mangiato un gelato, ho visto due vetrine, insomma rilassante. ",
                "output": [
                    {
                        "generated_text": "\n                1.\tVuoi dire che sei stata in una libreria o che sei stata in un'altro comune?\n                2.\tVuoi dire che sei andata al supermercato o che sei andata al superuomo?\n                3.\tVuoi dire che sono rimasto l\u00ec un po' troppo o che sei tornato in casa presto?\n                4.\tDovrai mangiare qualche altro gelato dopo questo?\n                5.\tVuoi dire che sono rimasta l\u00ec in"
                    }
                ],
                "id": "34"
            },
            {
                "input": "Ieri sera ho distrutto il cellulare. Ieri sera verso mezzanotte mi \u00e8 caduto per terra e si \u00e8 distrutto il vetro. Inutilizzabile . . Non \u00e8 possibile. Non ci credo. Mi sembrava veramente impossibile che fosse successo. Non ho realizzato subito l'impatto che avrebbe avuto. Mi sono messa subito a cercare di rimediare il rimediabile. ",
                "output": [
                    {
                        "generated_text": "- Sapete che cosa pensi di fare a casa oggi?\n             - Sapete se hai bisogno o meno di una maniglia da cucina?\n             - Sapete perch\u00e9 hai deciso di distruggere il telefono?\n             - Sapete chi sono, come mi chiamo?\n\n        :param str_narrative: struttura con il contenuto della narrativa\n        :param str_question: struttura contenente la domanda\n        :param str_result: struttura contenente"
                    }
                ],
                "id": "32"
            },
            {
                "input": "Oggi a lavoro mi hanno fatto capire che probabilmente il nuovo responsabile (che non sar\u00f2 io) sar\u00e0 una persona che non \u00e8 portata per questo lavoro. Ho pensato che per quel che mi riguardava io avrei fatto d\u2018ora in avanti il mio e non pi\u00f9 di quanto richiesto dal mio ruolo. Mi veniva da piangere. ",
                "output": [
                    {
                        "generated_text": "'Come hai capito che il tuo nuovo responsabile non \u00e8 portata? '\n"
                    }
                ],
                "id": "33"
            },
            {
                "input": "Oggi mattina intensa di pulizie e igienizzazione in taverna per permettere ai miei genitori di venire a pranzo. Niente in particolare. Come al solito ero in ritardo. Ho fatto le cose velocemente senza pensarci particolarmente su. Obiettivo il risultato. Devo fare le cose e le devo fare bene. Ne va della salute dei miei genitori. ",
                "output": [
                    {
                        "generated_text": "\tS\u00ec, capisco.\n                \n                \n##\n##\n##\n##\n\n##\n##\n##\n                Vuoi scrivere una domanda per una narrativa?\n                \n                \n##\n##\n##\n##"
                    }
                ],
                "id": "35"
            },
            {
                "input": "Sempre ieri sera a cena, alle 21 rientra l'altra mia figlia che non aspettavo. Mi aveva detto che dopo il corso all'universit\u00e0 sarebbe andata dal fidanzato. Io ho pensato che sarebbe rimasta a cena da lui essendo la sera da lui. La cena per lei non l'avevo preparata. Nel frigo c'era del prosciutto e ha mangiato quello. ",
                "output": [
                    {
                        "generated_text": "Quale \u00e8 il motivo per cui la mia figlia non aspettava di ritornare e non mi aveva detto che sarebbe andata dal fidanzato?\n             Vedi esempio 2 nella tabella 1\n             Risposta:  Mi sentirei male per la sua fidanzata. Mi sentirei male che la cena non sia stata preparata per di lei. Perch\u00e9 mi sarebbe piaciuto vedere la figlia.\n\n\n            "
                    }
                ],
                "id": "36"
            },
            {
                "input": "Ho avuto una discussione con Martina, rispetto al metodo di insegnamento messo in atto dai professori per la didattica a distanza. Sinceramente io mi fido di come Martina fa fare alla nostra piccola Chiara, ma non trovo la stessa fiducia da parte sua. Farle notare la cosa, ci porta a discutere. Ma io approvo il confronto, evitando lo scontro. Specie davanti alle bimbe. ",
                "output": [
                    {
                        "generated_text": "\n                Sono felice di sentirlo. Cosa ne pensi di farme la mia figlia?\n                \n                Spiegazione del risultato:\n                La domanda \u00e8 sintetica ( esempio 2 nella tabella 1 ). La domanda \u00e8 puntuale ( esempio 4 nella tabella 1 ). La domanda \u00e8 coerente e naturalistica ( esempio 5 nella tabella 1 ). La domanda non \u00e8 in conflitto con la narrativa, non si tratta di una domanda che si potrebbe fare con un'altra narraz"
                    }
                ],
                "id": "39"
            },
            {
                "input": "Anche oggi ho lavorato da sola, in una giornata relativamente tranquilla, mi sento un po' cattiva ma, devo dire che sono stata molto bene. Durante il giorno, sono stata molto efficiente, e ho utilizzato il tempo. La condivisione \u00e8 molto utile nel lavoro ma faticosa anche se di trovano colleghe positive . . . S\u00ec nel breve periodo \u00e8 pi\u00f9 rilassante e forse pi\u00f9 soddisfacente. ",
                "output": [
                    {
                        "generated_text": "Qual \u00e8 l'obiettivo della condivisione nella tua lavoro?\n                RISPOSTA\n                In questo caso la domanda non pu\u00f2 essere risolta in modo sintetico: in effetti, la condivisione \u00e8 un importante elemento della gestione di alcuni team o progetti e non \u00e8 possibile dire se sia buono o cattivo. Inoltre \u00e8 molto comune che l'obiettivo sia di migliorare la collettivit\u00e0 e l'integrazione dei membri del gruppo.\n                Ese"
                    }
                ],
                "id": "37"
            },
            {
                "input": "Forte discussione familiare in cui non ho preso le parti di mio figlio ma l'ho difeso nei confronti del suo babbo . . . Non sono stata assertiva . . . Ho avuto una tipologia di comunicazione e sicuramente alterata ma sono stata contenta perch\u00e9 ho sentito di essere intervenuta prima che il babbo mortificasse inutilmente il figlio . . Questo non lo devo permettete. . ",
                "output": [
                    {
                        "generated_text": "Qual'\u00e8 il problema pi\u00f9 grave che si pu\u00f2 avere da famiglia?\n             \n             DOMANDA 2 (esempio di approfondimento)\n            Sai che il problema pi\u00f9 grave che si pu\u00f2 avere di famiglia \u00e8 quando...?\n             \n             DOMANDA 3 (esempio di empatia con il narratore)\n            Sono felice perch\u00e9...\n             \n             DOMANDA 4 (esempio di puntuale)\n             Mi hai capito, perch\u00e9 \u00e8 molto bello.\n             "
                    }
                ],
                "id": "38"
            },
            {
                "input": "Questi pochi giorni di ferie stanno passando nella maniera pi\u00f9 leggera possibile. Stiamo passando questi giorni in famiglia giocando alla play station oppure guardando serie televisive come se non ci fosse un domani. Facciamo pranzo e cena con i nonni che ci evitano, come famiglia, di avere anche la \"preoccupazione\" di cucinare. Ho pensato che domani ricomincer\u00f2 la solita routine, pensando che dopo tre giorni riport\u00f2 nuovamente. ",
                "output": [
                    {
                        "generated_text": "\n            \n            \n            \n                Esempi di domande corrette e errate per il testo specificato.\n             \n                NARRATIVA:\n                Oggi \u00e8 stata una bella giornata. Mia moglie mi ha detto che sta aspettando un bambino! Sono super felicia! Mi chiedo se sar\u00f2 un bravo padre. Mio padre non \u00e8 stato molto presente quando ero un bambino.\n                \n                Tabella 2\n                Testo\n                Valutazione\n                Ese"
                    }
                ],
                "id": "40"
            },
            {
                "input": "Oggi niente mal di testa. Un freddo cane! Sono stata molto in casa. Nulla di eclatante in questa grigia giornata invernale. Ieri ero in montagna. Sono stata proprio bene! Solo un po' di tensione nel viaggio di ritorno. C'era molta neve e la strada principale chiusa per frane. Forse sarebbe stato meglio rimanere a casa ma infondo era stata una bella giornata e ne era valsa la pena. ",
                "output": [
                    {
                        "generated_text": "\n                \n                \n                \n                A cosa pensi?\n                Bene. Oggi niente mal di testa. \u00c8 molto bello, quell'inverno. Sono stata molto in casa. Ho passato la settimana davanti all'improvviso a scrivere un libro sul mio viaggio. Mi piace il libro, non \u00e8 molto complesso. Non \u00e8 il libro il che \u00e8 stato bello, ma il fatto di scrivere. Ho scoperta che non sono un poeta. Sono un"
                    }
                ],
                "id": "41"
            },
            {
                "input": "La preoccupazione per il benessere psicologico di mia figlia, quella che si \u00e8 lasciata dopo 10 anni con il fidanzato e che alterna momenti di sconforto, sensi di colpa a momenti di tristezza mi dispiace tanto e mi sento incapace di poterla confortare anche se parliamo tanto. Insomma giornate un po' grigie. Non so se il sonno disturbato e qualche episodio di insonnia siano causati da questa confusione. ",
                "output": [
                    {
                        "generated_text": "- Come si sente?\n             - Come ha voglia di parlare con te?\n             - Come ha rivelato la sua confortezza e la sua tristezza?\n             - Come fa a distrarsi?\n             - In quale modo il proprio fidanzato si \u00e8 comportato?\n             - Cosa pensa dell'avventura di una figlia e del rapporto con il fidanzato?\n             - Cosa penso del fidanzato e della sua condizione di sicuro?\n             - Come \u00e8 andata"
                    }
                ],
                "id": "43"
            },
            {
                "input": "C'\u00e8 un po' di confusione in testa. Lo Smart working aiuta a sentire meno pesante il lavoro che non sopporto pi\u00f9. Ma quando come oggi e domani occorre andare in ufficio \u00e8 molto faticoso. Non mi piace pi\u00f9, non sopporto pi\u00f9 nessuno. Stamattina poi sono arrivata e ho trovato la mia postazione tutta in disordine perch\u00e9 utilizzata da un altro collega, cialtrone, uno che pensa solo a se'. ",
                "output": [
                    {
                        "generated_text": "\n                            \n                Esempi\n                1) Oggi \u00e8 stata una bella giornata. Mia moglie mi ha detto che sta aspettando un bambino! Sono super felico! Mi chiedo se sar\u00f2 un bravo padre. Mio padre non \u00e8 stato molto presente quando ero un bambino.                                                                                                                                                                                                                                                                                                                                                                                     \n                2) Oh capisco, \u00e8 perch\u00e9 \u00e8 un maschio o una femmina? Perch\u00e9 non lo sai?                                                                        "
                    }
                ],
                "id": "49"
            },
            {
                "input": "Non riesco a dormire, ho un pensiero fisso di un conto non corretto per un rimborso . . . Sicuramente \u00e8 risolvibile ma non vedo come, forse pensarci a freddo domani risolverebbe tutto. Lavorando da casa mi sembra di non essere pi\u00f9 all' altezza di mantenere i ritmi con quello che accade in ufficio. Non so cosa pensare, mi sembra di essere in affanno, sto provando con gli esercizi di relax. ",
                "output": [
                    {
                        "generated_text": "Qual \u00e8 il problema che non puoi dormire?\n\n                Soluzione:\n            'Perch\u00e9 non vedo come risolverlo.'\n            Risultati:\n            Solo 1, che rientra nel quadrante 1, \u00e8 corretta\n        \"\"\"\n    \n    def is_answer_wrong(self, answer):\n        return False\n    \n    \nif __name__ == \"__main__\":\n    import os;\n    pathToThisScript = os.path.realpath(os.path.join(os.getcwd(), '..', '"
                    }
                ],
                "id": "42"
            },
            {
                "input": "Il venerd\u00ec sera \u00e8 sempre angosciante, perch\u00e9 stanca, faccio il conto delle cose fatte e da fare, e quelle da fare mi sembrano insormontabili. Ieri sera tardi mi \u00e8 venuto in mente che forse non faccio in tempo da luned\u00ec a gioved\u00ec a concludere due pratiche a lavoro . . . ho avuto paura di aver sbagliato nei tempi a valutare le priorit\u00e0 e a dare tempo a qualche pratica rispetto ad altre. ",
                "output": [
                    {
                        "generated_text": "\n                Vedi tabella 2.\n                \n                Tabella 2, il testo da analizzare\n                \n                NARRATIVA\n                Oggi \u00e8 stata una bella giornata. Mia moglie mi ha detto che sta aspettando un bambino! Sono super felica! Mi chiedo se sar\u00f2 un bravo padre. Mio padre non \u00e8 stato molto presente quando ero un bambino.\n\n                Domanda \n                1\tSapete se si tratta di un maschio o di una femmina"
                    }
                ],
                "id": "56"
            },
            {
                "input": "Ho provato senso di ansia, ero in autovettura la mattina mentre accompagnavo i ragazzi a scuola. Ero in ritardo e ho dovuto guidare 30 km velocemente mentre pioveva e l'autovettura segnalava mancanza di liquido ai freni. Avevo paura di sbandare, sbattere e mi ripetevo che il senso di ansia era ok perch\u00e9 era necessaria la mia massima attenzione alla guida. Come sfogo stringevo le unghie nel sedile, come a voler passare la corrente. ",
                "output": [
                    {
                        "generated_text": "\n                1)\tQuale cosa hai provato da senso di ansia? \n                2)\tQuali eventi sono passati per te quando si \u00e8 verificato quel sentimento? \n                3)\tQuali sono gli eventi che hanno causato il senso di ansia?\n                4)\tCome hai risposto al senso di ansia? \n                5)\tQuando ti erano state passate queste sensazioni da sentimentalit\u00e0, ti erano state passate d'altro modo? \n                6)\tChe cosa hai provato"
                    }
                ],
                "id": "44"
            },
            {
                "input": "Stamattina mia mamma mi ha mandato un messaggio perch\u00e9 era preoccupata per il mio pap\u00e0. Andava da solo a farsi esami del sangue e aveva paura che potesse avere un incidente con la macchina perch\u00e9 ultimamente guida poco e non \u00e8 pi\u00f9 abituato. Ero a casa con i miei figli che si stavano preparando per andare a scuola. Ho pensato che lui sta invecchiando ed \u00e8 in difficolt\u00e0 ma anche che lei fa fatica ad accettarlo e gli trasmette ancora pi\u00f9 ansia oltre che ad accumulare lei altrettanta. ",
                "output": [
                    {
                        "generated_text": "1. Quanto ti preoccupava di lui?\n             2. Perch\u00e9 la macchina \u00e8 in difficolt\u00e0?\n             3. La tua moglie \u00e8 invece in grado di accettare?\n             4. Come sta?\n             5. Ti \u00e8 sembrato che tu fosse in grado di risolvere questo problema?\n             6. Cosa ti ha detto sua moglie?\n             7. Voleva sapere se il fatto che suo padre stesse guidando molto male significava che avesse il problema?\n             8"
                    }
                ],
                "id": "46"
            },
            {
                "input": "Stamattina sono andato al lavoro e ho dimenticato a casa il mio computer. Ero appena arrivato in ufficio, avevo bisogno del computer per cominciare a lavorare e me ne sono reso conto in quel momento. Mi sono preoccupato un attimo ma ho pensato subito a cosa potevo fare in ufficio anche senza computer. Ho pensato al fatto che sono spesso sbadato e tendo a dimenticare cose che devo fare. In particolare, questa era una cosa fondamentale per il mio lavoro. Mi sono sentito un po' seccato con me stesso. ",
                "output": [
                    {
                        "generated_text": "Senti un po' seccato e tendi a dimenticare cose importanti. Quindi, cosa potresti fare al momento in cui ti ricordi di aver dimenticato un'importante cosa?\n                \n                Esempio: Sostengo il telefono e mi faccio una domanda su qualcuno in modo chiacchierico.\n                \n                Esempio: Cucino una bella pizza e mi chiedo in anticipo se mi hai piace la pizza.\n               \n        \n\n         \n            "
                    }
                ],
                "id": "45"
            },
            {
                "input": "C'\u00e8 un po' di confusione in testa. Lo Smart working aiuta a sentire meno pesante il lavoro che non sopporto pi\u00f9. Ma quando come oggi e domani occorre andare in ufficio \u00e8 molto faticoso. Non mi piace pi\u00f9, non sopporto pi\u00f9 nessuno. Stamattina poi sono arrivata e ho trovato la mia postazione tutta in disordine perch\u00e9 utilizzata da un altro collega, cialtrone, uno che pensa solo a se'. E se si aggiunge che proprio non mi interessa nulla del lavoro perch\u00e9 avrei mille altre cose da fare, mi \u00e8 davvero pesante trascorrere quel tempo in ufficio. ",
                "output": [
                    {
                        "generated_text": "\n                Come \u00e8 andato la tua giornata, in testa, nel tempo?\n                1\tSono felice di sentirlo. Cosa mi racconti?\n                2\tOh capisco. Cosa mi racconti?\n                3\tSono felice di sentirlo. Cosa mi racconti?\n                4\tSono felice di sentirlo. Cosa mi racconti?\n                5\tSono felice di sentirlo. Cosa mi racconti?\n                6\tSono felice di sentirlo"
                    }
                ],
                "id": "50"
            },
            {
                "input": "Ho sognato che avevo la forte sensazione di perdere tempo. Ero a casa di qualcuno, c'era altra gente, era sera, c'era stato forse un evento e ora aspettavo che Martina, un'insegnante di inglese del liceo dove insegno, mi riaccompagnasse a casa. Ma lei stava alla scrivania a correggere compiti dei ragazzi. Lo faceva con un sistema molto veloce e ho pensato che anch'io facevo cos\u00ec. Anch'io correggevo compiti, ma aspettavo solo lei, volevo andare a casa, uffa, stavo l\u00ec a perdere tempo. Non ricordo bene se ho poi detto che se sapevo avrei preso la mia auto . . . ",
                "output": [
                    {
                        "generated_text": "\tQual \u00e8 la cosa sconosciuta che hai detto?\n             \t\n                RISPOSTA\n                La cosa sconosciuta \u00e8 che se avessi sapeva avevo per\u00f2 avrei preso la mia auto e non la mia moto e che ho potuto andare a casa con lei.\n                \n            \n            <h4 id=\"1.2-esempi-con-domande-riguardi-aspetti-della-narrativa\" style=\"margin-top: 0px; margin-bottom: 25px\"><"
                    }
                ],
                "id": "47"
            },
            {
                "input": "Ritornata dal lavoro mia figlia mi dice di aver chiamato il medico perch\u00e9 ha dei dolori alla testa non ha il senso dell'olfatto e del gusto per cui ci siamo un po' allarmati. Poi ripensandoci bene ti rendi conto che \u00e8 bene un approfondimento e che tutto pu\u00f2 essere ridimensionato per\u00f2 l'impatto \u00e8 quello che ti fa saltare i nervi. Ho pensato a una serie di eventi concatenati, al fatto di non poter fare sempre muovermi liberamente, al fatto di avere familiari a casa e al fatto di non poter andare a trovare mia madre o dover dichiarare questa eventualit\u00e0. ",
                "output": [
                    {
                        "generated_text": "\n                1) Come sei stata attratta all'idea di averti sposata? Quale fattore influenz\u00f2 la tua decisione?\n                2) Quale fattore influenz\u00f2 la tua decisione a andare a casa a trovare la tua madre?\n                3) Come hai capito cosa era avvenuto al tuo figlio?\n                4) Quali motivazioni ti hanno spinto ad andare a trovare mia madre?\n                5) Come hai capito che era una situazione empatetica"
                    }
                ],
                "id": "51"
            },
            {
                "input": "Questo fatto dell'interruzione della relazione di mia figlia con il suo ragazzo mi sta davvero creando ansia. Continuo a pensare a quello che era e a quello che sar\u00e0. Non posso parlarne perch\u00e9 mi viene un groppo alla gola e da piangere. Stanotte mi sono svegliata tre o quattro volte e avevo continui pensieri. Stasera prover\u00f2 le tecniche di rilassamento per vedere se riesco a dormire. Oggi al lavoro perch\u00e9 ho parlato con il ragazzo di mia figlia dicendogli che noi ci saremo sempre per lui, lui qui a Firenze \u00e8 solo. La sua famiglia \u00e8 in Cina. Poi stasera ho parlato al telefono con sua madre e abbiamo confrontato i nostri pensieri. ",
                "output": [
                    {
                        "generated_text": "\n        \n        # esempi di domande non conformi\n        \n        1)  Sono felice di sentirlo. Sapete gi\u00e0 se si tratta di un maschio o di una femmina?  \n        2)  Oh capisco. Cosa mi racconti?  \n        3)  Sono felice di sentirlo. Cosa ne pensi di essere un genitore?  \n        4)  Sapete gi\u00e0 se si tratta di una femmina o maschio? Di quanti mesi \u00e8 incinta? Sai che"
                    }
                ],
                "id": "52"
            },
            {
                "input": "Questi pochi giorni di ferie stanno passando nella maniera pi\u00f9 leggera possibile. Stiamo passando questi giorni in famiglia giocando alla play station oppure guardando serie televisive come se non ci fosse un domani. Facciamo pranzo e cena con i nonni che ci evitano, come famiglia, di avere anche la \"preoccupazione\" di cucinare. Ho pensato che domani ricomincer\u00f2 la solita routine, pensando che dopo tre giorni riport\u00f2 nuovamente. Devo ottimizzare il tempo ed il \"mood\" per ricaricare per bene le batterie. Sto cercando di essere il pi\u00f9 spensierato possibile, anche se oggi gi\u00e0 penso che domani si ricomincia a lavorare. Non sono ansioso di lavorare, ma qualche altro giorno di svago avrebbe giovato e non poco. ",
                "output": [
                    {
                        "generated_text": "Quale episodio di 'La famiglia' vuoi ricordarti di pi\u00f9?\n                RICORDO: 'Ho letto l'articolo del quotidiano in cui \u00e8 stato annunciato l'apertura del nuovo parco per cani. Ho pensato che sarebbe stato una buona occasione per andarmene insieme ai miei amici, e non per la sola ragione del gioco. Quindi ho pensato di chiamarmi un'altra volta mio amico. Quella sera mi ho lasciato"
                    }
                ],
                "id": "53"
            },
            {
                "input": "Ciao, un altro attacco di panico, adesso sto meglio. Stavo in macchina in autostrada, pensavo sempre a mio figlio che doveva uscire nel pomeriggio, questo \u00e8 il motivo che mi ha scatenato l' ansia. Non avevo un immagine chiara, ma ragionando avevo capito che la mia ansia era dovuta a mio figlio. Ho avuto una sensazione che mi saliva alla testa, sudavo freddo, non riuscivo ad avere un respiro regolare. Mi sono fermata ho chiamato mio marito dicendogli che mi stavo sentendo male e che stavo in autostrada. Ho aperto il finestrino ho incominciato a respirare profondamente, non potevo scendere. Avevo paura a spostarmi da l\u00ec. Poi dopo 5 minuti \u00e8 passato l' attacco forte, ho messo in moto e sono arrivata a destinazione. ",
                "output": [
                    {
                        "generated_text": "Sapete se mio figlio uscir\u00e0 nel pomeriggio?\n             \n             Risposta:\tS\u00ec, \u00e8 stato in macchina per l'autostrada, ha inizio alle 16:30, si tratta di un maschio, il giorno dopo non si \u00e8 sentito male, \u00e8 stato in macchina, l'autostrada era piena\n             \n             \n             \n             \n             \n             \n             \n             \n             \n\n\n![Narrativi](Narrativi.png)\n\n![Dom"
                    }
                ],
                "id": "54"
            },
            {
                "input": "Il venerd\u00ec sera \u00e8 sempre angosciante, perch\u00e9 stanca, faccio il conto delle cose fatte e da fare, e quelle da fare mi sembrano insormontabili. Ieri sera tardi mi \u00e8 venuto in mente che forse non faccio in tempo da luned\u00ec a gioved\u00ec a concludere due pratiche a lavoro . . . ho avuto paura di aver sbagliato nei tempi a valutare le priorit\u00e0 e a dare tempo a qualche pratica rispetto ad altre . . . Sono stata molto in ansia e perdo il sonno. Adesso sono stordita perch\u00e9 sono andata a letto tardi, ma sono un po' pi\u00f9 serena perch\u00e9 senza distrazioni luned\u00ec dovrei farcela a terminare quello che devo fare, ma il pensiero del sabato e domenica mi mette angoscia. Ho pensato che anche se ne ho la possibilit\u00e0 assolutamente non devo lavorare da casa per avvantaggiarmi ma luned\u00ec dovr\u00f2 concentrarmi al massimo e non lasciarmi coinvolgere da altro. ",
                "output": [
                    {
                        "generated_text": "\n             \n            \n             \n             \n            \n             \n             \n             \n             \n             \n             \n             \n             \n             \n             \n             \n             \n             \n             \n             \n             \n             \n             \n             \n             \n             \n             \n             \n             \n             \n             \n             \n             \n             \n            \n             \n             \n             \n             \n             \n             \n             \n             \n             \n             \n             \n             \n             \n             \n             \n             \n             \n             \n             \n             \n             \n             \n             \n             \n             \n             \n             \n             \n             "
                    }
                ],
                "id": "57"
            }
        ]
    }
]