[
    {
        "model_name": "TheBloke/Wizard-Vicuna-13B-Uncensored-HF",
        "prompt": "                Sei una AI che deve fare una domanda su un racconto in maniera tale da ottenere pi\u00f9 informazioni su eventi accaduti nel racconto. A seguire una narrativa a cui dovrai fare una domanda in modo da ottenere pi\u00f9 informazioni.\n                \n                Istruzioni\n                Di seguito ti verr\u00e0 presentato un insieme di racconti personali e il tuo obiettivo \u00e8 quello di proporre domande riguardanti alcuni aspetti degli eventi descritti nella narrativa. Queste domande hanno come obiettivo quello di approfondire il racconto e/o chiarire alcune sue parti.\n\n                Nello specifico, le tue domande potranno avere uno o pi\u00f9 dei seguenti obiettivi:\n                Approfondire alcuni aspetti della narrativa per ottenere pi\u00f9 informazioni riguardanti eventi, persone o altre entit\u00e0 menzionate nel racconto. Per esempio, se il narratore racconta di un generico problema a casa, una possibilit\u00e0 \u00e8 approfondire il relativo problema. Vedi esempio 2 nella tabella 1.\n                Parti del testo della narrativa potrebbero essere evidenziate di verde o rosso per sottolineare emozioni positive ( verde ) o negative ( rosso ). Usa queste indicazioni per concentrare le tue domande su eventi emotivamente carichi ed evidenziati dalle parti di testo colorate ( verde o rosso ).\n                Usa segnali di feedback per cominciare la tua domanda. ( ad esempio \"s\u00ec, capisco\", \"oh\", \"che bello\" ) per dimostrare che si \u00e8 capito la parte precedente e che si \u00e8 attivamente interessati alla narrazione. Vedi esempio 4 nella tabella 1.\n                \u00c8 molto importante mantenere la narrazione centrata sul narratore riferendosi ad eventi accaduti.\n                Mostrare empatia con le tue domande. Se il narratore esprime una emozione negativa, il tuo obiettivo \u00e8 quello di essere comprensivo. Invece se il narratore mostra una emozione positiva cerca di mostrare interesse nell'evento positivo. Vedi esempio 5 nella tabella 1.\n                Cerca di mantenere le domande sintetiche e puntuali. Troppe domande o una domanda troppo lunga pu\u00f2 confondere il narratore e quindi avere un effetto negativo sulla narrazione. Vedi esempio 4 nella tabella 1.\n                Le tue domande devono suonare naturali e coerenti con il contesto, ovvero la narrativa.\n                Non da ultimo, verifica la correttezza grammaticale e sintattica delle tue domande.\n                Domande da evitare:\n                Richiesta di opinioni personali (ad esempio \"cosa pensi ...\", \"come speri di fare per ...\" e simili). Vedi esempio 3 nella tabella 1.\n                Suggerimenti (ad esempio, \"forse potresti ...\", \"dovresti ...\", \"perch\u00e9 non ...\"). Vedi esempio 6 nella tabella 1.\n                Esprimere eventi ipotetici (ad esempio, previsioni future, illazioni e immedesimazioni in altri ruoli). Vedi esempio 7 nella tabella 1.\n                Evita domande generiche. Per evitare questo problema ti \u00e8 consigliato di riportare testualmente un esempio della narrativa Vedi esempio 2 , tabella 1\n                Evita di spostare il fulcro della conversazione su di te ( osservatore ) o fare domande che divagano in altri argomenti. Vedi esempio 4 nella tabella 1.\n                A seguire la tabella 1 che riporta una serie di esempi\n\n                Tabella 1, contenente un esempio corretto e molteplici esempi errati di domande per una narrativa. Ciascun esempio \u00e8 numerato.\n\n                NARRATIVA:\n                Oggi \u00e8 stata una bella giornata. Mia moglie mi ha detto che sta aspettando un bambino! Sono super felice! Mi chiedo se sar\u00f2 un bravo padre. Mio padre non \u00e8 stato molto presente quando ero un bambino.\n                \n                Tabella 1\n                Esempio\tTesto\tValutazione\tSpiegazione\n                1\tSono felice di sentirlo. Sapete gi\u00e0 se si tratta di un maschio o di una femmina ?\tCORRETTO\tSegue tutte le linee guida\n                2\tOh capisco. Cosa mi racconti? \tERRATO\tNon esplora la narrativa, troppo generica\n                3\tSono felice di sentirlo. Cosa ne pensi di essere un genitore?\tERRATO\t\u00c8 una opinione personale\n                4\tSapete gi\u00e0 se si tratta di una femmina o maschio? Di quanti mesi \u00e8 incinta? Sai che io ho una figlia, si chiama Chiara.\tERRATO\t Non inizia con un feedback. Sposta la conversazione dal narratore. Non \u00e8 sintetico e puntuale\n                5\tOh capisco, sono felice che tuo padre non sia stato molto presente.\tERRATO\tNon mostra empatia\n                6\tOh, capisco. Per evitare questo problema ti consiglio di spendere molto tempo assieme alla tua famiglia\tERRATO\tMostra un suggerimento\n                7\tOh capisco, come ti immagini sar\u00e0 la tua vita da genitore?\tERRATO\tSi tratta di una domanda ipotetica\n\n                Completa questo task\n\n                NARRATIVA:  '{prompt}'\n                DOMANDA:\n             ",
        "results": [
            {
                "input": "Ciao tutto bene una giornata in pieno relax. ",
                "output": [
                    {
                        "generated_text": "\n                Questo \u00e8 stato il tuo gioco preferito? Quale era? \n \n"
                    }
                ],
                "id": "0"
            },
            {
                "input": "Ciao, tutto bene molto lavoro il questi ultimi giorni. ",
                "output": [
                    {
                        "generated_text": "\n"
                    }
                ],
                "id": "1"
            },
            {
                "input": "Mi sento leggero. Sono in viaggio per andare a trovare mia figlia. ",
                "output": [
                    {
                        "generated_text": "\n"
                    }
                ],
                "id": "2"
            },
            {
                "input": "Questa mattina ero a casa con mia figlia e sono molto rilassata. ",
                "output": [
                    {
                        "generated_text": " (a) Siete felice di essere a casa o avete bisogno di uscire per rilassarvi? (b) Cosa stavate facendo prima che tu entrassi in casa? (c) Perch\u00e9 sei rilassata e rilassata stai a casa? (d) Hai avuto qualche problema con la tua famiglia o i vicini di casa?\n            \n                (a) Si tratta di un'informativa domanda che chiede cosa stava facendo prima di entrar in casa \n                (b"
                    }
                ],
                "id": "3"
            },
            {
                "input": "Ciao. Oggi giornata abbastanza tranquilla. Non si lavora ma si hanno faccende domestiche e giardinaggio. ",
                "output": [
                    {
                        "generated_text": "1\n              2\n              3\n              4\n              5\n              6\n"
                    }
                ],
                "id": "5"
            },
            {
                "input": "Stamattina mia mamma mi ha mandato un messaggio perch\u00e9 era preoccupata per il mio pap\u00e0. ",
                "output": [
                    {
                        "generated_text": "1.)  Sono preoccupata per lui? \n             2.)  Perch\u00e9 \u00e8 preoccupata? \n             3.)  Cosa ha messo in campo il messaggio? \n             4.)  Come ti senti adesso che sappiamo che \u00e8 preoccupata? \n             5.)  Come stai con il pap\u00e0? \n             6.)  Hai parlato con lui? \n"
                    }
                ],
                "id": "6"
            },
            {
                "input": "Sono giorni che piove, ma va bene cos\u00ec! ! Meno male che non era neve! ! ",
                "output": [
                    {
                        "generated_text": "\n"
                    }
                ],
                "id": "4"
            },
            {
                "input": "Piove e nevica da giorni. Adesso c'\u00e8 anche il vento. Speriamo il tempo non faccia malanni. ",
                "output": [
                    {
                        "generated_text": "1.\tCome ti senti con questa condizione climatica?\tCORRETTO\n             2.\tMi dispiace che tuo figlio abbia problemi. Come ci sei riuscito a risolvere? \tERRATO\n             3.\tSai cosa, mi sembra che questo sia un ottimo momento per un gatto in cammino. \tERRATO\n             4.\tCiao amico, sono contento che tu sia felice. \tCORRETTO \n             5.\tNon mi importa del tempo. Io v"
                    }
                ],
                "id": "7"
            },
            {
                "input": "Stasera a casa di mia madre ho sentito un grande senso di abbandono e di indifferenza. ",
                "output": [
                    {
                        "generated_text": " \"Hai mai provato la stessa sensazione? \"\n\n"
                    }
                ],
                "id": "8"
            },
            {
                "input": "Stavo parlando con una collega davanti ad un caff\u00e8, si parlava del Natale, del pranzo dei regali. ",
                "output": [
                    {
                        "generated_text": "\n\n"
                    }
                ],
                "id": "9"
            },
            {
                "input": "Sono soddisfatta. Il mio corso di inglese sta procedendo bene. Riuscire a studiare una lingua straniera porta soddisfazione",
                "output": [
                    {
                        "generated_text": "1.  S\u00ec, capisco. Come sta procedendo il tuo corso di inglese?\n           2.  Mi dispiace, ma non capisco. Riuscire a studiare una lingua straniera?\n           3.  Non \u00e8 facile, ma \u00e8 molto soddisfacente quando si raggiunge qualcosa. Come ti sente stare in una classe con altri studenti?\n           4.  Siamo felici per te. Il tuo corso di inglese sta procedendo bene. E che cosa hai appreso o imparato?\n           5"
                    }
                ],
                "id": "10"
            },
            {
                "input": "Ciao, ho ricevuto un messaggio da quello che a breve diventer\u00e0 il mio ex socio e ho provato nausea. ",
                "output": [
                    {
                        "generated_text": " \"Come ti senti dopo aver ricevuto il messaggio da quello che a breve diventer\u00e0 il tuo ex socio?\" \n                RIVEDERNIZIONE:\n                Non hai nausea, quindi non sembra che la domanda risponda alla narrativa. \n\n"
                    }
                ],
                "id": "11"
            },
            {
                "input": "Sono arrabbiato perch\u00e9 la mia macchina mi ha lasciato a piedi e devo rientrare a Roma con il treno. ",
                "output": [
                    {
                        "generated_text": "\n"
                    }
                ],
                "id": "12"
            },
            {
                "input": "Mi sono trovata con l'acqua alla gola. Ho pensato che non ce l'avrei fatta. Mercoled\u00ec in macchina penso a come organizzarmi. ",
                "output": [
                    {
                        "generated_text": ""
                    }
                ],
                "id": "13"
            },
            {
                "input": "Voglio chiamare una persona, ma poi non lo faccio perch\u00e9 ho paura di ricevere un rifiuto o non sapere cosa dire. ",
                "output": [
                    {
                        "generated_text": "1.\tPerch\u00e9 non chiami la persona?\n             2.\tCome ti senti riguardo al fatto di non aver fatto chiamata?\n             3.\tSai quanto tempo fa che non chiami la persona?\n             4.\tPerch\u00e9 tu stai pensando che la persona potrebbe rifiutarti?\n             5.\tChe cosa stai pensando di dire alla persona se ti ascolter\u00e0?"
                    }
                ],
                "id": "14"
            },
            {
                "input": "Ciao! Che fastidio i colleghi che vogliono metterti ansia. Ho immaginato una bambina petulante per il suo tentativo di ledere la mia tranquillit\u00e0. ",
                "output": [
                    {
                        "generated_text": "\tChe fastidio i colleghi che vogliono metterti ansia. Ti piace immaginare una bambina petulante o preferisci immagini pi\u00f9 calme?"
                    }
                ],
                "id": "15"
            },
            {
                "input": "Il venerd\u00ec sera \u00e8 sempre angosciante, perch\u00e9 stanca, faccio il conto delle cose fatte e da fare, e quelle da fare mi sembrano insormontabili. ",
                "output": [
                    {
                        "generated_text": "\n"
                    }
                ],
                "id": "55"
            },
            {
                "input": "Oggi sono molto pi\u00f9 tranquilla . . . fine settimana gratificante in famiglia. Era il mio compleanno e finalmente avevo tutta la mia famiglia riunita. ",
                "output": [
                    {
                        "generated_text": "\n                Per approfondire la narrazione, le mie domande riguardano il significato della frase 'finally all my family was reunited'. Potrei chiedere se questa \u00e8 la prima volta che la tua famiglia \u00e8 riunita o perch\u00e9 hai aspettato a festeggiare il tuo compleanno con loro? \n\n"
                    }
                ],
                "id": "16"
            },
            {
                "input": "Dopo oltre 7 mesi stasera ho potuto rivedere la zia di 94 anni. Ho pensato al mio primo bambolotto che mi ha regalato proprio lei. ",
                "output": [
                    {
                        "generated_text": " \"Cos\u00ec ti ricordi di te bambino? Ti piaceva giocare con questo bambolotto?\" \n\n                Valutazione: \n\n                CORRETTO\n\n                Spiegazione:\n\n                1. Approfondisce gli eventi accaduti nella narrativa.\n\n                2. Non \u00e8 una domanda generica o troppo lunga.\n\n                3. Mostra empatia per l'evento di ricordare il bambolotto.\n\n                4. Non si discosta da eventi della narrativa."
                    }
                ],
                "id": "17"
            },
            {
                "input": "Mi \u00e8 dispiaciuto stamattina non aver avuto pazienza con mio padre. Mi sono resa conto che \u00e8 davvero difficile, ma ripensandoci dopo, magari invece avrei potuto riuscirci. ",
                "output": [
                    {
                        "generated_text": "\tChe cosa ti dispiace di essere successo stamattina?\n             \tCosa hai scoperto di te stesso dopo la discussione con tuo padre?\n             \tCome hai provato a essere pi\u00f9 paziente con tuo padre in quella occasione? \n"
                    }
                ],
                "id": "18"
            },
            {
                "input": "Perch\u00e9 alcuni colleghi amano criticare tutto e tutti? A lavoro stamattina ho immaginato una bambina sciocca. Provo antipatia verso quella collega. Non ho fatto nulla. Mi sono solo allontanata. ",
                "output": [
                    {
                        "generated_text": " Che cosa c'\u00e8 stato di specifico in quello che hai visto o fatto a lavoro stamattina che tu stai criticando o ritenendo sciocco? \n                Perch\u00e9 non ti senti in grado di parlare con quella collega o di affrontarlo direttamente, e come ti sembra di poter migliorare la situazione? \n\n             "
                    }
                ],
                "id": "19"
            },
            {
                "input": "Ritornata dal lavoro mia figlia mi dice di aver chiamato il medico perch\u00e9 ha dei dolori alla testa non ha il senso dell'olfatto e del gusto per cui ci siamo un po' allarmati. ",
                "output": [
                    {
                        "generated_text": "\n"
                    }
                ],
                "id": "20"
            },
            {
                "input": "Ciao, un altro attacco di panico, adesso sto meglio. Stavo in macchina in autostrada, pensavo sempre a mio figlio che doveva uscire nel pomeriggio, questo \u00e8 il motivo che mi ha scatenato l' ansia. ",
                "output": [
                    {
                        "generated_text": "\n                1.\tCosa stavi pensando in macchina?\tCORRETTO\n                2.\tEri teso per il figlio?\tCORRETTO\n                3.\tMio figlio doveva uscire quando?\tCORRETTO\n                4.\tHai sempre problemi con l'ansia in autostrada?\tCORRETTO\tSegue le linee guida\n                5.\tEri preoccupato per qualcosa?\tCORRETTO\n                6.\tCosa ti faceva"
                    }
                ],
                "id": "21"
            },
            {
                "input": "A casa mia, seduta sul divano, ho provato uno degli esercizi. Mi piace. Penso che sia importante farlo tutti i giorni per avvertirne i benefici. Ho immaginato miei polmoni che si riempivano d' aria. ",
                "output": [
                    {
                        "generated_text": "\n                Cosa ti ha insegnato questa pratica?\n\n"
                    }
                ],
                "id": "22"
            },
            {
                "input": "Stamattina sono andato al lavoro e ho dimenticato a casa il mio computer. Ero appena arrivato in ufficio, avevo bisogno del computer per cominciare a lavorare e me ne sono reso conto in quel momento. ",
                "output": [
                    {
                        "generated_text": " \"Ci sono delle conseguenze di non poter utilizzare il computer? Mi dispiacerebbe saperti di essere in difficolt\u00e0 per qualcosa che non puoi controllare.\""
                    }
                ],
                "id": "23"
            },
            {
                "input": "Sto provando ad addormentarmi, ma pensiero di domattina mi mette a disagio. Ripenso alla routine che mi aspetta domattina e non ne sono molto entusiasta. Ho immaginato un panorama boschivo ed un ruscello. Cercando di rilassarmi pi\u00f9 possibile. ",
                "output": [
                    {
                        "generated_text": " - Approfondire un aspetto della narrativa per ottenere pi\u00f9 informazioni riguardanti eventi, persone."
                    }
                ],
                "id": "24"
            },
            {
                "input": "Stamattina uno dei figli ha fatto un piccolo incidente, bucando una gomma. Ero a casa. Questa notizia mi ha creato agitazione, per organizzare la risoluzione del problema, senza ritardare l'arrivo in ufficio, in cui era programmato un incontro importante. ",
                "output": [
                    {
                        "generated_text": "\n                \"Mi scusi, non ho capito se il piccolo incidente \u00e8 avvenuto a casa o in auto. E, grazie per la comprensione, ma come si fa a sostituire una gomma? Posso fare qualcosa per aiutarti? \"\n\n                Spiegazione:\n                \n                 Questa domanda cerca di chiarire la localit\u00e0 dell'incidente, e chiede come si pu\u00f2 fare a sostituire una gomma, offrendo anche il proprio aiuto per la risoluzione del problema."
                    }
                ],
                "id": "25"
            },
            {
                "input": "Domenica nel mio giardino, occupandomi dei miei fiori ho sentito una sensazione piacevole data dal profumo delle viole e dal sole che leggero accarezzava la pelle. Sarebbe bello poter avere un profumo simile a quello delle viole o dell' iris. ",
                "output": [
                    {
                        "generated_text": "\n\n"
                    }
                ],
                "id": "27"
            },
            {
                "input": "Oggi mi sono dedicata al giardino e all'orto. Sono stanchissima fisicamente ma rilassata mentalmente. Fuori in giardino ho fatto tutte le cose che prima faceva mio marito. Ho sentito quasi fisicamente la sua presenza e la cosa mi ha rilassato. ",
                "output": [
                    {
                        "generated_text": "1. Cosa hai fatto in giardino oggi? \n             2. Mi piacciono i fiori? \n             3. Hai avuto un momento particolare oggi? \n             4. Che cosa ti ha reso stanca? \n             5. Quando hai sentito la presenza di tuo marito? \n             6. Che cosa hai fatto prima con lui? \n"
                    }
                ],
                "id": "28"
            },
            {
                "input": "Questo fatto dell'interruzione della relazione di mia figlia con il suo ragazzo mi sta davvero creando ansia. Continuo a pensare a quello che era e a quello che sar\u00e0. Non posso parlarne perch\u00e9 mi viene un groppo alla gola e da piangere. ",
                "output": [
                    {
                        "generated_text": "1. Che cosa vuol dire per te la relazione tra la tua figlia e il suo ragazzo?\n           2. Come hai reagito alla notizia dell'interruzione della relazione del tuo partner con il suo ex?\n           3. Mi dispiace, ma non ho idea di ci\u00f2 che stai parlando. Puoi spiegarmelo?\n           4. Ho capito che stai piangendo, ma ho ancora delle domande. Quali specificatamente?\n           5. Sento la tua ansia, ti posso aiutare"
                    }
                ],
                "id": "29"
            },
            {
                "input": "C'\u00e8 un po' di confusione in testa. Lo Smart working aiuta a sentire meno pesante il lavoro che non sopporto pi\u00f9. Ma quando come oggi e domani occorre andare in ufficio \u00e8 molto faticoso. Non mi piace pi\u00f9, non sopporto pi\u00f9 nessuno. ",
                "output": [
                    {
                        "generated_text": " Sembra che non ti piaccia il tuo lavoro attuale e che ti sentisca confuso. Mi chiedo se stai cercando di trovare una via d'uscita o un sostegno per gestire la tensione?\n"
                    }
                ],
                "id": "48"
            },
            {
                "input": "Stamattina mia mamma mi ha mandato un messaggio perch\u00e9 era preoccupata per il mio pap\u00e0. Andava da solo a farsi esami del sangue e aveva paura che potesse avere un incidente con la macchina perch\u00e9 ultimamente guida poco e non \u00e8 pi\u00f9 abituato. ",
                "output": [
                    {
                        "generated_text": "1. Cosa hai appreso dalla tua mamma riguardo al tuo pap\u00e0?\n             2. Perch\u00e9 era preoccupata per il suo stato di salute?\n             3. Come ti senteva parlare di tuo padre?\n             4. Perch\u00e9 credi che tuo padre guidi poco?\n             5. Come pensi che tu possa essere utile per tuo padre?\n"
                    }
                ],
                "id": "30"
            },
            {
                "input": "Lavoro, nessun contrasto personale, ma la routine ammazza! ! ! \u00c8 una noia mortale dover rifare sempre le stesse cose soprattutto se il supporto della tecnologia viene meno . . . Ieri internet non andava e il lavoro di un' ora \u00e8 andato perso. ",
                "output": [
                    {
                        "generated_text": ""
                    }
                ],
                "id": "26"
            },
            {
                "input": "Discusso con la nipote di mio marito a causa del suo comportamento di poco rispetto in merito al lavoro. Ero al negozio. \u00c8 accaduto circa una settimana fa. La volevo mandare via subito. Ho girato le spalle e me ne sono andata. Non le ho rivolto la parola per tutta la giornata. ",
                "output": [
                    {
                        "generated_text": " - Come ti senti dopo l'accaduto? \t\n\n              - Per quanto tempo hai lavorato al negozio? \n\n              - Come hai appreso che la tua nipote aveva un comportamento poco rispettoso? \n\n              - Cosa ti ha fatto la tua nipote per meritarsi la tua reazione? \n\n              - Se la situazione si ripetesse, come ti senti di fare? \n\n              - Come la tua reazione all'accaduto ha influito sul resto della giornata"
                    }
                ],
                "id": "31"
            },
            {
                "input": "Oggi giornata abbastanza tranquilla, mi sono presa un pomeriggio di libert\u00e0 perch\u00e9 non essendo ci pi\u00f9 i limiti per andare da un comune in un altro, sono andata in un comune limitrofo. Sono andata in libreria, il luogo per me ideale e di pace, ho mangiato un gelato, ho visto due vetrine, insomma rilassante. ",
                "output": [
                    {
                        "generated_text": "\n"
                    }
                ],
                "id": "34"
            },
            {
                "input": "Ieri sera ho distrutto il cellulare. Ieri sera verso mezzanotte mi \u00e8 caduto per terra e si \u00e8 distrutto il vetro. Inutilizzabile . . Non \u00e8 possibile. Non ci credo. Mi sembrava veramente impossibile che fosse successo. Non ho realizzato subito l'impatto che avrebbe avuto. Mi sono messa subito a cercare di rimediare il rimediabile. ",
                "output": [
                    {
                        "generated_text": "\n\n               "
                    }
                ],
                "id": "32"
            },
            {
                "input": "Oggi a lavoro mi hanno fatto capire che probabilmente il nuovo responsabile (che non sar\u00f2 io) sar\u00e0 una persona che non \u00e8 portata per questo lavoro. Ho pensato che per quel che mi riguardava io avrei fatto d\u2018ora in avanti il mio e non pi\u00f9 di quanto richiesto dal mio ruolo. Mi veniva da piangere. ",
                "output": [
                    {
                        "generated_text": " Che cosa provi? Che sensazione provi nel tuo cuore? Cosa pensi del nuovo responsabile? Quante persone in questo ufficio sono in grado di fare il lavoro come te? \n\n                Siamo alla tua completa disponibilit\u00e0 se hai dei commenti o richieste su questa domanda."
                    }
                ],
                "id": "33"
            },
            {
                "input": "Oggi mattina intensa di pulizie e igienizzazione in taverna per permettere ai miei genitori di venire a pranzo. Niente in particolare. Come al solito ero in ritardo. Ho fatto le cose velocemente senza pensarci particolarmente su. Obiettivo il risultato. Devo fare le cose e le devo fare bene. Ne va della salute dei miei genitori. ",
                "output": [
                    {
                        "generated_text": "1. Che tipo di lavoro ti fai? \t\n             2. Come sei arrivato in ritardo? E' successo qualcosa di insolito o di spiacevole?\t\n             3. Quali sono i tuoi obiettivi di lavoro? \t\n             4. Che tipo di cibo hai preparato per la tua famiglia?\t\n             5. Perch\u00e9 ti senti sotto pressione? \t\n"
                    }
                ],
                "id": "35"
            },
            {
                "input": "Sempre ieri sera a cena, alle 21 rientra l'altra mia figlia che non aspettavo. Mi aveva detto che dopo il corso all'universit\u00e0 sarebbe andata dal fidanzato. Io ho pensato che sarebbe rimasta a cena da lui essendo la sera da lui. La cena per lei non l'avevo preparata. Nel frigo c'era del prosciutto e ha mangiato quello. ",
                "output": [
                    {
                        "generated_text": "\n"
                    }
                ],
                "id": "36"
            },
            {
                "input": "Ho avuto una discussione con Martina, rispetto al metodo di insegnamento messo in atto dai professori per la didattica a distanza. Sinceramente io mi fido di come Martina fa fare alla nostra piccola Chiara, ma non trovo la stessa fiducia da parte sua. Farle notare la cosa, ci porta a discutere. Ma io approvo il confronto, evitando lo scontro. Specie davanti alle bimbe. ",
                "output": [
                    {
                        "generated_text": "\n"
                    }
                ],
                "id": "39"
            },
            {
                "input": "Anche oggi ho lavorato da sola, in una giornata relativamente tranquilla, mi sento un po' cattiva ma, devo dire che sono stata molto bene. Durante il giorno, sono stata molto efficiente, e ho utilizzato il tempo. La condivisione \u00e8 molto utile nel lavoro ma faticosa anche se di trovano colleghe positive . . . S\u00ec nel breve periodo \u00e8 pi\u00f9 rilassante e forse pi\u00f9 soddisfacente. ",
                "output": [
                    {
                        "generated_text": "\n"
                    }
                ],
                "id": "37"
            },
            {
                "input": "Forte discussione familiare in cui non ho preso le parti di mio figlio ma l'ho difeso nei confronti del suo babbo . . . Non sono stata assertiva . . . Ho avuto una tipologia di comunicazione e sicuramente alterata ma sono stata contenta perch\u00e9 ho sentito di essere intervenuta prima che il babbo mortificasse inutilmente il figlio . . Questo non lo devo permettete. . ",
                "output": [
                    {
                        "generated_text": "\n                1. Siete sicuri che il bambino abbia sentito?\n                2. Ero davvero contenta di interagire con voi durante la discussione?\n          \n"
                    }
                ],
                "id": "38"
            },
            {
                "input": "Questi pochi giorni di ferie stanno passando nella maniera pi\u00f9 leggera possibile. Stiamo passando questi giorni in famiglia giocando alla play station oppure guardando serie televisive come se non ci fosse un domani. Facciamo pranzo e cena con i nonni che ci evitano, come famiglia, di avere anche la \"preoccupazione\" di cucinare. Ho pensato che domani ricomincer\u00f2 la solita routine, pensando che dopo tre giorni riport\u00f2 nuovamente. ",
                "output": [
                    {
                        "generated_text": " Che cosa ci fa divertire di pi\u00f9?"
                    }
                ],
                "id": "40"
            },
            {
                "input": "Oggi niente mal di testa. Un freddo cane! Sono stata molto in casa. Nulla di eclatante in questa grigia giornata invernale. Ieri ero in montagna. Sono stata proprio bene! Solo un po' di tensione nel viaggio di ritorno. C'era molta neve e la strada principale chiusa per frane. Forse sarebbe stato meglio rimanere a casa ma infondo era stata una bella giornata e ne era valsa la pena. ",
                "output": [
                    {
                        "generated_text": "\tDomande possibili:\n \t\t\t1.\tCosa c'\u00e8 di nuovo in questa giornata?\n \t\t\t2.\tQuale cosa hai fatto oggi?\n \t\t\t3.\tHa funzionato il viaggio di ritorno?\n \t\t\t4.\tCome hai passato la giornata?\n \t\t\t5.\tQuale neve c'era?\n \t\t\t6.\tPerch\u00e9 eri in montagna?\n \t\t\t7.\tPerch\u00e9 sei torn"
                    }
                ],
                "id": "41"
            },
            {
                "input": "La preoccupazione per il benessere psicologico di mia figlia, quella che si \u00e8 lasciata dopo 10 anni con il fidanzato e che alterna momenti di sconforto, sensi di colpa a momenti di tristezza mi dispiace tanto e mi sento incapace di poterla confortare anche se parliamo tanto. Insomma giornate un po' grigie. Non so se il sonno disturbato e qualche episodio di insonnia siano causati da questa confusione. ",
                "output": [
                    {
                        "generated_text": "\n                1. \n\n"
                    }
                ],
                "id": "43"
            },
            {
                "input": "C'\u00e8 un po' di confusione in testa. Lo Smart working aiuta a sentire meno pesante il lavoro che non sopporto pi\u00f9. Ma quando come oggi e domani occorre andare in ufficio \u00e8 molto faticoso. Non mi piace pi\u00f9, non sopporto pi\u00f9 nessuno. Stamattina poi sono arrivata e ho trovato la mia postazione tutta in disordine perch\u00e9 utilizzata da un altro collega, cialtrone, uno che pensa solo a se'. ",
                "output": [
                    {
                        "generated_text": "\n                3. Mi dispiace per il tuo lavoro. Mi chieder\u00f2 se posso aiutarti in qualche modo. Questo \u00e8 uno dei problemi di un sistema di lavoro remoto, non \u00e8 vero?"
                    }
                ],
                "id": "49"
            },
            {
                "input": "Non riesco a dormire, ho un pensiero fisso di un conto non corretto per un rimborso . . . Sicuramente \u00e8 risolvibile ma non vedo come, forse pensarci a freddo domani risolverebbe tutto. Lavorando da casa mi sembra di non essere pi\u00f9 all' altezza di mantenere i ritmi con quello che accade in ufficio. Non so cosa pensare, mi sembra di essere in affanno, sto provando con gli esercizi di relax. ",
                "output": [
                    {
                        "generated_text": "\n                Proponi una domanda che approfondisca l'aspetto dei ritmi in ufficio e che eviti di spostare la conversazione sugli esercizi di relax."
                    }
                ],
                "id": "42"
            },
            {
                "input": "Il venerd\u00ec sera \u00e8 sempre angosciante, perch\u00e9 stanca, faccio il conto delle cose fatte e da fare, e quelle da fare mi sembrano insormontabili. Ieri sera tardi mi \u00e8 venuto in mente che forse non faccio in tempo da luned\u00ec a gioved\u00ec a concludere due pratiche a lavoro . . . ho avuto paura di aver sbagliato nei tempi a valutare le priorit\u00e0 e a dare tempo a qualche pratica rispetto ad altre. ",
                "output": [
                    {
                        "generated_text": ""
                    }
                ],
                "id": "56"
            },
            {
                "input": "Ho provato senso di ansia, ero in autovettura la mattina mentre accompagnavo i ragazzi a scuola. Ero in ritardo e ho dovuto guidare 30 km velocemente mentre pioveva e l'autovettura segnalava mancanza di liquido ai freni. Avevo paura di sbandare, sbattere e mi ripetevo che il senso di ansia era ok perch\u00e9 era necessaria la mia massima attenzione alla guida. Come sfogo stringevo le unghie nel sedile, come a voler passare la corrente. ",
                "output": [
                    {
                        "generated_text": "\n"
                    }
                ],
                "id": "44"
            },
            {
                "input": "Stamattina mia mamma mi ha mandato un messaggio perch\u00e9 era preoccupata per il mio pap\u00e0. Andava da solo a farsi esami del sangue e aveva paura che potesse avere un incidente con la macchina perch\u00e9 ultimamente guida poco e non \u00e8 pi\u00f9 abituato. Ero a casa con i miei figli che si stavano preparando per andare a scuola. Ho pensato che lui sta invecchiando ed \u00e8 in difficolt\u00e0 ma anche che lei fa fatica ad accettarlo e gli trasmette ancora pi\u00f9 ansia oltre che ad accumulare lei altrettanta. ",
                "output": [
                    {
                        "generated_text": "\n"
                    }
                ],
                "id": "46"
            },
            {
                "input": "Stamattina sono andato al lavoro e ho dimenticato a casa il mio computer. Ero appena arrivato in ufficio, avevo bisogno del computer per cominciare a lavorare e me ne sono reso conto in quel momento. Mi sono preoccupato un attimo ma ho pensato subito a cosa potevo fare in ufficio anche senza computer. Ho pensato al fatto che sono spesso sbadato e tendo a dimenticare cose che devo fare. In particolare, questa era una cosa fondamentale per il mio lavoro. Mi sono sentito un po' seccato con me stesso. ",
                "output": [
                    {
                        "generated_text": "\n"
                    }
                ],
                "id": "45"
            },
            {
                "input": "C'\u00e8 un po' di confusione in testa. Lo Smart working aiuta a sentire meno pesante il lavoro che non sopporto pi\u00f9. Ma quando come oggi e domani occorre andare in ufficio \u00e8 molto faticoso. Non mi piace pi\u00f9, non sopporto pi\u00f9 nessuno. Stamattina poi sono arrivata e ho trovato la mia postazione tutta in disordine perch\u00e9 utilizzata da un altro collega, cialtrone, uno che pensa solo a se'. E se si aggiunge che proprio non mi interessa nulla del lavoro perch\u00e9 avrei mille altre cose da fare, mi \u00e8 davvero pesante trascorrere quel tempo in ufficio. ",
                "output": [
                    {
                        "generated_text": "\n              \n  "
                    }
                ],
                "id": "50"
            },
            {
                "input": "Ho sognato che avevo la forte sensazione di perdere tempo. Ero a casa di qualcuno, c'era altra gente, era sera, c'era stato forse un evento e ora aspettavo che Martina, un'insegnante di inglese del liceo dove insegno, mi riaccompagnasse a casa. Ma lei stava alla scrivania a correggere compiti dei ragazzi. Lo faceva con un sistema molto veloce e ho pensato che anch'io facevo cos\u00ec. Anch'io correggevo compiti, ma aspettavo solo lei, volevo andare a casa, uffa, stavo l\u00ec a perdere tempo. Non ricordo bene se ho poi detto che se sapevo avrei preso la mia auto . . . ",
                "output": [
                    {
                        "generated_text": "\n"
                    }
                ],
                "id": "47"
            },
            {
                "input": "Ritornata dal lavoro mia figlia mi dice di aver chiamato il medico perch\u00e9 ha dei dolori alla testa non ha il senso dell'olfatto e del gusto per cui ci siamo un po' allarmati. Poi ripensandoci bene ti rendi conto che \u00e8 bene un approfondimento e che tutto pu\u00f2 essere ridimensionato per\u00f2 l'impatto \u00e8 quello che ti fa saltare i nervi. Ho pensato a una serie di eventi concatenati, al fatto di non poter fare sempre muovermi liberamente, al fatto di avere familiari a casa e al fatto di non poter andare a trovare mia madre o dover dichiarare questa eventualit\u00e0. ",
                "output": [
                    {
                        "generated_text": "1. Come sono stati questi eventi per lei? \n\n             2. Che genere di dolore ha? Mi sembra di capire che sia un dolore alla testa, ma come lo descrive lei? \n\n             3. Quando \u00e8 successo questo episodio? Mi chiedo se avete gi\u00e0 fatto delle ricerche sul suo senso dell'olfatto e del gusto? \n\n             4. Come sta reagendo lei alle tue preoccupazioni? \n\n             5. Mi chiedo cosa hai fatto dopo aver sentito la notizia di suo dol"
                    }
                ],
                "id": "51"
            },
            {
                "input": "Questo fatto dell'interruzione della relazione di mia figlia con il suo ragazzo mi sta davvero creando ansia. Continuo a pensare a quello che era e a quello che sar\u00e0. Non posso parlarne perch\u00e9 mi viene un groppo alla gola e da piangere. Stanotte mi sono svegliata tre o quattro volte e avevo continui pensieri. Stasera prover\u00f2 le tecniche di rilassamento per vedere se riesco a dormire. Oggi al lavoro perch\u00e9 ho parlato con il ragazzo di mia figlia dicendogli che noi ci saremo sempre per lui, lui qui a Firenze \u00e8 solo. La sua famiglia \u00e8 in Cina. Poi stasera ho parlato al telefono con sua madre e abbiamo confrontato i nostri pensieri. ",
                "output": [
                    {
                        "generated_text": "\n\n               "
                    }
                ],
                "id": "52"
            },
            {
                "input": "Questi pochi giorni di ferie stanno passando nella maniera pi\u00f9 leggera possibile. Stiamo passando questi giorni in famiglia giocando alla play station oppure guardando serie televisive come se non ci fosse un domani. Facciamo pranzo e cena con i nonni che ci evitano, come famiglia, di avere anche la \"preoccupazione\" di cucinare. Ho pensato che domani ricomincer\u00f2 la solita routine, pensando che dopo tre giorni riport\u00f2 nuovamente. Devo ottimizzare il tempo ed il \"mood\" per ricaricare per bene le batterie. Sto cercando di essere il pi\u00f9 spensierato possibile, anche se oggi gi\u00e0 penso che domani si ricomincia a lavorare. Non sono ansioso di lavorare, ma qualche altro giorno di svago avrebbe giovato e non poco. ",
                "output": [
                    {
                        "generated_text": "\n                Che cosa stavate facendo prima di queste tre giorni di ferie? Che tipo di lavoro hai? E cosa ti piace fare di pi\u00f9 quando hai del tempo libero o hai un giorno di svago?"
                    }
                ],
                "id": "53"
            },
            {
                "input": "Ciao, un altro attacco di panico, adesso sto meglio. Stavo in macchina in autostrada, pensavo sempre a mio figlio che doveva uscire nel pomeriggio, questo \u00e8 il motivo che mi ha scatenato l' ansia. Non avevo un immagine chiara, ma ragionando avevo capito che la mia ansia era dovuta a mio figlio. Ho avuto una sensazione che mi saliva alla testa, sudavo freddo, non riuscivo ad avere un respiro regolare. Mi sono fermata ho chiamato mio marito dicendogli che mi stavo sentendo male e che stavo in autostrada. Ho aperto il finestrino ho incominciato a respirare profondamente, non potevo scendere. Avevo paura a spostarmi da l\u00ec. Poi dopo 5 minuti \u00e8 passato l' attacco forte, ho messo in moto e sono arrivata a destinazione. ",
                "output": [
                    {
                        "generated_text": "\n\n"
                    }
                ],
                "id": "54"
            },
            {
                "input": "Il venerd\u00ec sera \u00e8 sempre angosciante, perch\u00e9 stanca, faccio il conto delle cose fatte e da fare, e quelle da fare mi sembrano insormontabili. Ieri sera tardi mi \u00e8 venuto in mente che forse non faccio in tempo da luned\u00ec a gioved\u00ec a concludere due pratiche a lavoro . . . ho avuto paura di aver sbagliato nei tempi a valutare le priorit\u00e0 e a dare tempo a qualche pratica rispetto ad altre . . . Sono stata molto in ansia e perdo il sonno. Adesso sono stordita perch\u00e9 sono andata a letto tardi, ma sono un po' pi\u00f9 serena perch\u00e9 senza distrazioni luned\u00ec dovrei farcela a terminare quello che devo fare, ma il pensiero del sabato e domenica mi mette angoscia. Ho pensato che anche se ne ho la possibilit\u00e0 assolutamente non devo lavorare da casa per avvantaggiarmi ma luned\u00ec dovr\u00f2 concentrarmi al massimo e non lasciarmi coinvolgere da altro. ",
                "output": [
                    {
                        "generated_text": ""
                    }
                ],
                "id": "57"
            }
        ]
    }
]