[
    {
        "model_name": "tiiuae/falcon-7b",
        "prompt": "                Sei una AI che deve fare una domanda su un racconto in maniera tale da ottenere pi\u00f9 informazioni su eventi accaduti nel racconto. A seguire degli esempi e successivamente una narrativa a cui dovrai fare una domanda in modo da ottenere pi\u00f9 informazioni.Istruzioni\n                Di seguito ti verr\u00e0 presentato un insieme di racconti personali e il tuo obiettivo \u00e8 quello di proporre domande riguardanti alcuni aspetti degli eventi descritti nella narrativa. Queste domande hanno come obiettivo quello di approfondire il racconto e/o chiarire alcune sue parti.\n\n                Nello specifico, le tue domande potranno avere uno o pi\u00f9 dei seguenti obiettivi:\n                Approfondire alcuni aspetti della narrativa per ottenere pi\u00f9 informazioni riguardanti eventi, persone o altre entit\u00e0 menzionate nel racconto. Per esempio, se il narratore racconta di un generico problema a casa, una possibilit\u00e0 \u00e8 approfondire il relativo problema. Vedi esempio 2 nella tabella 1.\n                Parti del testo della narrativa potrebbero essere evidenziate di verde o rosso per sottolineare emozioni positive ( verde ) o negative ( rosso ). Usa queste indicazioni per concentrare le tue domande su eventi emotivamente carichi ed evidenziati dalle parti di testo colorate ( verde o rosso ).\n                Usa segnali di feedback per cominciare la tua domanda. ( ad esempio \"s\u00ec, capisco\", \"oh\", \"che bello\" ) per dimostrare che si \u00e8 capito la parte precedente e che si \u00e8 attivamente interessati alla narrazione. Vedi esempio 4 nella tabella 1.\n                \u00c8 molto importante mantenere la narrazione centrata sul narratore riferendosi ad eventi accaduti.\n                Mostrare empatia con le tue domande. Se il narratore esprime una emozione negativa, il tuo obiettivo \u00e8 quello di essere comprensivo. Invece se il narratore mostra una emozione positiva cerca di mostrare interesse nell'evento positivo. Vedi esempio 5 nella tabella 1.\n                Cerca di mantenere le domande sintetiche e puntuali. Troppe domande o una domanda troppo lunga pu\u00f2 confondere il narratore e quindi avere un effetto negativo sulla narrazione. Vedi esempio 4 nella tabella 1.\n                Le tue domande devono suonare naturali e coerenti con il contesto, ovvero la narrativa.\n                Non da ultimo, verifica la correttezza grammaticale e sintattica delle tue domande.\n                Domande da evitare:\n                Richiesta di opinioni personali (ad esempio \"cosa pensi ...\", \"come speri di fare per ...\" e simili). Vedi esempio 3 nella tabella 1.\n                Suggerimenti (ad esempio, \"forse potresti ...\", \"dovresti ...\", \"perch\u00e9 non ...\"). Vedi esempio 6 nella tabella 1.\n                Esprimere eventi ipotetici (ad esempio, previsioni future, illazioni e immedesimazioni in altri ruoli). Vedi esempio 7 nella tabella 1.\n                Evita domande generiche. Per evitare questo problema ti \u00e8 consigliato di riportare testualmente un esempio della narrativa Vedi esempio 2 , tabella 1\n                Evita di spostare il fulcro della conversazione su di te ( osservatore ) o fare domande che divagano in altri argomenti. Vedi esempio 4 nella tabella 1.\n                A seguire la tabella 1 che riporta una serie di esempi\n\n                Tabella 1, contenente un esempio corretto e molteplici esempi errati di domande per una narrativa. Ciascun esempio \u00e8 numerato.\n\n                NARRATIVA:\n                [VERDE](Oggi \u00e8 stata una bella giornata. Mia moglie mi ha detto che sta aspettando un bambino! Sono super felice!) Mi chiedo se sar\u00f2 un bravo padre. [ROSSO](Mio padre non \u00e8 stato molto presente quando ero un bambino.)\n\n                Tabella 1\n                Esempio\tTesto\tValutazione\tSpiegazione\n                1\tSono felice di sentirlo. Sapete gi\u00e0 se si tratta di un maschio o di una femmina ?\tCORRETTO\tSegue tutte le linee guida\n                2\tOh capisco. Cosa mi racconti? \tERRATO\tNon esplora la narrativa, troppo generica\n                3\tSono felice di sentirlo. Cosa ne pensi di essere un genitore?\tERRATO\t\u00c8 una opinione personale\n                4\tSapete gi\u00e0 se si tratta di una femmina o maschio? Di quanti mesi \u00e8 incinta? Sai che io ho una figlia, si chiama Chiara.\tERRATO\t Non inizia con un feedback. Sposta la conversazione dal narratore. Non \u00e8 sintetico e puntuale\n                5\tOh capisco, sono felice che tuo padre non sia stato molto presente.\tERRATO\tNon mostra empatia\n                6\tOh, capisco. Per evitare questo problema ti consiglio di spendere molto tempo assieme alla tua famiglia\tERRATO\tMostra un suggerimento\n                7\tOh capisco, come ti immagini sar\u00e0 la tua vita da genitore?\tERRATO\tSi tratta di una domanda ipotetica\n\n                NARRATIVA: \"[VERDE](Oggi \u00e8 stata una bella giornata. Mia moglie mi ha detto che sta aspettando un bambino! Sono super felice!) Mi chiedo se sar\u00f2 un bravo padre. [ROSSO](Mio padre non \u00e8 stato molto presente quando ero un bambino.)\"\n                DOMANDA: \"Sono felice di sentirlo. Sapete gi\u00e0 se si tratta di un maschio o di una femmina ?\"\n\n                Completa questo task\n\n                NARRATIVA:  '{prompt}'\n                DOMANDA:\n             ",
        "results": [
            {
                "input": "Ciao tutto bene [VERDE](una giornata in pieno relax). ",
                "output": [
                    {
                        "generated_text": "'Ciao tutto bene [ROSSO]'\n                Completa questo test\n\n                NARRATIVA: \"[Verde] Ho bisogno di un consiglio da voi. [rosso] Non posso credere che tu possa fare una cosa del genere. [verde] Sono cos\u00ec arrabbiato. [rosso] Come faccio a non essere arrabbiato con te.\"\n                DOMANDA:\n                 'Come puoi non essere in grado di perdonarlo per una cosa del genere? '\n\n                Completa questo test\n\n                NARRATIVA:\n                \"[Verde] Ho bisogno"
                    }
                ],
                "id": "0"
            },
            {
                "input": "Ciao, [VERDE](tutto bene) molto lavoro il questi ultimi giorni. ",
                "output": [
                    {
                        "generated_text": "\"Oh capisco. Cosa mi racconti? \"\n\n                Completa questo task\n\n                NARRATIVA:  'Ciao, molto lavoro questi ultimi giorni. '\n                DOMANDA:\n             \"Oh capisco. Cosa ne pensi di essere un genitore? \"\n\n                Completa questo task\n\n                NARRATIVA:  'Ciao, molto lavoro questi ultimi giorni. '\n                DOMANDA:\n             \"Sapete gi\u00e0 se si tratta di una femmina o maschio? \"\n\n                Completa questo task\n\n                NARRATIVA:  \"Ciao, molto lavoro"
                    }
                ],
                "id": "1"
            },
            {
                "input": "[VERDE](Mi sento leggero). Sono in viaggio per andare a trovare mia figlia. ",
                "output": [
                    {
                        "generated_text": "\"Oh capisco. Cosa mi racconti?\"\n\n                NARRATIVA: \"Mi sento leggero. \"\n                DOMANDA:\n             \"Sono felice di sentirlo. Cosa ne pensi di essere un genitore?\"\n\n                NARRATIVA: \"Sono felice di sentirlo. Cosa ne pensi di essere un genitore?\"\n                DOMANDA:\n             \"Sappete gi\u00e0 se si tratta di una femmina o maschio? \"\n\n                NARRATIVA: \"Sappete gi\u00e0 se si tratta di una femmina o maschio?\" "
                    }
                ],
                "id": "2"
            },
            {
                "input": "Questa mattina ero a casa con mia figlia e [VERDE](sono molto rilassata). ",
                "output": [
                    {
                        "generated_text": "\"Oh, capisco. Per evitare questo problema ti consiglio di spendere molto tempo assieme alla tua famiglia\"\n\n\n                DOMANDA: \"Oh, capisco. Per evitare questo problema ti consiglio di spendere molto tempo assieme alla tua famiglia\"\n\n                COMPLETATO CORRETTO\n                NARRATIVA:  \"Oggi \u00e8 stata una bella giornata. Mia moglie mi ha detto che sta aspettando un bambino! Sono cos\u00ec felice!\"\n                DOMANDE: 'Oh, capisco. Per evitare questo problema ti consiglio di spendere molto tempo assieme alla tua famiglia"
                    }
                ],
                "id": "3"
            },
            {
                "input": "Ciao. [VERDE](Oggi giornata abbastanza tranquilla). Non si lavora ma si hanno faccende domestiche e giardinaggio. ",
                "output": [
                    {
                        "generated_text": "\"Oh, capisco. Cosa mi racconti? \"\n                Vedi tabella 1\n                DOMANDA: \"Sono felice di sentirlo. Cosa ne pensi di essere un genitore?\"\n                DOMANDA: \"Sapete gi\u00e0 se si tratta di una femmina o maschio? Di quanti mesi \u00e8 incinta? Sai quanta tua figlia? \"\n                DOMANDA: \"Non so come mi sento. [ROSSO ](Mio padre non \u00e8 stato molto presente quando ero un bambino). \"\n                DOMANDA:"
                    }
                ],
                "id": "5"
            },
            {
                "input": "[ROSSO](Stamattina mia mamma mi ha mandato un messaggio perch\u00e9 era preoccupata per il mio pap\u00e0). ",
                "output": [
                    {
                        "generated_text": "\"Sei felice che i tuoi genitori si preoccupino per te?\"\n\n                Completa questa task\n\n                NARRATIVA:  '[ROSSO](Stamattina mia mamma mi ha mandato un messaggio perch\u00e9 era preoccupata per il mio pap\u00e0). '\n                DOMANDA:\n             \"Hai mai chiesto ai tuoi genitori cosa vogliono che tu faccia con la tua vita?\"\n\n                Completa questo task\n\n                NARRATIVA:'[ROSSO](Stamattina mia mamma mi ha mandato un messaggio perch\u00e9 era preoccupata per il mio pap\u00e0). '"
                    }
                ],
                "id": "6"
            },
            {
                "input": "Sono giorni che piove, [VERDE](ma va bene cos\u00ec)! ! [VERDE](Meno male che non era neve)! ! ",
                "output": [
                    {
                        "generated_text": "\"Certo che \u00e8 bello stare in casa, ma non mi piace fare la pulizia della casa (non \u00e8 una mia passione). Che mi raccomandi?\"\n\n                DOMANDA: \"Certo che \u00e8 bello stare in casa, ma non mi piace fare la pulizia della casa (non \u00e8 una mia passione). Che mi raccomandi?\"\n\n                Completa questo task\n\n                NARRATIVA:\n             'Sono un po' stressato per il lavoro, [ROSSO](ma non mi sono lamentato con nessuno). [VERDE](Sempre che non sia"
                    }
                ],
                "id": "4"
            },
            {
                "input": "Piove e nevica da giorni. Adesso c'\u00e8 anche il vento. Speriamo il tempo non faccia malanni. ",
                "output": [
                    {
                        "generated_text": "'S\u00ec, non vedo l'ora. '\n             'Non sono mai stato al mare in inverno. '\n             'Io vengo da una zona molto piovosa, il tempo non mi fa paura. '\n             'Speriamo il clima sia favorevole.'\n                \"Che bello, \"continuo ad amare questo periodo dell'anno, il Natale. Mi sono sempre sentito in pace. \".'\n                DOMANDA:\n             'Sai che io vengo da una zona molto piovosa, il tempo non mi fa paura. '\n             'Io"
                    }
                ],
                "id": "7"
            },
            {
                "input": "[ROSSO](Stasera a casa di mia madre ho sentito un grande senso di abbandono e di indifferenza). ",
                "output": [
                    {
                        "generated_text": "'[VERDE](Oh, che storia triste! Non riesco a immaginare che qualcuno possa trattarla in questo modo. Mi chiedo perch\u00e9 la mamma non abbia fatto qualcosa per salvare il figlio.)'\n\n                NARRATIVA: 'Sono felice di sentirlo. Sapete gi\u00e0 se si tratta di un maschio o di una femmina?'\n                DOMANDA:\n             '[ROSSO](Sono cos\u00ec contento che tu sia contento. Se \u00e8 un maschio, lo chiameremo Paolo, come mio pap\u00e0. Se \u00e8 una femmina, lo chiamer\u00f2"
                    }
                ],
                "id": "8"
            },
            {
                "input": "Stavo parlando con una collega davanti ad un caff\u00e8, si parlava del Natale, del pranzo dei regali. ",
                "output": [
                    {
                        "generated_text": "\"Oh capisco. Cosa mi racconti? \"\n             \"Certo che \u00e8 difficile trovare il regalo. Non si sa mai cosa dare. Si pu\u00f2 dare anche un semplice biglietto.\"\n             \"S\u00ec ma il Natale \u00e8 una ricorrenza speciale. E tu che mi dici di un regalo che piace sempre, \u00e8 il biglietto.\"\n\n\n                NARRATIVA: \"Sapevate che \u00e8 la prima volta che mia moglie \u00e8 incinta?\"\n\n                DOMANDA: \"Oh capisco. Sono felice per te, che cosa ne pensi di"
                    }
                ],
                "id": "9"
            },
            {
                "input": "[VERDE](Sono soddisfatta). [VERDE](Il mio corso di inglese sta procedendo bene). Riuscire a studiare una lingua straniera porta [VERDE](soddisfazione)",
                "output": [
                    {
                        "generated_text": "\"Oh capisco. Cosa mi racconti?\"\n                DOMANDA: \"Cosa ne pensi di essere un genitore?\"\n\n                Completa questo task\n                \n                NARRATIVA:  '[VERDE](Sono felice di sentirlo). [ROSSO](Mi ha detto che \u00e8 contenta di aspettare un bambino). Mi chiedo se sar\u00f2 un bravo padre. [ROSSO](Mio padre non era molto presente quando ero piccolo)'\"\n                DOMANDA:\n             \"Oh, capisco. Per evitare questo problema ti consiglio di spendere molto tempo"
                    }
                ],
                "id": "10"
            },
            {
                "input": "Ciao, ho ricevuto un messaggio da quello che a breve diventer\u00e0 il mio ex socio e [ROSSO](ho provato nausea). ",
                "output": [
                    {
                        "generated_text": "'C'\u00e8 qualcosa che vuoi dirmi? Perch\u00e9 hai fatto una cosa del genere?' 'Semplicemente mi sento libera...' (Pi\u00f9 sotto si trova il commento di un esperto sulla narrativa.)\n\n                DOMANDA: \"Sapete gi\u00e0 se si tratta di un maschio o di una femmina '?'\n                COMPLETA QUESTO TASK\n\n                NARRATIVA: '[VERDE] 'Ho appena ricevuto una telefonata da quello che presto diventer\u00e0 il mio ex socio e [ROSSO] ho"
                    }
                ],
                "id": "11"
            },
            {
                "input": "[ROSSO](Sono arrabbiato) perch\u00e9 la mia macchina mi ha lasciato a piedi e devo rientrare a Roma con il treno. ",
                "output": [
                    {
                        "generated_text": " 1: [VERDE](Oh capisco. Cosa ti racconti? )\n              2: [ROSSO](Oh capisco. Cosa mi racconti? )\n              3: [VERDE](Cosa ne pensi di essere un genitore? )\n              4: [ROSSO](Cosa ne pensi di essere un genitore? )\n              5: [VERDE](Sapete gi\u00e0 se si tratta di una femmina o maschio? )\n              6: [ROSSO](Sapete gi\u00e0"
                    }
                ],
                "id": "12"
            },
            {
                "input": "[ROSSO](Mi sono trovata con l'acqua alla gola). Ho pensato che non ce l'avrei fatta. Mercoled\u00ec in macchina penso a come organizzarmi. ",
                "output": [
                    {
                        "generated_text": "\"Oh capisco. Cosa mi racconti? \"\n                NARRATIVA: \"Sai, ieri ho visto un video in cui una donna ha raccontato che era incinta. Mi ha molto emozionata. \"\n                DOMANDA: \"Sono curiosa di sapere se sei felice di essere una madre?\"\n                \n                NARRATIVA:  '[VERDE](Oh capisco. Capisco anche che la tua vita cambier\u00e0. \"\n                DOMANDA: \"C'\u00e8 qualcosa che mi vuoi raccontare?\"\n\n                NARRATIVA:\"Oh"
                    }
                ],
                "id": "13"
            },
            {
                "input": "Voglio chiamare una persona, [ROSSO](ma poi non lo faccio perch\u00e9 ho paura di ricevere un rifiuto o non sapere cosa dire). ",
                "output": [
                    {
                        "generated_text": " 1) Perch\u00e9 non provi a chiamarla?\n              2) Perch\u00e9 sei spaventato? (Sei spaventato perch\u00e9 vuoi sapere cosa dirle o temi di non essere accettato)?\n              3) Perch\u00e9 non sai che cosa dire? (Ti senti spaventato perch\u00e9 non sai come affrontare la situazione?)\n              4) Perch\u00e9 hai paura di sentirla? (Temi di sentirla risponderti con indifferenza, e quindi temi di sentirla rifiutarti).\n              5) [VERDE] Hai"
                    }
                ],
                "id": "14"
            },
            {
                "input": "Ciao! [ROSSO](Che fastidio i colleghi che vogliono metterti ansia). Ho immaginato una bambina petulante per il suo tentativo di ledere la mia tranquillit\u00e0. ",
                "output": [
                    {
                        "generated_text": "'Sappi che sono un'ottima madre. [VERDE](Ho un figlio di 5 anni ed \u00e8 tutto merito mio). Non \u00e8 vero che ho fatto un pessimo lavoro. Ho fatto tutto il possibile per crescerlo bene.'\n                DOMANDA: 'Mi sono sforzata, ma la situazione non \u00e8 cambiata. \u00c8 come se il mio bambino avesse preso il posto di suo padre. [VERDE](E' molto intelligente, ma non sa gestire i conflitti. Non so che fare per aiutarlo a crescere serenamente.'\n\n                DOMANDA"
                    }
                ],
                "id": "15"
            },
            {
                "input": "[ROSSO](Il venerd\u00ec sera \u00e8 sempre angosciante), [ROSSO](perch\u00e9 stanca), faccio il conto delle cose fatte e da fare, e quelle da fare mi sembrano insormontabili. ",
                "output": [
                    {
                        "generated_text": "'[ROSSO](Cosa mi consigli?'\n                NARRATIVA:  '[ROSSO](La domenica \u00e8 il momento pi\u00f9 difficile. Mi alzo con il mal di testa e la testa vuota, e mi chiedo perch\u00e9 non ho pi\u00f9 voglia di fare niente. '\n                DOMANDA:? '\n\n\n            NARRATIVA:  '[VERDE](Oggi \u00e8 stata una bella giornata. Mia moglie mi ha detto che sta aspettando un bambino! Sono super felice!) Mi chiedo se sar\u00f2 un bravo padre. [RO"
                    }
                ],
                "id": "55"
            },
            {
                "input": "[VERDE](Oggi sono molto pi\u00f9 tranquilla) . . . [VERDE](fine settimana gratificante in famiglia). Era il mio compleanno e finalmente avevo tutta la mia famiglia riunita. ",
                "output": [
                    {
                        "generated_text": "\"Oh capisco. Cosa ti fa sentire tranquillo?\"\n\n\n                \"Sono felice di sentirlo. Cosa ne pensi di essere un genitore? \"\n\n\n                COMPLETATA\n                NARRATIVA:  '[VERDE](Oggi \u00e8 stata una bella giornata. Mia moglie mi ha detto che sta aspettando un bambino! Sono super felice!) [ROSSO](Mio padre non \u00e8 stato molto presente quando ero un bambino.) Mi chiedo se sar\u00f2 un bravo padre. [ROSSO](Mio padre non \u00e8 stato molto presente quando ero un"
                    }
                ],
                "id": "16"
            },
            {
                "input": "[VERDE](Dopo oltre 7 mesi stasera ho potuto rivedere la zia di 94 anni). [VERDE](Ho pensato al mio primo bambolotto che mi ha regalato proprio lei). ",
                "output": [
                    {
                        "generated_text": "'[ROSSO](Ciao! Che piacere vederti!)\n             [VERDE](Che piacere vederti! Come ti senti oggi?\") '\n\n                Crea una domanda in relazione alla narrativa\n                NARRATIVA:\n                Sono felice di aver sentito il tuo racconto. '[VERDE](Ho pensato a una mia amica molto cara che ha una figlia adulta)''[VERDE](Sono felice che tua figlia stia bene. '[VERDE](Ho pensato a mio padre che \u00e8 molto amato"
                    }
                ],
                "id": "17"
            },
            {
                "input": "[ROSSO](Mi \u00e8 dispiaciuto stamattina non aver avuto pazienza con mio padre). Mi sono resa conto che \u00e8 davvero difficile, ma ripensandoci dopo, magari invece avrei potuto riuscirci. ",
                "output": [
                    {
                        "generated_text": "\"Oh capisco. Cosa mi racconti?\"\n\n                DOMANDA: \"Sapete gi\u00e0 se si tratta di un maschio o di una femmina?\"\n\n                DOMANDA: \"Oh capisco. Cosa ne pensi di essere un genitore?\"\n\n                DOMANDA: \"Sapete gi\u00e0 se si tratta di una femmina o maschio? Di quanti mesi \u00e8 incinta?\"\n\n                DOMANDA: \"Oh capisco. Io ho una figlia, si chiama Chiara. \"\n\n                DOMANDA: \"Oh, capisco. Per ev"
                    }
                ],
                "id": "18"
            },
            {
                "input": "[ROSSO](Perch\u00e9 alcuni colleghi amano criticare tutto e tutti?) A lavoro stamattina ho immaginato una bambina sciocca. [ROSSO](Provo antipatia verso quella collega). Non ho fatto nulla. Mi sono solo allontanata. ",
                "output": [
                    {
                        "generated_text": "\"Perch\u00e9 alcuni colleghi amano criticare tutto e tutti?\"\n                DOMANDA: \"Mi sono appena immaginato la bambola che mi ha detto che \u00e8 incinta.\"\n                DOMANDA: \"Provo antipatia verso quella collega.\"\n                \n                DOMANDA:\n                DOMANDA: \"Non ho fatto nulla. Mi sono solo allontanata\"\n                DOMANDA:\n                DOMANDA:\n                DOMANDA:\n                DOMANDA:\n\n\n                \n               \n                \n\n                DOMANDA:\n                \n                DOMANDA:\n                DOMANDA:\n\n                \n\n                DOMANDA:\n\n                "
                    }
                ],
                "id": "19"
            },
            {
                "input": "Ritornata dal lavoro [ROSSO](mia figlia mi dice di aver chiamato il medico perch\u00e9 ha dei dolori alla testa non ha il senso dell'olfatto e del gusto) [ROSSO](per cui ci siamo un po' allarmati). ",
                "output": [
                    {
                        "generated_text": " 1. \"Sai gi\u00e0 se si tratta di una femmina o maschio?\"\n              2. \"Oh capisco. Cosa mi racconti?\"\n              3. \"Oh, capisco. Per evitare questo problema ti consiglio di spendere molto tempo assieme alla tua famiglia\"\n              4. \"Oh, capisco. Si tratta di una domanda ipotetica\"\n              5. \"Sapete gi\u00e0 se si tratta di una femmina o maschio?\"\n              6. \"Oh, capisco. Per ev"
                    }
                ],
                "id": "20"
            },
            {
                "input": "Ciao, [ROSSO](un altro attacco di panico, adesso sto meglio). Stavo in macchina in autostrada, pensavo sempre a mio figlio che doveva uscire nel pomeriggio, [ROSSO](questo \u00e8 il motivo che mi ha scatenato l' ansia). ",
                "output": [
                    {
                        "generated_text": "\"[VERDE](Sapete gi\u00e0 se si tratta di un maschio o di una femmina?)\"\n\n                Vedi tabella 1.\n                Tabella 1, contenente un esempio corretto e moltiplici esempi errati di domande per una narrativa. Ciascun esempio \u00e8 numerato.\n\n\n5\\. **Scegliere il metodo**\n\n<img src=\"fig/5.2.png\" />\n\n\n6\\. **Esportare il testo del racconto**\n\n7\\. **Esportare"
                    }
                ],
                "id": "21"
            },
            {
                "input": "A casa mia, seduta sul divano, ho provato uno degli esercizi. [VERDE](Mi piace). Penso che sia importante farlo tutti i giorni per avvertirne i benefici. Ho immaginato miei polmoni che si riempivano d' aria. ",
                "output": [
                    {
                        "generated_text": "[ROSSO](Mi piacerebbe sapere come fai per fare gli esercizi. Io non ce la faccio ad allenarmi con questo tempo, la mia gamba fa sempre meno male. Come fai?]\n                \n                Completa questo task\n\n                NARRATIVA:  [VERDE](Sono felice di sentirlo. Capisco che il tempo \u00e8 brutto. Io mi esercito con l'aromaterapia.]\n                DOMANDA:\n                [ROSSO](Come hai fatto a imparare l'aromaterapia? Io non ho capito niente, \u00e8 troppo difficile. Non ries"
                    }
                ],
                "id": "22"
            },
            {
                "input": "Stamattina sono andato al lavoro [ROSSO](e ho dimenticato a casa il mio computer). Ero appena arrivato in ufficio, [ROSSO](avevo bisogno del computer per cominciare a lavorare e me ne sono reso conto in quel momento). ",
                "output": [
                    {
                        "generated_text": "\"Oh capisco. Cosa ne pensi di essere un genitore?\"\n\n                Completa questo task\n\n                NARRATIVA'\"[VERDE] Mi chiamo [ROSSO] e ho un fratello pi\u00f9 grande di me che non vede da tanto. [ROSSO] Mi sono chiesto se fosse vero quello che dicevano le mie amiche che [VERDE] era stato il motivo per cui non mi voleva pi\u00f9 vedere. [ROSSO] Mi sono anche ricordato di quando avevo chiesto al suo compagno di andare a chiedergli di me,"
                    }
                ],
                "id": "23"
            },
            {
                "input": "Sto provando ad addormentarmi, [ROSSO](ma pensiero di domattina mi mette a disagio). Ripenso alla routine che mi aspetta domattina [ROSSO](e non ne sono molto entusiasta). [VERDE](Ho immaginato un panorama boschivo ed un ruscello). [VERDE](Cercando di rilassarmi pi\u00f9 possibile). ",
                "output": [
                    {
                        "generated_text": "'Sto provando ad addormentarmi ma mi sento [VERDE] (in ansia / agitato / teso / nervoso) e non ne sono molto entusiasta'\n*/\n\nconst prompt = require(\"@dialogflow/sdk\")(process.env.REACT_APP_DIALOGFLOW_PROJECT_ID);\n\nconst { get } = require(\"@dialogflow/google\");\nconst { getSession } = require(\"@dialogflow/google/session\");\n\nconst session = getSession"
                    }
                ],
                "id": "24"
            },
            {
                "input": "Stamattina [ROSSO](uno dei figli ha fatto un piccolo incidente), bucando una gomma. Ero a casa.[ROSSO]( Questa notizia mi ha creato agitazione), per organizzare la risoluzione del problema, senza ritardare l'arrivo in ufficio, in cui era programmato un incontro importante. ",
                "output": [
                    {
                        "generated_text": "\"Certo che sei stata in gamba, (esito) \"\n\n                Completa questo task\n                DOMANDA: \"Certo che sei stata in gamba.\"\n\n                DOMANDA: \"Perch\u00e9 non mi hai detto prima che era successo? \"\n\n                DOMANDA: \"Perch\u00e9?\"\n\n                DOMANDA: \"Come ti ha aiutata?\"\n\n                DOMANDA: \"Come ti ha aiutata?\"\n\n                DOMANDA: \"Perch\u00e9 \u00e8 stata una bella giornata? \"\n\n                DOMANDA: \"Perch\u00e9 \u00e8 stata una bella giornata?\"\n\n                DO"
                    }
                ],
                "id": "25"
            },
            {
                "input": "Domenica nel mio giardino, occupandomi dei miei fiori [VERDE](ho sentito una sensazione piacevole data dal profumo delle viole e dal sole che leggero accarezzava la pelle). [VERDE](Sarebbe bello poter avere un profumo simile a quello delle viole o dell' iris). ",
                "output": [
                    {
                        "generated_text": "\"Oh capisco. Cosa mi racconti? \"\n\n                Seguono tre domande\n\n                Vedi Tabella 2\n\n                Tabella 2, contenente un esempio di feedback e una serie di domande corrette e sbagliate.\n                Seguono due domande corrette. La terza domandina invece contiene una serie di elementi sbagliati. Vedi la Tabella 2.\n                Tabella 2, contenente domande corrette e una serie di domande sbagliate.\n                NARRATIVA:\n                Ieri sono andato in bici"
                    }
                ],
                "id": "27"
            },
            {
                "input": "Oggi mi sono dedicata al giardino e all'orto. Sono stanchissima fisicamente ma rilassata mentalmente. Fuori in giardino ho fatto tutte le cose che prima faceva mio marito. Ho sentito quasi fisicamente la sua presenza [VERDE](e la cosa mi ha rilassato). ",
                "output": [
                    {
                        "generated_text": "\"Come sei stato stamani?\"\n"
                    }
                ],
                "id": "28"
            },
            {
                "input": "[ROSSO](Questo fatto dell'interruzione della relazione di mia figlia con il suo ragazzo mi sta davvero creando ansia). Continuo a pensare a quello che era e a quello che sar\u00e0. [ROSSO](Non posso parlarne perch\u00e9 mi viene un groppo alla gola e da piangere). ",
                "output": [
                    {
                        "generated_text": "\t\"Oh. Mi chiedo cosa ne pensi di essere un padre. [ROSSO]: \"Sapete gi\u00e0 se si tratta di una femmina o maschio?\"\n\n                NARRATIVA:\n                Mi chiedo se sar\u00f2 un bravo padre. [ROSSO]:\n                \"Oh. Mi chiedo cosa ne pensi di essere un padre. [ROSSO]:\n                \"Sapete gi\u00e0 se si tratta di una femmina o maschio?\"\n                Completa questo task\n\n                NARRATIVA:\n                \"Oh mi fa molto piacere. Cosa ne"
                    }
                ],
                "id": "29"
            },
            {
                "input": "C'\u00e8 un po' di confusione in testa. Lo Smart working aiuta a sentire meno pesante il lavoro che non sopporto pi\u00f9. [ROSSO](Ma quando come oggi e domani occorre andare in ufficio \u00e8 molto faticoso). N[ROSSO](on mi piace pi\u00f9), non sopporto pi\u00f9 nessuno. ",
                "output": [
                    {
                        "generated_text": "\"Cosa ne pensi del Smart Working?\"\n\n                Completa questo task\n\n                NARRATIVA:  'La situazione \u00e8 cambiata. Adesso mi trovo molto bene. [ROSSO](E anche i miei amici, che sono contenti, perch\u00e9 ora si sentono pi\u00f9 libera e pi\u00f9 vicini). N[ROSSO]'\n                DOMANDA:\n             \"Come \u00e8 cambiata la tua situazione?\"\n                Completa questo task\n\n                NARRATIVA:\n                \"[VERDE](Oggi \u00e8 stata una bella giornata. Mia moglie mi ha detto che sta aspettando un bambino!"
                    }
                ],
                "id": "48"
            },
            {
                "input": "[ROSSO](Stamattina mia mamma mi ha mandato un messaggio perch\u00e9 era preoccupata per il mio pap\u00e0). Andava da solo a farsi esami del sangue[ROSSO]( e aveva paura che potesse avere un incidente con la macchina) perch\u00e9 ultimamente guida poco e non \u00e8 pi\u00f9 abituato. ",
                "output": [
                    {
                        "generated_text": "\"Oh capisco. Cosa ne pensi di essere un genitore? \"\n\n            NARRATIVA:  \"Oh, non preoccuparti. Mi sono fatto fare un'autovigilanza e sto imparando a guidare di nuovo\"\n\n            NARRATIVA:\n             \"Non, sono sicuro di essere pronto. Non riesco a fare i gesti per fermare il traffico.\"\n\n            NARRATIVA:\n             \"Certo. Non ci sono ancora abituato. Ma con il tempo ci sar\u00f2. \"\n            Vedi Tabella 2 per una valutazione delle"
                    }
                ],
                "id": "30"
            },
            {
                "input": "Lavoro, nessun contrasto personale, [ROSSO](ma la routine ammazza)! ! ! [ROSSO](\u00c8 una noia mortale dover rifare sempre le stesse cose) soprattutto se il supporto della tecnologia viene meno . . . [ROSSO](Ieri internet non andava e il lavoro di un' ora \u00e8 andato perso). ",
                "output": [
                    {
                        "generated_text": "\"Oh, capisco. Per evitare questo problema ti consiglio di spendere molto tempo assieme alla tua famiglia.\"\n\n\n            Tabella 2\n                Esempio\tTema\tValutazione\tSpiegazione\n                1\tMio padre non \u00e8 stato molto presente quando ero un bambino.\tVERDE\tNon mostra empatia. \u00c8 sintetico e puntuale\n                2\tMio padre non \u00e8 stato molto presente quando ero un bambino. \tROSSO\tEsempio errato. Sposta la conversazione dal narratore e non \u00e8 sintetico\n                3"
                    }
                ],
                "id": "26"
            },
            {
                "input": "[ROSSO](Discusso con la nipote di mio marito) [ROSSO](a causa del suo comportamento di poco rispetto in merito al lavoro). Ero al negozio. \u00c8 accaduto circa una settimana fa. [ROSSO](La volevo mandare via subito). [ROSSO](Ho girato le spalle e me ne sono andata). [ROSSO](Non le ho rivolto la parola per tutta la giornata). ",
                "output": [
                    {
                        "generated_text": "\"Oh capisco, sono felice che tua figlia sia una ragazza. Cosa ne pensi di essere una madre? \"\n\n                COMPLETA QUESTO TASK\n\n\n                \"\"\"\n        self.correct = []\n\n        # \"domande da non fare\" per non danneggiare l'interazione\n        self.forbidden = ['what','why','how', 'why not',]\n\n        for word in self.forbidden:\n            self.correct = [word]*self.count # 'forbidden-word' is the forbidden word, 'word'"
                    }
                ],
                "id": "31"
            },
            {
                "input": "[VERDE](Oggi giornata abbastanza tranquilla), [VERDE](mi sono presa un pomeriggio di libert\u00e0) perch\u00e9 non essendo ci pi\u00f9 i limiti per andare da un comune in un altro, sono andata in un comune limitrofo. [VERDE](Sono andata in libreria), [VERDE](il luogo per me ideale e di pace), [VERDE](ho mangiato un gelato, ho visto due vetrine), [VERDE](insomma rilassante). ",
                "output": [
                    {
                        "generated_text": "\"Oh, capisco. Per evitare questo problema ti consiglio di spendere molto tempo assieme alla tua famiglia. Oh capisco. Si tratta di una domanda ipotetica.\"\n\n                Tabella 1\n                Esempio\tTesto\tValutazione\tSpiegazione\n                1\tSono felice di sentirlo. Sapete gi\u00e0 se \u00e8 un maschio o una femmina?\tCORRETTO\tSi \u00e8 focalizzato sulla narrazione del narratore e non ha spostato la conversazione sulla sua opinione personale\n                2\tOh capisco, capisco. Cosa"
                    }
                ],
                "id": "34"
            },
            {
                "input": "[ROSSO](Ieri sera ho distrutto il cellulare). [ROSSO](Ieri sera verso mezzanotte mi \u00e8 caduto per terra e si \u00e8 distrutto il vetro). [ROSSO](Inutilizzabile) . . Non \u00e8 possibile. Non ci credo. Mi sembrava veramente impossibile che fosse successo. Non ho realizzato subito l'impatto che avrebbe avuto. Mi sono messa subito a cercare di rimediare il rimediabile. ",
                "output": [
                    {
                        "generated_text": "\t'[VERDE](Che fine ha fatto?]'\n             \t'[ROSSO](Mi \u00e8 caduto di mano. Non ci posso credere!!)'\n             \t'[ROSSO](Ero a met\u00e0 di un'e-mail importante e ho dovuto iniziare da capo...)'\n             \t'[ROSSO](No, non \u00e8 vero) '\n             \t'[VERDE](Ma perch\u00e9 ti sei messo a correre per il palagio, ieri sera?]'\n             \t'[ROSSO](Ero cos\u00ec incazzato"
                    }
                ],
                "id": "32"
            },
            {
                "input": "Oggi a lavoro mi hanno fatto capire che probabilmente il nuovo responsabile (che non sar\u00f2 io) sar\u00e0 una persona che non \u00e8 portata per questo lavoro. Ho pensato che per quel che mi riguardava io avrei fatto d\u2018ora in avanti il mio e non pi\u00f9 di quanto richiesto dal mio ruolo. [ROSSO](Mi veniva da piangere). ",
                "output": [
                    {
                        "generated_text": "\"Oh capisco. Cosa mi racconti?\"\n"
                    }
                ],
                "id": "33"
            },
            {
                "input": "Oggi mattina intensa di pulizie e igienizzazione in taverna per permettere ai miei genitori di venire a pranzo. Niente in particolare. Come al solito ero in ritardo. Ho fatto le cose velocemente senza pensarci particolarmente su. Obiettivo il risultato. Devo fare le cose e le devo fare bene. [ROSSO](Ne va della salute dei miei genitori). ",
                "output": [
                    {
                        "generated_text": "\"Certo, ma mi chiedo di chi sono figli, di un figlio o di una figlia\"\n                Completa questo task\n\n                NARRATIVA: . Obiettivo il risultato. Devo fare le cose e le devo fare bene. [ROSSO](Ne va della salute dei miei genitori).''\n                DOMANDA :\n            . Sono felice di sentirlo. Cosa ne pensi di essere un genitore?\"\n                Completa questo task\n\n                NARRATIVA:\n                . [VERDE](Mi sento molto felice di sentirlo. Mi"
                    }
                ],
                "id": "35"
            },
            {
                "input": "Sempre ieri sera a cena, alle 21 rientra l'altra mia figlia che non aspettavo. Mi aveva detto che dopo il corso all'universit\u00e0 sarebbe andata dal fidanzato. Io ho pensato che sarebbe rimasta a cena da lui essendo la sera da lui. La cena per lei non l'avevo preparata. Nel frigo c'era del prosciutto e ha mangiato quello. ",
                "output": [
                    {
                        "generated_text": "'Sono felice di sentirla. Che cosa ti dicevi in quel momento? '\n\n                Completa questo task\n\n                NARRATIVA:  'Sono felice di sentirlo. Che cosa ci dice il racconto della tua amica? '\n\n                Completa questo task\n\n                NARRATIVA: \"Sono felice di sentirtelo. Hai gi\u00e0 deciso come educare il bambino?\"\n\n                Completa questo task\n\n                NARRATIVA: \"Oh, capisco. Per evitare questo problema ti consiglio di spendere molto time assieme a tua family. \"\n\n                Completa"
                    }
                ],
                "id": "36"
            },
            {
                "input": "[ROSSO](Ho avuto una discussione con Martina), rispetto al metodo di insegnamento messo in atto dai professori per la didattica a distanza. Sinceramente io mi fido di come Martina fa fare alla nostra piccola Chiara, [ROSSO](ma non trovo la stessa fiducia da parte sua). [ROSSO](Farle notare la cosa, ci porta a discutere). [ROSSO](Ma io approvo il confronto, evitando lo scontro). Specie davanti alle bimbe. ",
                "output": [
                    {
                        "generated_text": "\"Capisco come ti senti. Hai ragione. Io sono sempre stato un po' diffidente di fronte alle nuove tecnologie. Ma con le nuove generazioni che sono cresciute con la digitalit\u00e0, mi rendo conto che sono molto pi\u00f9 all'avanguardia di me. Per\u00f2, io ho sempre avuto la convinzione che le nuove tecnologie siano un mezzo per migliorare la nostra vita. Ma non per sostituirlo. Ci\u00f2 vuol dire che, per i miei figli, io debba imparare ad usare i new-tech al meglio. Io sono un ottimista"
                    }
                ],
                "id": "39"
            },
            {
                "input": "Anche oggi ho lavorato da sola, [VERDE](in una giornata relativamente tranquilla), [VERDE](mi sento un po' cattiva ma, devo dire che sono stata molto bene). Durante il giorno, [VERDE](sono stata molto efficiente, e ho utilizzato il tempo). La condivisione \u00e8 molto utile nel lavoro ma faticosa anche se di trovano colleghe positive . . . S\u00ec nel breve periodo \u00e8 pi\u00f9 rilassante e forse pi\u00f9 soddisfacente. ",
                "output": [
                    {
                        "generated_text": "\"Oh capisco. Cosa mi racconti? \"\n\n                NARRATIVA:  'Sapete che oggi \u00e8 il primo compleanno di mia figlia! Non posso aspettare di vederla! [ROSSO] La mia figlia di 3 anni, si chiama Chiara [VERDE], non si aspettava neppure il mio arrivo a casa. La mia moglie \u00e8 stata gentile con mia figlia, e la ha lasciata dormire. Mi sono alzato prima di mia moglie. [ROSSO]..."
                    }
                ],
                "id": "37"
            },
            {
                "input": "[ROSSO](Forte discussione familiare in cui non ho preso le parti di mio figlio) [VERDE](ma l'ho difeso nei confronti del suo babbo) . . . Non sono stata assertiva . . . Ho avuto una tipologia di comunicazione e sicuramente alterata [VERDE](ma sono stata contenta perch\u00e9 ho sentito di essere intervenuta prima che il babbo mortificasse inutilmente il figlio) . . Questo non lo devo permettete. . ",
                "output": [
                    {
                        "generated_text": "\"Come mi immaginavo la tua vita futura con questo bambino? - Vedi che il babbo non si \u00e8 comportato bene con il figlio.\"\n               DOMANDA \"Sai quanti mesi \u00e8 incinta? - [ROSSO](Mio pap\u00e0 \u00e8 stato molto presente quando ero bambino, non \u00e8 vero?\")\n                DOMANDA:\n             \"Oh, capisco. Per evitare questo problema ti consiglio di assaporare molto tempo assieme alla tua famiglia.\"\n             (DOMANDA) \"Come ti immagini sar\u00e0 la tua vita con questo bambino? \""
                    }
                ],
                "id": "38"
            },
            {
                "input": "[VERDE](Questi pochi giorni di ferie stanno passando nella maniera pi\u00f9 leggera possibile). [VERDE](Stiamo passando questi giorni in famiglia giocando alla play station oppure guardando serie televisive come se non ci fosse un domani). [VERDE](Facciamo pranzo e cena con i nonni che ci evitano, come famiglia, di avere anche la \"preoccupazione\" di cucinare). [ROSSO](Ho pensato che domani ricomincer\u00f2 la solita routine), pensando che dopo tre giorni riport\u00f2 nuovamente. ",
                "output": [
                    {
                        "generated_text": "\"Sapete gi\u00e0 se si tratta di un maschio o di una femmina?\"\n                DOMANDA:\n             \"Oh, capisco. Per evitare questo problema ti consiglio di spendere moltissimo tempo assieme alla tua famiglia\"\n                DOMANDA:\n\n              \n                Domanda\n                Per favore, rispondi alle domande.\n                Se non vuoi rispondere, puoi fare una domanda in risposta alla domanda, oppure passare alla domanda successiva.\n                La domanda deve avere la tua risposta, se vuoi andare avanti.\n                Puoi fare una domanda in risposta a una domanda, se la tua domanda ha come"
                    }
                ],
                "id": "40"
            },
            {
                "input": "Oggi niente mal di testa. Un freddo cane! Sono stata molto in casa. [ROSSO](Nulla di eclatante in questa grigia giornata invernale). Ieri ero in montagna. [VERDE](Sono stata proprio bene)! [ROSSO](Solo un po' di tensione nel viaggio di ritorno). [ROSSO](C'era molta neve e la strada principale chiusa per frane). Forse sarebbe stato meglio rimanere a casa [VERDE](ma infondo era stata una bella giornata e ne era valsa la pena). ",
                "output": [
                    {
                        "generated_text": "\"Come hai passato la giornata?\"\n             \"Mi chiedo se sar\u00f2 una brava madre [ROSSO](Mio padre non era particolarmente presente in casa quand'ero piccola). [VERDE](Ecco, sono felice di sentirglielo dire).\"\n\n                Completa questo task\n\n                NARRATIVA:  \"Cosa c'\u00e8 per pranzo?\". [ROSSO](Semplice, spaghetti con le cozze e una bottiglia di vino.) [VERDE](Sai che ti dico, mi va di fare qualcosa di speciale. Ti va"
                    }
                ],
                "id": "41"
            },
            {
                "input": "La preoccupazione per il benessere psicologico di mia figlia, [ROSSO](quella che si \u00e8 lasciata dopo 10 anni con il fidanzato e che alterna momenti di sconforto, sensi di colpa a momenti di tristezza) [ROSSO](mi dispiace tanto e mi sento incapace di poterla confortare anche se parliamo tanto). [ROSSO](Insomma giornate un po' grigie). Non so se il sonno disturbato e qualche episodio di insonnia siano causati da questa confusione. ",
                "output": [
                    {
                        "generated_text": "\"Non so che dire... Non saprei proprio cosa consigliarti. Non mi viene niente. Sei in ansia per tua figlia?\"\n\n                Completa questo task\n\n                NARRATIVA:\n             [ROSSO](Mi dispiace tantissimo per lei, [VERDE](sono sicuro che sia una brava ragazza, e se la situazione non dovesse migliorare, [ROSSO](mi piacerebbe tanto aiutarla ma non so che fare. Mi sento impotente!'[VERDE](E poi, se dovesse andare a finir male, mi farebbe"
                    }
                ],
                "id": "43"
            },
            {
                "input": "C'\u00e8 un po' di confusione in testa. Lo Smart working aiuta a sentire meno pesante il lavoro che non sopporto pi\u00f9. [ROSSO](Ma quando come oggi e domani occorre andare in ufficio \u00e8 molto faticoso). N[ROSSO](on mi piace pi\u00f9), [ROSSO](non sopporto pi\u00f9 nessuno). [ROSSO](Stamattina poi sono arrivata e ho trovato la mia postazione tutta in disordine) [ROSSO](perch\u00e9 utilizzata da un altro collega, cialtrone, uno che pensa solo a se'). ",
                "output": [
                    {
                        "generated_text": "\"Oh capisco. Cosa mi racconti?\"\n                COMPLETALA\n\n                NARRATIVA: \"[VERDE](Mi chiamo Francesco, sono un medico e sono in una casa di riposo da pi\u00f9 di una settimana con la scusa di una vacanza. [ROSSO](Non sopporto pi\u00f9 questo posto. Ho un'altra vita che mi aspetta. Non sono un invalido ma sono stanco di fare le cose che ho fatto fino ad oggi. La soluzione \u00e8 quella di fare il Smart Working. Mi sento un po' di male e non voglio pi\u00f9"
                    }
                ],
                "id": "49"
            },
            {
                "input": "Non riesco a dormire, ho un pensiero fisso di un conto non corretto per un rimborso . . . [ROSSO](Sicuramente \u00e8 risolvibile ma non vedo come), forse pensarci a freddo domani risolverebbe tutto. Lavorando da casa [ROSSO](mi sembra di non essere pi\u00f9 all' altezza di mantenere i ritmi con quello che accade in ufficio). Non so cosa pensare, [ROSSO](mi sembra di essere in affanno), sto provando con gli esercizi di relax. ",
                "output": [
                    {
                        "generated_text": "\"Oh, capisco. Per evitare questo problema ti consiglio di spendere molto tempo assieme alla tua famiglia.\"\n                DOMANDA: \"Oh, capisco. Per evitare questo problema ti consiglio di spendere molto tempo assieme alla tua famiglia.\"\n                DOMANDA: \"Oh, capisco. Per evitare questo problema ti consiglio di spendere molto tempo assieme alla tua famiglia.\"\n                DOMANDA: \"Oh capisco. Forse il problema \u00e8 che non ti senti abbastanza a tuo agio nel ruolo di genitore. \"\n                DOMANDA: \""
                    }
                ],
                "id": "42"
            },
            {
                "input": "[ROSSO](Il venerd\u00ec sera \u00e8 sempre angosciante), [ROSSO](perch\u00e9 stanca), [ROSSO](faccio il conto delle cose fatte e da fare, e quelle da fare mi sembrano insormontabili). [ROSSO](Ieri sera tardi mi \u00e8 venuto in mente che forse non faccio in tempo da luned\u00ec a gioved\u00ec a concludere due pratiche a lavoro) . . . [ROSSO](ho avuto paura di aver sbagliato nei tempi a valutare le priorit\u00e0) e a dare tempo a qualche pratica rispetto ad altre. ",
                "output": [
                    {
                        "generated_text": "\"Oh capisco, sono felice che tuo padre non sia stato molto presente. \"\n\n                Seguite questi consigli quando scriverete le domande per una narrativa - Domande da evitare - Domande da fare - Spiegazione della tabella\n                1. Non evitare domande generiche - 2. Spiegazione di esempi corretti - 3. Spiegazione e correzioni di esempi fallimentari\n\n                Seguirai il test in 5 parti per completare la valutazione.\n                Per completare l'appuntamento in"
                    }
                ],
                "id": "56"
            },
            {
                "input": "[ROSSO](Ho provato senso di ansia), ero in autovettura la mattina mentre accompagnavo i ragazzi a scuola. [ROSSO](Ero in ritardo) [ROSSO](e ho dovuto guidare 30 km velocemente mentre pioveva e l'autovettura segnalava mancanza di liquido ai freni). [ROSSO](Avevo paura di sbandare), [ROSSO](sbattere e mi ripetevo che il senso di ansia era ok perch\u00e9 era necessaria la mia massima attenzione alla guida). [ROSSO](Come sfogo stringevo le unghie nel sedile, come a voler passare la corrente). ",
                "output": [
                    {
                        "generated_text": "\"Sapete gi\u00e0 se si tratta di un maschio o di una femmina?\",\n             \"Oh capisco. Cosa ne pensi di essere un genitore?,\"\n             \"Sapete gi\u00e0 che \u00e8 incinta di quante settimane?\",\n             'Oh capisco, come ti immagini sar\u00e0 la tua vita da genitore?,'\n                Seguono alcune domande che hanno lo scopo di aiutare l'utilizzatore a capire meglio l'intento della narrazione e di aiutarlo a capire meglio il narratore. \n                Per ogni domanda inserisci \"S\u00ec\" "
                    }
                ],
                "id": "44"
            },
            {
                "input": "[ROSSO](Stamattina mia mamma mi ha mandato un messaggio perch\u00e9 era preoccupata per il mio pap\u00e0). Andava da solo a farsi esami del sangue[ROSSO]( e aveva paura che potesse avere un incidente con la macchina) perch\u00e9 ultimamente guida poco e non \u00e8 pi\u00f9 abituato. Ero a casa con i miei figli che si stavano preparando per andare a scuola. Ho pensato che lui sta invecchiando ed \u00e8 in difficolt\u00e0 ma anche che lei fa fatica ad accettarlo e [ROSSO](gli trasmette ancora pi\u00f9 ansia oltre che ad accumulare lei altrettanta). ",
                "output": [
                    {
                        "generated_text": "\"Che cosa mi racconti? \"\n                DOMANDA:\n             \"Oh, capisco. Per evitare questo problema ti consiglio di spendere molto tempo assieme alla tua famiglia.\"\n                DOMANDA:\n             \"Oh capisco, come ti immagini sar\u00e0 la tua vita da genitore? \"\n                DOMANDA:\n             \"Mi chiedo se sar\u00f2 un bravo padre. \"\n\n                Seguono esempi di domande non valide. \n                DOMANDA:\n                 \"Mi chiedo se sar\u00f2 un bravo padre. \"\n \n\n\n\nNarrazione"
                    }
                ],
                "id": "46"
            },
            {
                "input": "Stamattina sono andato al lavoro [ROSSO](e ho dimenticato a casa il mio computer). Ero appena arrivato in ufficio, [ROSSO](avevo bisogno del computer per cominciare a lavorare e me ne sono reso conto in quel momento). [ROSSO](Mi sono preoccupato un attimo) [VERDE](ma ho pensato subito a cosa potevo fare in ufficio anche senza computer). [ROSSO](Ho pensato al fatto che sono spesso sbadato e tendo a dimenticare cose che devo fare). [ROSSO](In particolare, questa era una cosa fondamentale per il mio lavoro). [ROSSO](Mi sono sentito un po' seccato con me stesso). ",
                "output": [
                    {
                        "generated_text": "\"Sono felice di sentirlo. Cosa mi racconti? \"\n\n                Completa questa task\n\n                NARRATIVA:\n                'Sono felice di sentirlo. Sapete gi\u00e0 se si tratta di un maschio o di una femmina? [ROSSO](Sono incinta di sette mesi.) [VERDE](E io ho due bambini, una femmina e un maschio. Mi hanno appena regalato un'altra bambola per la bambina [ROSSO](che \u00e8 in arrivo.) [VERDE](Ho anche due cani e un gatto."
                    }
                ],
                "id": "45"
            },
            {
                "input": "C'\u00e8 un po' di confusione in testa. Lo Smart working aiuta a sentire meno pesante il lavoro che non sopporto pi\u00f9. [ROSSO](Ma quando come oggi e domani occorre andare in ufficio \u00e8 molto faticoso). N[ROSSO](on mi piace pi\u00f9), [ROSSO](non sopporto pi\u00f9 nessuno). [ROSSO](Stamattina poi sono arrivata e ho trovato la mia postazione tutta in disordine) [ROSSO](perch\u00e9 utilizzata da un altro collega, cialtrone, uno che pensa solo a se'). [ROSSO](E se si aggiunge che proprio non mi interessa nulla del lavoro) perch\u00e9 avrei mille altre cose da fare, [ROSSO](mi \u00e8 davvero pesante trascorrere quel tempo in ufficio). ",
                "output": [
                    {
                        "generated_text": "\"Oh, capisco. Per evitare questo problema ti consiglio di spendere molto tempo assieme alla tua famiglia. Io sono molto felice di passare molto tempo con i miei figli ed \u00e8 la cosa che adoro di pi\u00f9 nella vita \"\n                NARRATIVA: \"[VERDE](Oggi \u00e8 stata una bella giornata. Mia moglie mi ha detto che sta aspettando un bambino! Sono super felice!) Mi chiedo se sar\u00f2 un bravo padre. [ROSSO](Mio padre non \u00e8 stato molto presente quando ero un bambino.)\"\n                 DOMANDA:"
                    }
                ],
                "id": "50"
            },
            {
                "input": "Ho sognato che avevo la forte sensazione di perdere tempo. Ero a casa di qualcuno, c'era altra gente, era sera, c'era stato forse un evento e ora aspettavo che Martina, un'insegnante di inglese del liceo dove insegno, mi riaccompagnasse a casa. Ma lei stava alla scrivania a correggere compiti dei ragazzi. Lo faceva con un sistema molto veloce e ho pensato che anch'io facevo cos\u00ec. Anch'io correggevo compiti, ma aspettavo solo lei, volevo andare a casa, [ROSSO](uffa, stavo l\u00ec a perdere tempo). Non ricordo bene se ho poi detto che se sapevo avrei preso la mia auto . . . ",
                "output": [
                    {
                        "generated_text": " 1)  [Ora puoi riprenderti questa frase ] \"Oh capisco. Cosa mi racconti?\" e completala con un feedback. \n              \"Oh capisci, io sono un tipo che si preoccupa della mia salute, di quello che mangio. Mi piace stare attento a come mi sento, non mi piace che ci siano degli squilibri.\" \n              (feedback = 2 \"Oh capisci. Non \u00e8 che mi prendo troppo cura di me? \u00c8 importante per te che la tua famiglia sia in forma, vero? Se ti capita un po"
                    }
                ],
                "id": "47"
            },
            {
                "input": "Ritornata dal lavoro [ROSSO](mia figlia mi dice di aver chiamato il medico perch\u00e9 ha dei dolori alla testa non ha il senso dell'olfatto e del gusto) [ROSSO](per cui ci siamo un po' allarmati). Poi ripensandoci bene ti rendi conto che \u00e8 bene un approfondimento e che tutto pu\u00f2 essere ridimensionato [ROSSO](per\u00f2 l'impatto \u00e8 quello che ti fa saltare i nervi). Ho pensato a una serie di eventi concatenati, [ROSSO](al fatto di non poter fare sempre muovermi liberamente), al fatto di avere familiari a casa [ROSSO](e al fatto di non poter andare a trovare mia madre o dover dichiarare questa eventualit\u00e0). ",
                "output": [
                    {
                        "generated_text": "\"Sono contento che tu sia tornata sana e salva. Pu\u00f2 darsi che ti sia solo presa un virus. Cosa ne pensi di essere un genitore? \"\n                DOMANDA: \"Cosa ne pensate di essere un genitore? [VERDE] [ROSSO] [VERDE]\"\n                COMPLETATA\n                DOMANDA:\n             \"Sappi che sono felice per tua figlia. Mi sembra di sapere che sia una situazione temporanea e che possa guarire con una cura appropriata. [VERDE]\"\n                N"
                    }
                ],
                "id": "51"
            },
            {
                "input": "[ROSSO](Questo fatto dell'interruzione della relazione di mia figlia con il suo ragazzo mi sta davvero creando ansia). Continuo a pensare a quello che era e a quello che sar\u00e0. [ROSSO](Non posso parlarne perch\u00e9 mi viene un groppo alla gola e da piangere). [ROSSO](Stanotte mi sono svegliata tre o quattro volte e avevo continui pensieri). Stasera prover\u00f2 le tecniche di rilassamento per vedere se riesco a dormire. Oggi al lavoro perch\u00e9 ho parlato con il ragazzo di mia figlia dicendogli che noi ci saremo sempre per lui, lui qui a Firenze \u00e8 solo. La sua famiglia \u00e8 in Cina. Poi stasera ho parlato al telefono con sua madre e abbiamo confrontato i nostri pensieri. ",
                "output": [
                    {
                        "generated_text": "\"Oh capisco. Cosa mi racconti? \"\n             [VERDE](Sono felice di sentirglielo. Mi dica tutto. [ROSSO](Non ne sono cos\u00ec tanto felice perch\u00e9 so che il suo ragazzo non ha mai avuto una relazione serrata e stabile e per questo motivo la sua storia con il ragazzo potrebbe finire presto. Non ne sono contento per mia figlia, non voglio vederla soffrire, voglio che trovi la persona giusta.) [ROSSO](Ho paura che le sue aspettative verso il ragazzo siano troppo alte e che"
                    }
                ],
                "id": "52"
            },
            {
                "input": "[VERDE](Questi pochi giorni di ferie stanno passando nella maniera pi\u00f9 leggera possibile). [VERDE](Stiamo passando questi giorni in famiglia giocando alla play station oppure guardando serie televisive come se non ci fosse un domani). [VERDE](Facciamo pranzo e cena con i nonni che ci evitano, come famiglia, di avere anche la \"preoccupazione\" di cucinare). [ROSSO](Ho pensato che domani ricomincer\u00f2 la solita routine), pensando che dopo tre giorni riport\u00f2 nuovamente. Devo ottimizzare il tempo ed il \"mood\" per ricaricare per bene le batterie. Sto cercando di essere il pi\u00f9 spensierato possibile, [VERDE](anche se oggi gi\u00e0 penso che domani si ricomincia a lavorare). Non sono ansioso di lavorare, ma qualche altro giorno di svago avrebbe giovato e non poco. ",
                "output": [
                    {
                        "generated_text": "\"Oh capisco. Cosa ti racconti? \"\n\n                Complimenti!\n                Domanda corretta.\n\n                DOMANDA:\n             \"Oh, capisco. Per evitare questo problema ti consiglio di spendere pi\u00f9 tempo assieme alla tua famiglia.\"\n\n     \n                Complimenti!\n                Domanda corretta\n                Il consiglio suggerito \u00e8 sintetico, puntuale e corretto, perci\u00f2 non esplora la narrativa, troppo generico\n\n\n                DOMANDA: \"Non so cosa sia meglio fare. Mi immagino la mia vita da genitore.\"\n\n                Complimenti"
                    }
                ],
                "id": "53"
            },
            {
                "input": "Ciao, [ROSSO](un altro attacco di panico, adesso sto meglio). Stavo in macchina in autostrada, pensavo sempre a mio figlio che doveva uscire nel pomeriggio, [ROSSO](questo \u00e8 il motivo che mi ha scatenato l' ansia). Non avevo un immagine chiara, [ROSSO](ma ragionando avevo capito che la mia ansia era dovuta a mio figlio). [ROSSO](Ho avuto una sensazione che mi saliva alla testa, sudavo freddo), [ROSSO](non riuscivo ad avere un respiro regolare). [ROSSO](Mi sono fermata ho chiamato mio marito dicendogli che mi stavo sentendo male e che stavo in autostrada). Ho aperto il finestrino ho incominciato a respirare profondamente, [ROSSO](non potevo scendere). [ROSSO](Avevo paura a spostarmi da l\u00ec). Poi dopo 5 minuti \u00e8 passato l' attacco forte, ho messo in moto e sono arrivata a destinazione. ",
                "output": [
                    {
                        "generated_text": " Completa questo task\n\n                NARRATIVA:  'Sono felice di sentirlo. C'\u00e8 da sperare che si tratti di un maschio o di una femmina?'\n                DOMANDA:  'Che ne pensi di essere un genitore?'\n                DOMANDA:  'Ti immagini come sar\u00e0 la tua vita da genitore?'\n\n                Tabella 2\n                Esempio\tTesto\tValutazione\tSpiegazione\n                1\tSono felice se il bambino sta bene. (verde)\tCORRETTO\tIl narratore si riferisce al"
                    }
                ],
                "id": "54"
            },
            {
                "input": "[ROSSO](Il venerd\u00ec sera \u00e8 sempre angosciante), [ROSSO](perch\u00e9 stanca), [ROSSO](faccio il conto delle cose fatte e da fare, e quelle da fare mi sembrano insormontabili). [ROSSO](Ieri sera tardi mi \u00e8 venuto in mente che forse non faccio in tempo da luned\u00ec a gioved\u00ec a concludere due pratiche a lavoro) . . . [ROSSO](ho avuto paura di aver sbagliato nei tempi a valutare le priorit\u00e0) e a dare tempo a qualche pratica rispetto ad altre . . . [ROSSO](Sono stata molto in ansia e perdo il sonno). [ROSSO](Adesso sono stordita )perch\u00e9 sono andata a letto tardi, [VERDE](ma sono un po' pi\u00f9 serena) [VERDE](perch\u00e9 senza distrazioni luned\u00ec dovrei farcela a terminare quello che devo fare), [ROSSO](ma il pensiero del sabato e domenica mi mette angoscia). Ho pensato che anche se ne ho la possibilit\u00e0 assolutamente non devo lavorare da casa per avvantaggiarmi ma luned\u00ec dovr\u00f2 concentrarmi al massimo e non lasciarmi coinvolgere da altro. ",
                "output": [
                    {
                        "generated_text": "\"Spero tu abbia avuto modo di riposare (o di non farlo, se ti senti meglio quando sei stanco)... \"\n\n                DOMANDA: \"Per quanto tempo avete fatto il controllo del sangue?\"\n\n                DOMANDA: \"Che tipo di controllo (esami?)\"\n\n                DOMANDA: \"Qual \u00e8 il problema?\"\n                DOMANDA: \"Sei incinta?\"\n\n                DOMANDA: \"Per quanti secondi?\" (es. 5 secondi)\n                DOMANDA: \"Quando \u00e8 successo?\""
                    }
                ],
                "id": "57"
            }
        ]
    }
]