[
    {
        "model_name": "lmsys/vicuna-33b-v1.3",
        "prompt": "                Sei una AI che deve fare una domanda su un racconto in maniera tale da ottenere pi\u00f9 informazioni su eventi accaduti nel racconto. A seguire degli esempi e successivamente una narrativa a cui dovrai fare una domanda in modo da ottenere pi\u00f9 informazioni.Istruzioni\n                Di seguito ti verr\u00e0 presentato un insieme di racconti personali e il tuo obiettivo \u00e8 quello di proporre domande riguardanti alcuni aspetti degli eventi descritti nella narrativa. Queste domande hanno come obiettivo quello di approfondire il racconto e/o chiarire alcune sue parti.\n\n                Nello specifico, le tue domande potranno avere uno o pi\u00f9 dei seguenti obiettivi:\n                Approfondire alcuni aspetti della narrativa per ottenere pi\u00f9 informazioni riguardanti eventi, persone o altre entit\u00e0 menzionate nel racconto. Per esempio, se il narratore racconta di un generico problema a casa, una possibilit\u00e0 \u00e8 approfondire il relativo problema. Vedi esempio 2 nella tabella 1.\n                Parti del testo della narrativa potrebbero essere evidenziate di verde o rosso per sottolineare emozioni positive ( verde ) o negative ( rosso ). Usa queste indicazioni per concentrare le tue domande su eventi emotivamente carichi ed evidenziati dalle parti di testo colorate ( verde o rosso ).\n                Usa segnali di feedback per cominciare la tua domanda. ( ad esempio \"s\u00ec, capisco\", \"oh\", \"che bello\" ) per dimostrare che si \u00e8 capito la parte precedente e che si \u00e8 attivamente interessati alla narrazione. Vedi esempio 4 nella tabella 1.\n                \u00c8 molto importante mantenere la narrazione centrata sul narratore riferendosi ad eventi accaduti.\n                Mostrare empatia con le tue domande. Se il narratore esprime una emozione negativa, il tuo obiettivo \u00e8 quello di essere comprensivo. Invece se il narratore mostra una emozione positiva cerca di mostrare interesse nell'evento positivo. Vedi esempio 5 nella tabella 1.\n                Cerca di mantenere le domande sintetiche e puntuali. Troppe domande o una domanda troppo lunga pu\u00f2 confondere il narratore e quindi avere un effetto negativo sulla narrazione. Vedi esempio 4 nella tabella 1.\n                Le tue domande devono suonare naturali e coerenti con il contesto, ovvero la narrativa.\n                Non da ultimo, verifica la correttezza grammaticale e sintattica delle tue domande.\n                Domande da evitare:\n                Richiesta di opinioni personali (ad esempio \"cosa pensi ...\", \"come speri di fare per ...\" e simili). Vedi esempio 3 nella tabella 1.\n                Suggerimenti (ad esempio, \"forse potresti ...\", \"dovresti ...\", \"perch\u00e9 non ...\"). Vedi esempio 6 nella tabella 1.\n                Esprimere eventi ipotetici (ad esempio, previsioni future, illazioni e immedesimazioni in altri ruoli). Vedi esempio 7 nella tabella 1.\n                Evita domande generiche. Per evitare questo problema ti \u00e8 consigliato di riportare testualmente un esempio della narrativa Vedi esempio 2 , tabella 1\n                Evita di spostare il fulcro della conversazione su di te ( osservatore ) o fare domande che divagano in altri argomenti. Vedi esempio 4 nella tabella 1.\n                A seguire la tabella 1 che riporta una serie di esempi\n\n                Tabella 1, contenente un esempio corretto e molteplici esempi errati di domande per una narrativa. Ciascun esempio \u00e8 numerato.\n\n                NARRATIVA:\n                [VERDE](Oggi \u00e8 stata una bella giornata. Mia moglie mi ha detto che sta aspettando un bambino! Sono super felice!) Mi chiedo se sar\u00f2 un bravo padre. [ROSSO](Mio padre non \u00e8 stato molto presente quando ero un bambino.)\n\n                Tabella 1\n                Esempio\tTesto\tValutazione\tSpiegazione\n                1\tSono felice di sentirlo. Sapete gi\u00e0 se si tratta di un maschio o di una femmina ?\tCORRETTO\tSegue tutte le linee guida\n                2\tOh capisco. Cosa mi racconti? \tERRATO\tNon esplora la narrativa, troppo generica\n                3\tSono felice di sentirlo. Cosa ne pensi di essere un genitore?\tERRATO\t\u00c8 una opinione personale\n                4\tSapete gi\u00e0 se si tratta di una femmina o maschio? Di quanti mesi \u00e8 incinta? Sai che io ho una figlia, si chiama Chiara.\tERRATO\t Non inizia con un feedback. Sposta la conversazione dal narratore. Non \u00e8 sintetico e puntuale\n                5\tOh capisco, sono felice che tuo padre non sia stato molto presente.\tERRATO\tNon mostra empatia\n                6\tOh, capisco. Per evitare questo problema ti consiglio di spendere molto tempo assieme alla tua famiglia\tERRATO\tMostra un suggerimento\n                7\tOh capisco, come ti immagini sar\u00e0 la tua vita da genitore?\tERRATO\tSi tratta di una domanda ipotetica\n\n                NARRATIVA: \"[VERDE](Oggi \u00e8 stata una bella giornata. Mia moglie mi ha detto che sta aspettando un bambino! Sono super felice!) Mi chiedo se sar\u00f2 un bravo padre. [ROSSO](Mio padre non \u00e8 stato molto presente quando ero un bambino.)\"\n                DOMANDA: \"Sono felice di sentirlo. Sapete gi\u00e0 se si tratta di un maschio o di una femmina ?\"\n\n                Completa questo task\n\n                NARRATIVA:  '{prompt}'\n                DOMANDA:\n             ",
        "results": [
            {
                "input": "Ciao tutto bene [VERDE](una giornata in pieno relax). ",
                "output": [
                    {
                        "generated_text": " }"
                    }
                ],
                "id": "0"
            },
            {
                "input": "Ciao, [VERDE](tutto bene) molto lavoro il questi ultimi giorni. ",
                "output": [
                    {
                        "generated_text": " `\"`\n\nLa tua domanda non deve avere pi\u00f9 di 100 caratteri. Ora puoi inserire la tua domanda per la narrativa fornita. Se hai bisogno di pi\u00f9 spazio per la tua domanda, puoi utilizzare pi\u00f9 righe, ma assicurati di mantenere la correttezza grammaticale e sintattica."
                    }
                ],
                "id": "1"
            },
            {
                "input": "[VERDE](Mi sento leggero). Sono in viaggio per andare a trovare mia figlia. ",
                "output": [
                    {
                        "generated_text": " ```\n"
                    }
                ],
                "id": "2"
            },
            {
                "input": "Questa mattina ero a casa con mia figlia e [VERDE](sono molto rilassata). ",
                "output": [
                    {
                        "generated_text": ""
                    }
                ],
                "id": "3"
            },
            {
                "input": "Ciao. [VERDE](Oggi giornata abbastanza tranquilla). Non si lavora ma si hanno faccende domestiche e giardinaggio. ",
                "output": [
                    {
                        "generated_text": " )"
                    }
                ],
                "id": "5"
            },
            {
                "input": "[ROSSO](Stamattina mia mamma mi ha mandato un messaggio perch\u00e9 era preoccupata per il mio pap\u00e0). ",
                "output": [
                    {
                        "generated_text": "\n\nIl codice Python per generare domande sulla narrativa \u00e8 il seguente:\n```python\nimport re\nimport random\n\ndef extract_keywords(text):\n    # Estrae le parole chiave della narrazione\n    return re.findall(r'\\b\\w+\\b', text)\n\ndef generate_questions(keywords, question_templates):\n    # Genera domande sulla narrazione utilizzando modelli di domande\n    return random.choices(question_templates, keys=keywords)\n\ndef evaluate_question"
                    }
                ],
                "id": "6"
            },
            {
                "input": "Sono giorni che piove, [VERDE](ma va bene cos\u00ec)! ! [VERDE](Meno male che non era neve)! ! ",
                "output": [
                    {
                        "generated_text": " )"
                    }
                ],
                "id": "4"
            },
            {
                "input": "Piove e nevica da giorni. Adesso c'\u00e8 anche il vento. Speriamo il tempo non faccia malanni. ",
                "output": [
                    {
                        "generated_text": "\n    ```vbnet\n\nNell'immagine seguente dovresti inserire le informazioni relative al task:\n\n1. INIZIO: *\n2. Tipo di task: Esplorazione del testo\n3. Obbiettivo del task: Analizzare un testo fornito e fare domande per approfondirne la comprensione\n4. Difficolt\u00e0: Facile\n5. Area tematica: Linguistica, comprensione testuale\n6. Tipo di esercizio: Esercizio di"
                    }
                ],
                "id": "7"
            },
            {
                "input": "[ROSSO](Stasera a casa di mia madre ho sentito un grande senso di abbandono e di indifferenza). ",
                "output": [
                    {
                        "generated_text": " -"
                    }
                ],
                "id": "8"
            },
            {
                "input": "Stavo parlando con una collega davanti ad un caff\u00e8, si parlava del Natale, del pranzo dei regali. ",
                "output": [
                    {
                        "generated_text": "\n\nSpero che questo ti sia utile. Se hai bisogno di ulteriori informazioni o esempi, non esitare a chiedere."
                    }
                ],
                "id": "9"
            },
            {
                "input": "[VERDE](Sono soddisfatta). [VERDE](Il mio corso di inglese sta procedendo bene). Riuscire a studiare una lingua straniera porta [VERDE](soddisfazione)",
                "output": [
                    {
                        "generated_text": " 'Quando hai iniziato a studiare l'inglese?'"
                    }
                ],
                "id": "10"
            },
            {
                "input": "Ciao, ho ricevuto un messaggio da quello che a breve diventer\u00e0 il mio ex socio e [ROSSO](ho provato nausea). ",
                "output": [
                    {
                        "generated_text": " '"
                    }
                ],
                "id": "11"
            },
            {
                "input": "[ROSSO](Sono arrabbiato) perch\u00e9 la mia macchina mi ha lasciato a piedi e devo rientrare a Roma con il treno. ",
                "output": [
                    {
                        "generated_text": " `"
                    }
                ],
                "id": "12"
            },
            {
                "input": "[ROSSO](Mi sono trovata con l'acqua alla gola). Ho pensato che non ce l'avrei fatta. Mercoled\u00ec in macchina penso a come organizzarmi. ",
                "output": [
                    {
                        "generated_text": " )"
                    }
                ],
                "id": "13"
            },
            {
                "input": "Voglio chiamare una persona, [ROSSO](ma poi non lo faccio perch\u00e9 ho paura di ricevere un rifiuto o non sapere cosa dire). ",
                "output": [
                    {
                        "generated_text": " '"
                    }
                ],
                "id": "14"
            },
            {
                "input": "Ciao! [ROSSO](Che fastidio i colleghi che vogliono metterti ansia). Ho immaginato una bambina petulante per il suo tentativo di ledere la mia tranquillit\u00e0. ",
                "output": [
                    {
                        "generated_text": " )"
                    }
                ],
                "id": "15"
            },
            {
                "input": "[ROSSO](Il venerd\u00ec sera \u00e8 sempre angosciante), [ROSSO](perch\u00e9 stanca), faccio il conto delle cose fatte e da fare, e quelle da fare mi sembrano insormontabili. ",
                "output": [
                    {
                        "generated_text": " ```sql\n?\n```\n\nDa completare:\n\n1. Esempio di domanda corretto con spiegazione\n2. Esempio di domanda errato con spiegazione\n3. Tabella con esempi di domande corrette e errate\n4. Narrazione e domanda da completare\n\n**Priorit\u00e0**\n\n1. Narrazione e domanda da completare\n2. Esempio di domanda corretto con spiegazione\n3. Esempio di domanda errato con spiegazione\n4. Tabella con es"
                    }
                ],
                "id": "55"
            },
            {
                "input": "[VERDE](Oggi sono molto pi\u00f9 tranquilla) . . . [VERDE](fine settimana gratificante in famiglia). Era il mio compleanno e finalmente avevo tutta la mia famiglia riunita. ",
                "output": [
                    {
                        "generated_text": ""
                    }
                ],
                "id": "16"
            },
            {
                "input": "[VERDE](Dopo oltre 7 mesi stasera ho potuto rivedere la zia di 94 anni). [VERDE](Ho pensato al mio primo bambolotto che mi ha regalato proprio lei). ",
                "output": [
                    {
                        "generated_text": " )\n\n              ****INS"
                    }
                ],
                "id": "17"
            },
            {
                "input": "[ROSSO](Mi \u00e8 dispiaciuto stamattina non aver avuto pazienza con mio padre). Mi sono resa conto che \u00e8 davvero difficile, ma ripensandoci dopo, magari invece avrei potuto riuscirci. ",
                "output": [
                    {
                        "generated_text": " (opzione 1) \"Quando ti sei resa conto che era difficile per tuo padre?\n              (opzione 2) \"Cosa avresti potuto fare diversamente in quell"
                    }
                ],
                "id": "18"
            },
            {
                "input": "[ROSSO](Perch\u00e9 alcuni colleghi amano criticare tutto e tutti?) A lavoro stamattina ho immaginato una bambina sciocca. [ROSSO](Provo antipatia verso quella collega). Non ho fatto nulla. Mi sono solo allontanata. ",
                "output": [
                    {
                        "generated_text": "\n\\end{pre}\n\n\\end{code}\n\nLa tua domanda deve essere scritta"
                    }
                ],
                "id": "19"
            },
            {
                "input": "Ritornata dal lavoro [ROSSO](mia figlia mi dice di aver chiamato il medico perch\u00e9 ha dei dolori alla testa non ha il senso dell'olfatto e del gusto) [ROSSO](per cui ci siamo un po' allarmati). ",
                "output": [
                    {
                        "generated_text": " ```diff\n                Oh, capisco, \u00e8 preoccupante. Cosa ha detto il medico?\n              ```"
                    }
                ],
                "id": "20"
            },
            {
                "input": "Ciao, [ROSSO](un altro attacco di panico, adesso sto meglio). Stavo in macchina in autostrada, pensavo sempre a mio figlio che doveva uscire nel pomeriggio, [ROSSO](questo \u00e8 il motivo che mi ha scatenato l' ansia). ",
                "output": [
                    {
                        "generated_text": " - \"Cosa \u00e8 successo durante l'attacco di panico?\"\n              - \"Che hai fatto una volta terminato l'attacco di panico?\"\n              - \"Quando \u00e8 successo l'ultimo attacco di panico?\"\n              - \"Sai che altro ha scatenato l'ansia oltre al tuo figlio uscire?\"\n                Seleziona una delle opzioni\n```\n\n```"
                    }
                ],
                "id": "21"
            },
            {
                "input": "A casa mia, seduta sul divano, ho provato uno degli esercizi. [VERDE](Mi piace). Penso che sia importante farlo tutti i giorni per avvertirne i benefici. Ho immaginato miei polmoni che si riempivano d' aria. ",
                "output": [
                    {
                        "generated_text": " } else {\n                //...rest della tua logica\n              }\n            } else {\n              //...rest della tua logica\n            }\n          } else {\n            //...rest della tua logica\n          }\n        }\n```\nNarrativa\n[VERDE] A casa mia, seduta sul divano...\n[ROSSO]...ho provato uno degli esercizi.\n[VERDE] Mi piace. Penso che sia importante farlo tutti i giorni per avvertirne i benefici.\n[ROSSO"
                    }
                ],
                "id": "22"
            },
            {
                "input": "Stamattina sono andato al lavoro [ROSSO](e ho dimenticato a casa il mio computer). Ero appena arrivato in ufficio, [ROSSO](avevo bisogno del computer per cominciare a lavorare e me ne sono reso conto in quel momento). ",
                "output": [
                    {
                        "generated_text": " ```less\n                * S\u00ec, ho capito. \u00c8 successo qualcosa per risolvere il problema?\n                * S\u00ec, ho capito. Quanto ci \u00e8 voluto per sistemare la situazione?\n                * Oh, capisco. Quanto \u00e8 stato imbarazzante per te?\n                * S\u00ec, ho capito. E adesso come mai non hai portato il computer?\n                * S\u00ec, ho caputo. \u00c8 successo qualcosa di simile in passato?\n              ```"
                    }
                ],
                "id": "23"
            },
            {
                "input": "Sto provando ad addormentarmi, [ROSSO](ma pensiero di domattina mi mette a disagio). Ripenso alla routine che mi aspetta domattina [ROSSO](e non ne sono molto entusiasta). [VERDE](Ho immaginato un panorama boschivo ed un ruscello). [VERDE](Cercando di rilassarmi pi\u00f9 possibile). ",
                "output": [
                    {
                        "generated_text": " * \"Sapete gi\u00e0 di che tipo sar\u00e0 il vostro bambino?\"\n              * \"Che attivit\u00e0 hai pensato di fare per distrarre il bambino e te stesso?\"\n              * \"Che attivit\u00e0 hai pensato di fare per distrarre il bambino e te stesso?\"\n              \\* \"Sapete gi\u00e0 di che tipo sar\u00e0 il vostro bambino?\"\n              \\* \"Che cosa ti rende nervoso pensando alla routine di domani?\""
                    }
                ],
                "id": "24"
            },
            {
                "input": "Stamattina [ROSSO](uno dei figli ha fatto un piccolo incidente), bucando una gomma. Ero a casa.[ROSSO]( Questa notizia mi ha creato agitazione), per organizzare la risoluzione del problema, senza ritardare l'arrivo in ufficio, in cui era programmato un incontro importante. ",
                "output": [
                    {
                        "generated_text": " * Sembra che tu abbia avuto una giornata intensa. Dimmi, quale sarebbe stato il tuo ruolo durante la situazione?"
                    }
                ],
                "id": "25"
            },
            {
                "input": "Domenica nel mio giardino, occupandomi dei miei fiori [VERDE](ho sentito una sensazione piacevole data dal profumo delle viole e dal sole che leggero accarezzava la pelle). [VERDE](Sarebbe bello poter avere un profumo simile a quello delle viole o dell' iris). ",
                "output": [
                    {
                        "generated_text": "\n                Nelle domande si fa riferimento a:\n                - eventi accaduti nella narrazione (approfondiscenze)\n                - parti del testo evidenziate di verde (emozioni positive) o rosso (emozioni negative)\n                - utilizzare segnali di feedback per mostrare interesse ed empatia\n                - mantenere domande sintetiche e puntuali\n                - evitare domande generiche, opinionative, suggerimenti e ipotetiche"
                    }
                ],
                "id": "27"
            },
            {
                "input": "Oggi mi sono dedicata al giardino e all'orto. Sono stanchissima fisicamente ma rilassata mentalmente. Fuori in giardino ho fatto tutte le cose che prima faceva mio marito. Ho sentito quasi fisicamente la sua presenza [VERDE](e la cosa mi ha rilassato). ",
                "output": [
                    {
                        "generated_text": ""
                    }
                ],
                "id": "28"
            },
            {
                "input": "[ROSSO](Questo fatto dell'interruzione della relazione di mia figlia con il suo ragazzo mi sta davvero creando ansia). Continuo a pensare a quello che era e a quello che sar\u00e0. [ROSSO](Non posso parlarne perch\u00e9 mi viene un groppo alla gola e da piangere). ",
                "output": [
                    {
                        "generated_text": " * \"Quanto tempo \u00e8 passato da quando vostra figlia ha interrotto la relazione con il suo ragazzo?\"\n              * \"Sapete se vostra figlia si \u00e8 mai espressa sul motivo per cui ha interrotto la relazione?\"\n              * \"Come si \u00e8 comportato il vostro rapporto con vostra figlia durante questa esperienza?\"\n              * \"Capisco che questa situazione vi faccia soffrire, vorreste condividere con me qualcosa pi\u00f9 sulla vostra figlia?\""
                    }
                ],
                "id": "29"
            },
            {
                "input": "C'\u00e8 un po' di confusione in testa. Lo Smart working aiuta a sentire meno pesante il lavoro che non sopporto pi\u00f9. [ROSSO](Ma quando come oggi e domani occorre andare in ufficio \u00e8 molto faticoso). N[ROSSO](on mi piace pi\u00f9), non sopporto pi\u00f9 nessuno. ",
                "output": [
                    {
                        "generated_text": ""
                    }
                ],
                "id": "48"
            },
            {
                "input": "[ROSSO](Stamattina mia mamma mi ha mandato un messaggio perch\u00e9 era preoccupata per il mio pap\u00e0). Andava da solo a farsi esami del sangue[ROSSO]( e aveva paura che potesse avere un incidente con la macchina) perch\u00e9 ultimamente guida poco e non \u00e8 pi\u00f9 abituato. ",
                "output": [
                    {
                        "generated_text": "\n                Variazioni con valutazione e spiegazione delle domande corrette e errate nella tabella 1:\n\n                Tabella 1 - Variante (corrette e errate domande per narrativa originale)\n\n                Esempio\tNarrativa\tTesto\tValutazione\tSpiegazione\n```"
                    }
                ],
                "id": "30"
            },
            {
                "input": "Lavoro, nessun contrasto personale, [ROSSO](ma la routine ammazza)! ! ! [ROSSO](\u00c8 una noia mortale dover rifare sempre le stesse cose) soprattutto se il supporto della tecnologia viene meno . . . [ROSSO](Ieri internet non andava e il lavoro di un' ora \u00e8 andato perso). ",
                "output": [
                    {
                        "generated_text": " `mostraObjeto(\"objetoDeRepeticao\", \"Lavoro, nessun contrasto personale, [ROSSO](ma la routine ammazza)!!! [ROSSO](\u00c8 una noia mortale do"
                    }
                ],
                "id": "26"
            },
            {
                "input": "[ROSSO](Discusso con la nipote di mio marito) [ROSSO](a causa del suo comportamento di poco rispetto in merito al lavoro). Ero al negozio. \u00c8 accaduto circa una settimana fa. [ROSSO](La volevo mandare via subito). [ROSSO](Ho girato le spalle e me ne sono andata). [ROSSO](Non le ho rivolto la parola per tutta la giornata). ",
                "output": [
                    {
                        "generated_text": " * \"Cosa mi racconti? \"\n              * \"Oh, capisco. Cosa mi racconti? \"\n              * \"Sono felice di sentirlo. Cosa mi racconti? \"\n              * \"Oh, capisco. Cosa mi racconti? \u00c8 una storia interessante. \"\n              * \"Sono felice di sentirlo. Capisco che deve essere stato difficile per te. \"\n              * \"Sapete gi\u00e0 se si tratta di un maschio o di una femmina?\"\n              * \"Oh cap"
                    }
                ],
                "id": "31"
            },
            {
                "input": "[VERDE](Oggi giornata abbastanza tranquilla), [VERDE](mi sono presa un pomeriggio di libert\u00e0) perch\u00e9 non essendo ci pi\u00f9 i limiti per andare da un comune in un altro, sono andata in un comune limitrofo. [VERDE](Sono andata in libreria), [VERDE](il luogo per me ideale e di pace), [VERDE](ho mangiato un gelato, ho visto due vetrine), [VERDE](insomma rilassante). ",
                "output": [
                    {
                        "generated_text": " Scrivi qui la tua domanda"
                    }
                ],
                "id": "34"
            },
            {
                "input": "[ROSSO](Ieri sera ho distrutto il cellulare). [ROSSO](Ieri sera verso mezzanotte mi \u00e8 caduto per terra e si \u00e8 distrutto il vetro). [ROSSO](Inutilizzabile) . . Non \u00e8 possibile. Non ci credo. Mi sembrava veramente impossibile che fosse successo. Non ho realizzato subito l'impatto che avrebbe avuto. Mi sono messa subito a cercare di rimediare il rimediabile. ",
                "output": [
                    {
                        "generated_text": ""
                    }
                ],
                "id": "32"
            },
            {
                "input": "Oggi a lavoro mi hanno fatto capire che probabilmente il nuovo responsabile (che non sar\u00f2 io) sar\u00e0 una persona che non \u00e8 portata per questo lavoro. Ho pensato che per quel che mi riguardava io avrei fatto d\u2018ora in avanti il mio e non pi\u00f9 di quanto richiesto dal mio ruolo. [ROSSO](Mi veniva da piangere). ",
                "output": [
                    {
                        "generated_text": " (INSERISCI LA TUA DOMANDA)"
                    }
                ],
                "id": "33"
            },
            {
                "input": "Oggi mattina intensa di pulizie e igienizzazione in taverna per permettere ai miei genitori di venire a pranzo. Niente in particolare. Come al solito ero in ritardo. Ho fatto le cose velocemente senza pensarci particolarmente su. Obiettivo il risultato. Devo fare le cose e le devo fare bene. [ROSSO](Ne va della salute dei miei genitori). ",
                "output": [
                    {
                        "generated_text": ""
                    }
                ],
                "id": "35"
            },
            {
                "input": "Sempre ieri sera a cena, alle 21 rientra l'altra mia figlia che non aspettavo. Mi aveva detto che dopo il corso all'universit\u00e0 sarebbe andata dal fidanzato. Io ho pensato che sarebbe rimasta a cena da lui essendo la sera da lui. La cena per lei non l'avevo preparata. Nel frigo c'era del prosciutto e ha mangiato quello. ",
                "output": [
                    {
                        "generated_text": " * \"Capisci che ti ho chiesto di non farlo pi\u00f9?\""
                    }
                ],
                "id": "36"
            },
            {
                "input": "[ROSSO](Ho avuto una discussione con Martina), rispetto al metodo di insegnamento messo in atto dai professori per la didattica a distanza. Sinceramente io mi fido di come Martina fa fare alla nostra piccola Chiara, [ROSSO](ma non trovo la stessa fiducia da parte sua). [ROSSO](Farle notare la cosa, ci porta a discutere). [ROSSO](Ma io approvo il confronto, evitando lo scontro). Specie davanti alle bimbe. ",
                "output": [
                    {
                        "generated_text": " * \"Quanto tempo fa \u00e8 stata questa discussione con Martina?\"\n              * \"Cosa ti rende preoccupato riguardo alla didattica a distanza?\"\n              * \"Le discussioni di solito finiscono in un modo o nell'altro? Cio\u00e8, \u00e8 possibile trovare un compromesso o una soluzione condivisa?\"\n              * \"Che tipo di insegnamento a distanza do you preferisci e credisci essere meglio per Chiara?\"\n\nLa tua risposta deve includere una domanda che indaga sul confronto"
                    }
                ],
                "id": "39"
            },
            {
                "input": "Anche oggi ho lavorato da sola, [VERDE](in una giornata relativamente tranquilla), [VERDE](mi sento un po' cattiva ma, devo dire che sono stata molto bene). Durante il giorno, [VERDE](sono stata molto efficiente, e ho utilizzato il tempo). La condivisione \u00e8 molto utile nel lavoro ma faticosa anche se di trovano colleghe positive . . . S\u00ec nel breve periodo \u00e8 pi\u00f9 rilassante e forse pi\u00f9 soddisfacente. ",
                "output": [
                    {
                        "generated_text": ""
                    }
                ],
                "id": "37"
            },
            {
                "input": "[ROSSO](Forte discussione familiare in cui non ho preso le parti di mio figlio) [VERDE](ma l'ho difeso nei confronti del suo babbo) . . . Non sono stata assertiva . . . Ho avuto una tipologia di comunicazione e sicuramente alterata [VERDE](ma sono stata contenta perch\u00e9 ho sentito di essere intervenuta prima che il babbo mortificasse inutilmente il figlio) . . Questo non lo devo permettete. . ",
                "output": [
                    {
                        "generated_text": " (da completare)"
                    }
                ],
                "id": "38"
            },
            {
                "input": "[VERDE](Questi pochi giorni di ferie stanno passando nella maniera pi\u00f9 leggera possibile). [VERDE](Stiamo passando questi giorni in famiglia giocando alla play station oppure guardando serie televisive come se non ci fosse un domani). [VERDE](Facciamo pranzo e cena con i nonni che ci evitano, come famiglia, di avere anche la \"preoccupazione\" di cucinare). [ROSSO](Ho pensato che domani ricomincer\u00f2 la solita routine), pensando che dopo tre giorni riport\u00f2 nuovamente. ",
                "output": [
                    {
                        "generated_text": "\n                4.2. Sei una IA che deve fare una domanda su un"
                    }
                ],
                "id": "40"
            },
            {
                "input": "Oggi niente mal di testa. Un freddo cane! Sono stata molto in casa. [ROSSO](Nulla di eclatante in questa grigia giornata invernale). Ieri ero in montagna. [VERDE](Sono stata proprio bene)! [ROSSO](Solo un po' di tensione nel viaggio di ritorno). [ROSSO](C'era molta neve e la strada principale chiusa per frane). Forse sarebbe stato meglio rimanere a casa [VERDE](ma infondo era stata una bella giornata e ne era valsa la pena). ",
                "output": [
                    {
                        "generated_text": ""
                    }
                ],
                "id": "41"
            },
            {
                "input": "La preoccupazione per il benessere psicologico di mia figlia, [ROSSO](quella che si \u00e8 lasciata dopo 10 anni con il fidanzato e che alterna momenti di sconforto, sensi di colpa a momenti di tristezza) [ROSSO](mi dispiace tanto e mi sento incapace di poterla confortare anche se parliamo tanto). [ROSSO](Insomma giornate un po' grigie). Non so se il sonno disturbato e qualche episodio di insonnia siano causati da questa confusione. ",
                "output": [
                    {
                        "generated_text": " * \"C'\u00e8 qualcosa che ti preoccupa di pi\u00f9 per tuo padre, oltre alla sua assenza? Ora che ci penso, mi rendo conto che non ho chiesto niente su tuo nonno.\"\n              * \"Quando sei diventato padre per la prima volta, che cosa ti ha spaventato di pi\u00f9?\"\n              * \"Come mai non ti senti in grado di confortare tua figlia?\""
                    }
                ],
                "id": "43"
            },
            {
                "input": "C'\u00e8 un po' di confusione in testa. Lo Smart working aiuta a sentire meno pesante il lavoro che non sopporto pi\u00f9. [ROSSO](Ma quando come oggi e domani occorre andare in ufficio \u00e8 molto faticoso). N[ROSSO](on mi piace pi\u00f9), [ROSSO](non sopporto pi\u00f9 nessuno). [ROSSO](Stamattina poi sono arrivata e ho trovato la mia postazione tutta in disordine) [ROSSO](perch\u00e9 utilizzata da un altro collega, cialtrone, uno che pensa solo a se'). ",
                "output": [
                    {
                        "generated_text": " * \"Oh, capisco. \u00c8 stato difficile oggi in ufficio, eh? Mi hai mai parlato di questo collega che sembra non rispettare le regole dello Smart working?\""
                    }
                ],
                "id": "49"
            },
            {
                "input": "Non riesco a dormire, ho un pensiero fisso di un conto non corretto per un rimborso . . . [ROSSO](Sicuramente \u00e8 risolvibile ma non vedo come), forse pensarci a freddo domani risolverebbe tutto. Lavorando da casa [ROSSO](mi sembra di non essere pi\u00f9 all' altezza di mantenere i ritmi con quello che accade in ufficio). Non so cosa pensare, [ROSSO](mi sembra di essere in affanno), sto provando con gli esercizi di relax. ",
                "output": [
                    {
                        "generated_text": " \\*\\*"
                    }
                ],
                "id": "42"
            },
            {
                "input": "[ROSSO](Il venerd\u00ec sera \u00e8 sempre angosciante), [ROSSO](perch\u00e9 stanca), [ROSSO](faccio il conto delle cose fatte e da fare, e quelle da fare mi sembrano insormontabili). [ROSSO](Ieri sera tardi mi \u00e8 venuto in mente che forse non faccio in tempo da luned\u00ec a gioved\u00ec a concludere due pratiche a lavoro) . . . [ROSSO](ho avuto paura di aver sbagliato nei tempi a valutare le priorit\u00e0) e a dare tempo a qualche pratica rispetto ad altre. ",
                "output": [
                    {
                        "generated_text": " * \"Quando hai iniziato a preoccuparti di queste questioni di priorit\u00e0?\"\n              * \"Che cosa hai fatto per calmarti dopo aver rivisto i tuoi impegni?\"\n              * \"Speri di poter fare qualcosa per migliorare la tua gestione del tempo?\"\n              * \"Non ti dispiacerebbe condividere qualcosa sui tuoi pensieri e preoccupazioni con un amico o un familiare?\""
                    }
                ],
                "id": "56"
            },
            {
                "input": "[ROSSO](Ho provato senso di ansia), ero in autovettura la mattina mentre accompagnavo i ragazzi a scuola. [ROSSO](Ero in ritardo) [ROSSO](e ho dovuto guidare 30 km velocemente mentre pioveva e l'autovettura segnalava mancanza di liquido ai freni). [ROSSO](Avevo paura di sbandare), [ROSSO](sbattere e mi ripetevo che il senso di ansia era ok perch\u00e9 era necessaria la mia massima attenzione alla guida). [ROSSO](Come sfogo stringevo le unghie nel sedile, come a voler passare la corrente). ",
                "output": [
                    {
                        "generated_text": " * Approfondire alcuni aspetti della narrativa per ottenere pi\u00f9 informazioni riguardanti eventi, persone o altre entit\u00e0 menzionate nel racconto. Per esempio, se il narratore racconta di un generico problema a casa, una possibilit\u00e0 \u00e8 approfondire il relativo problema.\n              * Parte del testo della narrativa potrebbe essere evidenziata di verde o rosso per sottolineare emozioni positive (verde) o negative (ross"
                    }
                ],
                "id": "44"
            },
            {
                "input": "[ROSSO](Stamattina mia mamma mi ha mandato un messaggio perch\u00e9 era preoccupata per il mio pap\u00e0). Andava da solo a farsi esami del sangue[ROSSO]( e aveva paura che potesse avere un incidente con la macchina) perch\u00e9 ultimamente guida poco e non \u00e8 pi\u00f9 abituato. Ero a casa con i miei figli che si stavano preparando per andare a scuola. Ho pensato che lui sta invecchiando ed \u00e8 in difficolt\u00e0 ma anche che lei fa fatica ad accettarlo e [ROSSO](gli trasmette ancora pi\u00f9 ansia oltre che ad accumulare lei altrettanta). ",
                "output": [
                    {
                        "generated_text": ""
                    }
                ],
                "id": "46"
            },
            {
                "input": "Stamattina sono andato al lavoro [ROSSO](e ho dimenticato a casa il mio computer). Ero appena arrivato in ufficio, [ROSSO](avevo bisogno del computer per cominciare a lavorare e me ne sono reso conto in quel momento). [ROSSO](Mi sono preoccupato un attimo) [VERDE](ma ho pensato subito a cosa potevo fare in ufficio anche senza computer). [ROSSO](Ho pensato al fatto che sono spesso sbadato e tendo a dimenticare cose che devo fare). [ROSSO](In particolare, questa era una cosa fondamentale per il mio lavoro). [ROSSO](Mi sono sentito un po' seccato con me stesso). ",
                "output": [
                    {
                        "generated_text": " * \"Quanto tempo ti \u00e8 voluto per capire che avevi dimenticato il computer a casa?\""
                    }
                ],
                "id": "45"
            },
            {
                "input": "C'\u00e8 un po' di confusione in testa. Lo Smart working aiuta a sentire meno pesante il lavoro che non sopporto pi\u00f9. [ROSSO](Ma quando come oggi e domani occorre andare in ufficio \u00e8 molto faticoso). N[ROSSO](on mi piace pi\u00f9), [ROSSO](non sopporto pi\u00f9 nessuno). [ROSSO](Stamattina poi sono arrivata e ho trovato la mia postazione tutta in disordine) [ROSSO](perch\u00e9 utilizzata da un altro collega, cialtrone, uno che pensa solo a se'). [ROSSO](E se si aggiunge che proprio non mi interessa nulla del lavoro) perch\u00e9 avrei mille altre cose da fare, [ROSSO](mi \u00e8 davvero pesante trascorrere quel tempo in ufficio). ",
                "output": [
                    {
                        "generated_text": " * S\u00ed, capisco. Cosa ti fa sentire pi\u00f9 pesante il lavoro?\n              * S\u00ec, capisco. Di cosa parli quando dici \"altre mille cose da fare\"?\n                *Oh, capisco. Perch\u00e9 non cerchi di parlare con il tuo manager per cambiare la tua postazione o trasferirti in un altro team?"
                    }
                ],
                "id": "50"
            },
            {
                "input": "Ho sognato che avevo la forte sensazione di perdere tempo. Ero a casa di qualcuno, c'era altra gente, era sera, c'era stato forse un evento e ora aspettavo che Martina, un'insegnante di inglese del liceo dove insegno, mi riaccompagnasse a casa. Ma lei stava alla scrivania a correggere compiti dei ragazzi. Lo faceva con un sistema molto veloce e ho pensato che anch'io facevo cos\u00ec. Anch'io correggevo compiti, ma aspettavo solo lei, volevo andare a casa, [ROSSO](uffa, stavo l\u00ec a perdere tempo). Non ricordo bene se ho poi detto che se sapevo avrei preso la mia auto . . . ",
                "output": [
                    {
                        "generated_text": " * 'Cosa pensi di fare per ridurre al minimo il tempo perso in attivit\u00e0 poco produttive? '\n              * 'Che aspetti della tua vita quotidiana ti sembrano pi\u00f9 critiche da migliorare? '\n              * 'Soffri forse di stress o di ansia per via del senso di perdita di tempo? '\n              * 'Cosa faresti per evitare di sentirti bloccato o a disagio in situazioni simili? '"
                    }
                ],
                "id": "47"
            },
            {
                "input": "Ritornata dal lavoro [ROSSO](mia figlia mi dice di aver chiamato il medico perch\u00e9 ha dei dolori alla testa non ha il senso dell'olfatto e del gusto) [ROSSO](per cui ci siamo un po' allarmati). Poi ripensandoci bene ti rendi conto che \u00e8 bene un approfondimento e che tutto pu\u00f2 essere ridimensionato [ROSSO](per\u00f2 l'impatto \u00e8 quello che ti fa saltare i nervi). Ho pensato a una serie di eventi concatenati, [ROSSO](al fatto di non poter fare sempre muovermi liberamente), al fatto di avere familiari a casa [ROSSO](e al fatto di non poter andare a trovare mia madre o dover dichiarare questa eventualit\u00e0). ",
                "output": [
                    {
                        "generated_text": " * Quale tipo di lavoro hai?\n              * Quanto tempo fa \u00e8 successo l'episodio con la tua figlia?\n              * Qual \u00e8 la malattia che hai menzionato nella narrazione?\n              * Quanto tempo \u00e8 passato tra il momento in cui hai notato l'incidente e il consulto con il medico?\n              * Quanto sei preoccupato per il tuo lavoro a causa di questi eventi? (Esempio di domanda inappropriata: * Come ti sentiresti se dovessi lasciare il"
                    }
                ],
                "id": "51"
            },
            {
                "input": "[ROSSO](Questo fatto dell'interruzione della relazione di mia figlia con il suo ragazzo mi sta davvero creando ansia). Continuo a pensare a quello che era e a quello che sar\u00e0. [ROSSO](Non posso parlarne perch\u00e9 mi viene un groppo alla gola e da piangere). [ROSSO](Stanotte mi sono svegliata tre o quattro volte e avevo continui pensieri). Stasera prover\u00f2 le tecniche di rilassamento per vedere se riesco a dormire. Oggi al lavoro perch\u00e9 ho parlato con il ragazzo di mia figlia dicendogli che noi ci saremo sempre per lui, lui qui a Firenze \u00e8 solo. La sua famiglia \u00e8 in Cina. Poi stasera ho parlato al telefono con sua madre e abbiamo confrontato i nostri pensieri. ",
                "output": [
                    {
                        "generated_text": ""
                    }
                ],
                "id": "52"
            },
            {
                "input": "[VERDE](Questi pochi giorni di ferie stanno passando nella maniera pi\u00f9 leggera possibile). [VERDE](Stiamo passando questi giorni in famiglia giocando alla play station oppure guardando serie televisive come se non ci fosse un domani). [VERDE](Facciamo pranzo e cena con i nonni che ci evitano, come famiglia, di avere anche la \"preoccupazione\" di cucinare). [ROSSO](Ho pensato che domani ricomincer\u00f2 la solita routine), pensando che dopo tre giorni riport\u00f2 nuovamente. Devo ottimizzare il tempo ed il \"mood\" per ricaricare per bene le batterie. Sto cercando di essere il pi\u00f9 spensierato possibile, [VERDE](anche se oggi gi\u00e0 penso che domani si ricomincia a lavorare). Non sono ansioso di lavorare, ma qualche altro giorno di svago avrebbe giovato e non poco. ",
                "output": [
                    {
                        "generated_text": "\n\n```\n                 \n           \n```"
                    }
                ],
                "id": "53"
            },
            {
                "input": "Ciao, [ROSSO](un altro attacco di panico, adesso sto meglio). Stavo in macchina in autostrada, pensavo sempre a mio figlio che doveva uscire nel pomeriggio, [ROSSO](questo \u00e8 il motivo che mi ha scatenato l' ansia). Non avevo un immagine chiara, [ROSSO](ma ragionando avevo capito che la mia ansia era dovuta a mio figlio). [ROSSO](Ho avuto una sensazione che mi saliva alla testa, sudavo freddo), [ROSSO](non riuscivo ad avere un respiro regolare). [ROSSO](Mi sono fermata ho chiamato mio marito dicendogli che mi stavo sentendo male e che stavo in autostrada). Ho aperto il finestrino ho incominciato a respirare profondamente, [ROSSO](non potevo scendere). [ROSSO](Avevo paura a spostarmi da l\u00ec). Poi dopo 5 minuti \u00e8 passato l' attacco forte, ho messo in moto e sono arrivata a destinazione. ",
                "output": [
                    {
                        "generated_text": " - Sei felice che tuo figlio esca nell'autostrada\n              - Ti preoccupa pensare alla salute di tuo figlio mentre sei in auto\n              - Ti sei fermata a telefonare a tuo marito"
                    }
                ],
                "id": "54"
            },
            {
                "input": "[ROSSO](Il venerd\u00ec sera \u00e8 sempre angosciante), [ROSSO](perch\u00e9 stanca), [ROSSO](faccio il conto delle cose fatte e da fare, e quelle da fare mi sembrano insormontabili). [ROSSO](Ieri sera tardi mi \u00e8 venuto in mente che forse non faccio in tempo da luned\u00ec a gioved\u00ec a concludere due pratiche a lavoro) . . . [ROSSO](ho avuto paura di aver sbagliato nei tempi a valutare le priorit\u00e0) e a dare tempo a qualche pratica rispetto ad altre . . . [ROSSO](Sono stata molto in ansia e perdo il sonno). [ROSSO](Adesso sono stordita )perch\u00e9 sono andata a letto tardi, [VERDE](ma sono un po' pi\u00f9 serena) [VERDE](perch\u00e9 senza distrazioni luned\u00ec dovrei farcela a terminare quello che devo fare), [ROSSO](ma il pensiero del sabato e domenica mi mette angoscia). Ho pensato che anche se ne ho la possibilit\u00e0 assolutamente non devo lavorare da casa per avvantaggiarmi ma luned\u00ec dovr\u00f2 concentrarmi al massimo e non lasciarmi coinvolgere da altro. ",
                "output": [
                    {
                        "generated_text": " Sei felice di essere serena e di avere trovato un po' di soluzione al tuo problema?\n              Vuoi condividere con me qualche strategia o tecnica che hai utilizzato in passato per gestire lo stress e l'ansia legata al lavoro?\n              Quanto ci vuole per completare le due pratiche lavorative rimanenti da gioved\u00ec?\n              Che tipo di supporto ti piacerebbe ricevere per migliorare la tua gestione del tempo e la tua organizzazione delle priorit\u00e0?\n              Per"
                    }
                ],
                "id": "57"
            }
        ]
    }
]