[
    {
        "model_name": "lmsys/vicuna-13b-v1.3",
        "results": [
            {
                "input": "Jennifer aveva un esame importante il giorno dopo. Era cos\u00ec stressata che pass\u00f2 la notte in bianco. Il giorno dopo era andata in classe, stanca morta. L'insegnante le comunic\u00f2 che l'esame \u00e8 rimandato alla settimana successiva.",
                "output": [
                    {
                        "generated_text": "' 'Jennifer ne rimase amareggiata.'\n\nCorrect: Jennifer ne rimase amareggiata.\n\nIncorrect: Jennifer ne rimase felice.\n\n19. Complete la seguente storia: 'Morgan e la sua famiglia vivevano in Florida. Avevano sentito che stava arrivando un uragano. Decisero di evacuare a casa di un parente. Arrivarono e appresero dal telegiornale che si trattava di una terribile tempesta.' 'Si sentirono fortunati ad aver evacuato in tempo.'"
                    }
                ]
            },
            {
                "input": "Morgan e la sua famiglia vivevano in Florida. Avevano sentito che stava arrivando un uragano. Decisero di evacuare a casa di un parente. Arrivarono e appresero dal telegiornale che si trattava di una terribile tempesta.",
                "output": [
                    {
                        "generated_text": "'"
                    }
                ]
            },
            {
                "input": "Tina aveva preparato gli spaghetti per il suo ragazzo. Ci era voluto molto lavoro, ma lei era molto orgogliosa. Il suo ragazzo mangi\u00f2 tutto il piatto e disse che era buono. Tina assaggi\u00f2 e si rese conto che era disgustoso.",
                "output": [
                    {
                        "generated_text": "' Si sent\u00ec molto triste e delusa.\n\n### 4. Scambio tra parole e frasi\n\nEcco un esempio di scambio tra parole e frasi:\n\nFrase: \"Lei sta per iniziare il tuo nuovo lavoro.\"Parole: \"lei sta per iniziare, il tuo nuovo lavoro\"\n Ha appena ricevuto il suo primo lavoro, \u00e8 molto emozionato.\n\n### 5. Scambio di posizione tra parole\n\nEcco un esempio di scambio di posizione tra parole:\n\nParole: \"c"
                    }
                ]
            },
            {
                "input": "Il mio professore assegn\u00f2 alla mia classe un tema. Tempo di uscire dall'aula e me ne ero gi\u00e0 dimenticata. Qualche giorno dopo, una mia compagna di classe mi scrisse per chiedermi se l'avessi fatto. Ero cos\u00ec arrabbiata con me stessa perch\u00e9 me ne ero completamente dimenticata.",
                "output": [
                    {
                        "generated_text": "'?"
                    }
                ]
            },
            {
                "input": "Kaitlyn pensava che i jeans con i buchi fossero molto alla moda. Li indoss\u00f2 a scuola per sfoggiarli. Il preside le disse che erano contrari al codice di abbigliamento. Dovette cambiare i suoi jeans.",
                "output": [
                    {
                        "generated_text": "'"
                    }
                ]
            },
            {
                "input": "James si svegli\u00f2 nel cuore della notte e trov\u00f2 il suo letto che tremava. Tutte le cose nella sua stanza tremavano furiosamente. Era spaventato, ma poi all'improvviso smise. Si alz\u00f2 e controll\u00f2 il telegiornale.",
                "output": [
                    {
                        "generated_text": "' Si trovava in una zona sismica e aveva assistito a un forte terremoto."
                    }
                ]
            },
            {
                "input": "Ero cos\u00ec nervosa per il mio primo giorno di scuola. Quando arrivai alla prima lezione, tremavo. Mi sedetti accanto alla ragazza pi\u00f9 carina della classe. Parlammo tutto il tempo, durante e dopo le lezioni.",
                "output": [
                    {
                        "generated_text": "'"
                    }
                ]
            },
            {
                "input": "Uli non vedeva l'ora di giocare a basket quel pomeriggio. Entr\u00f2 in palestra e lasci\u00f2 lo zaino sulle gradinate. Dopo la partita, non aveva ritrovato il telefono nello zaino. Era rimasta triste tutta la notte e al mattino controll\u00f2 in ufficio.",
                "output": [
                    {
                        "generated_text": "'\n\n### Esercitazione 5\n\nCompleta la storia: Sarah aveva un appuntamento al Buonumore Caff\u00e8. Quando finalmente arriv\u00f2, era affollato. Scelse una sedia"
                    }
                ]
            },
            {
                "input": "Anna era una trombettista professionista. Aveva preso un nuovo appartamento in citt\u00e0. Sfortunatamente, le pareti erano molto pi\u00f9 sottili di quelle del vecchio appartamento. Ben presto i vicini si lamentarono del suo incessante esercizio.",
                "output": [
                    {
                        "generated_text": "'"
                    }
                ]
            },
            {
                "input": "Bill decise di andare a scuola in bicicletta. Durante il tragitto buc\u00f2 una gomma. Un uomo vide la gomma a terra di Bill e ferm\u00f2 la sua auto. L'autista si offr\u00ec di accompagnare Bill a scuola.",
                "output": [
                    {
                        "generated_text": "'"
                    }
                ]
            },
            {
                "input": "Mentre era a casa, Robert sent\u00ec un odore terribile. And\u00f2 in cucina per indagare. La fonte dell'odore sembrava provenire dal frigorifero. Lo apr\u00ec e vide che c'era della carne avariata che aveva dimenticato.",
                "output": [
                    {
                        "generated_text": "' 'Robert decise di buttare la carne, ma poi si rese conto che aveva bisogno di un nuovo frigorifero. Decise di acquistare uno nuovo e di non pi\u00f9 dimenticare di pulire il frigorifero.'"
                    }
                ]
            },
            {
                "input": "Joe si ferm\u00f2 a un semaforo. Il semaforo era verde, ma lui non part\u00ec. Le persone dietro di lui suonarono il clacson. Si sentirono frustrati, ma Joe non si mosse.",
                "output": [
                    {
                        "generated_text": "'\n\n* Perch\u00e9 Joe non part\u00ec dal semaforo verde?\n* Quali conseguenze potrebbe avere il comportamento di Joe?\n\nIndicazioni per l'attore:\n\n* Ritardare il movimento quando si fermano a un semaforo verde\n* Ripetere ci\u00f2 che hai detto, come \"Sto fermo\" o \"Non posso partire\" in modo incoerente, come se non si rendessi conto di essere bloccato\n* Rischiare un'animazione per mostrare le persone dietro che si infuriano (ad esempio, agitar le braccia o scuotere"
                    }
                ]
            },
            {
                "input": "Un uomo trov\u00f2 una perla in un'ostrica. Purtroppo, proprio in quel momento stava mangiando l'ostrica. Con la perla si scheggi\u00f2 un dente. Fortunatamente, la perla copr\u00ec il costo dell'intervento dentistico.",
                "output": [
                    {
                        "generated_text": "'"
                    }
                ]
            },
            {
                "input": "Un silo di missili nucleari ricevette un ordine di lancio. L'ufficiale responsabile apr\u00ec la cassaforte per verificarne il codice. Apr\u00ec la busta contenente il codice di quel giorno. All'interno c'era un buono sconto per un panino.",
                "output": [
                    {
                        "generated_text": "'"
                    }
                ]
            },
            {
                "input": "Una famiglia decise di costruire una nuova fossa per il barbecue nel proprio giardino. Piuttosto che pagare per un escavatore, decisero di scavare da soli. A pochi metri di profondit\u00e0, uno di loro colp\u00ec quella che pensava fosse una piccola radice. Si rivel\u00f2 essere un cavo in fibra ottica che forniva Internet e la TV.",
                "output": [
                    {
                        "generated_text": "' La famiglia decise di contattare la societ\u00e0 che aveva installato il cavo e di chiedere aiuto. Inizialmente temevano di dover pagare una grossa somma per il danno causato, ma la societ\u00e0 promise che avrebbero fatto del loro meglio per risolvere la situazione in modo tempestivo e a buon mercato. Alla fine, dopo aver scavato un po', la famiglia scopr\u00ec che il cavo era sporco e logoro, e che probabil"
                    }
                ]
            },
            {
                "input": "Briana stava guidando un fuoristrada con suo fratello. Stavano andando veloci su una strada sterrata. All'improvviso, colpirono una roccia. La macchina si ribalt\u00f2.",
                "output": [
                    {
                        "generated_text": "'"
                    }
                ]
            },
            {
                "input": "Un giorno di sole Jeff stava giocando all'aperto. Sent\u00ec un ronzio provenire dalle siepi. Quando si avvicin\u00f2 alla siepe, usc\u00ec uno sciame di api. Le api lo inseguirono fino in casa.",
                "output": [
                    {
                        "generated_text": "' Jeff corse in cucina per trovare mamma. Aveva un forte brivido e la pelle arrossata. Mamma gli diede un braccio di velluto e gli fece un'iniezione per farlo calare in pace. La sera Jeff non dormiva per il dolore dell'iniezione. Era un po' triste per la sua avventura con l'api."
                    }
                ]
            },
            {
                "input": "Chelsea si era fatta male alle dita giocando a basket. Aveva molta paura di andare dal medico. Il padre di Chelsea la convinse ad andare a farsi controllare. Si scopr\u00ec che le ossa delle dita erano fratturate.",
                "output": [
                    {
                        "generated_text": "' Quanto tempo ha impiegato Chelsea per guarire dalle sue ferite?"
                    }
                ]
            },
            {
                "input": "Beth, un'amica di Amy, era incinta di un bambino. Amy chiam\u00f2 le sue amiche a partecipare a una festa a sorpresa per il bambino. Tutti aspettarono in silenzio che Beth entrasse. Quando vide tutti, rimase scioccata.",
                "output": [
                    {
                        "generated_text": "'"
                    }
                ]
            },
            {
                "input": "Tyler era entusiasta di acquistare il nuovo telefono cellulare. Quando arriv\u00f2 al negozio fu sorpreso di vedere una lunga fila. Aspett\u00f2 in fila per un'ora per acquistare il telefono. Quando arriv\u00f2 alla cassa, la cassiera lo inform\u00f2 che era tutto esaurito.",
                "output": [
                    {
                        "generated_text": "'\n\nSei mancati di completare la storia! Continua da dove hai interrotto: Tyler era deluso e sconsolato."
                    }
                ]
            },
            {
                "input": "Andrew pensava di essere un buon giocatore di golf. Sfid\u00f2 il suo amico Dylan per vedere chi fosse pi\u00f9 bravo. Dylan accett\u00f2 la sfida e lavor\u00f2 duramente per prepararsi. All'inizio Andrew stava vincendo, ma le cose sarebbero presto cambiate.",
                "output": [
                    {
                        "generated_text": "'"
                    }
                ]
            },
            {
                "input": "Mi ero preparata un panino al tonno per pranzo. Mentre ero seduta a mangiare, mi \u00e8 squillato il telefono. Mi sono alzata per rispondere e ho avuto una breve conversazione. Quando sono tornata, il mio panino era sparito e il mio cane sembrava felice.",
                "output": [
                    {
                        "generated_text": "'"
                    }
                ]
            },
            {
                "input": "Beth stava uscendo dal lavoro marted\u00ec. Si era accorta che ad un uomo era caduto il portafoglio nel parcheggio. Ha attraversato di corsa il parcheggio per restituirglielo. L'uomo era cos\u00ec felice che gli fosse stato restituito il portafoglio.",
                "output": [
                    {
                        "generated_text": "' Beth si rese conto che quella era la prima cosa gentile che facesse in quel giorno."
                    }
                ]
            },
            {
                "input": "Un amico di Dan lo introdusse al poker. Dan si rese conto di essere molto bravo a giocare a poker. Dan decise di andare a Las Vegas per mettere alla prova la sua abilit\u00e0. Dan vinse milioni di dollari a Las Vegas.",
                "output": [
                    {
                        "generated_text": "'\n\nRiassunto:In questo esercizio, gli studenti completano tre storie, utilizzando almeno 10 vocaboli dal dizionario e almeno 5 frasi nuove per ogni storia. I temi includono l'amicizia, la felicit\u00e0, la famiglia, l'ambizione e il successo. Gli studenti sono incoraggiati a usare la prima persona singolare e a utilizzare l'imperativo per chiedere consigli o aiuto.\n\nEsami di corallo:\n\n1. Scrivete una storia che coinvolga l'amicizia e"
                    }
                ]
            },
            {
                "input": "Lo swing di Harry era terribile. Un giorno Harry decide di cercare aiuto per migliorare il suo swing. Assunse un allenatore privato. L'allenatore privato riusc\u00ec a migliorare lo swing di Harry.",
                "output": [
                    {
                        "generated_text": "' L'allenatore privato gli aveva detto di concentrarsi sulla sua postura e di non preoccuparsi di quello che gli altri pensavano.Harry prese i suoi consigli e, in pochi giorni, riusc\u00ec ad avere un buon swing. Da quel giorno in poi, Harry giocava al golf sempre pi\u00f9 spesso e si divertiva molto'."
                    }
                ]
            },
            {
                "input": "Sam aveva appuntamento con suo padre per pranzo in un ristorante italiano. Arriv\u00f2 in anticipo e aspett\u00f2 suo padre. Cominci\u00f2 a preoccuparsi quando suo padre non si present\u00f2 e non rispose al cellulare. Chiam\u00f2 sua madre per sapere cosa stesse succedendo.",
                "output": [
                    {
                        "generated_text": "'"
                    }
                ]
            },
            {
                "input": "Randy possiede la stessa chitarra da dieci anni. Purtroppo, due giorni fa l'aveva persa. Aveva chiamato tutti quelli che ricordava di aver visitato negli ultimi giorni. Fortunatamente, l'aveva appena lasciata a casa di un amico.",
                "output": [
                    {
                        "generated_text": "'"
                    }
                ]
            },
            {
                "input": "Maria voleva stupire tutti al ballo della scuola. Invece di comprare un vestito, decise di farne uno nuovo. Scelse un tessuto morbido e viola da utilizzare. Cuc\u00ec giorno e notte finch\u00e9 non ebbe finito.",
                "output": [
                    {
                        "generated_text": "' 'Maria vest\u00ec il vestito per la prima volta al ballo. Tutti rimasero sconvolti dal suo aspetto originale e la trovarono molto audace. Ma alla fine del ballo, tutti la complimentarono per la sua creativit\u00e0.'"
                    }
                ]
            },
            {
                "input": "La madre di Carson gli prepar\u00f2 una cioccolata calda come regalo. Lo avvert\u00ec di aspettare cinque minuti perch\u00e9 si raffreddasse. Carson riusc\u00ec ad aspettare a malapena un minuto. Bevve la cioccolata molto calda.",
                "output": [
                    {
                        "generated_text": "' Carson si morse la lingua e la mand\u00f2 in fumo. Carson decise di andare a dormire senza mangiare l'altra met\u00e0 della cioccolata. La madre di Carson gli compr\u00f2 un termometro per tenere traccio della temperatura della cioccolata. Carson divisa la cioccolata in tre parti e la consumo in tre sieri successivi."
                    }
                ]
            },
            {
                "input": "Di recente ho comprato un nuovo colore di smalto. Mi stavo dipingendo le unghie quando il gatto ha saltato e l'ha fatto cadere. Lo smalto era finito su tutto il pavimento. Ho provato a pulirlo, ma non ha funzionato.",
                "output": [
                    {
                        "generated_text": "'"
                    }
                ]
            },
            {
                "input": "Un uomo pens\u00f2 di provare a coltivare i pomodori nel suo giardino. Cos\u00ec compr\u00f2 semi e attrezzature. Piant\u00f2 i semi e aspett\u00f2. Qualche mese dopo, si ritrov\u00f2 proprietario di un piccolo campo di grano.",
                "output": [
                    {
                        "generated_text": "' L'uomo era felice per il suo nuovo hobby, ma il problema \u00e8 che viveva in una zona residenziale e non aveva il permesso di coltivare cibo."
                    }
                ]
            },
            {
                "input": "Cathy lavora in uno Starbucks. La settimana scorsa ha avuto una cliente indisciplinata. La cliente continuava a chiedere una bevanda non esistente. Alla fine, Cathy le aveva dato un latte macchiato.",
                "output": [
                    {
                        "generated_text": "' La cliente era indignata e aveva chiesto il nome del barista, minacciando di scrivere una valutazione negativa su Starbucks. Cathy sapeva che doveva fare qualcosa, e decise di parlare con il responsabile del negozio."
                    }
                ]
            },
            {
                "input": "Oliver era entusiasta per suoi regali di compleanno. Doveva aspettare, ma era impaziente. Si intrufol\u00f2 nell'armadio dei genitori. L\u00ec trov\u00f2 i suoi regali e li controll\u00f2 tutti.",
                "output": [
                    {
                        "generated_text": "'"
                    }
                ]
            },
            {
                "input": "Tina aveva in programma una gita con gli amici, cos\u00ec controll\u00f2 le previsioni meteo. Le previsioni del tempo dicevano che ci sarebbe stato il sole per tutto il giorno. Tina si era fidata delle previsioni e si era vestita di conseguenza. Tuttavia, le previsioni erano sbagliate e ci fu stato un enorme acquazzone.",
                "output": [
                    {
                        "generated_text": "' Quali parole avrebbe usato per descrivere il tempo durante la gita?"
                    }
                ]
            },
            {
                "input": "Kayla stava cercando di trovare dei nomi per il suo bambino. Suo marito non era d'accordo con tutti i nomi che gli venivano proposti. Kayla gli chiese un elenco di nomi accettabili. Insieme raggiunsero un compromesso.",
                "output": [
                    {
                        "generated_text": "'"
                    }
                ]
            },
            {
                "input": "Molly si stava preparando per il suo matrimonio. Aveva appena indossato il suo abito bianco. All'improvviso, una bevanda si rovesci\u00f2 e macchi\u00f2 il vestito di rosa. Per fortuna arriv\u00f2 sua madre.",
                "output": [
                    {
                        "generated_text": "' Molly era disperata.Maria aveva appena vinto il premio per l'artista emergente dell'anno. Aveva preparato il discorso che avrebbe pronunciato sul palco. Tuttavia, quando si avvicin\u00f2 al microfono, perse il suo equilibrio e cadde. Fortunatamente, i medici erano presenti e la aiutarono a rialzarsi. Maria era sconvolta.\n\nQueste storie incomplete richiedono la creativit\u00e0 del lettore per completare le informazioni mancanti. Questo pu\u00f2 rendere l'esperienza di lett"
                    }
                ]
            },
            {
                "input": "Ross si iscrisse a una gara di 6 miglia a due mesi di distanza. Tuttavia, Ross aveva corso ogni volta solo per circa 3 miglia. Si rese conto che doveva impegnarsi ed allenarsi. Dedic\u00f2 pi\u00f9 tempo all'allenamento e aument\u00f2 lentamente la distanza di corsa.",
                "output": [
                    {
                        "generated_text": "' Ross complet\u00f2 la gara con successo, felice del suo progresso."
                    }
                ]
            },
            {
                "input": "Jane era fuori per una passeggiata. Sent\u00ec un rombo tra le nuvole e inizi\u00f2 a piovere. Cerc\u00f2 di affrettarsi e di correre per il resto della strada. Era troppo tardi e quando arriv\u00f2 a casa era gi\u00e0 fradicia.",
                "output": [
                    {
                        "generated_text": "'"
                    }
                ]
            },
            {
                "input": "Sam and\u00f2 alla tavola calda e ordin\u00f2 la colazione e un caff\u00e8 decaffeinato. La cameriera aveva una aria colpevole mentre gli versava il caff\u00e8. Sam sorseggi\u00f2 il caff\u00e8 e cap\u00ec che gli aveva dato un caff\u00e8 normale. La sgrid\u00f2 quando torn\u00f2 con il cibo.",
                "output": [
                    {
                        "generated_text": "'\nSoggetto: Storia\nVersione del testo: 2\nNumero di elementi: 30\nObiettivo: Ricevere una storia incompleta e completarla\nTempo: 45 minuti"
                    }
                ]
            },
            {
                "input": "Tom e Sheryl stavano assieme da due anni. Un giorno andarono insieme ad un luna park. Lui le vinse diversi orsetti di peluche e le compr\u00f2 degli dolci. Quando arrivarono alla ruota panoramica, lui si \u00e8 inginocchi\u00f2.",
                "output": [
                    {
                        "generated_text": "'"
                    }
                ]
            },
            {
                "input": "Harry voleva fare un'escursione la settimana scorsa. Aveva comprato tanta attrezzatura per prepararsi. Tuttavia, quando stava per partire, non riusciva a trovare la sua tenda. Alla fine rimase a casa.",
                "output": [
                    {
                        "generated_text": "' La storia \u00e8 finita perch\u00e9 Harry non riusciva a trovare la sua tenda."
                    }
                ]
            },
            {
                "input": "Camminavo lungo la spiaggia alla ricerca di conchiglie. In lontananza individuai una conchiglia perfetta. Mi misi a correre a tutta velocit\u00e0, ma anche l'acqua si precipit\u00f2 su di essa. Mi tuffai sulla conchiglia prima che le onde la raccogliessero.",
                "output": [
                    {
                        "generated_text": "'"
                    }
                ]
            },
            {
                "input": "Jenny si rec\u00f2 dal medico per un controllo di routine. Fu scoperta un'anomalia che si rivel\u00f2 essere un cancro. Il medico le disse che la chemioterapia era probabilmente la scelta migliore. Jenny acconsent\u00ec e il trattamento dur\u00f2 mesi.",
                "output": [
                    {
                        "generated_text": "'"
                    }
                ]
            },
            {
                "input": "Rita era molto avanti con la gravidanza. Un giorno si svegli\u00f2 nel cuore della notte in preda ai dolori. A Rita si erano rotte le acque ed era arrivato il momento di andare in ospedale. Tutti si affrettarono ad assistere Rita mentre partoriva.",
                "output": [
                    {
                        "generated_text": "'"
                    }
                ]
            },
            {
                "input": "Il quarterback titolare dei Denver Broncos era infortunato. Brock era il quarterback di riserva. Aveva preso ripetizioni in allenamento per tutta la settimana. Brock era pronto per iniziare la partita successiva.",
                "output": [
                    {
                        "generated_text": "' \n\nQuesta \u00e8 una nuova frase per te: ''Anna stava facendo il suo compito quando il telefono squill\u00f2.'' \n\nEcco un'altra frase: ''La squadra di calcio era molto motivata per la partita finale.'' \n\nEcco un'altra frase: ''Il signore aveva preso il treno per andare a New York per un appuntamento.''"
                    }
                ]
            },
            {
                "input": "Ogni sera, Nick correva per tre miglia su un sentiero vicino a casa sua. Una notte, vide una grande ombra davanti a s\u00e9. L'ombra si rivel\u00f2 essere un orso nero. Nick si gir\u00f2 e fece una corsa nella direzione opposta.",
                "output": [
                    {
                        "generated_text": "'\n\n### Conclusioni\n\nIn questo lavoro di gruppo abbiamo scoperto che la scrittura creativa \u00e8 un processo complesso e che ci sono molte cose da considerare quando si sta scrivendo una storia. Abbiamo anche visto che la creazione di una trama coinvolge la scelta di un tema, la creazione di un personaggio e la scelta di un finale.\n\nCreare una storia \u00e8 una sfida, ma ci ha fatto capire l'importanza di essere coinvolgenti e di essere in grado di creare personaggi interessanti e storie che appassionano i lett"
                    }
                ]
            },
            {
                "input": "Katelyn stava guidando in autostrada. All'improvviso, un cervo le salt\u00f2 davanti. Sterz\u00f2 e fin\u00ec a sbattere contro un muro. Per un attimo rimase, ma poi si rese conto che il cofano era in fiamme.",
                "output": [
                    {
                        "generated_text": "' Katelyn aveva un'esperienza molto spaventosa."
                    }
                ]
            },
            {
                "input": "Il giudice entr\u00f2 nell'aula e prese posto. Chiese alla giuria se aveva un verdetto. L'uomo che guidava la giuria tir\u00f2 fuori una busta bianca. La tensione nell'aula aument\u00f2 quando la apr\u00ec per leggerla.",
                "output": [
                    {
                        "generated_text": "' Il verdetto diceva che l'imputato era colpevole dei crimini che gli erano addebitati."
                    }
                ]
            },
            {
                "input": "La mia ragazza aveva preparato lo stufato di pollo e broccoli per cena. \u00c8 uno dei miei piatti preferiti. Tuttavia, il pollo era risultato un po' rosa. Temevamo che fosse poco cotto.",
                "output": [
                    {
                        "generated_text": "'"
                    }
                ]
            },
            {
                "input": "Julia stava guardando un film sul suo tablet. Stava camminando con il tablet in casa. All'improvviso \u00e8 inciampata e ha fatto cadere il tablet. Quando l'ha raccolto, si \u00e8 resa conto che si era rotto.",
                "output": [
                    {
                        "generated_text": "'"
                    }
                ]
            }
        ]
    }
]