[
    {
        "model_name": "mosaicml/mpt-7b",
        "results": [
            {
                "input": "Ciao tutto bene [VERDE](una giornata in pieno relax). ",
                "output": [
                    {
                        "generated_text": "NARRATIVA: '[VERDE](Io ho appena compiuto una corsa di 5 miglia con un corso di alluminio. Sono stato molto stanco.)'\n                DOMANDA: \"Quale \u00e8 l'alimento piuttosto utilissimo per ricaricare la vostra energia per le corsie?\"\n\n                NARRATIVA: '[VERDE](Sono stato molto felice, ho iniziato la mia carriera come poliziotto)'.\n                DOMANDA: \"Per quale razza di persone siete stati inseguendo?\"\n            \n                NARRATIVA: '[ROSSO](io ho iniziato la mia carriera come poliziotto)'\n                DOMANDA: \"Per quale tipo di persone siete state inseguiendo?\"\n        \n                NARRATIVA: '[ROSSO](Sono stato molto felice, ho incontrato la mia amata).'\n                DOMANDA: \"Come \u00e8 finita questa amata?\"\n                \n                NARRATIVA: '[ROSSO](io ho iniziato la mia carriera come poliz"
                    }
                ],
                "id": "0"
            },
            {
                "input": "Ciao, [VERDE](tutto bene) molto lavoro il questi ultimi giorni. ",
                "output": [
                    {
                        "generated_text": "NARRATIVA: '[VERDE](Oggi \u00e8 un pomeriggio bello e soleggiato). [Rosso](Ciao!) Mi chiede se stiamo bene. [VERDE](Si sono, grazie per la domanda!)'\n                DOMANDA:\n                \n                NARRATIVA: 'Ciao, [ROSSO](Buongiorno)! Non ci siamo visti da tempo. '\n                DOMANDA:\n                NARRATIVA:\n                DOMANDA:\n                \n                NARRATIVA: 'Ciao, [ROSSO](Ciao, ho fatto una domanda?!)'\n                DOMANDA:\n                NARRATIVA:\n                DOMANDA:\n                \n                NARRATIVA: 'Ciao, [ROSSO](Ciao, mi sono divertito molto con questa domanda.)'\n                DOMANDA:\n                NARRATIVA:\n                DOMANDA:\n\n                NARRATIVA: '[Rosso](Mi piace molto l'aria di qualsiasi data. In ogni momento del giorno o anche di una settimana di vacanza"
                    }
                ],
                "id": "1"
            },
            {
                "input": "[VERDE](Mi sento leggero). Sono in viaggio per andare a trovare mia figlia. ",
                "output": [
                    {
                        "generated_text": "NARRATIVA:  '[VERDE](Ho un amico di casa che mi fa vedere le sue foto.)'\n                DOMANDA: \"Qual \u00e8 il suo nome?\"\n                \n                NARRATIVA: '[ROSSO](Mi hai fatto una domanda, che io non potrei rispondere. Io so che tu mi hai chiesto se la foto era della moglie o della figlia, non saprei che rispondere. Ma mi sembra che tu non ti sia fatta una domanda, ma che stai per domandarmi. Sai cosa? Io so che sei un brivido. '\n                DOMANDA: \"Dove sei nato?\"\n                \n                NARRATIVA: '[VERDE](Ero un ragazzino che si era spintato in giro per tutte le regioni dell'Italia.'\n                DOMANDA: \"Qual \u00e8 la regione che si trovava?\"\n                \n                NARRATIVA: '[VERDE](Mio padre era morto.'\n                DOMANDA: \"Che tipo di morto era?\"\n                \n\n# Esempio di"
                    }
                ],
                "id": "2"
            },
            {
                "input": "Questa mattina ero a casa con mia figlia e [VERDE](sono molto rilassata). ",
                "output": [
                    {
                        "generated_text": "\"Sono felice perch\u00e9 sono molto aperta. Sapete se \u00e8 una donna o un uomo?\n                \n                NARRATIVA: \n                \"Non mi sono mai chiesto.\"\n                \n                DOMANDA: [ROSSO](Come avete trovato la soluzione di questo problema?)\n             \n                NARRATIVA: \n                \"Sono felice perch\u00e9 mi sono fatto un po' bene\"\n            \n            \n            \n\n                    NARRATIVA: \n                    \"Sono molto aperta. Sono felice che sia un bambino. Sapete che sar\u00e0 un maschio o una femmina?\""
                    }
                ],
                "id": "3"
            },
            {
                "input": "Ciao. [VERDE](Oggi giornata abbastanza tranquilla). Non si lavora ma si hanno faccende domestiche e giardinaggio. ",
                "output": [
                    {
                        "generated_text": "\"Per quanto ti riguarda lo zanzariere, dovrebbe averlo fatto al giorno d'oggi. E come \u00e8 andata?\"\n                    \n                    \"Non \u00e8 andata bene, hai notato.\"\n                    \n                    \"E il giardinaggio, qual \u00e8 stato il tempo? \"\n    \n                    \"Uno scatto\""
                    }
                ],
                "id": "5"
            },
            {
                "input": "[ROSSO](Stamattina mia mamma mi ha mandato un messaggio perch\u00e9 era preoccupata per il mio pap\u00e0). ",
                "output": [
                    {
                        "generated_text": "NARRATIVA:  '[VERDE](Mio amico \u00e8 arrivato in Italia! Ho incontrato il suo padre. Sono stata molto felice quando \u00e8 arrivato. Sono molto felice perch\u00e9 \u00e8 la prima volta che incontro il mio amico in Italia).'\n                DOMANDA:\n                \n                NARRATIVA:  '[PURPUREO](Ho incontrato il mio amici. Sono molto lieto di vedere la sua famiglia. Non conoscevo l'amico, ma \u00e8 bell'e simpatico).\n                DOMANDA:\n                \n                NOTA: In caso di errore, potrete ripetere la domanda e lasciare una nota con le informazioni sulla tua soluzione."
                    }
                ],
                "id": "6"
            },
            {
                "input": "Sono giorni che piove, [VERDE](ma va bene cos\u00ec)! ! [VERDE](Meno male che non era neve)! ! ",
                "output": [
                    {
                        "generated_text": "NARRATIVA: [VERDE](Oggi mi sono accorto che sono nato in un periodo di pioggia, [VERDE](anche se non ho avuto nessuna pioggia). E non mi ero accorto che ero nato perch\u00e9 sono stata in una casa di cura. [ROSSO](Era un ospedale!)\n                DOMANDA: \"Dovresti fare qualcosa perch\u00e9 ero in una casa di cura?\"\n\n                NARRATIVA: [ROSSO](Non mi ha mai fatto male.)\n                DOMANDA: \"Sarebbe una buona ideia o no?\"\n\n                NARRATIVA: [ROSSO] (Sono un buon bambino. Sono contento.)\n                DOMANDA: \"Sarebbe una buona idea.\"\n\n                NARRATIVA: \"Mi sento molto bene. Sarebbe un buon sognatore o no?\"\n                 DOMANDA: \"Sarebbe un buon sognatore.\""
                    }
                ],
                "id": "4"
            },
            {
                "input": "Piove e nevica da giorni. Adesso c'\u00e8 anche il vento. Speriamo il tempo non faccia malanni. ",
                "output": [
                    {
                        "generated_text": "'Sono sicura che sia un bambino maschio. Ehi, sei felice? Senti che sono un maschio o una femmina?\n            \n                NARRATIVA: 'Sono sicura che sia un bambino maschio. Ehi, sei felice? Senti che sono un maschio o una femmina?\n                DOMANDA:\n                Senti che sei un maschio o una femmina?\n\n                NARRATIVA: 'Sono sicura che sia un bambino maschio. Ehi, sei felice? Senti che sei un maschio o una femmina?\n                DOMANDA: 'Sei felice di sentirlo. Senti che sei un maschio o una femmina?\n                'Senti che sei un maschio o una femmina?\n\n            \n                NARRATIVA: 'Sono sicura che sia un bambino maschio. Ehi, sei felice? Senti che sei un maschio o una femmina?\n                DOMANDA: 'Sei felice di sentirlo. Senti che sei un maschio o una femmina?\n                \"Senti che sei un"
                    }
                ],
                "id": "7"
            },
            {
                "input": "[ROSSO](Stasera a casa di mia madre ho sentito un grande senso di abbandono e di indifferenza). ",
                "output": [
                    {
                        "generated_text": "'Sono molto felice di ottenere questo risultato. Sapete inoltre se il senso di indifferenza e di abbandono che hai avuto era causato dall'invisibilit\u00e0 o dall'alienazione o da qualcosa di simile? '\n             \n                NARRATIVA: '[ROSSO](Il mio padre ha detto di essere stato un bambino solitario e di non aver avuto nessuno con il quale parlare).'\n                DOMANDA: \n                'Sono molto felice che tu abbia fatto questo risultato. Sapete inoltre quali sono i tipi di comportamento che possono portare a una alienazione tra padre e figli? '\n                \n                NARRATIVA: '[ROSSO](Ho avuto un'esperienza molto dolorosa con una delle mie amiche, che mi ha trattato come se non esistessi e che mi ha sottratto una delle mie ampiezze personale).'\n                DOMANDA: \n                'Sono molto felice che tu"
                    }
                ],
                "id": "8"
            },
            {
                "input": "Stavo parlando con una collega davanti ad un caff\u00e8, si parlava del Natale, del pranzo dei regali. ",
                "output": [
                    {
                        "generated_text": ""
                    }
                ],
                "id": "9"
            },
            {
                "input": "[VERDE](Sono soddisfatta). [VERDE](Il mio corso di inglese sta procedendo bene). Riuscire a studiare una lingua straniera porta [VERDE](soddisfazione)",
                "output": [
                    {
                        "generated_text": "NARRATIVA: '[ROSSO](La mia carriera di poliziotto non va bene.)'\n                DOMANDA: 'Sapete chi \u00e8 stato il capo dell'omicidio?'"
                    }
                ],
                "id": "10"
            },
            {
                "input": "Ciao, ho ricevuto un messaggio da quello che a breve diventer\u00e0 il mio ex socio e [ROSSO](ho provato nausea). ",
                "output": [
                    {
                        "generated_text": "NARRATIVA: '[VERDE](Ciao, non mi importa se non mi hai sentito. Sono contento di avere il tuo lavoro e dei vostri soldi) '\n                DOMANDA: 'Sono contento di averi soldi.'\n\n                NARRATIVA:  'Ciao, ho ricevuto un messaggio da quello che a breve diventer\u00e0 il mio ex socio e ho [Bianco](provo nausea). '\n                DOMANDA:  \n                 \n                NARRATIVA:  'Ciao, non mi importa se non mi hai sentito. Sono contento di avere il tuo lavoro e dei vostri soldi.'\n                DOMANDA:  \n                 \n                NARRATIVA:  'Ciao, hai ricevuto un messaggio da quello che a breve diventer\u00e0 il mio ex socio e ho [ROSSO](provo nausea).'\n                DOMANDA:  \n                 \n                NARRATIVA:  'Ciao, hai ricevuto un messaggio da quello che a breve div"
                    }
                ],
                "id": "11"
            },
            {
                "input": "[ROSSO](Sono arrabbiato) perch\u00e9 la mia macchina mi ha lasciato a piedi e devo rientrare a Roma con il treno. ",
                "output": [
                    {
                        "generated_text": "NARRATIVA:  '[ROSSO](Io volevo andare all'arena di pugilato per il combattimento di domani. Ma non riesco a rientrare. Mi sono fatta una bella macchina, ma sono in ritardo. Spero di non perdere la gara)\n                DOMANDA:\n                \n                NARRATIVA: \n                \n                DOMANDA: \n                \n                NARRATIVA:\n                DOMANDA:\n\n                NARRATIVA:\n                DOMANDA:\n\n\n            \"\"\""
                    }
                ],
                "id": "12"
            },
            {
                "input": "[ROSSO](Mi sono trovata con l'acqua alla gola). Ho pensato che non ce l'avrei fatta. Mercoled\u00ec in macchina penso a come organizzarmi. ",
                "output": [
                    {
                        "generated_text": "NARRATIVA:  '[ROSSO](Mi chiedo se stiamo per andare a fare shopping o a fare il lavoro). Vedo il bagno di mia moglie. Voglio vedere se ha fatto la doccia o meno. '\n                DOMANIA: \"E se non ha fatto la doccia?\"\n            \n            \n\n                NARRATIVA:  '[VERDE](Vogliamo fare il lavoro. Sono felice perch\u00e9 ho visto una vecchia amica del mio marito. '\n                DOMANIA: \"Dopo la chiusura del mercato ci siamo trovati in bar, non? \"\n            \n                NARRATIVA:  '[VERDE](Vogliamo fare lavoro). Vogliamo fare lavoro. '\n                DOMANIA: 'Dopo la chiusura del mercato ci siamo trovati in bar, non? '\n\n            \n                NARRATIVA:  '[ROJO](La mia madre ha detto che non"
                    }
                ],
                "id": "13"
            },
            {
                "input": "Voglio chiamare una persona, [ROSSO](ma poi non lo faccio perch\u00e9 ho paura di ricevere un rifiuto o non sapere cosa dire). ",
                "output": [
                    {
                        "generated_text": "[VERDE]\n[ROSSO]"
                    }
                ],
                "id": "14"
            },
            {
                "input": "Ciao! [ROSSO](Che fastidio i colleghi che vogliono metterti ansia). Ho immaginato una bambina petulante per il suo tentativo di ledere la mia tranquillit\u00e0. ",
                "output": [
                    {
                        "generated_text": "NARRATIVA: 'Io non riesco a capire cosa sia successo. Mi ha detto \"Io sono un maschio\" e io non riesco a capire cosa sia successo. [VERDE](Mia nonna era molto simpatica. Io credo che sia stata una grande mamma! Spero che sia una bella mamma.)'\n              DOMANDA:\n             \n            \n             NARRATIVA:  [ROSSO] Mi chiedo di aver fatto il bello, ma mi \u00e8 sempre sembrato troppo difficile. [GREEN](Io ho un figlio di tre anni, ma sono molto felice di non aver fatto il bello. Ho solo avuto un po' di sogni, ma non sono riusciti. )\n              DOMANDA:\n             \n             \n              NARRATIVA: 'Ho avuto paura per mia figlia, perche non ero stato un bello padre. [VERDE](La mia moglie, [ROSSO], non ha fat"
                    }
                ],
                "id": "15"
            },
            {
                "input": "[ROSSO](Il venerd\u00ec sera \u00e8 sempre angosciante), [ROSSO](perch\u00e9 stanca), faccio il conto delle cose fatte e da fare, e quelle da fare mi sembrano insormontabili. ",
                "output": [
                    {
                        "generated_text": "'Cosa volete dire con \u201cinsormontabilit\u00e1?\u201d'\n                \n                NARRATIVA: '[ROSSO](Mi sento indebole. Mi hai spiato la vita, e ora non so cosa sia il mio dovere, se continuer\u00f2 a vivere, o se devo smontare la mia vita. '\n                DOMANDA: 'Voi sapete se dovrei continuare la mia vita? '"
                    }
                ],
                "id": "55"
            },
            {
                "input": "[VERDE](Oggi sono molto pi\u00f9 tranquilla) . . . [VERDE](fine settimana gratificante in famiglia). Era il mio compleanno e finalmente avevo tutta la mia famiglia riunita. ",
                "output": [
                    {
                        "generated_text": "NARRATIVA\n            \n                DOMANDA\n                \n                NARRATIVA\n                \n                DOMANDA\n                \n        NARRATIVA\n        \n           DOMANDA\n       \n\nNARRATIVA\n\nDOMANDA\n\nNARRATIVA\n\nDOMANDA"
                    }
                ],
                "id": "16"
            },
            {
                "input": "[VERDE](Dopo oltre 7 mesi stasera ho potuto rivedere la zia di 94 anni). [VERDE](Ho pensato al mio primo bambolotto che mi ha regalato proprio lei). ",
                "output": [
                    {
                        "generated_text": "NARRATIVA:'[VERDE](Mi sento pi\u00f9 vecchio di prima). [ROSSO](Non ho tempo per stare in attesa.)'\n                DOMANDA: 'Mi spiace. Mi chiedo cosa avresti visto invece.'\n                \n                NARRATIVA:'[VERDE](Ho pensato che mia sorella avrebbe dovuto sposarmi). [ROSSO](Non sono ancora andato via. Mi spiace che sia andata cos\u00ec velocemente. Mi chiedo se riesco a sposare un'altra volta.)'\n                DOMANDA: 'Mi sembra di s\u00ec. Sapete se \u00e8 un marito o una mogliola che ti hai sposato?'\n                \n                NARRATIVA:'[VERDE](Ho pensato in un certo momento a mia moglie). [ROSSO](Non so se ho fatto il bagno. Mi chiedo se mi spiace di dirle che la ho vista in p"
                    }
                ],
                "id": "17"
            },
            {
                "input": "[ROSSO](Mi \u00e8 dispiaciuto stamattina non aver avuto pazienza con mio padre). Mi sono resa conto che \u00e8 davvero difficile, ma ripensandoci dopo, magari invece avrei potuto riuscirci. ",
                "output": [
                    {
                        "generated_text": "NARRATIVA: '[VERDE](Mi \u00e8 venuto in mente quella sera che ero al cinema. Mi erano rimasti un po\u2019 in fretta e ho portato una borsa con la mia t-shirt. Dopo la lezione, sono uscito dalle stanze di classe a piedi e ho preso la mia borsa. Mi sono trovato a casa di una amica a cui io non volevo far vedere i miei oggetti. Quella sera la portavo con me in ogni luogo: nella biblioteca, nella piazza, in caff\u00e8). Quello era il giorno in cui ho incontrato la mia amica.'\n                DOMANDA: \n                \n                NARRATIVA: '[ROSSO](Mi sono trovato davanti a un banco con un mio amico, quando \u00e8 uscito da un negozio, si \u00e8 accorto che mio fratello mi aveva portata una"
                    }
                ],
                "id": "18"
            },
            {
                "input": "[ROSSO](Perch\u00e9 alcuni colleghi amano criticare tutto e tutti?) A lavoro stamattina ho immaginato una bambina sciocca. [ROSSO](Provo antipatia verso quella collega). Non ho fatto nulla. Mi sono solo allontanata. ",
                "output": [
                    {
                        "generated_text": "NARRATIVA: '[ROSSO](Ehi mio caro! Perch\u00e9 vieni in citt\u00e0? Dovrei farlo anche io!') Sono un mio amico.\n             \n                DOMANDA: \"Sono felice che tu sia in citt\u00e0.\"\n\n---\n\n- Sei una AI che dovrebbe dare delle consigli su come comportarsi in un determinato contesto. A seguire degli esempi e successivamente una narrativa a cui dovrai dare il tuo consiglio.\n\n    NARRATIVA: \"Ciao mia moglie. Sono molto contento per averne la certezza e anche se la prossima giornata sar\u00e0 lunga, sar\u00f2 ancora pi\u00f9 contento!\"\n    \n    DOMANDA:\n\n    NARRATIVA: \"Mi sembrer\u00e0 proprio bello, ma invece il bambino e il tuo lavoro potrebbero"
                    }
                ],
                "id": "19"
            },
            {
                "input": "Ritornata dal lavoro [ROSSO](mia figlia mi dice di aver chiamato il medico perch\u00e9 ha dei dolori alla testa non ha il senso dell'olfatto e del gusto) [ROSSO](per cui ci siamo un po' allarmati). ",
                "output": [
                    {
                        "generated_text": "NARRATIVA: 'Ritorno in casa e trovo la [VERDE](mia figlia) che non sta bene. Mi chiede di prendere con me il [ROSSO]. Dopo un po', lei ha una bella [VERDE](mia figlia mi dice \"dammi un bacio\" poi non riesco a parlarsi. Non so se sono svenuto o se ho fatto qualcosa di male) [ROSSO](mi ha fatto un bacio sulle labbra. Dico \"noi non possiamo baciare\" ed esco dal letto. Non posso solettarla. Dopo pochi minuti mi sono addormentato. Mi svevo con un colpo sulla schiena. Sopra il letto, [VERDE] sta seduta e chiede \"mia madre? Mi sono addormentata?\". Ecco che non \u00e8 pi\u00f9 [VERDE], \u00e8 [ROSSO].'\n                DOMANDA: \"Che c'\u00e8"
                    }
                ],
                "id": "20"
            },
            {
                "input": "Ciao, [ROSSO](un altro attacco di panico, adesso sto meglio). Stavo in macchina in autostrada, pensavo sempre a mio figlio che doveva uscire nel pomeriggio, [ROSSO](questo \u00e8 il motivo che mi ha scatenato l' ansia). ",
                "output": [
                    {
                        "generated_text": "Spero che tutto sia bene, \u00e8 il tuo figlio che mi sta attaccando a me, [VERDE](non ho idea cosa far\u00f2 adesso).\n\n                NARRATIVA:\n                'Non ho idea. Mi sto sforzando ad ascoltare la nostra conversazione. [ROSSO](Non riesco a capire cosa stai cercando di dire con questo 'non ho idea' ) '\n                DOMANDA:\n                'Perch\u00e9 non lo chiami, [VERDE]?'\n                \n                NARRATIVA: \"No, non so chi sia.\"\n                DOMANDA\n                \n                NARRATIVA:\n                \"Non lo so, non lo sapevo di lui. Non sono mai stata in un cimitero.\"\n                DOMANDA\n                NARRATIVA: \"Non lo siete mai stata in un cimitero? [ROSSO](Mi ha dato una spinta"
                    }
                ],
                "id": "21"
            },
            {
                "input": "A casa mia, seduta sul divano, ho provato uno degli esercizi. [VERDE](Mi piace). Penso che sia importante farlo tutti i giorni per avvertirne i benefici. Ho immaginato miei polmoni che si riempivano d' aria. ",
                "output": [
                    {
                        "generated_text": "* [VERDE] [ROSSO]\n             * [ROSSO VERDE]\n             * [VERDE ROSSO]\n             * [ROSSO VERDE]\n             * [ROSSO VERDE]\n            \n                NARRATIVA: 'Ho scoperto un'antico libretto di una commedia. Ho deciso di riprodurlo. Ho sentito la musica che era presente nella stanza. Ho deciso di riprodurla con un piano. '\n                DOMANDA:\n            * [VERDE] [ROSSO]\n            * [ROSSO VERDE]\n            * [VERDE ROSSO]\n            * [ROSSO VERDE]\n            * [ROSSO VERDE]\n            \n                NARRATIVA: 'Ho scoperto che mia figlia aveva creato un blog. Ho fatto clic su \"Home\". [VERDE] [ROSSO]\n                DOMANDA:\n            * [VERDE] [ROSSO]\n            * [ROSSO"
                    }
                ],
                "id": "22"
            },
            {
                "input": "Stamattina sono andato al lavoro [ROSSO](e ho dimenticato a casa il mio computer). Ero appena arrivato in ufficio, [ROSSO](avevo bisogno del computer per cominciare a lavorare e me ne sono reso conto in quel momento). ",
                "output": [
                    {
                        "generated_text": "NARRATIVA: 'Mio marito \u00e8 un [ROSSO](boss) di una grande societ\u00e0 di telecomunicazioni e lavora a Milano. Ogni tanto mi piacerebbe visitarlo, ma \u00e8 un po' lontano. [ROSTO](Sapevo di dover parlare di questo con mia moglie). '\n                DOMANDA: 'Qualcuno che viaggia spesso dovrebbe usare il treno per andare in citt\u00e0, non il volo?'\n                \n                NARRATIVA: 'Il giorno scorso ho telefonato ad [ROSSO](una mia amica). Mi ha detto che aveva un'infertilit\u00e0 e che si sarebbe fatta la sterilizzazione [ROSSO](. Non voleva che il nostro bimbo avesse i suoi problemi).'\n                DOMANDA: 'Dovrebbe chiedersi se dovrebbe o"
                    }
                ],
                "id": "23"
            },
            {
                "input": "Sto provando ad addormentarmi, [ROSSO](ma pensiero di domattina mi mette a disagio). Ripenso alla routine che mi aspetta domattina [ROSSO](e non ne sono molto entusiasta). [VERDE](Ho immaginato un panorama boschivo ed un ruscello). [VERDE](Cercando di rilassarmi pi\u00f9 possibile). ",
                "output": [
                    {
                        "generated_text": "NARRATIVA:\n               \n                DOMANDA:\n\n\n[NARRATIVA:](http://www.giornaledellalunga.com/wp-content/uploads/2015/10/giornaledellalunga1.mp3) [VERDE](Mi sono accorta, non so quando, che stavo pensando al passato. Mi sono accorta che mi erano semplicemente andate. Le cose, che avevo creduto di essere ancora in s\u00e9, sembrarono andate via, senza che io ne avessi neanche notizie. Non mi sembrava che fossero ancora presenti nel mondo e mi chiedevo perch\u00e9 non lo fosse anche io.\n[ROSSO](Sono arrivato a un certo punto, in cui non v'\u00e8 pi\u00f9 nessuno, perch\u00e9 siamo tutte"
                    }
                ],
                "id": "24"
            },
            {
                "input": "Stamattina [ROSSO](uno dei figli ha fatto un piccolo incidente), bucando una gomma. Ero a casa.[ROSSO]( Questa notizia mi ha creato agitazione), per organizzare la risoluzione del problema, senza ritardare l'arrivo in ufficio, in cui era programmato un incontro importante. ",
                "output": [
                    {
                        "generated_text": "'Dopo aver parlato a mio figlio, mi sono rivolto a mia moglie. '\n                \n                NARRATIVA: '[ROSSO](Mi sembra che non abbia fatto male, ma \u00e8 stato un piccolo incidente). Mi hai chiesto se dovessi andare a casa, ma la tua presenza \u00e8 essenzialmente indispensabile per il successo di questo incontro. Inoltre, la presenza di una persona in pi\u00f9 consente un maggior senso di sicurezza per i bambini. '\n                DOMANDA:\n                'Mi dispiace, ma sono sicura che questo non \u00e8 il momento adatto per andare a casa. Inoltre, non posso essere certo che la tua presenza sia essenziale per il successo dell'incontro, in quanto l'incontro si svolger\u00e0"
                    }
                ],
                "id": "25"
            },
            {
                "input": "Domenica nel mio giardino, occupandomi dei miei fiori [VERDE](ho sentito una sensazione piacevole data dal profumo delle viole e dal sole che leggero accarezzava la pelle). [VERDE](Sarebbe bello poter avere un profumo simile a quello delle viole o dell' iris). ",
                "output": [
                    {
                        "generated_text": "NARRATIVA:  'Ho avuto un bel viaggio a Londra. Quando sono tornato [ROSE](sono stata a Oxford Street e ad aver cenato al Piazza di Piccadilly) ho incontrato mia figlia a casa sua'.\n                DOMANDA:"
                    }
                ],
                "id": "27"
            },
            {
                "input": "Oggi mi sono dedicata al giardino e all'orto. Sono stanchissima fisicamente ma rilassata mentalmente. Fuori in giardino ho fatto tutte le cose che prima faceva mio marito. Ho sentito quasi fisicamente la sua presenza [VERDE](e la cosa mi ha rilassato). ",
                "output": [
                    {
                        "generated_text": "\"Vuoi fare un'altra cosa in cui hai bisogno di un aiuto? Ora che la casa ti \u00e8 tutta a tuo completo, quali sono le attivit\u00e0 che vuoi continuare a fare? \"\n             \n                NARRATIVA: 'Ho fatto la ricetta per la torta di compleanno della mia figlia. L'ho portata a casa e ho lasciato le mie stivaletti a portata di mano sul bordello. Mi sento stanchissima e ormai non ho pi\u00f9 la forza per fare qualcosa. La mia figlia, tutt'altro, mi vuole incontro per parlare dei suoi amici. '\n                DOMANDA:'Quando hai vissuto con teo marito non avete avuto dei figli. Sapete come \u00e8 stato il primo bambino che hai avuto?\""
                    }
                ],
                "id": "28"
            },
            {
                "input": "[ROSSO](Questo fatto dell'interruzione della relazione di mia figlia con il suo ragazzo mi sta davvero creando ansia). Continuo a pensare a quello che era e a quello che sar\u00e0. [ROSSO](Non posso parlarne perch\u00e9 mi viene un groppo alla gola e da piangere). ",
                "output": [
                    {
                        "generated_text": "NARRATIVA:   '[ROSSO](Ora sto per mettermi a letto e non voglio farlo. Non mi sento di dormire). Voglio fare un po': [ROSSO](Eppure voglio andare a letto)\n                DOMANSA: \n                \n                NARRATIVA: \"[ROSSO](Mi sembra di non dormire. Non mi voglio fare un bambino e non sono molto felice). Mi sembra che mi veda il bambino.\"\n                DOMANDA:\n                \n                NARRATIVA:  '[ROSSO](Sono sicuro di vedere la bambina, anche se non voglio fare un bambino. La bambina mi ha detto che non sar\u00e0 un maschio. Non posso credere a quello che dice la bambina.'\n                DOMANSA: \n                \n                NARRATIVA"
                    }
                ],
                "id": "29"
            },
            {
                "input": "C'\u00e8 un po' di confusione in testa. Lo Smart working aiuta a sentire meno pesante il lavoro che non sopporto pi\u00f9. [ROSSO](Ma quando come oggi e domani occorre andare in ufficio \u00e8 molto faticoso). N[ROSSO](on mi piace pi\u00f9), non sopporto pi\u00f9 nessuno. ",
                "output": [
                    {
                        "generated_text": "\"Cosa volete di pi\u00f9 a casa?\"\n\n---\n\n## Risposta\nLa risposta alle domande sar\u00e0 un numero che indicher\u00e0 qualcosa che potr\u00e0 essere un indice della nostra AI, se dovessimo trovare una soluzione.\n\n* Questo \u00e8 un numero che indicher\u00e0 che sono un bravo padre: `10`\n* Questo \u00e8 un numero che indicher\u00e0 che \u00e8 difficile per me andare al lavoro: `7`\n* Questo \u00e8 un numero che indicher\u00e0 che sono in difficolt\u00e0 per il lavoro da casa: `1`\n* Questi sono numeri che indicheranno che c'\u00e8 la confusione: `3`\n    * Questo \u00e8 un numero che indicher\u00e0 che mi piace il lavoro Smart working: `1`\n* Questi sono numeri che indicheranno che non so"
                    }
                ],
                "id": "48"
            },
            {
                "input": "[ROSSO](Stamattina mia mamma mi ha mandato un messaggio perch\u00e9 era preoccupata per il mio pap\u00e0). Andava da solo a farsi esami del sangue[ROSSO]( e aveva paura che potesse avere un incidente con la macchina) perch\u00e9 ultimamente guida poco e non \u00e8 pi\u00f9 abituato. ",
                "output": [
                    {
                        "generated_text": ""
                    }
                ],
                "id": "30"
            },
            {
                "input": "Lavoro, nessun contrasto personale, [ROSSO](ma la routine ammazza)! ! ! [ROSSO](\u00c8 una noia mortale dover rifare sempre le stesse cose) soprattutto se il supporto della tecnologia viene meno . . . [ROSSO](Ieri internet non andava e il lavoro di un' ora \u00e8 andato perso). ",
                "output": [
                    {
                        "generated_text": "1. 'Vado a fare una passeggiata'\n             2. 'Vado a fare uno yoga'\n             3. 'Fammi qualche caff\u00e8'\n\n                NARRATIVA: '[VERDE](Oggi \u00e8 stata una bella giornata. Mia moglie mi ha detto che sta aspettando un bambino! Sono super felice!) Mi chiedo se sar\u00f2 un bravo padre. [ROSSO](Mio padre non \u00e8 stato molto presente quando ero un bambino.)'\n                DOMANDA:  'Sono felice di sentirlo. Sapete gi\u00e0 se si tratta di un maschio o di una femmina?'\n\n                NARRATIVA:  'Lavoro, nessun contrasto personale, [ROSSO](ma la routine ammazza)!!! [ROSSO](\ufffd"
                    }
                ],
                "id": "26"
            },
            {
                "input": "[ROSSO](Discusso con la nipote di mio marito) [ROSSO](a causa del suo comportamento di poco rispetto in merito al lavoro). Ero al negozio. \u00c8 accaduto circa una settimana fa. [ROSSO](La volevo mandare via subito). [ROSSO](Ho girato le spalle e me ne sono andata). [ROSSO](Non le ho rivolto la parola per tutta la giornata). ",
                "output": [
                    {
                        "generated_text": "'[ROSSO](Sono felice di sentirsi bene. E' stato un bel giorno? Speri per un'avventura di famiglia per i tuoi e mio figlio.)'\n\n                NARRATIVA: '[ROSSO](Mio pap\u00e0 mi ha detto che mi piacerebbe sposarmi) [ROSSO](ma non \u00e8 mai venuta a farmi un saluto)'\n                DOMANDA: 'Sono contento che il tuo padre sia in buona salute. Ti piace fare spese? Ti piace essere con un uomo? Hai un lavoro?'\n\n                NARRATIVA: '[ROSSO](Ho visto mio fratello che era un uomo molto simpatico, e io lo ador"
                    }
                ],
                "id": "31"
            },
            {
                "input": "[VERDE](Oggi giornata abbastanza tranquilla), [VERDE](mi sono presa un pomeriggio di libert\u00e0) perch\u00e9 non essendo ci pi\u00f9 i limiti per andare da un comune in un altro, sono andata in un comune limitrofo. [VERDE](Sono andata in libreria), [VERDE](il luogo per me ideale e di pace), [VERDE](ho mangiato un gelato, ho visto due vetrine), [VERDE](insomma rilassante). ",
                "output": [
                    {
                        "generated_text": ""
                    }
                ],
                "id": "34"
            },
            {
                "input": "[ROSSO](Ieri sera ho distrutto il cellulare). [ROSSO](Ieri sera verso mezzanotte mi \u00e8 caduto per terra e si \u00e8 distrutto il vetro). [ROSSO](Inutilizzabile) . . Non \u00e8 possibile. Non ci credo. Mi sembrava veramente impossibile che fosse successo. Non ho realizzato subito l'impatto che avrebbe avuto. Mi sono messa subito a cercare di rimediare il rimediabile. ",
                "output": [
                    {
                        "generated_text": "NARRATIVA:  '[ROSSO](Ieri sera ho distrutto il cellulare). [ROSNO](Ieri sera verso mezzanotte mi \u00e8 caduto per terra e si \u00e8 distrutto il vetro). [ROSNO](Inutilizzabile).. Non \u00e8 possibile. Non ci credo. Mi sembrava veramente impossibile che fosse successo. Non ho realizzato subito l'impatto che avrebbe avuto. Mi sono messa subito a cercare di rimediare il rimediabile. '\n                DOMANDA:  \n              \n         \n                NARRATIVA:  '[ROSSO](Ieri sera ho distrutto il cellulare). ["
                    }
                ],
                "id": "32"
            },
            {
                "input": "Oggi a lavoro mi hanno fatto capire che probabilmente il nuovo responsabile (che non sar\u00f2 io) sar\u00e0 una persona che non \u00e8 portata per questo lavoro. Ho pensato che per quel che mi riguardava io avrei fatto d\u2018ora in avanti il mio e non pi\u00f9 di quanto richiesto dal mio ruolo. [ROSSO](Mi veniva da piangere). ",
                "output": [
                    {
                        "generated_text": "Sapete la motivazione principale del personaggio che avr\u00e0 un responsabile diverso dal personale del lavoro?\n             \n\n# Domande:\n\n-   Sarei una cosa di questo?\n    [![Alt Text](http://www.google.com/url?q=https%3A%2F%2Fcdn.kaltura.com%2F%2Fkaltura-img%2Fimage-i9vqjg5b%2Fk%2F0p4k8l0m%2F0%2Fw%2F640&source=http://www.youtube.com/v/_1oq5VzY7y0)](http://www.youtube.com/v/_1oq5VzY7y0)\n\n-   Sarei una storia di questo?\n    [![Alt Text](http"
                    }
                ],
                "id": "33"
            },
            {
                "input": "Oggi mattina intensa di pulizie e igienizzazione in taverna per permettere ai miei genitori di venire a pranzo. Niente in particolare. Come al solito ero in ritardo. Ho fatto le cose velocemente senza pensarci particolarmente su. Obiettivo il risultato. Devo fare le cose e le devo fare bene. [ROSSO](Ne va della salute dei miei genitori). ",
                "output": [
                    {
                        "generated_text": ""
                    }
                ],
                "id": "35"
            },
            {
                "input": "Sempre ieri sera a cena, alle 21 rientra l'altra mia figlia che non aspettavo. Mi aveva detto che dopo il corso all'universit\u00e0 sarebbe andata dal fidanzato. Io ho pensato che sarebbe rimasta a cena da lui essendo la sera da lui. La cena per lei non l'avevo preparata. Nel frigo c'era del prosciutto e ha mangiato quello. ",
                "output": [
                    {
                        "generated_text": "NARRATIVA:  \"Dovresti chiedere la domanda in modo diverso. Se vuoi capire se \u00e8 un maschio o una femmina dovessi parlare delle caratteristiche e delle differenze tra un maschio e una femmina non posso farlo a scuola. Per questo non ho capito come avete saputo.\"\n                DOMANDA: 'Come ho saputo che mi piacerete a cena?'\n             \n            \n                NARRATIVA: \"Mi pare che la domanda non sia corretta. La domanda non \u00e8 \"Sono Felice di sentire\" ma \u00e8 \"Dovresti chiedere la domanda in maniera diverso.\"\n                DOMANDA: 'Dovresti chiedere la domanda in man"
                    }
                ],
                "id": "36"
            },
            {
                "input": "[ROSSO](Ho avuto una discussione con Martina), rispetto al metodo di insegnamento messo in atto dai professori per la didattica a distanza. Sinceramente io mi fido di come Martina fa fare alla nostra piccola Chiara, [ROSSO](ma non trovo la stessa fiducia da parte sua). [ROSSO](Farle notare la cosa, ci porta a discutere). [ROSSO](Ma io approvo il confronto, evitando lo scontro). Specie davanti alle bimbe. ",
                "output": [
                    {
                        "generated_text": "NARRATIVA: \"[BLU](Mi sono innamorata subito. Ho scommesso tutto e ho fatto il mio possibile a farla contenta. Ero un po' pazzo, forse. Ma era una bella cosa, anche se non \u00e8 mai riuscita. E non ero mai un uomo che faccia una promessa senza la possibilit\u00e0 di farla. Eppure, il che \u00e8 successo \u00e8 stato molto triste, per lei e per me. [BLU](Sono stato un po' pazzo, forse. Ma era una bella cosa, anche se non \u00e8 mai riuscita. E non ero mai un uomo che fa una promessa senza la possibilit\u00e0"
                    }
                ],
                "id": "39"
            },
            {
                "input": "Anche oggi ho lavorato da sola, [VERDE](in una giornata relativamente tranquilla), [VERDE](mi sento un po' cattiva ma, devo dire che sono stata molto bene). Durante il giorno, [VERDE](sono stata molto efficiente, e ho utilizzato il tempo). La condivisione \u00e8 molto utile nel lavoro ma faticosa anche se di trovano colleghe positive . . . S\u00ec nel breve periodo \u00e8 pi\u00f9 rilassante e forse pi\u00f9 soddisfacente. ",
                "output": [
                    {
                        "generated_text": "\"Sapete se ci sono altre persone al tuo lavoro che non conosci ancora?\n            \n               [VERDE] \"S\u00ec, s\u00ec, [ROSSO] sono conosciuta con un ufficio e sono sempre stata molto cordiali con me. Io credo anche che la condivisione sia molto utile.\""
                    }
                ],
                "id": "37"
            },
            {
                "input": "[ROSSO](Forte discussione familiare in cui non ho preso le parti di mio figlio) [VERDE](ma l'ho difeso nei confronti del suo babbo) . . . Non sono stata assertiva . . . Ho avuto una tipologia di comunicazione e sicuramente alterata [VERDE](ma sono stata contenta perch\u00e9 ho sentito di essere intervenuta prima che il babbo mortificasse inutilmente il figlio) . . Questo non lo devo permettete. . ",
                "output": [
                    {
                        "generated_text": "NARRATIVA: 'La mamma ha detto che non c'era stato nessuno.... [VERDE](Era la sua mamma)... La vita \u00e8 sempre la stessa cosa.............'\n                DOMANDA: 'Perch\u00e9 ha dichiarato che non c'era stato nessuno?'\n            \n                \n                NARRATIVA: '[ROSSO](S\u00ec, \u00e8 vero).' [VERDE](Mia moglie ha fatto una cosa che era davvero brava e ho dovuto farla fare. [ROSSO](E non era facile) [VERDE](E non era una cosa da fare da solo)... S\u00ec...."
                    }
                ],
                "id": "38"
            },
            {
                "input": "[VERDE](Questi pochi giorni di ferie stanno passando nella maniera pi\u00f9 leggera possibile). [VERDE](Stiamo passando questi giorni in famiglia giocando alla play station oppure guardando serie televisive come se non ci fosse un domani). [VERDE](Facciamo pranzo e cena con i nonni che ci evitano, come famiglia, di avere anche la \"preoccupazione\" di cucinare). [ROSSO](Ho pensato che domani ricomincer\u00f2 la solita routine), pensando che dopo tre giorni riport\u00f2 nuovamente. ",
                "output": [
                    {
                        "generated_text": "NARRATIVA:  '[VERDE] (Ecco il mio lavoro! Sono un impiegato in un piccolo fabbricato. Non ci sono problemi di occupazione, ma la salariaria \u00e8 un po' bassa. Per fortuna ho una tina di monete nella tasca che mi permette di vivere.) [VERDE](Ho un'amica a cui voglio fare un'offerta.) [ROSSO](E allora cosa ne pensi?)'\n                DOMANDA: 'Cosa pensi dell'offerta?'\n            \n                NARRATIVA: '["
                    }
                ],
                "id": "40"
            },
            {
                "input": "Oggi niente mal di testa. Un freddo cane! Sono stata molto in casa. [ROSSO](Nulla di eclatante in questa grigia giornata invernale). Ieri ero in montagna. [VERDE](Sono stata proprio bene)! [ROSSO](Solo un po' di tensione nel viaggio di ritorno). [ROSSO](C'era molta neve e la strada principale chiusa per frane). Forse sarebbe stato meglio rimanere a casa [VERDE](ma infondo era stata una bella giornata e ne era valsa la pena). ",
                "output": [
                    {
                        "generated_text": "NARRATIVA: 'Ho fatto un bello viaggio. [VERDE](Sono un po' malata, ho dovuto andare a prendere l'ambulanza, ma non sono morta!). Ho dovuto andare a prendere l'ambulanza, ma non sono morta! Ero un po' malata, ma ho fatto un bello viaggio! '\n                DOMANDA:  'Sai se sono morto?' \n        \n            # Narrativa di testo in maniera casuale, selezione del personaggio e domanda\n\n            # Narrativa: 'Ho fatto"
                    }
                ],
                "id": "41"
            },
            {
                "input": "La preoccupazione per il benessere psicologico di mia figlia, [ROSSO](quella che si \u00e8 lasciata dopo 10 anni con il fidanzato e che alterna momenti di sconforto, sensi di colpa a momenti di tristezza) [ROSSO](mi dispiace tanto e mi sento incapace di poterla confortare anche se parliamo tanto). [ROSSO](Insomma giornate un po' grigie). Non so se il sonno disturbato e qualche episodio di insonnia siano causati da questa confusione. ",
                "output": [
                    {
                        "generated_text": "NARRATIVA:   'Il mio ragazzo ha vinto il campionato di bocce. Ho ricevuto un messaggio di congratulazioni da mio fratello. '\n                DOMANDA: 'Quante persone sono state presenti in questo campionato?'\n                \n                NARRATIVA:   'E' stato un bambino di 10 anni che ha perso la vita. Il suo padre mi ha telefonato, mi ha chiamato per annunciare l'accadimento. Non lo conosco, \u00e8 un bambino molto bello, ma \u00e8 stata una grande perdita per la m"
                    }
                ],
                "id": "43"
            },
            {
                "input": "C'\u00e8 un po' di confusione in testa. Lo Smart working aiuta a sentire meno pesante il lavoro che non sopporto pi\u00f9. [ROSSO](Ma quando come oggi e domani occorre andare in ufficio \u00e8 molto faticoso). N[ROSSO](on mi piace pi\u00f9), [ROSSO](non sopporto pi\u00f9 nessuno). [ROSSO](Stamattina poi sono arrivata e ho trovato la mia postazione tutta in disordine) [ROSSO](perch\u00e9 utilizzata da un altro collega, cialtrone, uno che pensa solo a se'). ",
                "output": [
                    {
                        "generated_text": "NARRATIVA: \"Sono un po' confusa ma ho un po' di paura anche io. Non so quale sia l'approccio da adottare. Per me \u00e8 un po' di un incomodo.\"\n                DOMANDA:\n                \n                NARRATIVA: 'Ho trovato un app per il Smart working, [VERDE](ma \u00e8 un po' spiacevole e la scoperta mi ha portato un po\u2019 di ansia).'\n                Domanda:\n                NARRATIVA: \"Sono un po' confusa. Mi pare che non siano i miei problemi"
                    }
                ],
                "id": "49"
            },
            {
                "input": "Non riesco a dormire, ho un pensiero fisso di un conto non corretto per un rimborso . . . [ROSSO](Sicuramente \u00e8 risolvibile ma non vedo come), forse pensarci a freddo domani risolverebbe tutto. Lavorando da casa [ROSSO](mi sembra di non essere pi\u00f9 all' altezza di mantenere i ritmi con quello che accade in ufficio). Non so cosa pensare, [ROSSO](mi sembra di essere in affanno), sto provando con gli esercizi di relax. ",
                "output": [
                    {
                        "generated_text": "NARRATIVA: '[VERDE](Mi pare che sia arrivato il momento di andarci in vacanza. In ogni caso, sono molto contento perch\u00e9 ho un nuovo lavoro e una nuova casa.) Non riesco a dormire, ho un pensiero fisso di un conto non corretto per un rimborso... [ROSSO](Sicuramente \u00e8 risolvibile ma non vedo come), forse pensarci a freddo domani risolverebbe tutto. Lavorando da casa [ROSSO](mi sembra di non essere pi\u00f9 all' altezza di mantenere i ritmi con quello che accade in ufficio). Non"
                    }
                ],
                "id": "42"
            },
            {
                "input": "[ROSSO](Il venerd\u00ec sera \u00e8 sempre angosciante), [ROSSO](perch\u00e9 stanca), [ROSSO](faccio il conto delle cose fatte e da fare, e quelle da fare mi sembrano insormontabili). [ROSSO](Ieri sera tardi mi \u00e8 venuto in mente che forse non faccio in tempo da luned\u00ec a gioved\u00ec a concludere due pratiche a lavoro) . . . [ROSSO](ho avuto paura di aver sbagliato nei tempi a valutare le priorit\u00e0) e a dare tempo a qualche pratica rispetto ad altre. ",
                "output": [
                    {
                        "generated_text": "NARRATIVA:  '[ROSSO](Il venerd\u00ec sera \u00e8 sempre angosciante), [Rosso](perch\u00e9 stanca), [Rosso](faccio il conto delle cose fatte e da fare, e quelle da fare mi sembrano insormontabili). '\n                DOMANDA:\n                \n                NARRATIVA:'[ROSSO](Oggi \u00e8 stata una bella giornata) Mi chiedo se sar\u00f2 un bravo padre. [ROSSO](Non \u00e8 stato molto presente quando ero un bambino). '\n                DOMANDA"
                    }
                ],
                "id": "56"
            },
            {
                "input": "[ROSSO](Ho provato senso di ansia), ero in autovettura la mattina mentre accompagnavo i ragazzi a scuola. [ROSSO](Ero in ritardo) [ROSSO](e ho dovuto guidare 30 km velocemente mentre pioveva e l'autovettura segnalava mancanza di liquido ai freni). [ROSSO](Avevo paura di sbandare), [ROSSO](sbattere e mi ripetevo che il senso di ansia era ok perch\u00e9 era necessaria la mia massima attenzione alla guida). [ROSSO](Come sfogo stringevo le unghie nel sedile, come a voler passare la corrente). ",
                "output": [
                    {
                        "generated_text": "NARRATIVA: '[ROSSO](Non riesco a capire perch\u00e8 la mia vita sia cos\u00ec brutta), ero nella stessa situazione l'anno prima quando mi trovai nella stessa condizione [ROSSO](e sono rimasto a pensare a questo per un mese). [ROSSO](Ero in autovettura la mattina mentre accompagnavo i ragazzi a scuola. Ero in ritardo) [ROSSO](e ho dovuto guidare 30 km velocemente"
                    }
                ],
                "id": "44"
            },
            {
                "input": "[ROSSO](Stamattina mia mamma mi ha mandato un messaggio perch\u00e9 era preoccupata per il mio pap\u00e0). Andava da solo a farsi esami del sangue[ROSSO]( e aveva paura che potesse avere un incidente con la macchina) perch\u00e9 ultimamente guida poco e non \u00e8 pi\u00f9 abituato. Ero a casa con i miei figli che si stavano preparando per andare a scuola. Ho pensato che lui sta invecchiando ed \u00e8 in difficolt\u00e0 ma anche che lei fa fatica ad accettarlo e [ROSSO](gli trasmette ancora pi\u00f9 ansia oltre che ad accumulare lei altrettanta). ",
                "output": [
                    {
                        "generated_text": ""
                    }
                ],
                "id": "46"
            },
            {
                "input": "Stamattina sono andato al lavoro [ROSSO](e ho dimenticato a casa il mio computer). Ero appena arrivato in ufficio, [ROSSO](avevo bisogno del computer per cominciare a lavorare e me ne sono reso conto in quel momento). [ROSSO](Mi sono preoccupato un attimo) [VERDE](ma ho pensato subito a cosa potevo fare in ufficio anche senza computer). [ROSSO](Ho pensato al fatto che sono spesso sbadato e tendo a dimenticare cose che devo fare). [ROSSO](In particolare, questa era una cosa fondamentale per il mio lavoro). [ROSSO](Mi sono sentito un po' seccato con me stesso). ",
                "output": [
                    {
                        "generated_text": "NARRATIVA:  'Stamattina sono andato al lavoro [ROSTO](e ho dimenticato a casa il mio computer). Ero appena arrivato in ufficio, [ROSO](avevo bisogno del computer per cominciare a lavorare e me ne sono reso conto in quel momento). [ROSO](Mi sono preoccupato un attimo) [VERDE](ma ho pensato subito a cosa potevo fare in ufficio anche sen"
                    }
                ],
                "id": "45"
            },
            {
                "input": "C'\u00e8 un po' di confusione in testa. Lo Smart working aiuta a sentire meno pesante il lavoro che non sopporto pi\u00f9. [ROSSO](Ma quando come oggi e domani occorre andare in ufficio \u00e8 molto faticoso). N[ROSSO](on mi piace pi\u00f9), [ROSSO](non sopporto pi\u00f9 nessuno). [ROSSO](Stamattina poi sono arrivata e ho trovato la mia postazione tutta in disordine) [ROSSO](perch\u00e9 utilizzata da un altro collega, cialtrone, uno che pensa solo a se'). [ROSSO](E se si aggiunge che proprio non mi interessa nulla del lavoro) perch\u00e9 avrei mille altre cose da fare, [ROSSO](mi \u00e8 davvero pesante trascorrere quel tempo in ufficio). ",
                "output": [
                    {
                        "generated_text": ""
                    }
                ],
                "id": "50"
            },
            {
                "input": "Ho sognato che avevo la forte sensazione di perdere tempo. Ero a casa di qualcuno, c'era altra gente, era sera, c'era stato forse un evento e ora aspettavo che Martina, un'insegnante di inglese del liceo dove insegno, mi riaccompagnasse a casa. Ma lei stava alla scrivania a correggere compiti dei ragazzi. Lo faceva con un sistema molto veloce e ho pensato che anch'io facevo cos\u00ec. Anch'io correggevo compiti, ma aspettavo solo lei, volevo andare a casa, [ROSSO](uffa, stavo l\u00ec a perdere tempo). Non ricordo bene se ho poi detto che se sapevo avrei preso la mia auto . . . ",
                "output": [
                    {
                        "generated_text": ""
                    }
                ],
                "id": "47"
            },
            {
                "input": "Ritornata dal lavoro [ROSSO](mia figlia mi dice di aver chiamato il medico perch\u00e9 ha dei dolori alla testa non ha il senso dell'olfatto e del gusto) [ROSSO](per cui ci siamo un po' allarmati). Poi ripensandoci bene ti rendi conto che \u00e8 bene un approfondimento e che tutto pu\u00f2 essere ridimensionato [ROSSO](per\u00f2 l'impatto \u00e8 quello che ti fa saltare i nervi). Ho pensato a una serie di eventi concatenati, [ROSSO](al fatto di non poter fare sempre muovermi liberamente), al fatto di avere familiari a casa [ROSSO](e al fatto di non poter andare a trovare mia madre o dover dichiarare questa eventualit\u00e0). ",
                "output": [
                    {
                        "generated_text": ""
                    }
                ],
                "id": "51"
            },
            {
                "input": "[ROSSO](Questo fatto dell'interruzione della relazione di mia figlia con il suo ragazzo mi sta davvero creando ansia). Continuo a pensare a quello che era e a quello che sar\u00e0. [ROSSO](Non posso parlarne perch\u00e9 mi viene un groppo alla gola e da piangere). [ROSSO](Stanotte mi sono svegliata tre o quattro volte e avevo continui pensieri). Stasera prover\u00f2 le tecniche di rilassamento per vedere se riesco a dormire. Oggi al lavoro perch\u00e9 ho parlato con il ragazzo di mia figlia dicendogli che noi ci saremo sempre per lui, lui qui a Firenze \u00e8 solo. La sua famiglia \u00e8 in Cina. Poi stasera ho parlato al telefono con sua madre e abbiamo confrontato i nostri pensieri. ",
                "output": [
                    {
                        "generated_text": "NARRATIVA:  '[ROSSO](La mamma \u00e8 molto contenta che io non abbia dato a mia figlia alcuna informazione su questo ragazzo, ma \u00e8 certa che lei non lo conosce). '\n                DOMANDA:\n                \n                NARRATIVA: '[ROSSO](Qu"
                    }
                ],
                "id": "52"
            },
            {
                "input": "[VERDE](Questi pochi giorni di ferie stanno passando nella maniera pi\u00f9 leggera possibile). [VERDE](Stiamo passando questi giorni in famiglia giocando alla play station oppure guardando serie televisive come se non ci fosse un domani). [VERDE](Facciamo pranzo e cena con i nonni che ci evitano, come famiglia, di avere anche la \"preoccupazione\" di cucinare). [ROSSO](Ho pensato che domani ricomincer\u00f2 la solita routine), pensando che dopo tre giorni riport\u00f2 nuovamente. Devo ottimizzare il tempo ed il \"mood\" per ricaricare per bene le batterie. Sto cercando di essere il pi\u00f9 spensierato possibile, [VERDE](anche se oggi gi\u00e0 penso che domani si ricomincia a lavorare). Non sono ansioso di lavorare, ma qualche altro giorno di svago avrebbe giovato e non poco. ",
                "output": [
                    {
                        "generated_text": "NARRATIVA: '[VERDE] Mi sbagliavo, \u00e8 una ragazzina. Ma che bella. E un po' pi\u00f9 grande del solito, perch\u00e8 \u00e8"
                    }
                ],
                "id": "53"
            },
            {
                "input": "Ciao, [ROSSO](un altro attacco di panico, adesso sto meglio). Stavo in macchina in autostrada, pensavo sempre a mio figlio che doveva uscire nel pomeriggio, [ROSSO](questo \u00e8 il motivo che mi ha scatenato l' ansia). Non avevo un immagine chiara, [ROSSO](ma ragionando avevo capito che la mia ansia era dovuta a mio figlio). [ROSSO](Ho avuto una sensazione che mi saliva alla testa, sudavo freddo), [ROSSO](non riuscivo ad avere un respiro regolare). [ROSSO](Mi sono fermata ho chiamato mio marito dicendogli che mi stavo sentendo male e che stavo in autostrada). Ho aperto il finestrino ho incominciato a respirare profondamente, [ROSSO](non potevo scendere). [ROSSO](Avevo paura a spostarmi da l\u00ec). Poi dopo 5 minuti \u00e8 passato l' attacco forte, ho messo in moto e sono arrivata a destinazione. ",
                "output": [
                    {
                        "generated_text": "\"Ciao, stai bene? Cosa ti \u00e8 successo?\""
                    }
                ],
                "id": "54"
            },
            {
                "input": "[ROSSO](Il venerd\u00ec sera \u00e8 sempre angosciante), [ROSSO](perch\u00e9 stanca), [ROSSO](faccio il conto delle cose fatte e da fare, e quelle da fare mi sembrano insormontabili). [ROSSO](Ieri sera tardi mi \u00e8 venuto in mente che forse non faccio in tempo da luned\u00ec a gioved\u00ec a concludere due pratiche a lavoro) . . . [ROSSO](ho avuto paura di aver sbagliato nei tempi a valutare le priorit\u00e0) e a dare tempo a qualche pratica rispetto ad altre . . . [ROSSO](Sono stata molto in ansia e perdo il sonno). [ROSSO](Adesso sono stordita )perch\u00e9 sono andata a letto tardi, [VERDE](ma sono un po' pi\u00f9 serena) [VERDE](perch\u00e9 senza distrazioni luned\u00ec dovrei farcela a terminare quello che devo fare), [ROSSO](ma il pensiero del sabato e domenica mi mette angoscia). Ho pensato che anche se ne ho la possibilit\u00e0 assolutamente non devo lavorare da casa per avvantaggiarmi ma luned\u00ec dovr\u00f2 concentrarmi al massimo e non lasciarmi coinvolgere da altro. ",
                "output": [
                    {
                        "generated_text": ""
                    }
                ],
                "id": "57"
            }
        ],
        "prompt": "Sei una AI che deve fare una domanda su un racconto in maniera tale da ottenere pi\u00f9 informazioni su eventi accaduti nel racconto. A seguire degli esempi e successivamente una narrativa a cui dovrai fare una domanda in modo da ottenere pi\u00f9 informazioni.\n\n                NARRATIVA: \"[VERDE](Oggi \u00e8 stata una bella giornata. Mia moglie mi ha detto che sta aspettando un bambino! Sono super felice!) Mi chiedo se sar\u00f2 un bravo padre. [ROSSO](Mio padre non \u00e8 stato molto presente quando ero un bambino.)\"\n                DOMANDA: \"Sono felice di sentirlo. Sapete gi\u00e0 se si tratta di un maschio o di una femmina ?\"\n                \n                NARRATIVA:  '{prompt}'\n                DOMANDA:\n             "
    }
]