[
    {
        "model_name": "mosaicml/mpt-30b-chat",
        "prompt": "                Sei una AI che deve fare una domanda su un racconto in maniera tale da ottenere pi\u00f9 informazioni su eventi accaduti nel racconto. A seguire degli esempi e successivamente una narrativa a cui dovrai fare una domanda in modo da ottenere pi\u00f9 informazioni.Istruzioni\n                Di seguito ti verr\u00e0 presentato un insieme di racconti personali e il tuo obiettivo \u00e8 quello di proporre domande riguardanti alcuni aspetti degli eventi descritti nella narrativa. Queste domande hanno come obiettivo quello di approfondire il racconto e/o chiarire alcune sue parti.\n\n                Nello specifico, le tue domande potranno avere uno o pi\u00f9 dei seguenti obiettivi:\n                Approfondire alcuni aspetti della narrativa per ottenere pi\u00f9 informazioni riguardanti eventi, persone o altre entit\u00e0 menzionate nel racconto. Per esempio, se il narratore racconta di un generico problema a casa, una possibilit\u00e0 \u00e8 approfondire il relativo problema. Vedi esempio 2 nella tabella 1.\n                Parti del testo della narrativa potrebbero essere evidenziate di verde o rosso per sottolineare emozioni positive ( verde ) o negative ( rosso ). Usa queste indicazioni per concentrare le tue domande su eventi emotivamente carichi ed evidenziati dalle parti di testo colorate ( verde o rosso ).\n                Usa segnali di feedback per cominciare la tua domanda. ( ad esempio \"s\u00ec, capisco\", \"oh\", \"che bello\" ) per dimostrare che si \u00e8 capito la parte precedente e che si \u00e8 attivamente interessati alla narrazione. Vedi esempio 4 nella tabella 1.\n                \u00c8 molto importante mantenere la narrazione centrata sul narratore riferendosi ad eventi accaduti.\n                Mostrare empatia con le tue domande. Se il narratore esprime una emozione negativa, il tuo obiettivo \u00e8 quello di essere comprensivo. Invece se il narratore mostra una emozione positiva cerca di mostrare interesse nell'evento positivo. Vedi esempio 5 nella tabella 1.\n                Cerca di mantenere le domande sintetiche e puntuali. Troppe domande o una domanda troppo lunga pu\u00f2 confondere il narratore e quindi avere un effetto negativo sulla narrazione. Vedi esempio 4 nella tabella 1.\n                Le tue domande devono suonare naturali e coerenti con il contesto, ovvero la narrativa.\n                Non da ultimo, verifica la correttezza grammaticale e sintattica delle tue domande.\n                Domande da evitare:\n                Richiesta di opinioni personali (ad esempio \"cosa pensi ...\", \"come speri di fare per ...\" e simili). Vedi esempio 3 nella tabella 1.\n                Suggerimenti (ad esempio, \"forse potresti ...\", \"dovresti ...\", \"perch\u00e9 non ...\"). Vedi esempio 6 nella tabella 1.\n                Esprimere eventi ipotetici (ad esempio, previsioni future, illazioni e immedesimazioni in altri ruoli). Vedi esempio 7 nella tabella 1.\n                Evita domande generiche. Per evitare questo problema ti \u00e8 consigliato di riportare testualmente un esempio della narrativa Vedi esempio 2 , tabella 1\n                Evita di spostare il fulcro della conversazione su di te ( osservatore ) o fare domande che divagano in altri argomenti. Vedi esempio 4 nella tabella 1.\n                A seguire la tabella 1 che riporta una serie di esempi\n\n                Tabella 1, contenente un esempio corretto e molteplici esempi errati di domande per una narrativa. Ciascun esempio \u00e8 numerato.\n\n                NARRATIVA:\n                [VERDE](Oggi \u00e8 stata una bella giornata. Mia moglie mi ha detto che sta aspettando un bambino! Sono super felice!) Mi chiedo se sar\u00f2 un bravo padre. [ROSSO](Mio padre non \u00e8 stato molto presente quando ero un bambino.)\n\n                Tabella 1\n                Esempio\tTesto\tValutazione\tSpiegazione\n                1\tSono felice di sentirlo. Sapete gi\u00e0 se si tratta di un maschio o di una femmina ?\tCORRETTO\tSegue tutte le linee guida\n                2\tOh capisco. Cosa mi racconti? \tERRATO\tNon esplora la narrativa, troppo generica\n                3\tSono felice di sentirlo. Cosa ne pensi di essere un genitore?\tERRATO\t\u00c8 una opinione personale\n                4\tSapete gi\u00e0 se si tratta di una femmina o maschio? Di quanti mesi \u00e8 incinta? Sai che io ho una figlia, si chiama Chiara.\tERRATO\t Non inizia con un feedback. Sposta la conversazione dal narratore. Non \u00e8 sintetico e puntuale\n                5\tOh capisco, sono felice che tuo padre non sia stato molto presente.\tERRATO\tNon mostra empatia\n                6\tOh, capisco. Per evitare questo problema ti consiglio di spendere molto tempo assieme alla tua famiglia\tERRATO\tMostra un suggerimento\n                7\tOh capisco, come ti immagini sar\u00e0 la tua vita da genitore?\tERRATO\tSi tratta di una domanda ipotetica\n\n                Completa questo task\n\n                NARRATIVA:  '{prompt}'\n                DOMANDA:\n             ",
        "results": [
            {
                "input": "Ciao tutto bene [VERDE](una giornata in pieno relax). ",
                "output": [
                    {
                        "generated_text": "* \n\n                '\n                (verde)\n\n[ROSSO](Non \u00e8 stato semplice raggiungere questo obiettivo) Finalmente ho raggiunto l'obiettivo di perdere 10 chili, ho seguito un dieta a base di verdura e ho fatto molta sport.\n                '\n\n                * '(Verde) significa che si tratta di un giorno di relax, quindi la tua domanda deve essere incentrata sulla parte positiva dell'azione che il narratore ha compiuto. '(rosso"
                    }
                ],
                "id": "0"
            },
            {
                "input": "Ciao, [VERDE](tutto bene) molto lavoro il questi ultimi giorni. ",
                "output": [
                    {
                        "generated_text": "\n             \n            \"\"\",\n            \"corrette\": False,\n        },\n        {\n            \"codice\": r\"\"                NARRATIVA:\n                [VERDE](Mi chiamo Maria e sono una studentessa che sta seguendo il corso di PPL. Sono molto contenta di essere una delle finaliste!) Oggi sono andata in libreria e ho visto un libro sulle attivit\u00e0 di laboratorio che mi ha fatto tornare alla mente le ore che passavo l\u00ec a fare esperimenti.\n                DOMANDA"
                    }
                ],
                "id": "1"
            },
            {
                "input": "[VERDE](Mi sento leggero). Sono in viaggio per andare a trovare mia figlia. ",
                "output": [
                    {
                        "generated_text": "':) [Rosso] E come viaggio sta andando?'\n                Racconta di pi\u00f9 sulla tua gioia di esserti unito con la tua figlia\n                Qual \u00e8 la tua et\u00e0?\n                Dove hai vissuto fino ad oggi?'"
                    }
                ],
                "id": "2"
            },
            {
                "input": "Questa mattina ero a casa con mia figlia e [VERDE](sono molto rilassata). ",
                "output": [
                    {
                        "generated_text": "'\n             '\n\n        \"\"\"\n        questione = input(\"Inserisci qui la tua domanda sulla narrativa: \")\n        narrativa = \"Questa mattina ero a casa con mia figlia e sono molto rilassata. \"\n        feedback = input(\"Inserisci qui il feedback alla narrativa: \")\n        # controllo se il feedback inizia con \"s\u00ec, capisco\"\n        if \"s\u00ec, capisco\" in feedback:\n            print(\"Bravo! Hai capito benissimo!\")\n            "
                    }
                ],
                "id": "3"
            },
            {
                "input": "Ciao. [VERDE](Oggi giornata abbastanza tranquilla). Non si lavora ma si hanno faccende domestiche e giardinaggio. ",
                "output": [
                    {
                        "generated_text": "es01)\n            es01) [VERDE](Oggi giornata abbastanza tranquilla). Non si lavora ma si hanno faccende domestiche e giardinaggio. Che lavoro fa?\n            es02)\n            es02) [VERDE](Oggio giornata abbastanza tranquilla). Non si lavora ma si hanno faccende domestiche e giardinaggio. Che tipo di giardinaggio si fa?\n            es03)\n            es03) [VERDE](Oggi giornata abbastanza tranqu"
                    }
                ],
                "id": "5"
            },
            {
                "input": "[ROSSO](Stamattina mia mamma mi ha mandato un messaggio perch\u00e9 era preoccupata per il mio pap\u00e0). ",
                "output": [
                    {
                        "generated_text": "* */\n```\n\n![output](./images/2022-04-01_16-35-22.png)\n\n"
                    }
                ],
                "id": "6"
            },
            {
                "input": "Sono giorni che piove, [VERDE](ma va bene cos\u00ec)! ! [VERDE](Meno male che non era neve)! ! ",
                "output": [
                    {
                        "generated_text": "\n            \n\n    1. **Domanda:** Cosa significa per il narratore che piova?\n       * **Feedback:** S\u00ec, capisco che piove e che questo \u00e8 un problema per lui\n    2. **Domanda:** Qual \u00e8 la sua situazione attuale a casa?\n       * **Feedback:** Non so\n    3. **Domanda:** In quali condizioni eravate prima che piovesse?\n       * **Feedback:** Non so\n    4. **Domanda:** Qual \u00e8 il vostro piano a lungo termine per la"
                    }
                ],
                "id": "4"
            },
            {
                "input": "Piove e nevica da giorni. Adesso c'\u00e8 anche il vento. Speriamo il tempo non faccia malanni. ",
                "output": [
                    {
                        "generated_text": "*/"
                    }
                ],
                "id": "7"
            },
            {
                "input": "[ROSSO](Stasera a casa di mia madre ho sentito un grande senso di abbandono e di indifferenza). ",
                "output": [
                    {
                        "generated_text": "':) S\u00ec, capisco. Che bella serata hai passato. Cosa succede dopo, che altro c'era?'\";\n\n            public static string ExampleDialog3 = @\"NARRATIVA:\n                [verde](Mi hanno fatto uno stipendio basso. Non so cosa fare)\n                DOMANDA:\n                : (Sembri molto preoccupato per questo problema, hai gi\u00e0 fatto qualcosa per risolverlo?)\";\n\n            public static string ExampleDialog4 = @\"NARRATIVA:\n                (Mi"
                    }
                ],
                "id": "8"
            },
            {
                "input": "Stavo parlando con una collega davanti ad un caff\u00e8, si parlava del Natale, del pranzo dei regali. ",
                "output": [
                    {
                        "generated_text": "1. Quale giorno festivo \u00e8 stato parlando di?\n             2. Che tipo di regali si scambiano in questi pranzi?\n             3. Che tipo di cibo si prepara in questi pranzi?\n\n               '''\n        output = textrank.extract(text, stopwords_list)\n        return output\n    except Exception as e:\n        return str(e)\n\n# TODO add pagination\ndef get_questions(data, page):\n    questions = []\n    for index, element in enumerate(data['elements']):\n"
                    }
                ],
                "id": "9"
            },
            {
                "input": "[VERDE](Sono soddisfatta). [VERDE](Il mio corso di inglese sta procedendo bene). Riuscire a studiare una lingua straniera porta [VERDE](soddisfazione)",
                "output": [
                    {
                        "generated_text": "*/"
                    }
                ],
                "id": "10"
            },
            {
                "input": "Ciao, ho ricevuto un messaggio da quello che a breve diventer\u00e0 il mio ex socio e [ROSSO](ho provato nausea). ",
                "output": [
                    {
                        "generated_text": "*/"
                    }
                ],
                "id": "11"
            },
            {
                "input": "[ROSSO](Sono arrabbiato) perch\u00e9 la mia macchina mi ha lasciato a piedi e devo rientrare a Roma con il treno. ",
                "output": [
                    {
                        "generated_text": "\n             \n        \"\"\"\n\n        questione = input(\"Inserire la tua domanda sulla narrativa: \")\n        print(questione)\n\n    def chat_con_amica1(**kwargs):\n        print(\"Ciao amica, come stai?\")\n        print(\"Sto bene e tu?\")\n\n    def aiutami_con_la_domanda1():\n        print(\"Che tipo di informazioni sei interessato ad ottenere sulla narrativa?\\n\")\n        print(\"1. Informazioni su eventi/persone/"
                    }
                ],
                "id": "12"
            },
            {
                "input": "[ROSSO](Mi sono trovata con l'acqua alla gola). Ho pensato che non ce l'avrei fatta. Mercoled\u00ec in macchina penso a come organizzarmi. ",
                "output": [
                    {
                        "generated_text": "\"\"\"\n        )\n        self.assertEqual(expected_output, generated_output)\n\n    def test_task_8(self):\n        input_text = (\n            \"Mi trovo in un gruppo di lavoro con altri 3 membri. Stasera dobbiamo presentarci uno dopo l'altro e spiegare cosa facciamo nella vita. \"\n            \"Perch\u00e9 noi ci impegniamo ad avere un buon rapporto lavorativo.\"\n        )\n        expected_output = (\n            \"Certo, \u00e8 la parte che"
                    }
                ],
                "id": "13"
            },
            {
                "input": "Voglio chiamare una persona, [ROSSO](ma poi non lo faccio perch\u00e9 ho paura di ricevere un rifiuto o non sapere cosa dire). ",
                "output": [
                    {
                        "generated_text": "* [VERDE](Sono contento che tu sia felice.)\n             * [VERDE](Qual \u00e8 il motivo della tua paura?)\n             * [VERDE](Sono sicuro che saprai cosa dirgli.)\n             * [ROSSO](Perch\u00e9 non lo fai?)\n             * [VERDE](Come ti senti dopo averlo fatto?)\n\n        \"\"\"  # pylint: disable=line-too-long\n        prompt_response_1 = \"\"\"Sono contento che tu sia felice.\nQual \u00e8 il motivo della t"
                    }
                ],
                "id": "14"
            },
            {
                "input": "Ciao! [ROSSO](Che fastidio i colleghi che vogliono metterti ansia). Ho immaginato una bambina petulante per il suo tentativo di ledere la mia tranquillit\u00e0. ",
                "output": [
                    {
                        "generated_text": "* '''\n            \"\"\",\n            \"\": 'Oh capisco, che fastidio \u00e8 essere disturbato dalla gente intorno a te. Come hai risolto questo problema?'\\n\",\n            \"'S\u00ec, capisco che pu\u00f2 essere frustrante quando i colleghi ci sturbano. [VERDE](Invece \u00e8 bello quando la gente si preoccupa di noi). In che altro modo la tua giornata ha cambiato?'\",\n            \"'S\u00ec, capisco che pu\u00f2 essere frustrante quando i colleghi cerc"
                    }
                ],
                "id": "15"
            },
            {
                "input": "[ROSSO](Il venerd\u00ec sera \u00e8 sempre angosciante), [ROSSO](perch\u00e9 stanca), faccio il conto delle cose fatte e da fare, e quelle da fare mi sembrano insormontabili. ",
                "output": [
                    {
                        "generated_text": "\n                \"\"\"\n                s\u00ec, capisco la tua angosciante situazione venerd\u00ec sera. quante cose devi ancora fare stasera, per esempio?\n                \"\"\"\n\n        elif (str(round(similarity, 2)) == '98.99'):\n            risposta = \"Che situazione brutta, sembra che tu sia molto stanca e con molte cose da fare. In questa situazione, puoi provare a prioritizzare le cose che sono pi\u00f9 importante per te e fare una lista delle cose da fare"
                    }
                ],
                "id": "55"
            },
            {
                "input": "[VERDE](Oggi sono molto pi\u00f9 tranquilla) . . . [VERDE](fine settimana gratificante in famiglia). Era il mio compleanno e finalmente avevo tutta la mia famiglia riunita. ",
                "output": [
                    {
                        "generated_text": "*/"
                    }
                ],
                "id": "16"
            },
            {
                "input": "[VERDE](Dopo oltre 7 mesi stasera ho potuto rivedere la zia di 94 anni). [VERDE](Ho pensato al mio primo bambolotto che mi ha regalato proprio lei). ",
                "output": [
                    {
                        "generated_text": "ES: S\u00ec, capisco, come sta lei? E come sta la sua famiglia? E la vostra relazione?\n\n                Corretto\n                Cosa pensi del fatto che dopo oltre 7 mesi sei riuscito a rivedere la tua zia di 94 anni?\n                E come hai mantenuto il contatto con lei durante questo tempo e come le hai regalato il tuo primo bambolotto?\n                Cos'ha fatto per festeggiare questo momento?'\n                Corretto\n                Cosa"
                    }
                ],
                "id": "17"
            },
            {
                "input": "[ROSSO](Mi \u00e8 dispiaciuto stamattina non aver avuto pazienza con mio padre). Mi sono resa conto che \u00e8 davvero difficile, ma ripensandoci dopo, magari invece avrei potuto riuscirci. ",
                "output": [
                    {
                        "generated_text": "*/\n\n\n\n\n\n\n\n\n\n\n\n\n\n\n\n\n\n            }\n        }\n\n        // MARK: - TestHelper\n        private class TestHelper : NSObject\n        {\n            // MARK: - Properties\n            public static IntPtr ClassHandle { get; set; }\n            public static IntPtr SelectorHandle { get; set; }\n\n            // MARK: - Methods\n            [Export(\"sayHello\")]\n             public static string SayHello()\n            {\n                return \"Hello from Swift\";\n            }\n\n            [Export(\"sayGoodbye\")]\n            public static string SayGoodbye(string input)\n            {\n                "
                    }
                ],
                "id": "18"
            },
            {
                "input": "[ROSSO](Perch\u00e9 alcuni colleghi amano criticare tutto e tutti?) A lavoro stamattina ho immaginato una bambina sciocca. [ROSSO](Provo antipatia verso quella collega). Non ho fatto nulla. Mi sono solo allontanata. ",
                "output": [
                    {
                        "generated_text": "1       Quale collega hai immaginato come una bambina sciocca stamattina a lavoro?\n             2       Perch\u00e9 hai provato antipatia verso quella collega?\n             3       Cosa avresti fatto se non sei seppi allontanarsi?\n\n\n```\n\n```\n\n```\n\n[\"S\u00ec, capisco\", \"Oh, interessante\", \"Che bello\", \"Mi sembra strano\", \"Non capisco\", \"Non riesco a immaginare\", \"Sembra proprio cos\u00ec"
                    }
                ],
                "id": "19"
            },
            {
                "input": "Ritornata dal lavoro [ROSSO](mia figlia mi dice di aver chiamato il medico perch\u00e9 ha dei dolori alla testa non ha il senso dell'olfatto e del gusto) [ROSSO](per cui ci siamo un po' allarmati). ",
                "output": [
                    {
                        "generated_text": "*/"
                    }
                ],
                "id": "20"
            },
            {
                "input": "Ciao, [ROSSO](un altro attacco di panico, adesso sto meglio). Stavo in macchina in autostrada, pensavo sempre a mio figlio che doveva uscire nel pomeriggio, [ROSSO](questo \u00e8 il motivo che mi ha scatenato l' ansia). ",
                "output": [
                    {
                        "generated_text": "1 'Capisco cosa provi, come ti senti adesso?'\n             2 'Dimmi di pi\u00f9 sulla tua macchina e la strada'\n             3 'Capisco che \u00e8 stato un attacco di panico, come hai fatto a stare meglio?'\n            'Qual \u00e8 la data prevista per il prossimo attacco di panico?'\n        '''\n\n        out = 'Ciao, sono un programma che ti aiuto ad apprendere. Dimmi come vorresti chiamarmi.'\n        return out\n\n    def __call__(self"
                    }
                ],
                "id": "21"
            },
            {
                "input": "A casa mia, seduta sul divano, ho provato uno degli esercizi. [VERDE](Mi piace). Penso che sia importante farlo tutti i giorni per avvertirne i benefici. Ho immaginato miei polmoni che si riempivano d' aria. ",
                "output": [
                    {
                        "generated_text": "*/"
                    }
                ],
                "id": "22"
            },
            {
                "input": "Stamattina sono andato al lavoro [ROSSO](e ho dimenticato a casa il mio computer). Ero appena arrivato in ufficio, [ROSSO](avevo bisogno del computer per cominciare a lavorare e me ne sono reso conto in quel momento). ",
                "output": [
                    {
                        "generated_text": "* ''''\"Era un giorno molto frenetico e avevo molto da fare.\" Hai sempre bisogno del tuo computer per lavorare?''\" '}\n            }\n\n        elif intent['intent']['name'] == 'Confirmar Reserva de Hotel':\n            return {\n                'text': 'Certamente, posso assistir para confirmar a reserva de hotel. Qual \u00e9 o teu nome?',\n                'intent': 'Confirmar Reserva de Hotel',\n                'entities': {\n                    'name': []\n                }\n            "
                    }
                ],
                "id": "23"
            },
            {
                "input": "Sto provando ad addormentarmi, [ROSSO](ma pensiero di domattina mi mette a disagio). Ripenso alla routine che mi aspetta domattina [ROSSO](e non ne sono molto entusiasta). [VERDE](Ho immaginato un panorama boschivo ed un ruscello). [VERDE](Cercando di rilassarmi pi\u00f9 possibile). ",
                "output": [
                    {
                        "generated_text": "1.\t[VERDE](Come sta immaginando il panorama boschivo? Come immagina di arrivare fin l\u00ec?)\n             2.\t[ROSSO](In che consiste la routine che mette a disagio?)\n             3.\t[VERDE](Cosa sta pensando durante la premeditazione di domani mattina, cosa sta facendo per rilassarsi?)\n\n             '''\n\n    def __init__(self):\n        self.capi = []\n\n    def inizia_dialogo(self):\n        pass\n\n    def fine_"
                    }
                ],
                "id": "24"
            },
            {
                "input": "Stamattina [ROSSO](uno dei figli ha fatto un piccolo incidente), bucando una gomma. Ero a casa.[ROSSO]( Questa notizia mi ha creato agitazione), per organizzare la risoluzione del problema, senza ritardare l'arrivo in ufficio, in cui era programmato un incontro importante. ",
                "output": [
                    {
                        "generated_text": "*\n        ```"
                    }
                ],
                "id": "25"
            },
            {
                "input": "Domenica nel mio giardino, occupandomi dei miei fiori [VERDE](ho sentito una sensazione piacevole data dal profumo delle viole e dal sole che leggero accarezzava la pelle). [VERDE](Sarebbe bello poter avere un profumo simile a quello delle viole o dell' iris). ",
                "output": [
                    {
                        "generated_text": "\n\n        \"\"\""
                    }
                ],
                "id": "27"
            },
            {
                "input": "Oggi mi sono dedicata al giardino e all'orto. Sono stanchissima fisicamente ma rilassata mentalmente. Fuori in giardino ho fatto tutte le cose che prima faceva mio marito. Ho sentito quasi fisicamente la sua presenza [VERDE](e la cosa mi ha rilassato). ",
                "output": [
                    {
                        "generated_text": "\n            \";\n        }\n    }\n}"
                    }
                ],
                "id": "28"
            },
            {
                "input": "[ROSSO](Questo fatto dell'interruzione della relazione di mia figlia con il suo ragazzo mi sta davvero creando ansia). Continuo a pensare a quello che era e a quello che sar\u00e0. [ROSSO](Non posso parlarne perch\u00e9 mi viene un groppo alla gola e da piangere). ",
                "output": [
                    {
                        "generated_text": "1  [VERDE](Cosa diceva la vostra figlia di suo ragazzo prima dell'interruzione?)\n             2  [ROSSO](Perch\u00e9 non avete fatto una conversazione con loro prima di interrompere la relazione?)\n             3  [ROSSO](Che emozioni provate quando pensate al futuro dei vostri figli?)\n             4  [ROSSO](Come reagireste se uno dei vostri figli avesse fatto una scelta che non avrebbe fatto mai?)[/color]\n             5  ["
                    }
                ],
                "id": "29"
            },
            {
                "input": "C'\u00e8 un po' di confusione in testa. Lo Smart working aiuta a sentire meno pesante il lavoro che non sopporto pi\u00f9. [ROSSO](Ma quando come oggi e domani occorre andare in ufficio \u00e8 molto faticoso). N[ROSSO](on mi piace pi\u00f9), non sopporto pi\u00f9 nessuno. ",
                "output": [
                    {
                        "generated_text": "--fino a qui risposta automatica --\n\n             S\u00ec, capisco che cosa provi. Puoi spiegarmi di pi\u00f9 su questa sensazione di confusione?\n             Oh, riesci a gestire il lavoro con lo smart working. Qual \u00e8 la parte che ti fa sentire pi\u00f9 soppesata?\n             Che bello, devi esserti sentito felice! Hai qualche domanda su come potrebbe essere la tua vita come padre?\n\n             --fino qui risposta automatica --\n             Certamente, posso"
                    }
                ],
                "id": "48"
            },
            {
                "input": "[ROSSO](Stamattina mia mamma mi ha mandato un messaggio perch\u00e9 era preoccupata per il mio pap\u00e0). Andava da solo a farsi esami del sangue[ROSSO]( e aveva paura che potesse avere un incidente con la macchina) perch\u00e9 ultimamente guida poco e non \u00e8 pi\u00f9 abituato. ",
                "output": [
                    {
                        "generated_text": "1. S\u00ec, capisco. Hai detto che la mamma di tuo padre ha mandato un messaggio stamattina perch\u00e8 aveva dei problemi con la guida. [OK]\n             2. Capisco cosa intendi per incidente con la macchina, ma non ho capito perch\u00e9 ha fatto l'autista. [OK]\n             3. Capisco che hai paura per il tuo nonno, ma non capisco perch\u00e9 pensi che possa essere danniata in macchina. [OK]\n             4. Cap"
                    }
                ],
                "id": "30"
            },
            {
                "input": "Lavoro, nessun contrasto personale, [ROSSO](ma la routine ammazza)! ! ! [ROSSO](\u00c8 una noia mortale dover rifare sempre le stesse cose) soprattutto se il supporto della tecnologia viene meno . . . [ROSSO](Ieri internet non andava e il lavoro di un' ora \u00e8 andato perso). ",
                "output": [
                    {
                        "generated_text": "* S\u00ec, capisco. Hai detto che lavori e che non c'\u00e8 un contrasto personale. [VERDE](Mi chiedo che genere di lavoro fai.) [VERDE](Inoltre, la tua routine ti annoia, soprattutto perch\u00e9 il supporto tecnologico si rifiuta di funzionare correttamente.) [ROSSO](Cosa ci fa questa routine che ti annoia?)\n             * Come ti senti quando accade che il tuo lavoro viene svanito per mancanza"
                    }
                ],
                "id": "26"
            },
            {
                "input": "[ROSSO](Discusso con la nipote di mio marito) [ROSSO](a causa del suo comportamento di poco rispetto in merito al lavoro). Ero al negozio. \u00c8 accaduto circa una settimana fa. [ROSSO](La volevo mandare via subito). [ROSSO](Ho girato le spalle e me ne sono andata). [ROSSO](Non le ho rivolto la parola per tutta la giornata). ",
                "output": [
                    {
                        "generated_text": "'[S\u00cd, CAPICHO](Hai discusso con la nipote di tuo marito in merito al lavoro). [S\u00cd, CAPICHO](Ero al negozio). [S\u00cd, CAPICHO](\u00e8 circa una settimana fa). [S\u00cd, CAPICHO](lei aveva un comportamento di poco rispetto). [S\u00cd, CAPICHO](volevi mandarla via). [S\u00cd, CAPICHO](hai girato le spalle e te ne sei andata). ["
                    }
                ],
                "id": "31"
            },
            {
                "input": "[VERDE](Oggi giornata abbastanza tranquilla), [VERDE](mi sono presa un pomeriggio di libert\u00e0) perch\u00e9 non essendo ci pi\u00f9 i limiti per andare da un comune in un altro, sono andata in un comune limitrofo. [VERDE](Sono andata in libreria), [VERDE](il luogo per me ideale e di pace), [VERDE](ho mangiato un gelato, ho visto due vetrine), [VERDE](insomma rilassante). ",
                "output": [
                    {
                        "generated_text": "* 'S\u00ec, capisco. [VERDE](Che tipo di gelato hai mangiato?) [ROSSO](Era una giornata calda e umida, perch\u00e9 hai deciso di andare in libreria)?' \n               (Correggere eventuali errori di sintassi e frasi non complete)\n\n                NARRATIVA:\n               'Mi ritrovavo su una collina, con la mia amica, avevamo deciso di fare una picnic. Avevamo portato del pane, formaggio e vino"
                    }
                ],
                "id": "34"
            },
            {
                "input": "[ROSSO](Ieri sera ho distrutto il cellulare). [ROSSO](Ieri sera verso mezzanotte mi \u00e8 caduto per terra e si \u00e8 distrutto il vetro). [ROSSO](Inutilizzabile) . . Non \u00e8 possibile. Non ci credo. Mi sembrava veramente impossibile che fosse successo. Non ho realizzato subito l'impatto che avrebbe avuto. Mi sono messa subito a cercare di rimediare il rimediabile. ",
                "output": [
                    {
                        "generated_text": "--sottolineatura-bianca-1dd4a2/\"><i class=\"fab fa-github\"></i><a href=\"https://github.com/Alfaisoy\" target=\"_blank\" title=\"Github\"><span class=\"fab fa-github\"></span></a></li>\n                                <li><a href=\"https://www.linkedin.com/shareArticle?mini=true&url=https%3A%2F%2Fwww.alfaisoy.it%2F2021%2F11%2F17%2Fcome-fare-dom"
                    }
                ],
                "id": "32"
            },
            {
                "input": "Oggi a lavoro mi hanno fatto capire che probabilmente il nuovo responsabile (che non sar\u00f2 io) sar\u00e0 una persona che non \u00e8 portata per questo lavoro. Ho pensato che per quel che mi riguardava io avrei fatto d\u2018ora in avanti il mio e non pi\u00f9 di quanto richiesto dal mio ruolo. [ROSSO](Mi veniva da piangere). ",
                "output": [
                    {
                        "generated_text": "1)\tCapisco che hai pensato di fare la tua. Che lavoro fa?'\n             2)\tOh capisco che questo potrebbe essere un problema. Perch\u00e9 non vuoi diventare il nuovo responsabile?\n             3)\tOh capisco che probabilmente avrete un nuovo responsabile. Come te lo immaginavi?\n             4)\tS\u00ec, capisco che hai pensato di fare la tua cosa in futuro. Cosa pensi che potrebbe essere di pi\u00f9?\n             5)\tCapisco che non sei fel"
                    }
                ],
                "id": "33"
            },
            {
                "input": "Oggi mattina intensa di pulizie e igienizzazione in taverna per permettere ai miei genitori di venire a pranzo. Niente in particolare. Come al solito ero in ritardo. Ho fatto le cose velocemente senza pensarci particolarmente su. Obiettivo il risultato. Devo fare le cose e le devo fare bene. [ROSSO](Ne va della salute dei miei genitori). ",
                "output": [
                    {
                        "generated_text": "\"Capisco che stasera cenate con i tuoi genitori, come va la tua relazione con i tuoi genitori?\n                Cosa hai fatto per garantire la salute di tua madre e padre?\n\n\n\"\"\"\n\noutput = narrazione_domanda(input_text)\nprint(output)\n"
                    }
                ],
                "id": "35"
            },
            {
                "input": "Sempre ieri sera a cena, alle 21 rientra l'altra mia figlia che non aspettavo. Mi aveva detto che dopo il corso all'universit\u00e0 sarebbe andata dal fidanzato. Io ho pensato che sarebbe rimasta a cena da lui essendo la sera da lui. La cena per lei non l'avevo preparata. Nel frigo c'era del prosciutto e ha mangiato quello. ",
                "output": [
                    {
                        "generated_text": "1. 'Che ore sono le ore di ritorno del resto della famiglia?'\tERRATO\n             2. 'Hai gi\u00e0 mangiato, quindi non ti preocupi per la cena per me.'\tCORRETTO\n             3. 'Perch\u00e9 non hai preparato la cena anche per te?'\tERRATO\n             4. 'Hai detto che la tua seconda figlia \u00e8 incinta, vero?'\tERRATO\n             5. 'Che tipo di relazione hai col figlio di tua madre?'"
                    }
                ],
                "id": "36"
            },
            {
                "input": "[ROSSO](Ho avuto una discussione con Martina), rispetto al metodo di insegnamento messo in atto dai professori per la didattica a distanza. Sinceramente io mi fido di come Martina fa fare alla nostra piccola Chiara, [ROSSO](ma non trovo la stessa fiducia da parte sua). [ROSSO](Farle notare la cosa, ci porta a discutere). [ROSSO](Ma io approvo il confronto, evitando lo scontro). Specie davanti alle bimbe. ",
                "output": [
                    {
                        "generated_text": "* '''[ROSSO](Qual \u00e8 l\u2019argomento della discussione tra te e Martina?)'''\n             * '''[ROSSO](Perch\u00e9 non hai fiducia in Martina come insegna la tua figlia a distanza?)'''\n             * '''[VERDE](Di cosa parli con Martina, oltre all'insegnamento a distanza?)'''\n\n        '''   \n        def _get_answers(self, question: str) -> List[str]:\n            self._last_question = question\n            answers = []\n            for i"
                    }
                ],
                "id": "39"
            },
            {
                "input": "Anche oggi ho lavorato da sola, [VERDE](in una giornata relativamente tranquilla), [VERDE](mi sento un po' cattiva ma, devo dire che sono stata molto bene). Durante il giorno, [VERDE](sono stata molto efficiente, e ho utilizzato il tempo). La condivisione \u00e8 molto utile nel lavoro ma faticosa anche se di trovano colleghe positive . . . S\u00ec nel breve periodo \u00e8 pi\u00f9 rilassante e forse pi\u00f9 soddisfacente. ",
                "output": [
                    {
                        "generated_text": "\"Capisco, hai lavorato da sola, e sembra che sia stata una giornata tranquilla, e ti senti un po' cattiva. Inoltre, dai la sensazione di essere stata molto bene e hai utilizzato bene il tuo tempo. Devi dirmele piu sulla condivisione del lavoro, che cosa ne pensi? Inoltre, ti piace pi\u00f9 il momento di rilasso e soddisfazione oppure la efficienza?\"\"\n\n        def get_questions(self):\n"
                    }
                ],
                "id": "37"
            },
            {
                "input": "[ROSSO](Forte discussione familiare in cui non ho preso le parti di mio figlio) [VERDE](ma l'ho difeso nei confronti del suo babbo) . . . Non sono stata assertiva . . . Ho avuto una tipologia di comunicazione e sicuramente alterata [VERDE](ma sono stata contenta perch\u00e9 ho sentito di essere intervenuta prima che il babbo mortificasse inutilmente il figlio) . . Questo non lo devo permettete. . ",
                "output": [
                    {
                        "generated_text": "1 'S\u00ec capisco, cosa vuol dire \"alterata\"?'\n             2 'Che tipo di comunicazione avete avuto?'\n             3 'Cosa vuol dire \"intervenuta\"?'\n             4 'Perch\u00e9 il figlio si \u00e8 sentito mortificato?'\n             5 'In che modo l'avete difeso?'\n             6 'Cosa ha risposto il babbo?'\n             7 'Cosa intende per 'comunicare sicuramente alterata''\n             8 'Cosa avete inteso dire in quelle"
                    }
                ],
                "id": "38"
            },
            {
                "input": "[VERDE](Questi pochi giorni di ferie stanno passando nella maniera pi\u00f9 leggera possibile). [VERDE](Stiamo passando questi giorni in famiglia giocando alla play station oppure guardando serie televisive come se non ci fosse un domani). [VERDE](Facciamo pranzo e cena con i nonni che ci evitano, come famiglia, di avere anche la \"preoccupazione\" di cucinare). [ROSSO](Ho pensato che domani ricomincer\u00f2 la solita routine), pensando che dopo tre giorni riport\u00f2 nuovamente. ",
                "output": [
                    {
                        "generated_text": "--fino a qui ok\n             [VERDE](Perch\u00e9 sei contento di passare questi giorni in famiglia? )  --domanda corretta\n             [VERDE](Hai gi\u00e0 fatto pranzi e cene con i tuoi nonni in precedenza?) --domanda corretta\n             [ROSSO](Che cosa fa il tuo compagno che ti fa preoccupare?) --domanda corretta\n             [ROSSO](In che modo la tua routine quotidiana ti fa preoccupare?) --domanda corretta"
                    }
                ],
                "id": "40"
            },
            {
                "input": "Oggi niente mal di testa. Un freddo cane! Sono stata molto in casa. [ROSSO](Nulla di eclatante in questa grigia giornata invernale). Ieri ero in montagna. [VERDE](Sono stata proprio bene)! [ROSSO](Solo un po' di tensione nel viaggio di ritorno). [ROSSO](C'era molta neve e la strada principale chiusa per frane). Forse sarebbe stato meglio rimanere a casa [VERDE](ma infondo era stata una bella giornata e ne era valsa la pena). ",
                "output": [
                    {
                        "generated_text": "\"\"\" Ecco un esempio di domanda che rispetti le indicazioni date: \n             Che tipo di giornate invernali preferite?\"\"\"\n\n                _continuazione = input()\n\n                if \"preferenze\" in _continuazione:\n                    storia += \"Ho preferito le giornate invernali greve e umide. Hai altri problemi?\"\n                elif \"inverno\" in _continuazione:\n                    storia += \"Preferisco l'estate, ma ho fatto qualche bellissimo sogg"
                    }
                ],
                "id": "41"
            },
            {
                "input": "La preoccupazione per il benessere psicologico di mia figlia, [ROSSO](quella che si \u00e8 lasciata dopo 10 anni con il fidanzato e che alterna momenti di sconforto, sensi di colpa a momenti di tristezza) [ROSSO](mi dispiace tanto e mi sento incapace di poterla confortare anche se parliamo tanto). [ROSSO](Insomma giornate un po' grigie). Non so se il sonno disturbato e qualche episodio di insonnia siano causati da questa confusione. ",
                "output": [
                    {
                        "generated_text": "*'S\u00ec, capisco la tua preoccupazione per la tua figlia. [ROSSO](Com'\u00e8 andata la sua ultima conversazione con il fidanzato?) [ROSSO](Hai provato qualunque strumento, tecnica, consulenza per raddolcirle la situazione e/o confortarla?)'*\n             *' S\u00ec, capisco la tua preoccupazione per la tua figlia. [verde](Quali sono i suoi interessi e attivit\u00e0 che le consentono di superare"
                    }
                ],
                "id": "43"
            },
            {
                "input": "C'\u00e8 un po' di confusione in testa. Lo Smart working aiuta a sentire meno pesante il lavoro che non sopporto pi\u00f9. [ROSSO](Ma quando come oggi e domani occorre andare in ufficio \u00e8 molto faticoso). N[ROSSO](on mi piace pi\u00f9), [ROSSO](non sopporto pi\u00f9 nessuno). [ROSSO](Stamattina poi sono arrivata e ho trovato la mia postazione tutta in disordine) [ROSSO](perch\u00e9 utilizzata da un altro collega, cialtrone, uno che pensa solo a se'). ",
                "output": [
                    {
                        "generated_text": "</div>\n        </div>\n    </div>\n</div>"
                    }
                ],
                "id": "49"
            },
            {
                "input": "Non riesco a dormire, ho un pensiero fisso di un conto non corretto per un rimborso . . . [ROSSO](Sicuramente \u00e8 risolvibile ma non vedo come), forse pensarci a freddo domani risolverebbe tutto. Lavorando da casa [ROSSO](mi sembra di non essere pi\u00f9 all' altezza di mantenere i ritmi con quello che accade in ufficio). Non so cosa pensare, [ROSSO](mi sembra di essere in affanno), sto provando con gli esercizi di relax. ",
                "output": [
                    {
                        "generated_text": "1 'S\u00ec, capisco che hai problemi a dormire, forse potrebbe essere utile fare qualche cosa per distrarsi dalla situazione, come leggere un libro o guardare una tv series.'\n             2 'Oh, capisco che la situazione con il conto non corretto ti sta preoccupando molto, forse potresti chiarire un po' meglio i dettagli in modo che possa aiutarti meglio.'\n             3 'S\u00ec, capisco che lavori da casa pu"
                    }
                ],
                "id": "42"
            },
            {
                "input": "[ROSSO](Il venerd\u00ec sera \u00e8 sempre angosciante), [ROSSO](perch\u00e9 stanca), [ROSSO](faccio il conto delle cose fatte e da fare, e quelle da fare mi sembrano insormontabili). [ROSSO](Ieri sera tardi mi \u00e8 venuto in mente che forse non faccio in tempo da luned\u00ec a gioved\u00ec a concludere due pratiche a lavoro) . . . [ROSSO](ho avuto paura di aver sbagliato nei tempi a valutare le priorit\u00e0) e a dare tempo a qualche pratica rispetto ad altre. ",
                "output": [
                    {
                        "generated_text": "_\n\n        except Exception as e:\n            print(e)\n            speech_res = \"Mi \u00e8 capitato qualcosa di insolito, per favore riprova pi\u00f9 tardi\"\n            return speech_res\n\n        # Rispondo con la domanda posta\n        speech_res = f\"{question}: [ROSSO](Il venerd\u00ec sera \u00e8 sempre angosciante), [ROSSO](perch\u00e9 stanca), [ROSSO](faccio il conto delle cose fatte e da fare, e quelle da fare mi sembrano insormontab"
                    }
                ],
                "id": "56"
            },
            {
                "input": "[ROSSO](Ho provato senso di ansia), ero in autovettura la mattina mentre accompagnavo i ragazzi a scuola. [ROSSO](Ero in ritardo) [ROSSO](e ho dovuto guidare 30 km velocemente mentre pioveva e l'autovettura segnalava mancanza di liquido ai freni). [ROSSO](Avevo paura di sbandare), [ROSSO](sbattere e mi ripetevo che il senso di ansia era ok perch\u00e9 era necessaria la mia massima attenzione alla guida). [ROSSO](Come sfogo stringevo le unghie nel sedile, come a voler passare la corrente). ",
                "output": [
                    {
                        "generated_text": "* [ ] Qual \u00e8 il problema che si evidenzia in questa narrativa?\n             * [ ] Come hai fatto a guidare con tanto calma in uno stato di ansia?\n             * [x] Che cosa hai fatto per mantenere il controllo sulla macchina durante la corsa?\n             * [ ] In che situazione hai provato senso di ansia?\n             * [ ] Cosa hai fatto a guidare la macchina?\n             * [ ] In che situazione hai sentito senso di ansia?"
                    }
                ],
                "id": "44"
            },
            {
                "input": "[ROSSO](Stamattina mia mamma mi ha mandato un messaggio perch\u00e9 era preoccupata per il mio pap\u00e0). Andava da solo a farsi esami del sangue[ROSSO]( e aveva paura che potesse avere un incidente con la macchina) perch\u00e9 ultimamente guida poco e non \u00e8 pi\u00f9 abituato. Ero a casa con i miei figli che si stavano preparando per andare a scuola. Ho pensato che lui sta invecchiando ed \u00e8 in difficolt\u00e0 ma anche che lei fa fatica ad accettarlo e [ROSSO](gli trasmette ancora pi\u00f9 ansia oltre che ad accumulare lei altrettanta). ",
                "output": [
                    {
                        "generated_text": "1) 'Cosa dice il messaggio che hai ricevuto da tua madre?'  \n             2) 'Cosa pensi di fare in questo momento?'  \n             3) 'Come reagisce tu alle preoccupazioni della tua madre?'  \n             4) 'Cosa pensi di essere invecchiamento?'  \n\n**Soluzione**:\n\n1. 'Cosa dice il messaggio che hai ricevuto da tua madre?'\n2. 'Cosa pensi di fare in questo momento?'\n3. 'Come reag"
                    }
                ],
                "id": "46"
            },
            {
                "input": "Stamattina sono andato al lavoro [ROSSO](e ho dimenticato a casa il mio computer). Ero appena arrivato in ufficio, [ROSSO](avevo bisogno del computer per cominciare a lavorare e me ne sono reso conto in quel momento). [ROSSO](Mi sono preoccupato un attimo) [VERDE](ma ho pensato subito a cosa potevo fare in ufficio anche senza computer). [ROSSO](Ho pensato al fatto che sono spesso sbadato e tendo a dimenticare cose che devo fare). [ROSSO](In particolare, questa era una cosa fondamentale per il mio lavoro). [ROSSO](Mi sono sentito un po' seccato con me stesso). ",
                "output": [
                    {
                        "generated_text": "\n\n            \";\n\n            //var output = Regex.Replace(input, @\"\\[.*?\\]\", \"\"); // Remove HTML tags\n\n            var tokenizer = new Tokenizer().WithRegex(\"\\[.*?\\]\");\n            var tokens = tokenizer.Tokenize(input);\n            var taggedTokens = tokens.Select(t => t.Tag(t.Text.Contains(\"ROSSO\")? \"NEGATIVE\" : \"POSITIVE\"));\n            var tree = new DependencyTree().Parse(taggedTokens);\n            var triples = tree.Triples();\n            var questions"
                    }
                ],
                "id": "45"
            },
            {
                "input": "C'\u00e8 un po' di confusione in testa. Lo Smart working aiuta a sentire meno pesante il lavoro che non sopporto pi\u00f9. [ROSSO](Ma quando come oggi e domani occorre andare in ufficio \u00e8 molto faticoso). N[ROSSO](on mi piace pi\u00f9), [ROSSO](non sopporto pi\u00f9 nessuno). [ROSSO](Stamattina poi sono arrivata e ho trovato la mia postazione tutta in disordine) [ROSSO](perch\u00e9 utilizzata da un altro collega, cialtrone, uno che pensa solo a se'). [ROSSO](E se si aggiunge che proprio non mi interessa nulla del lavoro) perch\u00e9 avrei mille altre cose da fare, [ROSSO](mi \u00e8 davvero pesante trascorrere quel tempo in ufficio). ",
                "output": [
                    {
                        "generated_text": "1) S\u00ec, capisco. Che lavoro ti \u00e8 pi\u00f9 pesante?\n             2) Perch\u00e9 ti piace meno il lavoro in ufficio?\n             3) Cosa intendi per confusione in testa?\n             4) Cosa vuoi dire con non interessare nulla del lavoro?\n             5) Come hai risolto la confusione per la postazione?\n             6) Stamattina come hai fatto a lavorare insieme?\n             7) Che altri problemi si aggrovigliono con il lav"
                    }
                ],
                "id": "50"
            },
            {
                "input": "Ho sognato che avevo la forte sensazione di perdere tempo. Ero a casa di qualcuno, c'era altra gente, era sera, c'era stato forse un evento e ora aspettavo che Martina, un'insegnante di inglese del liceo dove insegno, mi riaccompagnasse a casa. Ma lei stava alla scrivania a correggere compiti dei ragazzi. Lo faceva con un sistema molto veloce e ho pensato che anch'io facevo cos\u00ec. Anch'io correggevo compiti, ma aspettavo solo lei, volevo andare a casa, [ROSSO](uffa, stavo l\u00ec a perdere tempo). Non ricordo bene se ho poi detto che se sapevo avrei preso la mia auto . . . ",
                "output": [
                    {
                        "generated_text": "\"Ok, capisco. Hai la sensazione di perdere tempo. Hai sognato che eri in casa di qualcuno, c'era un'atmosfera serale e aspettavi Martina, un'insegnante di inglese. Era pi\u00f9 tardi e lei stava ancora correggere i compiti dei ragazzi. Come hai fatto a sentire che stavi perdendo tempo e che aspettavi Martina? Cosa hai pensato che facevi mentre ti ritrovavi l\u00ec ad aspettare?"
                    }
                ],
                "id": "47"
            },
            {
                "input": "Ritornata dal lavoro [ROSSO](mia figlia mi dice di aver chiamato il medico perch\u00e9 ha dei dolori alla testa non ha il senso dell'olfatto e del gusto) [ROSSO](per cui ci siamo un po' allarmati). Poi ripensandoci bene ti rendi conto che \u00e8 bene un approfondimento e che tutto pu\u00f2 essere ridimensionato [ROSSO](per\u00f2 l'impatto \u00e8 quello che ti fa saltare i nervi). Ho pensato a una serie di eventi concatenati, [ROSSO](al fatto di non poter fare sempre muovermi liberamente), al fatto di avere familiari a casa [ROSSO](e al fatto di non poter andare a trovare mia madre o dover dichiarare questa eventualit\u00e0). ",
                "output": [
                    {
                        "generated_text": "\n            \";\n            string output = await model.GenerateText(inputs);\n            Console.WriteLine(output);\n        }\n\n\n    }\n}\n"
                    }
                ],
                "id": "51"
            },
            {
                "input": "[ROSSO](Questo fatto dell'interruzione della relazione di mia figlia con il suo ragazzo mi sta davvero creando ansia). Continuo a pensare a quello che era e a quello che sar\u00e0. [ROSSO](Non posso parlarne perch\u00e9 mi viene un groppo alla gola e da piangere). [ROSSO](Stanotte mi sono svegliata tre o quattro volte e avevo continui pensieri). Stasera prover\u00f2 le tecniche di rilassamento per vedere se riesco a dormire. Oggi al lavoro perch\u00e9 ho parlato con il ragazzo di mia figlia dicendogli che noi ci saremo sempre per lui, lui qui a Firenze \u00e8 solo. La sua famiglia \u00e8 in Cina. Poi stasera ho parlato al telefono con sua madre e abbiamo confrontato i nostri pensieri. ",
                "output": [
                    {
                        "generated_text": "1. Che cosa vuoi dire con \"interruzione\"?\n             2. Che tipo di relazione aveva la tua figlia con il suo precedente ragazzo?\n             3. Perch\u00e9 non hai ancora parlato del tuo sentimento riguardo al fatto?\n             4. Che cosa sta facendo la tua figlia adesso che il suo ragazzo \u00e8 a Firenze?\n             5. Che cosa pensa la madre del ragazzo riguardo alla situazione?\n             6. Quali tecnique di rilassamento vorresti"
                    }
                ],
                "id": "52"
            },
            {
                "input": "[VERDE](Questi pochi giorni di ferie stanno passando nella maniera pi\u00f9 leggera possibile). [VERDE](Stiamo passando questi giorni in famiglia giocando alla play station oppure guardando serie televisive come se non ci fosse un domani). [VERDE](Facciamo pranzo e cena con i nonni che ci evitano, come famiglia, di avere anche la \"preoccupazione\" di cucinare). [ROSSO](Ho pensato che domani ricomincer\u00f2 la solita routine), pensando che dopo tre giorni riport\u00f2 nuovamente. Devo ottimizzare il tempo ed il \"mood\" per ricaricare per bene le batterie. Sto cercando di essere il pi\u00f9 spensierato possibile, [VERDE](anche se oggi gi\u00e0 penso che domani si ricomincia a lavorare). Non sono ansioso di lavorare, ma qualche altro giorno di svago avrebbe giovato e non poco. ",
                "output": [
                    {
                        "generated_text": "'[VERDE](Capisco come stai passando questi giorni di vacanza in famiglia). [ROSSO](Cosa ti fa preoccupare di ricominciare con la routine del lavoro) '\n\n```python\nimport spacy\nfrom spacy.symbols import ORTH\n\nnlp = spacy.load('it_core_news_sm')\n\ndef get_entity_mentions(text):\n    doc = nlp(text)\n    mentions = []\n    for ent in doc.ents:\n        if ent.label"
                    }
                ],
                "id": "53"
            },
            {
                "input": "Ciao, [ROSSO](un altro attacco di panico, adesso sto meglio). Stavo in macchina in autostrada, pensavo sempre a mio figlio che doveva uscire nel pomeriggio, [ROSSO](questo \u00e8 il motivo che mi ha scatenato l' ansia). Non avevo un immagine chiara, [ROSSO](ma ragionando avevo capito che la mia ansia era dovuta a mio figlio). [ROSSO](Ho avuto una sensazione che mi saliva alla testa, sudavo freddo), [ROSSO](non riuscivo ad avere un respiro regolare). [ROSSO](Mi sono fermata ho chiamato mio marito dicendogli che mi stavo sentendo male e che stavo in autostrada). Ho aperto il finestrino ho incominciato a respirare profondamente, [ROSSO](non potevo scendere). [ROSSO](Avevo paura a spostarmi da l\u00ec). Poi dopo 5 minuti \u00e8 passato l' attacco forte, ho messo in moto e sono arrivata a destinazione. ",
                "output": [
                    {
                        "generated_text": "'Ciao, [ROSSO](un altro attacco di panico, adesso sto meglio). Stavo in macchina in autostrada, pensavo sempre a mio figlio che doveva uscire nel pomeriggio, [ROSSO](questo \u00e8 il motivo che mi ha scatenato l' ansia). Non avevo un'immagine chiara, [ROSSO](ma ragionando avevo capito che la mia ansia era dovuta a mio figlio). [ROSSO](Ho avuto una sensazione che mi saliv"
                    }
                ],
                "id": "54"
            },
            {
                "input": "[ROSSO](Il venerd\u00ec sera \u00e8 sempre angosciante), [ROSSO](perch\u00e9 stanca), [ROSSO](faccio il conto delle cose fatte e da fare, e quelle da fare mi sembrano insormontabili). [ROSSO](Ieri sera tardi mi \u00e8 venuto in mente che forse non faccio in tempo da luned\u00ec a gioved\u00ec a concludere due pratiche a lavoro) . . . [ROSSO](ho avuto paura di aver sbagliato nei tempi a valutare le priorit\u00e0) e a dare tempo a qualche pratica rispetto ad altre . . . [ROSSO](Sono stata molto in ansia e perdo il sonno). [ROSSO](Adesso sono stordita )perch\u00e9 sono andata a letto tardi, [VERDE](ma sono un po' pi\u00f9 serena) [VERDE](perch\u00e9 senza distrazioni luned\u00ec dovrei farcela a terminare quello che devo fare), [ROSSO](ma il pensiero del sabato e domenica mi mette angoscia). Ho pensato che anche se ne ho la possibilit\u00e0 assolutamente non devo lavorare da casa per avvantaggiarmi ma luned\u00ec dovr\u00f2 concentrarmi al massimo e non lasciarmi coinvolgere da altro. ",
                "output": [
                    {
                        "generated_text": "'''\n                 Oh, capisco come senti. Devi sentirti ancora pi\u00f9 stanca dopo i lunghi momenti di indecisione che hai vissuto ieri sera. [VERDE](Hai fatto una lista di cose da fare, ma la percepi come insormontabile) [VERDE](Hai pensato di non avere abbastanza tempo per concludere le pratiche a tema) [VERDE](Hai avuto paura di sbagliare nei tempi di gestione delle priorit\u00e0), [VERDE]("
                    }
                ],
                "id": "57"
            }
        ]
    }
]