[
    {
        "model_name": "mosaicml/mpt-30b-chat",
        "prompt": "                Sei una AI che deve fare una domanda su un racconto in maniera tale da ottenere pi\u00f9 informazioni su eventi accaduti nel racconto. A seguire degli esempi e successivamente una narrativa a cui dovrai fare una domanda in modo da ottenere pi\u00f9 informazioni.Istruzioni\n                Di seguito ti verr\u00e0 presentato un insieme di racconti personali e il tuo obiettivo \u00e8 quello di proporre domande riguardanti alcuni aspetti degli eventi descritti nella narrativa. Queste domande hanno come obiettivo quello di approfondire il racconto e/o chiarire alcune sue parti.\n\n                Nello specifico, le tue domande potranno avere uno o pi\u00f9 dei seguenti obiettivi:\n                Approfondire alcuni aspetti della narrativa per ottenere pi\u00f9 informazioni riguardanti eventi, persone o altre entit\u00e0 menzionate nel racconto. Per esempio, se il narratore racconta di un generico problema a casa, una possibilit\u00e0 \u00e8 approfondire il relativo problema. Vedi esempio 2 nella tabella 1.\n                Parti del testo della narrativa potrebbero essere evidenziate di verde o rosso per sottolineare emozioni positive ( verde ) o negative ( rosso ). Usa queste indicazioni per concentrare le tue domande su eventi emotivamente carichi ed evidenziati dalle parti di testo colorate ( verde o rosso ).\n                Usa segnali di feedback per cominciare la tua domanda. ( ad esempio \"s\u00ec, capisco\", \"oh\", \"che bello\" ) per dimostrare che si \u00e8 capito la parte precedente e che si \u00e8 attivamente interessati alla narrazione. Vedi esempio 4 nella tabella 1.\n                \u00c8 molto importante mantenere la narrazione centrata sul narratore riferendosi ad eventi accaduti.\n                Mostrare empatia con le tue domande. Se il narratore esprime una emozione negativa, il tuo obiettivo \u00e8 quello di essere comprensivo. Invece se il narratore mostra una emozione positiva cerca di mostrare interesse nell'evento positivo. Vedi esempio 5 nella tabella 1.\n                Cerca di mantenere le domande sintetiche e puntuali. Troppe domande o una domanda troppo lunga pu\u00f2 confondere il narratore e quindi avere un effetto negativo sulla narrazione. Vedi esempio 4 nella tabella 1.\n                Le tue domande devono suonare naturali e coerenti con il contesto, ovvero la narrativa.\n                Non da ultimo, verifica la correttezza grammaticale e sintattica delle tue domande.\n                Domande da evitare:\n                Richiesta di opinioni personali (ad esempio \"cosa pensi ...\", \"come speri di fare per ...\" e simili). Vedi esempio 3 nella tabella 1.\n                Suggerimenti (ad esempio, \"forse potresti ...\", \"dovresti ...\", \"perch\u00e9 non ...\"). Vedi esempio 6 nella tabella 1.\n                Esprimere eventi ipotetici (ad esempio, previsioni future, illazioni e immedesimazioni in altri ruoli). Vedi esempio 7 nella tabella 1.\n                Evita domande generiche. Per evitare questo problema ti \u00e8 consigliato di riportare testualmente un esempio della narrativa Vedi esempio 2 , tabella 1\n                Evita di spostare il fulcro della conversazione su di te ( osservatore ) o fare domande che divagano in altri argomenti. Vedi esempio 4 nella tabella 1.\n                A seguire la tabella 1 che riporta una serie di esempi\n\n                Tabella 1, contenente un esempio corretto e molteplici esempi errati di domande per una narrativa. Ciascun esempio \u00e8 numerato.\n\n                NARRATIVA:\n                Oggi \u00e8 stata una bella giornata. Mia moglie mi ha detto che sta aspettando un bambino! Sono super felice! Mi chiedo se sar\u00f2 un bravo padre. Mio padre non \u00e8 stato molto presente quando ero un bambino.\n                \n                Tabella 1\n                Esempio\tTesto\tValutazione\tSpiegazione\n                1\tSono felice di sentirlo. Sapete gi\u00e0 se si tratta di un maschio o di una femmina ?\tCORRETTO\tSegue tutte le linee guida\n                2\tOh capisco. Cosa mi racconti? \tERRATO\tNon esplora la narrativa, troppo generica\n                3\tSono felice di sentirlo. Cosa ne pensi di essere un genitore?\tERRATO\t\u00c8 una opinione personale\n                4\tSapete gi\u00e0 se si tratta di una femmina o maschio? Di quanti mesi \u00e8 incinta? Sai che io ho una figlia, si chiama Chiara.\tERRATO\t Non inizia con un feedback. Sposta la conversazione dal narratore. Non \u00e8 sintetico e puntuale\n                5\tOh capisco, sono felice che tuo padre non sia stato molto presente.\tERRATO\tNon mostra empatia\n                6\tOh, capisco. Per evitare questo problema ti consiglio di spendere molto tempo assieme alla tua famiglia\tERRATO\tMostra un suggerimento\n                7\tOh capisco, come ti immagini sar\u00e0 la tua vita da genitore?\tERRATO\tSi tratta di una domanda ipotetica\n\n                NARRATIVA: \"Oggi \u00e8 stata una bella giornata. Mia moglie mi ha detto che sta aspettando un bambino! Sono super felice! Mi chiedo se sar\u00f2 un bravo padre. Mio padre non \u00e8 stato molto presente quando ero un bambino.\"DOMANDA: \"Sono felice di sentirlo. Sapete gi\u00e0 se si tratta di un maschio o di una femmina ?\"NARRATIVA: \"Oggi ho litigato con Chiara, lei era arrabbiata con me perch\u00e9 secondo lei non io so fare le cose.\"DOMANDA: \"Oh, mi spiace che tu abbia litigato. Secondo lei che cosa \u00e8 che non sai fare ?\"NARRATIVA: \"Oggi \u00e8 una bella giornata. Ho pattinato sul ghiaccio e poi sono andato al cinema.\"DOMANDA: \"bello sentire che \u00e8 stata una buona giornata per te. Dove sei stato a pattinare ?\"Completa questo task\n\n                NARRATIVA:  '{prompt}'DOMANDA:\n             ",
        "results": [
            {
                "input": "Ciao tutto bene una giornata in pieno relax. ",
                "output": [
                    {
                        "generated_text": "\n             \n\n            def p2():\n                narrativa2 = \"Ciao sono una AI che desidera ottenere informazioni sulla vostra giornata. Posso iniziare una chiacchiera con voi?\"\n                feedback2 = input(narrativa2)\n                if feedback2 =='s\u00ec, capisco':\n                    narrativa3 = \"Caspita che bella giornata che si fa! E voi come la state passando?\"\n                    feedback3 = input(narrativa3)\n                    if feedback"
                    }
                ],
                "id": "0"
            },
            {
                "input": "Ciao, tutto bene molto lavoro il questi ultimi giorni. ",
                "output": [
                    {
                        "generated_text": "--sel08-inj01_\n\n         \"\"\""
                    }
                ],
                "id": "1"
            },
            {
                "input": "Mi sento leggero. Sono in viaggio per andare a trovare mia figlia. ",
                "output": [
                    {
                        "generated_text": "1. 'Che bello, dove si trova sua figlia?'\n             2. 'E come \u00e8 andata la prima volta che sei andato a trovarla?'\n             3. 'Che tipo di rapporti hai con sua madre?'\n             4. 'Perch\u00e9 hai deciso di andare a trovare sua figlia adesso?'\n             5. 'Quale modo di trasporto hai scelto per questo viaggio?'\n             6. 'Come ti senti dopo questa giornata?'\n        \n        1. Che bello, dove"
                    }
                ],
                "id": "2"
            },
            {
                "input": "Questa mattina ero a casa con mia figlia e sono molto rilassata. ",
                "output": [
                    {
                        "generated_text": "1. 'Che cosa state facendo alla casa insieme?'\n             2. 'Che et\u00e0 ha la tua figlia?'\n             3. 'Che tipo di attivit\u00e0 rilassanti fate sempre insieme?'\n             4. 'Di cosa parla la figlia con te?'\n             5. 'Hai una buona relazione con la tua figlia?'\n            NARRATIVA: 'Ieri sera ho incontrato mio ex fidanzato al bar. Era con la sua nuova ragazza'.DOMANDA: \n            1."
                    }
                ],
                "id": "3"
            },
            {
                "input": "Ciao. Oggi giornata abbastanza tranquilla. Non si lavora ma si hanno faccende domestiche e giardinaggio. ",
                "output": [
                    {
                        "generated_text": "';) Evviva gli incarichi domestici e la natura! Come ti sei divertito?';)\n\nNota: i simboli \";\" si riferiscono ai segni di punctuazione\";\"\n        <br> che in questo testo sono stati utilizzati per migliorare la leggibilit\u00e0.\n        \";\"'>\n\n       <h2>Parte 2 - Attivit\u00e0 su singolo testo</h2>\n        <p>In questa sezione avrai il compito di rispondere a domande su"
                    }
                ],
                "id": "5"
            },
            {
                "input": "Stamattina mia mamma mi ha mandato un messaggio perch\u00e9 era preoccupata per il mio pap\u00e0. ",
                "output": [
                    {
                        "generated_text": "', capisco che \u00e8 stata una bella giornata per te. '\n\n            \";\n\n            var tree = new ChatTreeParser().Parse(text);\n\n            Assert.NotNull(tree);\n        }\n    }\n}"
                    }
                ],
                "id": "6"
            },
            {
                "input": "Sono giorni che piove, ma va bene cos\u00ec! ! Meno male che non era neve! ! ",
                "output": [
                    {
                        "generated_text": "1. Come preferite quando piove?\n             2. Non avete neve dovevate?\n             3. Qual \u00e8 il vostro tipo di clima?\n             4. Che cosa fate quando piove tanto?\n             5. Avete anche la neve in invernooko a Milano?\n             6. Che tipo di attivit\u00e0 fate quando c'\u00e8 la neve?\n             7. Preferite la pioggia o la neve?\n             8. Avete sempre le impalcature per la neve a Milano?\n             9. Avete mai"
                    }
                ],
                "id": "4"
            },
            {
                "input": "Piove e nevica da giorni. Adesso c'\u00e8 anche il vento. Speriamo il tempo non faccia malanni. ",
                "output": [
                    {
                        "generated_text": "\"\"\"Bello sentire che \u00e8 il tempo che fa per la stagione, spero che non ci faccia malanni\"\".\"\"\"\n\n                NARRATIVA: \"Oggi ho comprato dei fiori e li ho posati sul tombolo di mia madre che \u00e8 morta da uno sono. Sono andato al cimitero a passeggio per sentirmi meglio. \"DOMANDA: \"Oh! Capisco, \u00e8 difficile per te andare al cimitero. Che tipo di fiori hai comprato?\"\n\n                NARR"
                    }
                ],
                "id": "7"
            },
            {
                "input": "Stasera a casa di mia madre ho sentito un grande senso di abbandono e di indifferenza. ",
                "output": [
                    {
                        "generated_text": "_';'\n                NARRATIVA: 'Oggi ho fatto un sacco di soldi e mi sento felice.'DOMANDA: _;'\n                NARRATIVA: 'Oggi ho visto un film bellissimo e mi ha fatto pensare molto sulla vita.'\n                DOMANDA: _;'\n                NARRATIVA: 'Mio fratello \u00e8 andato in rete con una donna che aveva una sorella che in realt\u00e0 era lui.'\n                DOMANDA: _;\n\n"
                    }
                ],
                "id": "8"
            },
            {
                "input": "Stavo parlando con una collega davanti ad un caff\u00e8, si parlava del Natale, del pranzo dei regali. ",
                "output": [
                    {
                        "generated_text": "1.'Che cosa avete parlato della vostra fidanzata/fidanzato?'\n             2.'Che tipo di regali vi avete scambiato?'\n             3.'Qual \u00e8 il vostro piatto preferito di Natale?'\n             4.'A che ora avete fermato la conversazione?'\n             5.'Qual \u00e8 il vostro ricordo di Natale che preferisco?'\n\n                NARRATIVA: \"Dopo aver mangiato ho fatto shopping con mia sorella, poi sono andato a giocare a"
                    }
                ],
                "id": "9"
            },
            {
                "input": "Sono soddisfatta. Il mio corso di inglese sta procedendo bene. Riuscire a studiare una lingua straniera porta soddisfazione",
                "output": [
                    {
                        "generated_text": "1) S\u00ed, capisco. Cosa ti fa sentire soddisfatta in particolare?\n             2) Qual \u00e8 la procedura del tuo corso di inglese?\n             3) Hai gi\u00e0 avuto esperienza con altre lingue straniere?\n             4) Qual'\u00e8 la tua motivazione per studiare inglese?\n             5) Cosa fai per mantenere la motivazione durante il corso?\n             6) Qual'\u00e8 la tua lingua madre?\n             7) Che altro fai"
                    }
                ],
                "id": "10"
            },
            {
                "input": "Ciao, ho ricevuto un messaggio da quello che a breve diventer\u00e0 il mio ex socio e ho provato nausea. ",
                "output": [
                    {
                        "generated_text": "1. 'E' mai successo prima di questi ultimi giorni di lavorare insieme?'\n             2. 'Hai idea di cosa ti ha messo arrabbiato?'\n             3. 'Come hai risposto al messaggio?'\n             4. 'Di che tipo di lavoro si trattava?'\\n'\n\n    ';\n\n    $narrative = preg_replace('/[^0-9a-zA-Z \\n\\r\\t]/', '', $narrative); // remove all non-alphanumeric characters;\n\n    "
                    }
                ],
                "id": "11"
            },
            {
                "input": "Sono arrabbiato perch\u00e9 la mia macchina mi ha lasciato a piedi e devo rientrare a Roma con il treno. ",
                "output": [
                    {
                        "generated_text": "1.'Che tipo di macchina \u00e8?\n             2. 'Quando dovrei essere a Roma?'\n             3. 'E perch\u00e9 non utilizzare un'altra macchina?'\n             4.'Hai un compagno di viaggio?'\n             5.'Hai una soluzione?'\n\n        '''\n        # Definizione della variabile \"domande\" che conterr\u00e0 l'elenco delle domande.\n        domande = []\n\n        # Controllo sulla correttezza grammaticale e sintattica del"
                    }
                ],
                "id": "12"
            },
            {
                "input": "Mi sono trovata con l'acqua alla gola. Ho pensato che non ce l'avrei fatta. Mercoled\u00ec in macchina penso a come organizzarmi. ",
                "output": [
                    {
                        "generated_text": "1. 'Cosa fa mercoled\u00ec in macchina?'\n             2. 'Che pensate di come si \u00e8 risolta la situazione?'\n             3. 'Che cosa avete fatto dopo?'\n             4. 'Qual \u00e8 la vostra professione?'\n             5. 'Come si chiamava la vostra macchina?'\n\n# Output:\n\n    Cosa pensate di come si \u00e8 risolta la situazione?\n    Che cosa avete fatto dopo?\n    Qual \u00e8 la vostra professione?\n    Come si"
                    }
                ],
                "id": "13"
            },
            {
                "input": "Voglio chiamare una persona, ma poi non lo faccio perch\u00e9 ho paura di ricevere un rifiuto o non sapere cosa dire. ",
                "output": [
                    {
                        "generated_text": "\n           .'\n        \n\n        :return:\n        \"\"\"\n        import spacy\n        from spacy import displacy\n        from typing import List, Text\n        import en_core_web_sm\n\n        nlp = en_core_web_sm.load()\n\n        def underline(text: Text, tokens: List[List[str]], start: int, end: int):\n            return text[:start] + \" <u>{}</u>\".format(' '.join(tokens[start - 1][:end - start + 1])) + text[end:]\n\n        "
                    }
                ],
                "id": "14"
            },
            {
                "input": "Ciao! Che fastidio i colleghi che vogliono metterti ansia. Ho immaginato una bambina petulante per il suo tentativo di ledere la mia tranquillit\u00e0. ",
                "output": [
                    {
                        "generated_text": "1) Come hai fatto a immaginare quella bambina petulante?\n             2) Cosa ti ha fatto sentire ansioso/a i colleghi che vorrebbero metterti ansia?\n\n     \"\"\"\n\nnarrative = \"Ciao! \u00c8 stata una giornata molto difficile: sono stato sbattuto in un incarico di cui ero molto felice e che avevo conseguito con tanto sforzo dopo anni di lavoro duro. Sono stato costretto a cerc"
                    }
                ],
                "id": "15"
            },
            {
                "input": "Il venerd\u00ec sera \u00e8 sempre angosciante, perch\u00e9 stanca, faccio il conto delle cose fatte e da fare, e quelle da fare mi sembrano insormontabili. ",
                "output": [
                    {
                        "generated_text": "_______\n\n                    \");\n            }\n        }\n    }\n}"
                    }
                ],
                "id": "55"
            },
            {
                "input": "Oggi sono molto pi\u00f9 tranquilla . . . fine settimana gratificante in famiglia. Era il mio compleanno e finalmente avevo tutta la mia famiglia riunita. ",
                "output": [
                    {
                        "generated_text": "'... s\u00ec, capisco. E come hai passato il tuo compleanno?... '\n                NARRATIVA: 'Oggi sono andato in montagna con il mio cane. Era bello vederlo correre liberamente... 'DOMANDA:\n             '... oh, \u00e8 bello sentire che hai fatto qualcosa che ti piace con il tuo cane... '\n                NARRATIVA: 'Oggi \u00e8 andato tutto storto, ho perso il mio"
                    }
                ],
                "id": "16"
            },
            {
                "input": "Dopo oltre 7 mesi stasera ho potuto rivedere la zia di 94 anni. Ho pensato al mio primo bambolotto che mi ha regalato proprio lei. ",
                "output": [
                    {
                        "generated_text": "1. 'Che tipo di bambolotto \u00e8 stato?'\n             2. 'Come ti sentivi vedendo la tua zia dopo cos\u00ec tanto tempo?'\n             3. 'Che altro ti ha regalato?'\n             4. 'Come la visita alla zia \u00e8 andata?'\n             5. 'Che cosa hai fatto insieme?'\n\n        :return:\n        \"\"\"\n        # Inizio della risposta automatica\n        print(\"Cari clienti, attualmente la mia capacit\u00e0 di comprensione \u00e8 limitata alla sola"
                    }
                ],
                "id": "17"
            },
            {
                "input": "Mi \u00e8 dispiaciuto stamattina non aver avuto pazienza con mio padre. Mi sono resa conto che \u00e8 davvero difficile, ma ripensandoci dopo, magari invece avrei potuto riuscirci. ",
                "output": [
                    {
                        "generated_text": "1) 'Oh, capisco che pu\u00f2 essere difficile.'\n             2) 'E come ti senti adesso, dopo aver riflettuto su di essa?'\n             3) 'Forse potresti cercare di risolvere la situazione con lui?'\n             4) 'Qual \u00e8 la relazione che hai con tuo padre?'\n             5) 'In che modo ha colpito questa situazione con lui?'\n             6) 'Ti ha fatto capire che non ti hai messo con lui o hai pensato che sia cos\u00ec?'\n"
                    }
                ],
                "id": "18"
            },
            {
                "input": "Perch\u00e9 alcuni colleghi amano criticare tutto e tutti? A lavoro stamattina ho immaginato una bambina sciocca. Provo antipatia verso quella collega. Non ho fatto nulla. Mi sono solo allontanata. ",
                "output": [
                    {
                        "generated_text": "';'Capisco che pu\u00f2 essere frustrante quando qualcuno si prende gioco di tutto. Non hai fatto nulla male. Ti senti bene dopo averla lasciata?';\n                NARRATIVA: \"Sono stanca, ho lavorato fino a tardi ieri sera. Oggi devo partecipare a un incontro importante, ma non ho ancora preparato il materiale necessario e ho anche l'ansia da parlare davanti a tante persone.\"DOMANDA: \" oh,"
                    }
                ],
                "id": "19"
            },
            {
                "input": "Ritornata dal lavoro mia figlia mi dice di aver chiamato il medico perch\u00e9 ha dei dolori alla testa non ha il senso dell'olfatto e del gusto per cui ci siamo un po' allarmati. ",
                "output": [
                    {
                        "generated_text": "_\n\n        def test_domanda(self):\n            narrativa1 = \"Oggi \u00e8 stata una bella giornata. Mia moglie mi ha detto che sta aspettando un bambino! Sono super felice! Mi chiedo se sar\u00f2 un bravo padre. Mio padre non \u00e8 stato molto presente quando ero un bambino.\"\n            domanda1 = \"Sono felice di sentirlo. Sapete gi\u00e0 se si tratta di un maschio o di una femmina?\"\n            narr"
                    }
                ],
                "id": "20"
            },
            {
                "input": "Ciao, un altro attacco di panico, adesso sto meglio. Stavo in macchina in autostrada, pensavo sempre a mio figlio che doveva uscire nel pomeriggio, questo \u00e8 il motivo che mi ha scatenato l' ansia. ",
                "output": [
                    {
                        "generated_text": "1) 'Che tipo di auto hai?'\n             2) 'In che modo l'ansia ti ha influenzato durante il viaggio in macchina?'\n             3) 'Hai pensato a mio figlio, perch\u00e9 era importante che uscisse quel pomeriggio?'\n             4) 'In che modo hai combattuto l'ansia durante il viaggio?'\n             5) 'Hai preoccupazioni per il tuo figlio?'\n             6) 'Che cosa intendi per \"usc\u00ec quel pomeriggio\"?'\";\n            \""
                    }
                ],
                "id": "21"
            },
            {
                "input": "A casa mia, seduta sul divano, ho provato uno degli esercizi. Mi piace. Penso che sia importante farlo tutti i giorni per avvertirne i benefici. Ho immaginato miei polmoni che si riempivano d' aria. ",
                "output": [
                    {
                        "generated_text": "1)\t Che genere di esercizi ti ha interessato di pi\u00f9?\n             2)\t Come ti senti dopo aver provato questo esercizio?\n             3)\t Cosa puoi dire di pi\u00f9 sulla tua esperienza?\n             4)\t Quali altri cambiamenti fai nella tua vita quotidiana per sentirti meglio?\n             5)\t Come descrivi la tua vita attualmente?\n     */"
                    }
                ],
                "id": "22"
            },
            {
                "input": "Stamattina sono andato al lavoro e ho dimenticato a casa il mio computer. Ero appena arrivato in ufficio, avevo bisogno del computer per cominciare a lavorare e me ne sono reso conto in quel momento. ",
                "output": [
                    {
                        "generated_text": "1. 'Cosa hai fatto allora?'\n             2. 'Erano le 9 in punto quando hai ricordato il tuo computer?'\n             3. 'Hai detto qualcosa a colleghi o superiori?'\n             4. 'Era importante per te poter lavorare con il computer.'\n             \n"
                    }
                ],
                "id": "23"
            },
            {
                "input": "Sto provando ad addormentarmi, ma pensiero di domattina mi mette a disagio. Ripenso alla routine che mi aspetta domattina e non ne sono molto entusiasta. Ho immaginato un panorama boschivo ed un ruscello. Cercando di rilassarmi pi\u00f9 possibile. ",
                "output": [
                    {
                        "generated_text": "1) 'Sto cercando di dormire, ma i miei pensieri non mi lasciano tranquillo. Cosa pu\u00f2 aiutarmi a rilassarmi?'\n             2) 'Cosa fa la tua routine di domani mattina? Potremmo trovare qualcosa da modificare insieme?'\n             3) 'Invece di immaginare cose negative, perch\u00e9 non immagini qualcosa che ti fa felice?'\n             4) 'Cosa puoi fare la notte prima per essere pi\u00f9 preparato di domani matt"
                    }
                ],
                "id": "24"
            },
            {
                "input": "Stamattina uno dei figli ha fatto un piccolo incidente, bucando una gomma. Ero a casa. Questa notizia mi ha creato agitazione, per organizzare la risoluzione del problema, senza ritardare l'arrivo in ufficio, in cui era programmato un incontro importante. ",
                "output": [
                    {
                        "generated_text": "1) 'Cosa \u00e8 successo all'infante che ha bucato una gomma?'\n             2) 'Qual era l'et\u00e0 dell'infante che ha bucato una gomma?'\n             3) 'Hai avuto emozioni positive o negative quando hai sentito dell'incidente fatto dall'infante?'\n             4) 'Che lavoro fai?'\n             5) 'Quanto sei stato contento/a per aver sentito che la tua giornata sarebbe stata bella?'\n        '''\n"
                    }
                ],
                "id": "25"
            },
            {
                "input": "Domenica nel mio giardino, occupandomi dei miei fiori ho sentito una sensazione piacevole data dal profumo delle viole e dal sole che leggero accarezzava la pelle. Sarebbe bello poter avere un profumo simile a quello delle viole o dell' iris. ",
                "output": [
                    {
                        "generated_text": "1. 'Che specie di profumi preferisci?'\n             2. 'Hai mai sentito il profumo di iris?'\n\n            NARRATIVA: 'Erano quattro ragazze belle e allegre, la sera del sabato andavano al ballo, indossavano i vestiti pi\u00f9 belli e si facevano una bella doccia e si acconciavano. Una di loro, pi\u00f9 anziana e pi\u00f9 matura, le consigliava sul tipo di compagno da scegliere e le altre"
                    }
                ],
                "id": "27"
            },
            {
                "input": "Oggi mi sono dedicata al giardino e all'orto. Sono stanchissima fisicamente ma rilassata mentalmente. Fuori in giardino ho fatto tutte le cose che prima faceva mio marito. Ho sentito quasi fisicamente la sua presenza e la cosa mi ha rilassato. ",
                "output": [
                    {
                        "generated_text": "--s\u00ec, capisco, suonava bello. Hai gi\u00e0 sentito la voce di un essere caro che ti mancava?\n\n        '''  # noqa: E301\n\n        def read_questions(text):\n            return re.findall(r'[A-Z]-?[sS]?[pP]?[eE][qQ]?(?:[uU]?[sS]?[eE][qQ]?[uU]?[sS]?[eE]|[.?!]-?[rR"
                    }
                ],
                "id": "28"
            },
            {
                "input": "Questo fatto dell'interruzione della relazione di mia figlia con il suo ragazzo mi sta davvero creando ansia. Continuo a pensare a quello che era e a quello che sar\u00e0. Non posso parlarne perch\u00e9 mi viene un groppo alla gola e da piangere. ",
                "output": [
                    {
                        "generated_text": "* '''Che cosa ti fa piangere?'''\n             * '''Che cosa ti mette tanto ansia riguardo al fatto che la tua figlia ha interrotto la sua relazione con il suo ragazzo?'''\n             * '''Qual \u00e8 la tua relazione con la tua figlia?'''\n             * '''In che modo ti \u00e8 stato difficile la decisione presa dalla tua figlia di interrompere la relazione?''\n             * '''Cosa vorresti che accadesse?'''\n\n        \"\"\"\n        output = []\n        narrative"
                    }
                ],
                "id": "29"
            },
            {
                "input": "C'\u00e8 un po' di confusione in testa. Lo Smart working aiuta a sentire meno pesante il lavoro che non sopporto pi\u00f9. Ma quando come oggi e domani occorre andare in ufficio \u00e8 molto faticoso. Non mi piace pi\u00f9, non sopporto pi\u00f9 nessuno. ",
                "output": [
                    {
                        "generated_text": "'Capisco che \u00e8 una situazione difficile, come hai fatto ad arrivare a questo punto?'\n\n             \"Ciao, sono contento di averti ascoltato, hai fatto un buon lavoro. Hai evidenziato bene l'importanza dell'ascolto attento, della natura puntuale delle domande e la necessit\u00e0 di una buona elaborazione sul lato dei rispondenti.\n                Hai evidenziato anche l'importanza del feedback durante l'ascolto attento.\n                Hai fat"
                    }
                ],
                "id": "48"
            },
            {
                "input": "Stamattina mia mamma mi ha mandato un messaggio perch\u00e9 era preoccupata per il mio pap\u00e0. Andava da solo a farsi esami del sangue e aveva paura che potesse avere un incidente con la macchina perch\u00e9 ultimamente guida poco e non \u00e8 pi\u00f9 abituato. ",
                "output": [
                    {
                        "generated_text": "1  \"Capisco che sia preoccupata ma come sta tuo padre?\" \n             2  \"Hai gi\u00e0 fatto qualcosa per aiutare tuo padre con le auto?\"\n             3  \"Che genere di esami del sangue sta fattendo tuo pap\u00e0?\" \n             4  \"Hai visto il messaggio che hai mandato a mia mamma?\" \n             5  \"E come ti senti oggi?\" \n\n        '''  # noqa: E501\n        self.assertTrue(check_response(expected, response"
                    }
                ],
                "id": "30"
            },
            {
                "input": "Lavoro, nessun contrasto personale, ma la routine ammazza! ! ! \u00c8 una noia mortale dover rifare sempre le stesse cose soprattutto se il supporto della tecnologia viene meno . . . Ieri internet non andava e il lavoro di un' ora \u00e8 andato perso. ",
                "output": [
                    {
                        "generated_text": "Aha capisco, \u00e8 una noia sentirsi legati alla routine, non \u00e8 vero? E poi un lavoro che dipende dalla tecnologia pu\u00f2 essertene una soluzione? E se provassi a fare qualcosa di diverso?\n                (Correttezza sintattica e grammaticale)\n\n                NARRATIVA: \"Non riesco a dormire, penso a quanto avrei dovuto fare in pi\u00f9 oggi, e invece non ho fatto quasi nulla!\"DOMANDA:\n                S\u00ec,"
                    }
                ],
                "id": "26"
            },
            {
                "input": "Discusso con la nipote di mio marito a causa del suo comportamento di poco rispetto in merito al lavoro. Ero al negozio. \u00c8 accaduto circa una settimana fa. La volevo mandare via subito. Ho girato le spalle e me ne sono andata. Non le ho rivolto la parola per tutta la giornata. ",
                "output": [
                    {
                        "generated_text": "1) Come era vestita la nipote?\n             2) Perch\u00e9 aveva un modo di comportarsi di poco rispetto?\n             3) Per quante ore eri al negozio?\n             4) Cosa ha fatto la nipote dopo che te ne sei andata?\n             5) Che lavoro fa la nipote?\n             6) Cosa hai fatto dopo di te ne sei andata?'\n\n                NARRATIVA: \"Mamma era malata, aveva il cancro. Un giorno era and"
                    }
                ],
                "id": "31"
            },
            {
                "input": "Oggi giornata abbastanza tranquilla, mi sono presa un pomeriggio di libert\u00e0 perch\u00e9 non essendo ci pi\u00f9 i limiti per andare da un comune in un altro, sono andata in un comune limitrofo. Sono andata in libreria, il luogo per me ideale e di pace, ho mangiato un gelato, ho visto due vetrine, insomma rilassante. ",
                "output": [
                    {
                        "generated_text": "1) 'Oh capisco che sei andata in una libreria! Di che tipo di libri hai fatto acquisto?'\n             2) 'Che genere di musica preferisci?'\n             3) 'In quale libreria eri andata?'\n             4) 'Qual \u00e8 stato il tuo gelato preferito?'\n            \n            '''.strip(), 'utf-8')\n        }\n\n        // E' richiesto di inviare un messaggio con le informazioni sugli elementi chiesti nelle istruzioni del task\n        //"
                    }
                ],
                "id": "34"
            },
            {
                "input": "Ieri sera ho distrutto il cellulare. Ieri sera verso mezzanotte mi \u00e8 caduto per terra e si \u00e8 distrutto il vetro. Inutilizzabile . . Non \u00e8 possibile. Non ci credo. Mi sembrava veramente impossibile che fosse successo. Non ho realizzato subito l'impatto che avrebbe avuto. Mi sono messa subito a cercare di rimediare il rimediabile. ",
                "output": [
                    {
                        "generated_text": "a) 'Mi spiace sentire che il tuo cellulare si \u00e8 distrutto. Quanto tempo avevi avuto quel telefono?'\n             b) 'Erano molte cose importanti sul cellulare?. \n             c) 'Cosa hai fatto dopo che hai capito che era irreparabile?'\n             d) 'Qual era il tuo cellulare preferito?'\n             e) 'Non \u00e8 successo nient'altro che ti abbia fatto arrabbiare ieri sera, oltre al cellulare?'"
                    }
                ],
                "id": "32"
            },
            {
                "input": "Oggi a lavoro mi hanno fatto capire che probabilmente il nuovo responsabile (che non sar\u00f2 io) sar\u00e0 una persona che non \u00e8 portata per questo lavoro. Ho pensato che per quel che mi riguardava io avrei fatto d\u2018ora in avanti il mio e non pi\u00f9 di quanto richiesto dal mio ruolo. Mi veniva da piangere. ",
                "output": [
                    {
                        "generated_text": "'.oh capisco quant\u2019\u00e8 dura questa situazione. Hai pensato di parlare con il tuo responsabile per chiarire la tua posizione?'\n\n                NARRATIVA: 'Oggi mi sono resa conto che non posso continuare cos\u00ec. Devo cambiare la mia vita. Devo imparare ad avere fiducia in me.'DOMANDA: '.oh,che bello che hai capito. Hai pensato su come vorresti cambiare la vita.'\n\n                NARRATIVA:"
                    }
                ],
                "id": "33"
            },
            {
                "input": "Oggi mattina intensa di pulizie e igienizzazione in taverna per permettere ai miei genitori di venire a pranzo. Niente in particolare. Come al solito ero in ritardo. Ho fatto le cose velocemente senza pensarci particolarmente su. Obiettivo il risultato. Devo fare le cose e le devo fare bene. Ne va della salute dei miei genitori. ",
                "output": [
                    {
                        "generated_text": "1) \"Oh, \u00e8 stato impegnativo pulire la tua taverna. Come hai fatto per farlo in fretta?\"\n             2) \"Hai avuto qualche problema durante la pulizia? Magari qualcosa che non andava?\"\n             3) \"Hai fatto la pulizia solo tu oppure hai avuto l'aiuto di qualcuno?\"\n\n     '''  )\n\n\n\n# In[7]:\n\n\nfrom IPython.display import display\n\n\n# In[8]:\n\n\ndef rich_display_narrative"
                    }
                ],
                "id": "35"
            },
            {
                "input": "Sempre ieri sera a cena, alle 21 rientra l'altra mia figlia che non aspettavo. Mi aveva detto che dopo il corso all'universit\u00e0 sarebbe andata dal fidanzato. Io ho pensato che sarebbe rimasta a cena da lui essendo la sera da lui. La cena per lei non l'avevo preparata. Nel frigo c'era del prosciutto e ha mangiato quello. ",
                "output": [
                    {
                        "generated_text": "1. 'Che ore sono le sue, che lavoro fa?'\n             2. 'Perch\u00e9 pensate che non sarebbe rimasta a cena con il suo fidanzato?'\n             3. 'Perch\u00e9 non ha mangiato la vostra cena a tempo?'\n             4. 'Perch\u00e9 ha mangiato del prosciutto?'\n             5. 'Qual \u00e8 il vostro rapporto con questa figlia?'\n            \n\n    def test_extract_intents_and_slots(self):\n        narratives = [\n            \"Ogg"
                    }
                ],
                "id": "36"
            },
            {
                "input": "Ho avuto una discussione con Martina, rispetto al metodo di insegnamento messo in atto dai professori per la didattica a distanza. Sinceramente io mi fido di come Martina fa fare alla nostra piccola Chiara, ma non trovo la stessa fiducia da parte sua. Farle notare la cosa, ci porta a discutere. Ma io approvo il confronto, evitando lo scontro. Specie davanti alle bimbe. ",
                "output": [
                    {
                        "generated_text": "1)\tS\u00ec, hai capito bene. E cosa ha risposto Martina alla tua opinione?\t\n             2)\tInsomma non ti sembra che le nostre figlie imparino molto anche cos\u00ec?\t\n             3)\tE perch\u00e9 Martina ha una diversa opinione rispetto a quanto pensi tu?\t\n             4)\tS\u00ec, capisco che \u00e8 molto difficile per te. Ma come hai risolto la situazione?\n\n                ';\n                $str_html = preg_replace('/<[^"
                    }
                ],
                "id": "39"
            },
            {
                "input": "Anche oggi ho lavorato da sola, in una giornata relativamente tranquilla, mi sento un po' cattiva ma, devo dire che sono stata molto bene. Durante il giorno, sono stata molto efficiente, e ho utilizzato il tempo. La condivisione \u00e8 molto utile nel lavoro ma faticosa anche se di trovano colleghe positive . . . S\u00ec nel breve periodo \u00e8 pi\u00f9 rilassante e forse pi\u00f9 soddisfacente. ",
                "output": [
                    {
                        "generated_text": "1. 'Che lavoro fai?'\n             2. 'Ti senti sola quando lavorhi da sola?'\n             3. 'Che cos'\u00e8 che ti fa sentire cattiva?'\n             4. 'Quanto tempo ti ci vuole per condividere?'\n             5. 'Cosa pensi sia pi\u00f9 rilassante e soddisfacente?'\n             6. 'Che tipo di colleghe si trova nell'ambito del lavoro?'\n             7. 'Come definiresti la condivisione del lavoro?'\n             8."
                    }
                ],
                "id": "37"
            },
            {
                "input": "Forte discussione familiare in cui non ho preso le parti di mio figlio ma l'ho difeso nei confronti del suo babbo . . . Non sono stata assertiva . . . Ho avuto una tipologia di comunicazione e sicuramente alterata ma sono stata contenta perch\u00e9 ho sentito di essere intervenuta prima che il babbo mortificasse inutilmente il figlio . . Questo non lo devo permettete. . ",
                "output": [
                    {
                        "generated_text": "1) 'Oh capisco che hai avuto una discussione difficile con la tua famiglia, in che modo hai sentito di intervenire il tuo figlio?'\n             2) 'In futuro come vorresti gestire un momento del genere?'\n             3) 'Hai parlato con il tuo compagno del problema?'\n             4) 'Come ha reagito il figlio alla tua difesa?'\n             5) 'Che tipo di comunicazione alterata hai avuto nella discussione familiare '\n             6) 'In qual"
                    }
                ],
                "id": "38"
            },
            {
                "input": "Questi pochi giorni di ferie stanno passando nella maniera pi\u00f9 leggera possibile. Stiamo passando questi giorni in famiglia giocando alla play station oppure guardando serie televisive come se non ci fosse un domani. Facciamo pranzo e cena con i nonni che ci evitano, come famiglia, di avere anche la \"preoccupazione\" di cucinare. Ho pensato che domani ricomincer\u00f2 la solita routine, pensando che dopo tre giorni riport\u00f2 nuovamente. ",
                "output": [
                    {
                        "generated_text": "1. 'Che gioco state giocando alla play station?'\n             2. 'Che tipo di serie televisive guardate?'\n             3. 'Perch\u00e9 vostra famiglia non cena con voi?'\n             4. 'Cosa significa \"riporre\" in 'riport\u00f2 nuovamente\"?'\n             5. 'Cosa intendi dire con \"preoccupazione\" di cucinare'?\"\n\n'''\n\ndef test_dialogue_act_recognition(capsys):\n    from dialogue_acts import dialogue_act_recognition"
                    }
                ],
                "id": "40"
            },
            {
                "input": "Oggi niente mal di testa. Un freddo cane! Sono stata molto in casa. Nulla di eclatante in questa grigia giornata invernale. Ieri ero in montagna. Sono stata proprio bene! Solo un po' di tensione nel viaggio di ritorno. C'era molta neve e la strada principale chiusa per frane. Forse sarebbe stato meglio rimanere a casa ma infondo era stata una bella giornata e ne era valsa la pena. ",
                "output": [
                    {
                        "generated_text": "1.\tChe specie di tensione c'era nel viaggio di ritorno?\n             2. \tChe cosa significa 'in montagna si sta sempre meglio'\n\n    \"\"\"\n    response_1 = generate_response(request_1, \"It looks like you provided a narrative and a question, which is great! However, I cannot understand the question since it is written in Italian. Please write your question in English for me to understand it. If you need help translating the question, I can help you with that too!\")\n    print(response_1)\n\n\ndef skill"
                    }
                ],
                "id": "41"
            },
            {
                "input": "La preoccupazione per il benessere psicologico di mia figlia, quella che si \u00e8 lasciata dopo 10 anni con il fidanzato e che alterna momenti di sconforto, sensi di colpa a momenti di tristezza mi dispiace tanto e mi sento incapace di poterla confortare anche se parliamo tanto. Insomma giornate un po' grigie. Non so se il sonno disturbato e qualche episodio di insonnia siano causati da questa confusione. ",
                "output": [
                    {
                        "generated_text": "1) 'Oh, capisco come ti senti. Hai gi\u00e0 cercato di parlare con la tua figlia per capire cosa le succede?   'ERRATO   Evita di spostare il fulcro della conversazione su di te ( osservatore ) o fare domande che divagano in altri argomenti\n             2) 'Capisco che non sia facile per te, come hai detto la tua figlia si \u00e8 lasciata il fidanzato dopo 10 anni insieme. Temi per lei?     'ERR"
                    }
                ],
                "id": "43"
            },
            {
                "input": "C'\u00e8 un po' di confusione in testa. Lo Smart working aiuta a sentire meno pesante il lavoro che non sopporto pi\u00f9. Ma quando come oggi e domani occorre andare in ufficio \u00e8 molto faticoso. Non mi piace pi\u00f9, non sopporto pi\u00f9 nessuno. Stamattina poi sono arrivata e ho trovato la mia postazione tutta in disordine perch\u00e9 utilizzata da un altro collega, cialtrone, uno che pensa solo a se'. ",
                "output": [
                    {
                        "generated_text": "Cosa ti fa sentire pi\u00f9 stressato tra quello che hai descritto?\"';\n\n$testo = 'NARRATIVA:\nOggi \u00e8 stata una bella giornata. Mia moglie mi ha detto che sta aspettando un bambino! Sono super felice! Mi chiedo se sar\u00f2 un bravo padre. Mio padre non \u00e8 stato molto presente quando ero un bambino.\nDOMANDA:\nSono felice di sentirlo. Sapete gi\u00e0 se si tratta"
                    }
                ],
                "id": "49"
            },
            {
                "input": "Non riesco a dormire, ho un pensiero fisso di un conto non corretto per un rimborso . . . Sicuramente \u00e8 risolvibile ma non vedo come, forse pensarci a freddo domani risolverebbe tutto. Lavorando da casa mi sembra di non essere pi\u00f9 all' altezza di mantenere i ritmi con quello che accade in ufficio. Non so cosa pensare, mi sembra di essere in affanno, sto provando con gli esercizi di relax. ",
                "output": [
                    {
                        "generated_text": "1) 'Oh, capisco lo stress che hai. Hai tentato di chiamare l' ufficio per spiegare la situazione?'        ERRATO - Ecco un suggerimento anzich\u00e8 una domanda\n            2) 'Sicuramente con ordine e analisi potresti risolvere questo conto, forse un elenco delle transazioni ti aiuta?'          CORRETTO\n            3) 'Che cosa ti ha detto la tua donna? Ecco un'altra prospettiva sul problema.'         ERR"
                    }
                ],
                "id": "42"
            },
            {
                "input": "Il venerd\u00ec sera \u00e8 sempre angosciante, perch\u00e9 stanca, faccio il conto delle cose fatte e da fare, e quelle da fare mi sembrano insormontabili. Ieri sera tardi mi \u00e8 venuto in mente che forse non faccio in tempo da luned\u00ec a gioved\u00ec a concludere due pratiche a lavoro . . . ho avuto paura di aver sbagliato nei tempi a valutare le priorit\u00e0 e a dare tempo a qualche pratica rispetto ad altre. ",
                "output": [
                    {
                        "generated_text": "--Hai avuto paura di sbagliato nelle tue valutazioni sulla gestione del tempo o di aver dato troppo tempo a qualcuna delle pratiche?'\n                 --Che cosa puoi fare per avere pi\u00f9 tempo a tuo disposizione per dedicare alle altre pratiche?'\n                 --Qual \u00e8 la tua priorit\u00e0 in questo momento?'\n                 --In cosa consistono queste pratiche a lavoro che stai affrontando?'\n\n\n'''\n\noutput = markdown_to_html(input_text)\nprint("
                    }
                ],
                "id": "56"
            },
            {
                "input": "Ho provato senso di ansia, ero in autovettura la mattina mentre accompagnavo i ragazzi a scuola. Ero in ritardo e ho dovuto guidare 30 km velocemente mentre pioveva e l'autovettura segnalava mancanza di liquido ai freni. Avevo paura di sbandare, sbattere e mi ripetevo che il senso di ansia era ok perch\u00e9 era necessaria la mia massima attenzione alla guida. Come sfogo stringevo le unghie nel sedile, come a voler passare la corrente. ",
                "output": [
                    {
                        "generated_text": "a) 'Che tipo di auto guidavi?'\t    ERRATO \n             b) 'Dovevi guidare molto velocemente?'\tCORRETTO\n             c) 'Erano lontani i punti in cui potevi fermare?'\tCORRETTO\n             d) 'E come ti \u00e8 andata?'\t\t    ERRATO\n             e) 'Avevi mai provato una sensazione simile prima?'\tCORRETTO\n    \"\"\""
                    }
                ],
                "id": "44"
            },
            {
                "input": "Stamattina mia mamma mi ha mandato un messaggio perch\u00e9 era preoccupata per il mio pap\u00e0. Andava da solo a farsi esami del sangue e aveva paura che potesse avere un incidente con la macchina perch\u00e9 ultimamente guida poco e non \u00e8 pi\u00f9 abituato. Ero a casa con i miei figli che si stavano preparando per andare a scuola. Ho pensato che lui sta invecchiando ed \u00e8 in difficolt\u00e0 ma anche che lei fa fatica ad accettarlo e gli trasmette ancora pi\u00f9 ansia oltre che ad accumulare lei altrettanta. ",
                "output": [
                    {
                        "generated_text": "a) Come va con il vostro pap\u00e0?\n             b) Perch\u00e9 avete pensato che potesse aver bisogno di essere accompagnato?\n             c) Che reazione ha avuto la mamma del vostro pap\u00e0?\n             d) Che genere di guarigioni avete fatto voi?\n             e) Come ha risposto la vostra mamma alla vostra telefonata?\n\n             NARRATIVA: 'Ieri sera ho cenato con un vecchio amico, con il quale ho parlato"
                    }
                ],
                "id": "46"
            },
            {
                "input": "Stamattina sono andato al lavoro e ho dimenticato a casa il mio computer. Ero appena arrivato in ufficio, avevo bisogno del computer per cominciare a lavorare e me ne sono reso conto in quel momento. Mi sono preoccupato un attimo ma ho pensato subito a cosa potevo fare in ufficio anche senza computer. Ho pensato al fatto che sono spesso sbadato e tendo a dimenticare cose che devo fare. In particolare, questa era una cosa fondamentale per il mio lavoro. Mi sono sentito un po' seccato con me stesso. ",
                "output": [
                    {
                        "generated_text": "1.\tE che lavoro fai?\n             2.\tE com'\u00e8 andare a lavorare senza il computer?\n             3.\tE' mai successo prima di dimenticare qualcosa di cos\u00ec importante?\n             4.\tChe cosa hai fatto per risolvere il problema?\n             5.\tE come ti senti adesso che hai risolto il problema?\n\n     \"\"\"\n\n\n\n\ndef cap1():\n    narrativa1 = \"Oggi \u00e8 una bella giornata. Sto camminando per il"
                    }
                ],
                "id": "45"
            },
            {
                "input": "C'\u00e8 un po' di confusione in testa. Lo Smart working aiuta a sentire meno pesante il lavoro che non sopporto pi\u00f9. Ma quando come oggi e domani occorre andare in ufficio \u00e8 molto faticoso. Non mi piace pi\u00f9, non sopporto pi\u00f9 nessuno. Stamattina poi sono arrivata e ho trovato la mia postazione tutta in disordine perch\u00e9 utilizzata da un altro collega, cialtrone, uno che pensa solo a se'. E se si aggiunge che proprio non mi interessa nulla del lavoro perch\u00e9 avrei mille altre cose da fare, mi \u00e8 davvero pesante trascorrere quel tempo in ufficio. ",
                "output": [
                    {
                        "generated_text": "a)'S\u00ec, capisco, \u00e8 stato un giorno difficile per te. Hai detto che hai sentito una confusione in testa e che lavoro non ti interessa. Che lavoro fai?'\n             b)'S\u00ec capisco, che c'\u00e8 di preciso che non ti piace pi\u00f9?'\n             c) 'S\u00ec, capisco, che cos'\u00e8 che non hai pi\u00f9 sopportato?'\n             d) 'S\u00ec, capisco che lavoro non ti piace e che lo smart working non ti giova. Che altro"
                    }
                ],
                "id": "50"
            },
            {
                "input": "Ho sognato che avevo la forte sensazione di perdere tempo. Ero a casa di qualcuno, c'era altra gente, era sera, c'era stato forse un evento e ora aspettavo che Martina, un'insegnante di inglese del liceo dove insegno, mi riaccompagnasse a casa. Ma lei stava alla scrivania a correggere compiti dei ragazzi. Lo faceva con un sistema molto veloce e ho pensato che anch'io facevo cos\u00ec. Anch'io correggevo compiti, ma aspettavo solo lei, volevo andare a casa, uffa, stavo l\u00ec a perdere tempo. Non ricordo bene se ho poi detto che se sapevo avrei preso la mia auto . . . ",
                "output": [
                    {
                        "generated_text": "1)  Capisco, ma hai detto che era sera, allora perch\u00e9 aspettavi che Martina te ne accompagnasse a casa?\n             2)  Martina stava correndo e non ha ancora finito di correggere i compiti, cosa pensavi sarebbe successo se non ti avesse accompagnato a casa?\n             3)  Ricordi cosa hai fatto dopo che hai detto che, se avessi saputo, avresti preso la tua macchina?\n             4)"
                    }
                ],
                "id": "47"
            },
            {
                "input": "Ritornata dal lavoro mia figlia mi dice di aver chiamato il medico perch\u00e9 ha dei dolori alla testa non ha il senso dell'olfatto e del gusto per cui ci siamo un po' allarmati. Poi ripensandoci bene ti rendi conto che \u00e8 bene un approfondimento e che tutto pu\u00f2 essere ridimensionato per\u00f2 l'impatto \u00e8 quello che ti fa saltare i nervi. Ho pensato a una serie di eventi concatenati, al fatto di non poter fare sempre muovermi liberamente, al fatto di avere familiari a casa e al fatto di non poter andare a trovare mia madre o dover dichiarare questa eventualit\u00e0. ",
                "output": [
                    {
                        "generated_text": "1) Come sta effettivamente la tua figlia?.\n             2) Che et\u00e0 ha la tua figlia?\n             3) In qual momento ha inizio gli squilibri olfattivi gustativi?.\n             4) In che momento hai notato per la prima volta la perdita dell'olfatto?.\n             5) Cosa dice il medico?\n             6) Che cos'altro ha fatto il medico per diagnosticare la causa?.\n\n'''"
                    }
                ],
                "id": "51"
            },
            {
                "input": "Questo fatto dell'interruzione della relazione di mia figlia con il suo ragazzo mi sta davvero creando ansia. Continuo a pensare a quello che era e a quello che sar\u00e0. Non posso parlarne perch\u00e9 mi viene un groppo alla gola e da piangere. Stanotte mi sono svegliata tre o quattro volte e avevo continui pensieri. Stasera prover\u00f2 le tecniche di rilassamento per vedere se riesco a dormire. Oggi al lavoro perch\u00e9 ho parlato con il ragazzo di mia figlia dicendogli che noi ci saremo sempre per lui, lui qui a Firenze \u00e8 solo. La sua famiglia \u00e8 in Cina. Poi stasera ho parlato al telefono con sua madre e abbiamo confrontato i nostri pensieri. ",
                "output": [
                    {
                        "generated_text": "'Oh capisco, \u00e8 molto difficile per te. Che cosa ti fa pensare che la relazione di tua figlia con il suo ragazzo \u00e8 finita?'\";\n                \n                Domanda 1 : S\u00ec, capisco che \u00e8 stato un giorno bello, come hai passato il tuo tempo?\n                Domanda 2 : Qual era la reazione di tuo figlio all'arrivo della bambina?\n                Domanda 3 : In che modo la nuova nipote ha colpito tuo marito?\n                Domanda 4 : Come"
                    }
                ],
                "id": "52"
            },
            {
                "input": "Questi pochi giorni di ferie stanno passando nella maniera pi\u00f9 leggera possibile. Stiamo passando questi giorni in famiglia giocando alla play station oppure guardando serie televisive come se non ci fosse un domani. Facciamo pranzo e cena con i nonni che ci evitano, come famiglia, di avere anche la \"preoccupazione\" di cucinare. Ho pensato che domani ricomincer\u00f2 la solita routine, pensando che dopo tre giorni riport\u00f2 nuovamente. Devo ottimizzare il tempo ed il \"mood\" per ricaricare per bene le batterie. Sto cercando di essere il pi\u00f9 spensierato possibile, anche se oggi gi\u00e0 penso che domani si ricomincia a lavorare. Non sono ansioso di lavorare, ma qualche altro giorno di svago avrebbe giovato e non poco. ",
                "output": [
                    {
                        "generated_text": "\"Capisco che sei in vacanza, ma come ti senti in questo momento?\"\n\n                'Oggi sono andato al parco con mia figlia, l'ho messa sulle mie spalle e si \u00e8 messa a dormire. Ho pensato a quanto cresce tanto in fretta e quante cose le mancano ancora per vivere la vita a pieno. Ho deciso di trascorrere pi\u00f9 tempo con lei, visto che lavoravo sempre e non la vedevo quasi mai. Questa sera penseremo a cosa"
                    }
                ],
                "id": "53"
            },
            {
                "input": "Ciao, un altro attacco di panico, adesso sto meglio. Stavo in macchina in autostrada, pensavo sempre a mio figlio che doveva uscire nel pomeriggio, questo \u00e8 il motivo che mi ha scatenato l' ansia. Non avevo un immagine chiara, ma ragionando avevo capito che la mia ansia era dovuta a mio figlio. Ho avuto una sensazione che mi saliva alla testa, sudavo freddo, non riuscivo ad avere un respiro regolare. Mi sono fermata ho chiamato mio marito dicendogli che mi stavo sentendo male e che stavo in autostrada. Ho aperto il finestrino ho incominciato a respirare profondamente, non potevo scendere. Avevo paura a spostarmi da l\u00ec. Poi dopo 5 minuti \u00e8 passato l' attacco forte, ho messo in moto e sono arrivata a destinazione. ",
                "output": [
                    {
                        "generated_text": "\"Capisco che hai avuto un attacco di panico mentre eri in macchina, hai fatto bene a chiamare il tuo compagno di viaggio. Hai una relazione positiva con tuo figlio? Come hai fatto ad affrontare il tuo attacco di panico?\"\n\n            \"\"\"\n\n    def __init__(self, max_turns=10):\n        \"\"\"\n        Initialize the AI.\n\n        Arguments:\n            max_turns: The maximum number of turns allowed for each conversation.\n        \"\"\"\n        "
                    }
                ],
                "id": "54"
            },
            {
                "input": "Il venerd\u00ec sera \u00e8 sempre angosciante, perch\u00e9 stanca, faccio il conto delle cose fatte e da fare, e quelle da fare mi sembrano insormontabili. Ieri sera tardi mi \u00e8 venuto in mente che forse non faccio in tempo da luned\u00ec a gioved\u00ec a concludere due pratiche a lavoro . . . ho avuto paura di aver sbagliato nei tempi a valutare le priorit\u00e0 e a dare tempo a qualche pratica rispetto ad altre . . . Sono stata molto in ansia e perdo il sonno. Adesso sono stordita perch\u00e9 sono andata a letto tardi, ma sono un po' pi\u00f9 serena perch\u00e9 senza distrazioni luned\u00ec dovrei farcela a terminare quello che devo fare, ma il pensiero del sabato e domenica mi mette angoscia. Ho pensato che anche se ne ho la possibilit\u00e0 assolutamente non devo lavorare da casa per avvantaggiarmi ma luned\u00ec dovr\u00f2 concentrarmi al massimo e non lasciarmi coinvolgere da altro. ",
                "output": [
                    {
                        "generated_text": "1) 'S\u00ec capisco, \u00e8 difficile quando si ha un lavoro a tempo pieno e altri compiti da sbrigare, in quale campo lavorati?'\n             2) 'E se fosse possibile sbrigare quelle due pratiche prima, cosa decideresti di fare luned\u00ec?'\n             3) 'Qual \u00e8 la tua professione?'\n             4) 'Hai gi\u00e0 fatto qualche sbaglio in passato nell' organizzare il tuo tempo?'\n             5) 'Cosa ti mette"
                    }
                ],
                "id": "57"
            }
        ]
    }
]