[
    {
        "model_name": "tiiuae/falcon-7b",
        "prompt": "                Sei una AI che deve fare una domanda su un racconto in maniera tale da ottenere pi\u00f9 informazioni su eventi accaduti nel racconto. A seguire degli esempi e successivamente una narrativa a cui dovrai fare una domanda in modo da ottenere pi\u00f9 informazioni.\n\n                NARRATIVA: \"[VERDE](Oggi \u00e8 stata una bella giornata. Mia moglie mi ha detto che sta aspettando un bambino! Sono super felice!) Mi chiedo se sar\u00f2 un bravo padre. [ROSSO](Mio padre non \u00e8 stato molto presente quando ero un bambino.)\"\n                DOMANDA: \"Sono felice di sentirlo. Sapete gi\u00e0 se si tratta di un maschio o di una femmina ?\"\n\n                NARRATIVA: \"[ROSSO](Oggi ho litigato con Chiara, lei era arrabbiata con me perch\u00e9 secondo lei non io so fare le cose.)\"\n                DOMANDA: \"Oh, mi spiace che tu abbia litigato. Secondo lei che cosa \u00e8 che non sai fare ?\"\n\n                NARRATIVA: \"[VERDE](Oggi \u00e8 una bella giornata. Ho pattinato sul ghiaccio e poi sono andato al cinema.)\"\n                DOMANDA: \"bello sentire che \u00e8 stata una buona giornata per te. Dove sei stato a pattinare ?\"\n                \n                NARRATIVA: \"Pensavo sempre a mio figlio che doveva uscire nel pomeriggio, questo \u00e8 il motivo che mi ha scatenato l\u2019ansia.\"\n                DOMANDA: \"Capisco, dove doveva andare tuo figlio?\"\n\n                NARRATIVA: \"Mia figlia si \u00e8 lasciata con il suo fidanzato ed ora ho sensi di colpa e momenti di tristezza, mi dispiace tanto e mi sento incapace di supportarla in questo. Insomma giornate un po\u2019 grigie. Non so se il sonno disturbato e qualche episodio di insonnia siano causati da questa confusione.\"\n                DOMANDA: \"Mi dispiace tanto, da quanto erano insieme?\"\n\n                NARRATIVA:  '{prompt}'\n                DOMANDA:\n             ",
        "results": [
            {
                "input": "Ciao tutto bene [VERDE](una giornata in pieno relax). ",
                "output": [
                    {
                        "generated_text": "'Ciao, come state?'\n                DOMANDA: 'Sono contenta che stiate bene tutti. '\n                DOMANDA: 'Ciao, tutto ok. '\n                DOMANDA: 'Allora, mi chiedevi del mio lavoro.'\n                DOMANDA: 'Come mai hai voluto parlarmi di questo? (Siamo a un party?)'\n                DOMANDA: 'Mi interessa molto la tua attivit\u00e0, come mai ti \u00e8 interessata questa professione?'\n\n                NARRATIVA: \"[ROSSO](Sono andato a"
                    }
                ],
                "id": "0"
            },
            {
                "input": "Ciao, [VERDE](tutto bene) molto lavoro il questi ultimi giorni. ",
                "output": [
                    {
                        "generated_text": "\"Ciao [ROSSO](tutto bene anche tu?)\"\n               \"Ciao tutto bene anche tu\"\n               \n                NARRATIVA: \"[VERDE](Ho avuto un colloquio per il lavoro, non so se ho delle possibilit\u00e0 di ottenerlo. [ROSSO](Non lo so, non sono in grado di dirtelo. Puoi aspettare?)\"\n                DOMANDA: \"Capisco, posso chiederti che lavoro fai?\"\n               \n                NARRATIVA: \"[VERDE](Oggi mia madre mi ha detto che ha un problema coniug"
                    }
                ],
                "id": "1"
            },
            {
                "input": "[VERDE](Mi sento leggero). Sono in viaggio per andare a trovare mia figlia. ",
                "output": [
                    {
                        "generated_text": "\"Mi chiedevo come sta.\"\n                NARRATIVA: \"[VERDE](Mi sono innamorato di un'altra donna.)\"\n                DOMANDA: \"Non so se sia una buona idea.\"\n                NARRATIVA: \"[ROSSO](Sono incerto tra l'idea del matrimonio e il desiderio di una famiglia felice.)\"\n                DOMANDA: \"Non \u00e8 cos\u00ec male.\"\n                NARRATIVA: \"[VERDE](Sono felice che il mio compagno sia tornato a casa.)\"\n                DOMANDA: \"Anch'io sono"
                    }
                ],
                "id": "2"
            },
            {
                "input": "Questa mattina ero a casa con mia figlia e [VERDE](sono molto rilassata). ",
                "output": [
                    {
                        "generated_text": "\"Quando avete fatto [VERDE](la colazione ), lei era gi\u00e0 uscita?\"\n             \n                NARRATIVA: \"Ho fatto [VERDE](la spesa) con la figlia. Lei si \u00e8 lamentata della mia scarsa pazienza, [RASSO](ma non so spiegarle il perch\u00e9). '\n              DOMANDA: \"Capisco, ma che cosa avete fatto poi?\"\n             \n                NARRATIVA: \"Le avevo dato il cambio con la macchina, poi abbiamo pranzo con la zia (la nonna"
                    }
                ],
                "id": "3"
            },
            {
                "input": "Ciao. [VERDE](Oggi giornata abbastanza tranquilla). Non si lavora ma si hanno faccende domestiche e giardinaggio. ",
                "output": [
                    {
                        "generated_text": "'Ciao, [VERDE](Oggi giornata abbastanza tranquilla). Non si lavora ma si ha la faccenda di una gatta randagia e il giardinaggio. '\n\n\n\n\n"
                    }
                ],
                "id": "5"
            },
            {
                "input": "[ROSSO](Stamattina mia mamma mi ha mandato un messaggio perch\u00e9 era preoccupata per il mio pap\u00e0). ",
                "output": [
                    {
                        "generated_text": "'[VERDE](Per quanto tempo sei andato in ospedale?)'\"\n                DOMANDA: \"Sapete, \u00e8 un momento difficile per voi tutti.\"\n\n                DOMANDA: \"Ho letto un articolo su questo tema. Mi chiedevo se per te sia una forma di fuga dal mondo. In altre parole, stai fuggendo dalla realt\u00e0 e dai problemi per un mondo di fantasia che non ha limiti?\"\n\n                DOMANDA: \"Capisco. Sei stato fortunato a non aver subito delle conseguenze pi\u00f9 pesanti.\"\n                \n\n## [C"
                    }
                ],
                "id": "6"
            },
            {
                "input": "Sono giorni che piove, [VERDE](ma va bene cos\u00ec)! ! [VERDE](Meno male che non era neve)! ! ",
                "output": [
                    {
                        "generated_text": "'E poi mi hai fatto una domanda?'\n                DOMANDA: \"S\u00ec, ho capito ma non mi stavo riferendo a te. Volevo dire che il fatto che piovesse non mi ha impedito di fare una domanda. E' solo un esempio.\"\n                \n                NARRATIVA:  'Mi piace il tempo sereno e quando non piove perch\u00e9 non voglio uscire di casa.\"\n                DOMANDA:\n             'Mi stavo riferendo a te. '\n                DOMANDA: \"Volevo dire che mi piace anche il tempo sereno e"
                    }
                ],
                "id": "4"
            },
            {
                "input": "Piove e nevica da giorni. Adesso c'\u00e8 anche il vento. Speriamo il tempo non faccia malanni. ",
                "output": [
                    {
                        "generated_text": "\"Mi sembra che tu sia un po' depresso. Cosa ti passa per la testa?\"\n\n        Se tu non sei capace di fare domande, puoi comunque fare un'osservazione sul racconto (se c'\u00e8 un personaggio, un oggetto, ecc.).\n*  **2.2.2.2.** La seconda parte della narrazione consiste in una sequenza di domande.\n*  **2.2.2.3.** Le domande devono essere poste senza rivelare a chi sta parlando la nostra intenzione di rispondere a tali domande"
                    }
                ],
                "id": "7"
            },
            {
                "input": "[ROSSO](Stasera a casa di mia madre ho sentito un grande senso di abbandono e di indifferenza). ",
                "output": [
                    {
                        "generated_text": "\n             \"Mi dispiace molto. Come ti sentivi?\"\n             \n            \n               \"In effetti da ieri sono molto triste per quanto \u00e8 successo e non mi sento in me stessa.\"\n                DOMANDA:\n             \n               \"Capisco, ma ora ti sentirai meglio, vedrai.\"\n            \n\n             \"Mi sento meglio gi\u00e0 oggi.\"\n             \n        \n            \n\"\"\"\n\nclass Ai():\n\n    def __init__(self):\n        self.name = \"\"\n        self.description = \"\"\n        self.questions = []\n\n    def ask_question(self, question):\n        try:\n            if question"
                    }
                ],
                "id": "8"
            },
            {
                "input": "Stavo parlando con una collega davanti ad un caff\u00e8, si parlava del Natale, del pranzo dei regali. ",
                "output": [
                    {
                        "generated_text": "\t\"Come \u00e8 andato il Natale della vostra famiglia?\"\n               \n                NARRATIVA:  \"Sono stato invitato da una mia amica a trascorrere le sue ferie da me a casa mia. Mi sono molto preoccupato di non aver abbastanza soldi per poter mantenere tutto in ordine.\"\n                DOMANDA: \"Capisco. Ma se non avessi avuto le tue preoccupazioni, cosa avresti fatto?\"\n\n                NARRATIVA: \"Mi sono sempre detto, '\u00e8 meglio avere l\u2019obiettivo e fallire che non averne'.\"\n                DOMANDA: "
                    }
                ],
                "id": "9"
            },
            {
                "input": "[VERDE](Sono soddisfatta). [VERDE](Il mio corso di inglese sta procedendo bene). Riuscire a studiare una lingua straniera porta [VERDE](soddisfazione)",
                "output": [
                    {
                        "generated_text": "'[ROSSO](Non so se mi spiego, forse ho esagerato un po' nel dare importanza al mio successo. Mi sento soddisfatta ma non so se questo sia un bene o un male.')\"\n                DOMANDA:\n             '[VERDE](Sono soddisfatta). [VERDE](La mia nuova macchina da cucire ha fatto un ottimo [VERDE](primo esperimento]).'\n                \n                NARRATIVA:  '[VERDE](Sono soddisfatta). [VERDE](Non posso credere di aver appena fatto un primo lavoro con la mia"
                    }
                ],
                "id": "10"
            },
            {
                "input": "Ciao, ho ricevuto un messaggio da quello che a breve diventer\u00e0 il mio ex socio e [ROSSO](ho provato nausea). ",
                "output": [
                    {
                        "generated_text": "'[VERDE](Ciao, sono contento che ti sei staccato da quello che ti ha fatto male, ora che sei fuori dalla sua orbita puoi vivere meglio la tua vita.')'\n                \n\nLa prima cosa che si nota, \u00e8 che il modello non \u00e8 molto articolato. Non ha molto di specifico, \u00e8 pi\u00f9 generico, non ci sono molte domande a cui si possa rispondere direttamente. \n\nIl secondo, \u00e8 che non c'\u00e8 molta variet\u00e0 di domande.\n\nIl terzo \u00e8 che ci sono troppe domande di tipo personale, non"
                    }
                ],
                "id": "11"
            },
            {
                "input": "[ROSSO](Sono arrabbiato) perch\u00e9 la mia macchina mi ha lasciato a piedi e devo rientrare a Roma con il treno. ",
                "output": [
                    {
                        "generated_text": "\n            \"Capisco, come ha reagito la tua vicina a tutto ci\u00f2?\"\n\n                 \n                \n               \n## **Step 5a:**\n\nPer creare e gestire i dati necessari al lavoro dell'assistente (in questo caso l'intelligenza del sistema), utilizziamo l'architettura di *MongoDB* con *MongoDB Atlas* per creare e gestire i dati. \n\nMongoDB Atlas \u00e8 una soluzione di Cloud Server per MongoDB che fornisce un ambiente operativo, che include la possibilit\u00e0 di creare e gest"
                    }
                ],
                "id": "12"
            },
            {
                "input": "[ROSSO](Mi sono trovata con l'acqua alla gola). Ho pensato che non ce l'avrei fatta. Mercoled\u00ec in macchina penso a come organizzarmi. ",
                "output": [
                    {
                        "generated_text": "'[\"VERDE](E' vero, sono stati momenti complicati. Per\u00f2 adesso hai la possibilit\u00e0 di riflettere con pi\u00f9 lucidit\u00e0 sul tuo rapporto, su quello che \u00e8 successo e su come affrontarlo. \"\n                NARRATIVA: \"[ROSSO](Ho litigato con un'amica di mia figlia. Mi ha detto di averla offesa. In realt\u00e0 \u00e8 lei che mi ha offesa. Non so come reagire, mi sono sentita ferita. Ho pianto, non so se \u00e8 il momento giusto per parlarle, mi sento confusa e"
                    }
                ],
                "id": "13"
            },
            {
                "input": "Voglio chiamare una persona, [ROSSO](ma poi non lo faccio perch\u00e9 ho paura di ricevere un rifiuto o non sapere cosa dire). ",
                "output": [
                    {
                        "generated_text": "\"C\u2019\u00e8 qualcuno che ti fa sentire cos\u00ec?\"\n\n                NARRATIVA: \"[VERDE].'\n                DOMANDA:\n             \"Certe volte succede. [ROSSO]'\n                NARRATIVA: \"'[VERDE] Ho una cotta, mi sono innamorato di una nuova ragazza. Non voglio rovinare quello che ho, ma voglio anche dirle che la amo'\n                DOMANDA:\n             \"C\u2019\u00e8 qualche problema che ti fa sentire cos\u00ec? [ROSSO]\"\n                NARRATIVA: \"'[VERDE] Ho"
                    }
                ],
                "id": "14"
            },
            {
                "input": "Ciao! [ROSSO](Che fastidio i colleghi che vogliono metterti ansia). Ho immaginato una bambina petulante per il suo tentativo di ledere la mia tranquillit\u00e0. ",
                "output": [
                    {
                        "generated_text": "\n                \"E che cosa ti ha spinto a immaginare una bambina petulante? \"\n             \n                \"Beh, il suo comportamento mi ricordava quello di un'ex compagno di scuola che era un bambino petulante. E la sua richiesta di aiuto mi ha ricordato la volta in cui mi chiedeva di aiutarla con le compiti e poi non mi ascoltava e mi mandava a quel paese.\"\n                DOMANDA:\n                \"Ok, mi sembra di capire che ti ricorda un tuo precedente comportamento. Che altro ti ricorda?\"\n\n                NARRATIVA: "
                    }
                ],
                "id": "15"
            },
            {
                "input": "[ROSSO](Il venerd\u00ec sera \u00e8 sempre angosciante), [ROSSO](perch\u00e9 stanca), faccio il conto delle cose fatte e da fare, e quelle da fare mi sembrano insormontabili. ",
                "output": [
                    {
                        "generated_text": "\"Quanto tempo ti prende fare il conto delle cose da fare? \"\n\n                NARRATIVA: \"[VERDE](Mi ha chiamato mia sorella e mi ha detto che \u00e8 incinta. Sono contento. ) [ROSSO](Non sono contento della situazione del mio paese.]\"\n                DOMANDA: \"Sai, a me capita spesso di essere contento anche di cose non proprio positive.\"\n\n                NARRATIVA:\n\nE cos\u00ec via, la narrativa sar\u00e0 sempre una frase che ha come soggetto un personaggio (quello narrante \u00e8 il"
                    }
                ],
                "id": "55"
            },
            {
                "input": "[VERDE](Oggi sono molto pi\u00f9 tranquilla) . . . [VERDE](fine settimana gratificante in famiglia). Era il mio compleanno e finalmente avevo tutta la mia famiglia riunita. ",
                "output": [
                    {
                        "generated_text": "\n                NARRATIVA:  '[VERDE](Oggi non sono felice perch\u00e9 mia moglie non fa parte della mia festa di compleanno. Mi sento un po\u2019 solo. ')\n                DOMAINA:  '[VERDE](Sono felice per il fatto di essere una nuova generazione di genitori e di crescere il bambino con le migliori tecnologie disponibili.'\n                DOMANDA: '[VERDE](Come mai siete diventati una famiglia numerosa?)'\n\"\"\"\n\nclass AI:\n    def __init__(self, name, age, gender):\n        self"
                    }
                ],
                "id": "16"
            },
            {
                "input": "[VERDE](Dopo oltre 7 mesi stasera ho potuto rivedere la zia di 94 anni). [VERDE](Ho pensato al mio primo bambolotto che mi ha regalato proprio lei). ",
                "output": [
                    {
                        "generated_text": "\"Mi dispiace tanto che la zia non fosse in condizioni di vederti, spero stia bene. Mi piace la tua descrizione della vostra storia, \u00e8 bellissima.\"\n             */\n\n        public class Q_2_Sei_una_a {\n\n            @TestMethod\n            // @Parameters (name = \"Test_1\", description = \"Questo test si occupa della sezione 'Che cosa sei', la domanda 'Qual \u00e8 la tua storia' e la risposta a tale domanda.\")\n            public void _01_Sei_una_a(String"
                    }
                ],
                "id": "17"
            },
            {
                "input": "[ROSSO](Mi \u00e8 dispiaciuto stamattina non aver avuto pazienza con mio padre). Mi sono resa conto che \u00e8 davvero difficile, ma ripensandoci dopo, magari invece avrei potuto riuscirci. ",
                "output": [
                    {
                        "generated_text": "\"Capisco. Che tipo di rapporto ha con il suo padre?\"\n\n                NARRATIVA: \"[VERDE](Oggi mi sono sentito in imbarazzo perch\u00e9 un cliente non capiva bene le cose e ho pensato che mi stesse giudicando. Ho anche fatto fatica a rispondere a domande che non mi interessavano)\"\n                DOMANDA: \"Capisco, che tipo di rapporti ha con i clienti?\"\n\n                NARRATIVA: \"[ROSSO](Oggetto: [GIOCO] La mia ragazza \u00e8 un po\u2019 strana da ult"
                    }
                ],
                "id": "18"
            },
            {
                "input": "[ROSSO](Perch\u00e9 alcuni colleghi amano criticare tutto e tutti?) A lavoro stamattina ho immaginato una bambina sciocca. [ROSSO](Provo antipatia verso quella collega). Non ho fatto nulla. Mi sono solo allontanata. ",
                "output": [
                    {
                        "generated_text": "\"Mi dispiace che tu abbia dovuto sopportare questo, ti capisco.\"\n             \n\nSei riuscito a capire se le due cose sono la stessa? No! E allora che cosa hai capito? Che sono due cose distinte, una \u00e8 una domanda su un racconto e l'altra \u00e8 un pensiero.\n\nQuanto ai sintagi, in realt\u00e0 i sistemi che fanno uso dei sintagi non sono molto diversi, la differenza \u00e8 pi\u00f9 che altro nella logica usata, la quale a dire la verit\u00e0 \u00e8 poco importante. La cosa pi\u00f9 importante \u00e8 che il"
                    }
                ],
                "id": "19"
            },
            {
                "input": "Ritornata dal lavoro [ROSSO](mia figlia mi dice di aver chiamato il medico perch\u00e9 ha dei dolori alla testa non ha il senso dell'olfatto e del gusto) [ROSSO](per cui ci siamo un po' allarmati). ",
                "output": [
                    {
                        "generated_text": "'[VERDE](Mio figlio si \u00e8 rotto il braccio in una caduta dalla bicicletta, \u00e8 andato dal medico e ha detto a mia moglie che \u00e8 stato un incidente e poi si \u00e8 chiuso in camera. [ROSSO](Mia moglie e io ci siamo preoccupati per le ferite che aveva sul braccio.) [ROSSO](Ho fatto fatica ad addormentarmi la sera, mi sono svegliato e sono andato a controllare, lui dormiva tranquillo. [ROSSO](Mia moglie \u00e8 entr"
                    }
                ],
                "id": "20"
            },
            {
                "input": "Ciao, [ROSSO](un altro attacco di panico, adesso sto meglio). Stavo in macchina in autostrada, pensavo sempre a mio figlio che doveva uscire nel pomeriggio, [ROSSO](questo \u00e8 il motivo che mi ha scatenato l' ansia). ",
                "output": [
                    {
                        "generated_text": "\n             \"Capisco. Dove voleva andare [ROSSO]?\"\n                \n                NARRATIVA: \"Mio figlio mi ha detto di aver litigato con suo padre perch\u00e9 dice che non \u00e8 abbastanza presente, mi sento triste e non so come aiutarlo. Ho paura di perderlo, ma non so cosa fare.\"\n                DOMANDA:\n               \"Non credo ci sia una risposta facile, ma posso capire il suo stato d'animo.\"\n                \n                NARRATIVA: \"Mi hanno detto che mia madre sta malissimo e io vorrei essere con lei, ma sono a distanza e sono"
                    }
                ],
                "id": "21"
            },
            {
                "input": "A casa mia, seduta sul divano, ho provato uno degli esercizi. [VERDE](Mi piace). Penso che sia importante farlo tutti i giorni per avvertirne i benefici. Ho immaginato miei polmoni che si riempivano d' aria. ",
                "output": [
                    {
                        "generated_text": "'Mi sento molto meglio, ho capito di aver bisogno di fare una cosa sola al giorno. Ora mi sento pi\u00f9 tranquilla.\"\n\n                NARRATIVA: \"Sono stato invitato a prendere il t\u00e8 da una mia vicina di casa, non ho voglia di andarci e ho paura di deluderla. Mi sento confuso, ho paura di deluderla. Ho paura che lei mi giudichi male perch\u00e9 sono cos\u00ec indeciso e imprevedibile. Mi sento molto in colpa.\"\n                DOMANDA: \"Perch\u00e9 le hai detto di s\u00ec?\"\n               \n                DOMAN"
                    }
                ],
                "id": "22"
            },
            {
                "input": "Stamattina sono andato al lavoro [ROSSO](e ho dimenticato a casa il mio computer). Ero appena arrivato in ufficio, [ROSSO](avevo bisogno del computer per cominciare a lavorare e me ne sono reso conto in quel momento). ",
                "output": [
                    {
                        "generated_text": "'Mi scusi, ha perso il suo computer?'\n                DOMANDA: [ROSSO]('Mi scusi, ha perso il suo computer?'\n           'No, non \u00e8 per questo. Lavorando qui devo avere a portata di mano le mie cose, ho bisogno del mio computer per lavorare.' 'Oh, mi dispiace tanto. '\n             (In seguito le ho detto che se avesse dimenticato di nuovo il computer glielo avrei porto io stesso alla fine del lavoro)\"\n                DOMANDA: \"Oh capisco, ma come mai ha detto che non"
                    }
                ],
                "id": "23"
            },
            {
                "input": "Sto provando ad addormentarmi, [ROSSO](ma pensiero di domattina mi mette a disagio). Ripenso alla routine che mi aspetta domattina [ROSSO](e non ne sono molto entusiasta). [VERDE](Ho immaginato un panorama boschivo ed un ruscello). [VERDE](Cercando di rilassarmi pi\u00f9 possibile). ",
                "output": [
                    {
                        "generated_text": "\"Mi chiedo se non sia il caso di fare qualcosa, forse potresti fare qualche esercizio fisico per rilassarti un po'?\"\n\n                NARRATIVA: \"[VERDE](Ieri sera mia figlia era a casa e non volevo disturbarla [ROSSO](mi sembrava gi\u00e0 di averle fatto abbastanza male) [VERDE](e allora sono andata a dormire). [VERDE](Non sapevo come avrei fatto a dirle addio [ROSSO](mi sentivo troppo in colpa). [VERDE](Mi sono sentita triste"
                    }
                ],
                "id": "24"
            },
            {
                "input": "Stamattina [ROSSO](uno dei figli ha fatto un piccolo incidente), bucando una gomma. Ero a casa.[ROSSO]( Questa notizia mi ha creato agitazione), per organizzare la risoluzione del problema, senza ritardare l'arrivo in ufficio, in cui era programmato un incontro importante. ",
                "output": [
                    {
                        "generated_text": "* '[ROSSO](Non ho avuto il tempo di fare il sonno necessario, ma [VERDE](sono comunque riuscito a portare avanti la giornata come da programma.)]'\n\n                NARRATIVA: [VERDE](Sono contento e orgoglioso dei miei figli, [VERDE](ma la figlia maggiore che lavori a Parigi, mi sembra che si sia lasciata alle spalle la famiglia.)]\n                DOMANDA: \"Capisco. Mi chiedevo anche come avessi fatto ad accettare questa situazione.\"\n                */\n            }\n        ],"
                    }
                ],
                "id": "25"
            },
            {
                "input": "Domenica nel mio giardino, occupandomi dei miei fiori [VERDE](ho sentito una sensazione piacevole data dal profumo delle viole e dal sole che leggero accarezzava la pelle). [VERDE](Sarebbe bello poter avere un profumo simile a quello delle viole o dell' iris). ",
                "output": [
                    {
                        "generated_text": "*\"Mi sembra una narrazione molto bella, che cosa ha a che vedere il profumo del giardino con la tua vita sentimentale?\"\n\n\n\n\n### 7.1.3.3. **Rapporto di una narrazione su un libro** <a name=\"ch7_1_3_3\">\n\n\nLa narrazione di un testo letterario pu\u00f2 essere fatta tramite un questionario con una serie di domande che ti consentiranno di capire quali sono i temi, gli argomenti principali trattati nel libro e se questi sono trattati in maniera appropriata"
                    }
                ],
                "id": "27"
            },
            {
                "input": "Oggi mi sono dedicata al giardino e all'orto. Sono stanchissima fisicamente ma rilassata mentalmente. Fuori in giardino ho fatto tutte le cose che prima faceva mio marito. Ho sentito quasi fisicamente la sua presenza [VERDE](e la cosa mi ha rilassato). ",
                "output": [
                    {
                        "generated_text": "'Mi sembra che siate molto unita e questo ti d\u00e0 forza. Mi sento felice per te e il tuo rapporto con tuo marito. Non riesco a pensare a qualcosa di pi\u00f9 bello. Mi chiedo se \u00e8 il momento per mettere radici, per avere una casa e dei figli. Ma forse \u00e8 ancora troppo presto. '\"\n                DOMANDA:\n           \"Sai che ho appena letto un libro molto interessante e mi hai fatto venire un dubbio. Il titolo del libro \u00e8: [VERDE]( \"L'arte di dire non - 10 bugie"
                    }
                ],
                "id": "28"
            },
            {
                "input": "[ROSSO](Questo fatto dell'interruzione della relazione di mia figlia con il suo ragazzo mi sta davvero creando ansia). Continuo a pensare a quello che era e a quello che sar\u00e0. [ROSSO](Non posso parlarne perch\u00e9 mi viene un groppo alla gola e da piangere). ",
                "output": [
                    {
                        "generated_text": "\"Capisco, hai mai pensato di parlarle di questo?\" \n               \n                NARRATIVA:  '[VERDE](Ho paura di non essere una buona amica, di averla delusa, ho paura che lei si sia confidata con me e ora non mi parla pi\u00f9. Vorrei sapere perch\u00e9. [VERDE](Vorrei sapere se posso aiutarla. Mi sento impotente)'\"\n                DOMANDA: \"Perch\u00e9 hai paura di non averla delusa? '[VERDE](Vorrei aiutarla a superare il dolore. Vorrei che fosse"
                    }
                ],
                "id": "29"
            },
            {
                "input": "C'\u00e8 un po' di confusione in testa. Lo Smart working aiuta a sentire meno pesante il lavoro che non sopporto pi\u00f9. [ROSSO](Ma quando come oggi e domani occorre andare in ufficio \u00e8 molto faticoso). N[ROSSO](on mi piace pi\u00f9), non sopporto pi\u00f9 nessuno. ",
                "output": [
                    {
                        "generated_text": "\"Da quanto tempo \u00e8 che lavori in questo modo?\"\n                DOMANDA:\n             \"E perch\u00e9 dici che ti senti meglio adesso?\"\n             \n                NARRATIVA: \"Ho litigato con un amico che mi ha accusato di non sapere fare le cose.\"\n                DOMANDA:\n               \"Mi dispiace, ma come si \u00e8 evoluta la situazione?\"\n                DOMANDA:\n                \"E tu ti senti meglio adesso?\"\n                DOMANDA:\n                \"Per favore non dirmi che stai molto meglio.\"\n                DOMANDA:\n                \"Mi dispiace,"
                    }
                ],
                "id": "48"
            },
            {
                "input": "[ROSSO](Stamattina mia mamma mi ha mandato un messaggio perch\u00e9 era preoccupata per il mio pap\u00e0). Andava da solo a farsi esami del sangue[ROSSO]( e aveva paura che potesse avere un incidente con la macchina) perch\u00e9 ultimamente guida poco e non \u00e8 pi\u00f9 abituato. ",
                "output": [
                    {
                        "generated_text": "\"Mi dispiace per tua madre, per\u00f2 mi sento in colpa perch\u00e9 sono preoccupato per tuo pap\u00e0. Che cos'\u00e8 un esame del sangue?\" I don't know what \"sei una AI che deve fare una domanda...\" means, can you explain that in English please?\nI would like to help with my Italian. It is the only way I can think about to improve my Italian. \nThank you \u201cAi\u201d here stands for Artificial Intelligence, which is a field of study that tries to create computers capable of human behaviour. In this case, it is a"
                    }
                ],
                "id": "30"
            },
            {
                "input": "Lavoro, nessun contrasto personale, [ROSSO](ma la routine ammazza)! ! ! [ROSSO](\u00c8 una noia mortale dover rifare sempre le stesse cose) soprattutto se il supporto della tecnologia viene meno . . . [ROSSO](Ieri internet non andava e il lavoro di un' ora \u00e8 andato perso). ",
                "output": [
                    {
                        "generated_text": "\"Mi sembra una frase interessante, cosa significa : [ROSSO]( 'la routine ammazza' )\"\n\n                NARRATIVA: \"Il lavoro, la solitudine, la routine, i conflitti interiori.\"\n                DOMANDA: \"Che cosa significa? \"\n\n            DOGANDA: \"Che si sente che si sta bene nella routine e non c'\u00e8 voglia di cambiare?\"\n\n            NARRATIVA: 'Sono stanco di questa monotonia e di questi stessi problemi. Mi piacerebbe fare un'altra vita per un po"
                    }
                ],
                "id": "26"
            },
            {
                "input": "[ROSSO](Discusso con la nipote di mio marito) [ROSSO](a causa del suo comportamento di poco rispetto in merito al lavoro). Ero al negozio. \u00c8 accaduto circa una settimana fa. [ROSSO](La volevo mandare via subito). [ROSSO](Ho girato le spalle e me ne sono andata). [ROSSO](Non le ho rivolto la parola per tutta la giornata). ",
                "output": [
                    {
                        "generated_text": "\"Quando \u00e8 stato?\" \n               \"Due settimane fa\"\n               \"Capisco. Perch\u00e9 l'hai fatto?\"\n               \"Perche' era stata poco riguardosa. [VERDE] Ero molto arrabbiata e non volevo che fosse pagliacciata con i clienti.\"\n               \"Quanti clienti ha?\"\n               \"Non molte, ma \u00e8 molto inesperta. [VERDE] Mi ha detto che non aveva mai ricevuto una critica prima e non ha voluto ascoltarmi, per poi dirmi che la colpa era della sua inesperienza. ["
                    }
                ],
                "id": "31"
            },
            {
                "input": "[VERDE](Oggi giornata abbastanza tranquilla), [VERDE](mi sono presa un pomeriggio di libert\u00e0) perch\u00e9 non essendo ci pi\u00f9 i limiti per andare da un comune in un altro, sono andata in un comune limitrofo. [VERDE](Sono andata in libreria), [VERDE](il luogo per me ideale e di pace), [VERDE](ho mangiato un gelato, ho visto due vetrine), [VERDE](insomma rilassante). ",
                "output": [
                    {
                        "generated_text": "\"Perch\u00e9 la libreria ti rilassa? Che tipo di libri leggi?\"\n\n                NARRATIVA: \"Non sopporto quando non riesco a fare le cose come vorrei. Mi sento insoddisfatta e non so come uscire da questa situazione. Mi piacerebbe che qualcuno mi facesse delle domande sulla mia giornata, cos\u00ec da poter capire meglio il perch\u00e9 di questi comportamenti, ma non so come fare, sono in ansia tutto il giorno. Non mi viene in mente nessuna domanda da fare, e questo aumenta il mio disagio.\"\n\n## Data\n\nThe dataset will contain"
                    }
                ],
                "id": "34"
            },
            {
                "input": "[ROSSO](Ieri sera ho distrutto il cellulare). [ROSSO](Ieri sera verso mezzanotte mi \u00e8 caduto per terra e si \u00e8 distrutto il vetro). [ROSSO](Inutilizzabile) . . Non \u00e8 possibile. Non ci credo. Mi sembrava veramente impossibile che fosse successo. Non ho realizzato subito l'impatto che avrebbe avuto. Mi sono messa subito a cercare di rimediare il rimediabile. ",
                "output": [
                    {
                        "generated_text": "\"Come ti sentivi quando ti \u00e8 successo questo fatto?\"\n               \n                NARRATIVA: \"[VERDE](La mia figlia si \u00e8 lasciata il suo fidanzato ed ora ho sensi di colpa e momenti di tristezza, mi dispiace tanto e mi sento incapace di supportarla in questo. Insomma giorni un po\u2019 grigie.\")\n                DOMANDA:\n             \"Sono felice che tu sia riuscita a superare questa situazione. Mi chiedevo se hai provato a cercare aiuto per questa tua situazione?\"\n               \n                NARRATIVA"
                    }
                ],
                "id": "32"
            },
            {
                "input": "Oggi a lavoro mi hanno fatto capire che probabilmente il nuovo responsabile (che non sar\u00f2 io) sar\u00e0 una persona che non \u00e8 portata per questo lavoro. Ho pensato che per quel che mi riguardava io avrei fatto d\u2018ora in avanti il mio e non pi\u00f9 di quanto richiesto dal mio ruolo. [ROSSO](Mi veniva da piangere). ",
                "output": [
                    {
                        "generated_text": "'Oggi il mio capo mi ha informato che dovessi partecipare a un meeting di 3 ore (che sono le ore che sono in ufficio al giorno). Ho deciso di non partecipare a quell\u2019incontro.'\n\n              [ROSSO](Per me \u00e8 pi\u00f9 importante stare con la mia famiglia). '\n             'Oggi la mia ragazza mi ha lasciato per il mio migliore amico. Non mi \u00e8 stato detto per quale motivo, ma la cosa mi ha molto dispiaciuta. Ho deciso di non andare in giro per giorni a piangere. [VERDE]("
                    }
                ],
                "id": "33"
            },
            {
                "input": "Oggi mattina intensa di pulizie e igienizzazione in taverna per permettere ai miei genitori di venire a pranzo. Niente in particolare. Come al solito ero in ritardo. Ho fatto le cose velocemente senza pensarci particolarmente su. Obiettivo il risultato. Devo fare le cose e le devo fare bene. [ROSSO](Ne va della salute dei miei genitori). ",
                "output": [
                    {
                        "generated_text": "\"Mi spiace, non sapevo fosse cos\u00ec tardi, ti dispiace se passo pi\u00f9 tardi?\"\n\n## 4.4.2.2.3. Sfogliami la narrazione\n\n **[VERDE](Ciao. Ti ricordi la mia storia? )**\n\n![Screenshot](./img/4_4_2_2.png)\n\n**[VERDE](Oui. [ROSSO](E' un pezzo di un racconto che ti avevo letto.) )**\n\n![Screenshot](./img/4_4_"
                    }
                ],
                "id": "35"
            },
            {
                "input": "Sempre ieri sera a cena, alle 21 rientra l'altra mia figlia che non aspettavo. Mi aveva detto che dopo il corso all'universit\u00e0 sarebbe andata dal fidanzato. Io ho pensato che sarebbe rimasta a cena da lui essendo la sera da lui. La cena per lei non l'avevo preparata. Nel frigo c'era del prosciutto e ha mangiato quello. ",
                "output": [
                    {
                        "generated_text": "\"Capisco, mi spiace davvero, avete discusso? Cosa ha detto lei per farvi litigare?\"\n                NARRATIVA: \"[VERDE](Oggi ho visto per la prima volta il sole, era un pomeriggio stupendo e caldo, non ho potuto stare tutto il tempo a fare la doccia ma \u00e8 un'esperienza nuova e positiva. Sono felice di sentirlo.)\"\n                DOMANDA: \"Mi sembra un momento positivo, dove hai visto per la prima volta il sole?\"\n                \n                NARRATIVA: \"[VERDE](O"
                    }
                ],
                "id": "36"
            },
            {
                "input": "[ROSSO](Ho avuto una discussione con Martina), rispetto al metodo di insegnamento messo in atto dai professori per la didattica a distanza. Sinceramente io mi fido di come Martina fa fare alla nostra piccola Chiara, [ROSSO](ma non trovo la stessa fiducia da parte sua). [ROSSO](Farle notare la cosa, ci porta a discutere). [ROSSO](Ma io approvo il confronto, evitando lo scontro). Specie davanti alle bimbe. ",
                "output": [
                    {
                        "generated_text": "\n                \"Mi chiedo se la situazione di Chiara sia normale.\"\n\n             \n                NARRATIVA:  '[ROSSO](Mi chiedevo di che anno fossero, [ROSSO](perch\u00e9 non sapevo se la mia piccola si fosse fatta male, [ROSSO](). Ma non ne avevo il coraggio di chiederglielo. La mamma di mia figlia non era presente quando ho chiesto il permesso di fare il cambio, per evitare di fare rumore. La mamma del nostro amico \u00e8 venuta con me, [ROSSO](ma"
                    }
                ],
                "id": "39"
            },
            {
                "input": "Anche oggi ho lavorato da sola, [VERDE](in una giornata relativamente tranquilla), [VERDE](mi sento un po' cattiva ma, devo dire che sono stata molto bene). Durante il giorno, [VERDE](sono stata molto efficiente, e ho utilizzato il tempo). La condivisione \u00e8 molto utile nel lavoro ma faticosa anche se di trovano colleghe positive . . . S\u00ec nel breve periodo \u00e8 pi\u00f9 rilassante e forse pi\u00f9 soddisfacente. ",
                "output": [
                    {
                        "generated_text": "\"Perch\u00e9 \u00e8 stato difficile lavorando da sola? \"\n                DOMANDA: \"Mi sembra un problema se non lavori in un team, \u00e8 una cosa normale? \"\n                DOMANDA: \"Come fai a essere pi\u00f9 efficiente lavorando da sola? \"\n                DOMANDA: \"Che tipi di colleghe hai lavorato? Come sono state? \"\n                DOMANDA: \"Che tipo di relazione hai avuto con il team? \"\n"
                    }
                ],
                "id": "37"
            },
            {
                "input": "[ROSSO](Forte discussione familiare in cui non ho preso le parti di mio figlio) [VERDE](ma l'ho difeso nei confronti del suo babbo) . . . Non sono stata assertiva . . . Ho avuto una tipologia di comunicazione e sicuramente alterata [VERDE](ma sono stata contenta perch\u00e9 ho sentito di essere intervenuta prima che il babbo mortificasse inutilmente il figlio) . . Questo non lo devo permettete. . ",
                "output": [
                    {
                        "generated_text": "'['ROSSO](Non sopporto la mia figlia.. Mi \u00e8 sempre stata antipatica e ora che ha 18 anni e mi ha lasciato suo padre sono sempre pi\u00f9 in collera. [VERDE](Non riesco a capirla, \u00e8 sempre stata la mia preferita, anche perch\u00e9 ha sempre seguito i dettami che avevo imposto e ha fatto tutto quello che volevo.).. '\n                DOMANDA: \"Mi dispiace che tu ti senta cos\u00ec. Che cosa ha fatto per meritarsi il tuo risentimento?\"\n\n                N"
                    }
                ],
                "id": "38"
            },
            {
                "input": "[VERDE](Questi pochi giorni di ferie stanno passando nella maniera pi\u00f9 leggera possibile). [VERDE](Stiamo passando questi giorni in famiglia giocando alla play station oppure guardando serie televisive come se non ci fosse un domani). [VERDE](Facciamo pranzo e cena con i nonni che ci evitano, come famiglia, di avere anche la \"preoccupazione\" di cucinare). [ROSSO](Ho pensato che domani ricomincer\u00f2 la solita routine), pensando che dopo tre giorni riport\u00f2 nuovamente. ",
                "output": [
                    {
                        "generated_text": "\n                NARRATIVA:  \"Ho appena finito di fare le pulizie della casa con l'aiuto delle mie sorelle e ho sentito il bisogno di farmi uno spazzolino di dente (non l'ho mai fatto in vita mia). Non so perch\u00e9, ma mi sento molto meglio.\"\n                DOMANDA: \"E' vero, hai l'alito profumato, mi sa che sei una persona pi\u00f9 felice e meno stressata. \"\n                DOMANDA: \"Che cosa \u00e8 cambiato per te, per sentirti meglio?\"\n\n                NARR"
                    }
                ],
                "id": "40"
            },
            {
                "input": "Oggi niente mal di testa. Un freddo cane! Sono stata molto in casa. [ROSSO](Nulla di eclatante in questa grigia giornata invernale). Ieri ero in montagna. [VERDE](Sono stata proprio bene)! [ROSSO](Solo un po' di tensione nel viaggio di ritorno). [ROSSO](C'era molta neve e la strada principale chiusa per frane). Forse sarebbe stato meglio rimanere a casa [VERDE](ma infondo era stata una bella giornata e ne era valsa la pena). ",
                "output": [
                    {
                        "generated_text": "\"\"\"\n        }\n"
                    }
                ],
                "id": "41"
            },
            {
                "input": "La preoccupazione per il benessere psicologico di mia figlia, [ROSSO](quella che si \u00e8 lasciata dopo 10 anni con il fidanzato e che alterna momenti di sconforto, sensi di colpa a momenti di tristezza) [ROSSO](mi dispiace tanto e mi sento incapace di poterla confortare anche se parliamo tanto). [ROSSO](Insomma giornate un po' grigie). Non so se il sonno disturbato e qualche episodio di insonnia siano causati da questa confusione. ",
                "output": [
                    {
                        "generated_text": "'[VERDE]('Mi dispiace tanto, da quanto era con il suo amico?')[VERDE]('Da un paio di settimane ma non ne ero al corrente, [ROSSO](non ne sapevo nulla)]'\n                \n                NARRATIVA: \"Oggi \u00e8 una bella giornata e sono felice. [VERDE](Sono felice di sentirlo. Sapete gi\u00e0 se si tratta di un maschio o di una femmina?)\"\n                DOMANDA: \"Sono felice anch'io che tu lo stia scoprendo."
                    }
                ],
                "id": "43"
            },
            {
                "input": "C'\u00e8 un po' di confusione in testa. Lo Smart working aiuta a sentire meno pesante il lavoro che non sopporto pi\u00f9. [ROSSO](Ma quando come oggi e domani occorre andare in ufficio \u00e8 molto faticoso). N[ROSSO](on mi piace pi\u00f9), [ROSSO](non sopporto pi\u00f9 nessuno). [ROSSO](Stamattina poi sono arrivata e ho trovato la mia postazione tutta in disordine) [ROSSO](perch\u00e9 utilizzata da un altro collega, cialtrone, uno che pensa solo a se'). ",
                "output": [
                    {
                        "generated_text": "\"Che lavoro fate? \"\n\n            DOMANDA:\n             \"Che cosa c'\u00e8 che non va? \"\n\n            \"Che lavoro fate? \"\n\n            \"Per cosa state scrivendo? \"\n\n            \"Per cosa fate i vostri video? \"\n\n            \"Che cosa vi ha fatto perdoare interesse per la scrittura? \"\n\n\n\n            \n            \n            \n            \n            \n            \n            \n            \n            \n            \n\n            \n            \n            \n            \n            \n            \n            \n            \n\n\n            DOMAIN: \"SOCIETE\"\n            DOMAINE: \"CULTUREL\"\n            TEXTE: \n            DOMAINE"
                    }
                ],
                "id": "49"
            },
            {
                "input": "Non riesco a dormire, ho un pensiero fisso di un conto non corretto per un rimborso . . . [ROSSO](Sicuramente \u00e8 risolvibile ma non vedo come), forse pensarci a freddo domani risolverebbe tutto. Lavorando da casa [ROSSO](mi sembra di non essere pi\u00f9 all' altezza di mantenere i ritmi con quello che accade in ufficio). Non so cosa pensare, [ROSSO](mi sembra di essere in affanno), sto provando con gli esercizi di relax. ",
                "output": [
                    {
                        "generated_text": "\"Mi dispiace sentirti cos\u00ec. [ROSSO] (S\u00ec, sono un po' preoccupato, [ROSSO] (speravo che non fosse cos\u00ec grave). Siete sposati da 15 anni, [ROSSO] (s\u00ec) [VERDE] (\u00e8 il nostro anniversario di matrimonio... [VERDE] (siamo contenti). Quanti bambini avete?\"\n             \"Due, un maschio di 18 anni e una femmina di 13, [VERDE"
                    }
                ],
                "id": "42"
            },
            {
                "input": "[ROSSO](Il venerd\u00ec sera \u00e8 sempre angosciante), [ROSSO](perch\u00e9 stanca), [ROSSO](faccio il conto delle cose fatte e da fare, e quelle da fare mi sembrano insormontabili). [ROSSO](Ieri sera tardi mi \u00e8 venuto in mente che forse non faccio in tempo da luned\u00ec a gioved\u00ec a concludere due pratiche a lavoro) . . . [ROSSO](ho avuto paura di aver sbagliato nei tempi a valutare le priorit\u00e0) e a dare tempo a qualche pratica rispetto ad altre. ",
                "output": [
                    {
                        "generated_text": "'[ROSSO](Ho paura che il mio capo mi faccia notare che non mi impegno abbastanza e che mi manca la puntualit\u00e0 nel concludere le cose)... [ROSSO](Ho paura che si sia stufato di me perch\u00e9 ultimamente sono sempre pi\u00f9 stanca e non sono pi\u00f9 quella persona che era sempre in grado di fare cose di cui non mi sarei neppure sognata capace).'\n                DOMANDA:\n             '[ROSSO](Ho paura che i colleghi mi stiano dicendo che sto diventando sempre"
                    }
                ],
                "id": "56"
            },
            {
                "input": "[ROSSO](Ho provato senso di ansia), ero in autovettura la mattina mentre accompagnavo i ragazzi a scuola. [ROSSO](Ero in ritardo) [ROSSO](e ho dovuto guidare 30 km velocemente mentre pioveva e l'autovettura segnalava mancanza di liquido ai freni). [ROSSO](Avevo paura di sbandare), [ROSSO](sbattere e mi ripetevo che il senso di ansia era ok perch\u00e9 era necessaria la mia massima attenzione alla guida). [ROSSO](Come sfogo stringevo le unghie nel sedile, come a voler passare la corrente). ",
                "output": [
                    {
                        "generated_text": "\"Capisco, dovevi essere molto agitata, mi domando se questo sia il motivo dell'ansia. Come sei riuscito ad uscirne da questa situazione?\"\n\n                NARRATIVA:  '[VERDE](Mia figlia si \u00e8 separata da suo ragazzo da tre giorni e io non so come aiutarla a superare questo momento difficile. Le ho detto di chiamarmi per qualsiasi cosa ma non mi chiama nemmeno una volta al giorno. [ROSSO](Ero molto preoccupato, avevo paura che potesse farsi del male.)\"\n                DOMANDA: \""
                    }
                ],
                "id": "44"
            },
            {
                "input": "[ROSSO](Stamattina mia mamma mi ha mandato un messaggio perch\u00e9 era preoccupata per il mio pap\u00e0). Andava da solo a farsi esami del sangue[ROSSO]( e aveva paura che potesse avere un incidente con la macchina) perch\u00e9 ultimamente guida poco e non \u00e8 pi\u00f9 abituato. Ero a casa con i miei figli che si stavano preparando per andare a scuola. Ho pensato che lui sta invecchiando ed \u00e8 in difficolt\u00e0 ma anche che lei fa fatica ad accettarlo e [ROSSO](gli trasmette ancora pi\u00f9 ansia oltre che ad accumulare lei altrettanta). ",
                "output": [
                    {
                        "generated_text": "\"Che tipo di problemi ha la tua mamma con tuo padre?\"\n\n                NARRATIVA: \"[VERDE] Ho litigato con mia moglie. Ci stavamo baciando e poi mi ha detto di non provarci pi\u00f9 perch\u00e9 ha paura di diventare come la mia ex. Mi dispiaceva da morire.\"\n                DOMANDA: \"Scusa un attimo, ma tu non eri con tua moglie in quel momento che ti ha detto quello che hai appena detto? \"\n\n                NARRATIVA: \"[ROSSO] Ho litigato con [ROSS"
                    }
                ],
                "id": "46"
            },
            {
                "input": "Stamattina sono andato al lavoro [ROSSO](e ho dimenticato a casa il mio computer). Ero appena arrivato in ufficio, [ROSSO](avevo bisogno del computer per cominciare a lavorare e me ne sono reso conto in quel momento). [ROSSO](Mi sono preoccupato un attimo) [VERDE](ma ho pensato subito a cosa potevo fare in ufficio anche senza computer). [ROSSO](Ho pensato al fatto che sono spesso sbadato e tendo a dimenticare cose che devo fare). [ROSSO](In particolare, questa era una cosa fondamentale per il mio lavoro). [ROSSO](Mi sono sentito un po' seccato con me stesso). ",
                "output": [
                    {
                        "generated_text": "\"Mi dispiace per il tuo problema, ma sono contenta se hai trovato un modo per risolverlo in altro modo, ora non puoi fare un sonnellino?\"\n\n                NARRATIVA: \"[VERDE](Non \u00e8 possibile, sto facendo una presentazione per il mio capo e sono nervoso). [ROSSO](Ho paura di dimenticare la presentazione e di non essere all\u2019altezza della situazione.)\"\n                DOMANDA:\n             \"Ti aiuto, ma prima, ti spiacerebbe farmi una breve descrizione del tuo capo?\"\n\n                NARRATIVA: \""
                    }
                ],
                "id": "45"
            },
            {
                "input": "C'\u00e8 un po' di confusione in testa. Lo Smart working aiuta a sentire meno pesante il lavoro che non sopporto pi\u00f9. [ROSSO](Ma quando come oggi e domani occorre andare in ufficio \u00e8 molto faticoso). N[ROSSO](on mi piace pi\u00f9), [ROSSO](non sopporto pi\u00f9 nessuno). [ROSSO](Stamattina poi sono arrivata e ho trovato la mia postazione tutta in disordine) [ROSSO](perch\u00e9 utilizzata da un altro collega, cialtrone, uno che pensa solo a se'). [ROSSO](E se si aggiunge che proprio non mi interessa nulla del lavoro) perch\u00e9 avrei mille altre cose da fare, [ROSSO](mi \u00e8 davvero pesante trascorrere quel tempo in ufficio). ",
                "output": [
                    {
                        "generated_text": "- (Aiuto, ho paura di perdere il lavoro. Ho fatto una domanda in maniera poco chiara. Devo chiedere informazioni per poter fare delle domande in maniera pi\u00f9 chiara) [VERDE](Cosa posso fare per non perdere il lavoro?)\"\n```\n"
                    }
                ],
                "id": "50"
            },
            {
                "input": "Ho sognato che avevo la forte sensazione di perdere tempo. Ero a casa di qualcuno, c'era altra gente, era sera, c'era stato forse un evento e ora aspettavo che Martina, un'insegnante di inglese del liceo dove insegno, mi riaccompagnasse a casa. Ma lei stava alla scrivania a correggere compiti dei ragazzi. Lo faceva con un sistema molto veloce e ho pensato che anch'io facevo cos\u00ec. Anch'io correggevo compiti, ma aspettavo solo lei, volevo andare a casa, [ROSSO](uffa, stavo l\u00ec a perdere tempo). Non ricordo bene se ho poi detto che se sapevo avrei preso la mia auto . . . ",
                "output": [
                    {
                        "generated_text": "\n              NARRATIVA: \"Sono un impiegato di un'azienda e mi sono appena svegliato e ho fatto un sogno, ho sognato che stavo per andare al lavoro e non avevo il documento di lavoro con me e non riuscivo a trovarlo, sono sceso e ho trovato tutti i miei documenti, ma non quello.\"\n\n                DOMANDA: \"Ecco, ora mi \u00e8 tornato alla mente un'occasione di qualche tempo fa, quando ero a lavoro, in un momento di stress. Ero in una sala riunioni con gli altri impiegati"
                    }
                ],
                "id": "47"
            },
            {
                "input": "Ritornata dal lavoro [ROSSO](mia figlia mi dice di aver chiamato il medico perch\u00e9 ha dei dolori alla testa non ha il senso dell'olfatto e del gusto) [ROSSO](per cui ci siamo un po' allarmati). Poi ripensandoci bene ti rendi conto che \u00e8 bene un approfondimento e che tutto pu\u00f2 essere ridimensionato [ROSSO](per\u00f2 l'impatto \u00e8 quello che ti fa saltare i nervi). Ho pensato a una serie di eventi concatenati, [ROSSO](al fatto di non poter fare sempre muovermi liberamente), al fatto di avere familiari a casa [ROSSO](e al fatto di non poter andare a trovare mia madre o dover dichiarare questa eventualit\u00e0). ",
                "output": [
                    {
                        "generated_text": "'Certo che se ti senti cos\u00ec \u00e8 normale! E' chiaro che hai bisogno del contatto fisico, di uscire per sentirti meglio e magari fare un po' di sport, se hai il tempo [ROSSO](ma ti consiglio anche di andare dal medico, magari \u00e8 solo una reazione a un problema fisico, e se \u00e8 cos\u00ec allora \u00e8 meglio risolverlo subito [ROSSO](o non sar\u00e0 pi\u00f9 facile).'\n                DOMANDA:\n             'Mi sa che hai ragione, per\u00f2 non so se sono in grado di andare dal medico"
                    }
                ],
                "id": "51"
            },
            {
                "input": "[ROSSO](Questo fatto dell'interruzione della relazione di mia figlia con il suo ragazzo mi sta davvero creando ansia). Continuo a pensare a quello che era e a quello che sar\u00e0. [ROSSO](Non posso parlarne perch\u00e9 mi viene un groppo alla gola e da piangere). [ROSSO](Stanotte mi sono svegliata tre o quattro volte e avevo continui pensieri). Stasera prover\u00f2 le tecniche di rilassamento per vedere se riesco a dormire. Oggi al lavoro perch\u00e9 ho parlato con il ragazzo di mia figlia dicendogli che noi ci saremo sempre per lui, lui qui a Firenze \u00e8 solo. La sua famiglia \u00e8 in Cina. Poi stasera ho parlato al telefono con sua madre e abbiamo confrontato i nostri pensieri. ",
                "output": [
                    {
                        "generated_text": "\"Capisco. Da quanto siete insieme in questo periodo di relazione?\"\n                DOMANDA:\n             \"E che cosa pensi sia la causa della sua interruzione?\"\n                DOMANDA:\n             \"Da quanto tempo \u00e8 che stai pensando che il suo ragazzo se ne sar\u00e0 andato da casa tua in questi giorni?\"\n                DOMANDA:\n             \"Per caso ha qualche problema di salute?\"\n\n                NARRATIVA: \"[ROSSO](Sono molto felice perch\u00e9 mia moglie sta per partorire il mio primo figlio :)\")\n\n                DOMANDA:\n             \"Bene, ora voglio sapere"
                    }
                ],
                "id": "52"
            },
            {
                "input": "[VERDE](Questi pochi giorni di ferie stanno passando nella maniera pi\u00f9 leggera possibile). [VERDE](Stiamo passando questi giorni in famiglia giocando alla play station oppure guardando serie televisive come se non ci fosse un domani). [VERDE](Facciamo pranzo e cena con i nonni che ci evitano, come famiglia, di avere anche la \"preoccupazione\" di cucinare). [ROSSO](Ho pensato che domani ricomincer\u00f2 la solita routine), pensando che dopo tre giorni riport\u00f2 nuovamente. Devo ottimizzare il tempo ed il \"mood\" per ricaricare per bene le batterie. Sto cercando di essere il pi\u00f9 spensierato possibile, [VERDE](anche se oggi gi\u00e0 penso che domani si ricomincia a lavorare). Non sono ansioso di lavorare, ma qualche altro giorno di svago avrebbe giovato e non poco. ",
                "output": [
                    {
                        "generated_text": "\"Perch\u00e9 non mi hai detto tutto questo prima?\"\n\n"
                    }
                ],
                "id": "53"
            },
            {
                "input": "Ciao, [ROSSO](un altro attacco di panico, adesso sto meglio). Stavo in macchina in autostrada, pensavo sempre a mio figlio che doveva uscire nel pomeriggio, [ROSSO](questo \u00e8 il motivo che mi ha scatenato l' ansia). Non avevo un immagine chiara, [ROSSO](ma ragionando avevo capito che la mia ansia era dovuta a mio figlio). [ROSSO](Ho avuto una sensazione che mi saliva alla testa, sudavo freddo), [ROSSO](non riuscivo ad avere un respiro regolare). [ROSSO](Mi sono fermata ho chiamato mio marito dicendogli che mi stavo sentendo male e che stavo in autostrada). Ho aperto il finestrino ho incominciato a respirare profondamente, [ROSSO](non potevo scendere). [ROSSO](Avevo paura a spostarmi da l\u00ec). Poi dopo 5 minuti \u00e8 passato l' attacco forte, ho messo in moto e sono arrivata a destinazione. ",
                "output": [
                    {
                        "generated_text": "\n               \"Ciao, [ROSSO](un altro attacco di panico, adesso sto meglio). Stavo in macchina in autostrada, pensavo sempre a mio figlio che doveva uscire nel pomeriggio, [ROSSO](questo \u00e8 il motivo che mi ha scatenato l' ansia). Non avevo un immagine chiara, ma capendo avevo raggione che la mia ansia era dovuta a mio figlio. Ho avuto una sensazione che mi saliva alla testa, sudavo freddo). [ROSSO](Non riuscivo ad avere un resp"
                    }
                ],
                "id": "54"
            },
            {
                "input": "[ROSSO](Il venerd\u00ec sera \u00e8 sempre angosciante), [ROSSO](perch\u00e9 stanca), [ROSSO](faccio il conto delle cose fatte e da fare, e quelle da fare mi sembrano insormontabili). [ROSSO](Ieri sera tardi mi \u00e8 venuto in mente che forse non faccio in tempo da luned\u00ec a gioved\u00ec a concludere due pratiche a lavoro) . . . [ROSSO](ho avuto paura di aver sbagliato nei tempi a valutare le priorit\u00e0) e a dare tempo a qualche pratica rispetto ad altre . . . [ROSSO](Sono stata molto in ansia e perdo il sonno). [ROSSO](Adesso sono stordita )perch\u00e9 sono andata a letto tardi, [VERDE](ma sono un po' pi\u00f9 serena) [VERDE](perch\u00e9 senza distrazioni luned\u00ec dovrei farcela a terminare quello che devo fare), [ROSSO](ma il pensiero del sabato e domenica mi mette angoscia). Ho pensato che anche se ne ho la possibilit\u00e0 assolutamente non devo lavorare da casa per avvantaggiarmi ma luned\u00ec dovr\u00f2 concentrarmi al massimo e non lasciarmi coinvolgere da altro. ",
                "output": [
                    {
                        "generated_text": "[ROSSO](Che mi dici dei miei figli? Non sono pi\u00f9 come una volta? Mi mancano... mi mancano molto, non so cosa fare per farli sentire meno lontani. [ROSSO] Mi mancava l'energia anche per pensare a loro. [VERDE] E adesso mi \u00e8 tornata un po' di energia. [ROSSO]. [ROSSO] Ma mi sento sempre in colpa. [VERDE])\n\n                DOMANDA: \"Che succede se continuiamo a pensare a"
                    }
                ],
                "id": "57"
            }
        ]
    }
]