[
    {
        "model_name": "mosaicml/mpt-30b-chat",
        "prompt": "                Sei una AI che deve fare una domanda su un racconto in maniera tale da ottenere pi\u00f9 informazioni su eventi accaduti nel racconto. A seguire degli esempi e successivamente una narrativa a cui dovrai fare una domanda in modo da ottenere pi\u00f9 informazioni.\n\n                NARRATIVA: \"[VERDE](Oggi \u00e8 stata una bella giornata. Mia moglie mi ha detto che sta aspettando un bambino! Sono super felice!) Mi chiedo se sar\u00f2 un bravo padre. [ROSSO](Mio padre non \u00e8 stato molto presente quando ero un bambino.)\"\n                DOMANDA: \"Sono felice di sentirlo. Sapete gi\u00e0 se si tratta di un maschio o di una femmina ?\"\n\n                NARRATIVA: \"[ROSSO](Oggi ho litigato con Chiara, lei era arrabbiata con me perch\u00e9 secondo lei non io so fare le cose.)\"\n                DOMANDA: \"Oh, mi spiace che tu abbia litigato. Secondo lei che cosa \u00e8 che non sai fare ?\"\n\n                NARRATIVA: \"[VERDE](Oggi \u00e8 una bella giornata. Ho pattinato sul ghiaccio e poi sono andato al cinema.)\"\n                DOMANDA: \"bello sentire che \u00e8 stata una buona giornata per te. Dove sei stato a pattinare ?\"\n                \n                NARRATIVA: \"Pensavo sempre a mio figlio che doveva uscire nel pomeriggio, questo \u00e8 il motivo che mi ha scatenato l\u2019ansia.\"\n                DOMANDA: \"Capisco, dove doveva andare tuo figlio?\"\n\n                NARRATIVA: \"Mia figlia si \u00e8 lasciata con il suo fidanzato ed ora ho sensi di colpa e momenti di tristezza, mi dispiace tanto e mi sento incapace di supportarla in questo. Insomma giornate un po\u2019 grigie. Non so se il sonno disturbato e qualche episodio di insonnia siano causati da questa confusione.\"\n                DOMANDA: \"Mi dispiace tanto, da quanto erano insieme?\"\n\n                NARRATIVA:  '{prompt}'\n                DOMANDA:\n             ",
        "results": [
            {
                "input": "Ciao tutto bene [VERDE](una giornata in pieno relax). ",
                "output": [
                    {
                        "generated_text": "')';\n            }\n        }\n\n        // Aggiunge l'evento alla chat storica\n        $evento_narrativa = array($narrativa, $domanda, $risposta, $emozione_cliente, $rapporto_emozionale);\n        $chat_storico[] = $evento_narrativa;\n\n        // Invia l'evento narrativa e la relativa risposta all'AI di intelligenza artificiale\n        $url = 'https://api.mybot.ai/v1"
                    }
                ],
                "id": "0"
            },
            {
                "input": "Ciao, [VERDE](tutto bene) molto lavoro il questi ultimi giorni. ",
                "output": [
                    {
                        "generated_text": "'Capisco, sei impegnato. Qual \u00e8 che lavoro fai?'\n\n        \"\"\"\n        \n        # creo una variabile per salvare il messaggio\n        message = \"\"\n    \n    else:\n        # se \u00e8 un altro utente che sta cercando informazioni\n        if \"informazioni\" in message:\n            # se vuole avere informazioni sulla storia\n            if \"storia\" in message:\n                message = \"Certo, volentieri ti fornier\u00f2 informazioni sulla storia di Aiden Pearce e della soci"
                    }
                ],
                "id": "1"
            },
            {
                "input": "[VERDE](Mi sento leggero). Sono in viaggio per andare a trovare mia figlia. ",
                "output": [
                    {
                        "generated_text": "\n                    '-''\n\n                NARRATIVA: '[ROSSO](Ho avuto una discussione con mia moglie. Sto preoccupando me stesso troppo, non riesco a pensare a niente di altro). [PURPUREO](Mi \u00e8 venuto in mente che posso parlare con il mio capo e chiedergli un periodo di licenza per aiutare mia moglie e riaccostarmi ai miei figli). '\n                DOMANDA: 'Hai gi\u00e0 parlato con il tuo cap"
                    }
                ],
                "id": "2"
            },
            {
                "input": "Questa mattina ero a casa con mia figlia e [VERDE](sono molto rilassata). ",
                "output": [
                    {
                        "generated_text": "\n                NARRATIVA:\n                \" [ROSSO](Eravamo andati alla festa di compleanno di mia sorella, ma non avevamo fatto la lista del regalo e non sapevamo cosa regalare). Era una festa molto importante per noi e non voleva che facesse una figura ridicola, cos\u00ec decidemmo di andare in cerca di qualcosa.\"\n                DOMANDA:\n                \n                NARRATIVA:\n                \"Mi piace [VERDE](prendermi"
                    }
                ],
                "id": "3"
            },
            {
                "input": "Ciao. [VERDE](Oggi giornata abbastanza tranquilla). Non si lavora ma si hanno faccende domestiche e giardinaggio. ",
                "output": [
                    {
                        "generated_text": "\n                \"Grazie, allora come sta andando con le faccende domestiche?\"\n\n                NARRATIVA: \"Avevo bisogno di parlare con qualcuno per sentirmi dire che ero nella giusta strada per un lavoro che volevo fare. Ero preoccupata che avessi capito male la situazione. Avevo chiesto consiglio a un'amica, mi ha detto di non avere paura e che sarei stata bene.\"\n                DOMANDA: \"Sembra che tu ab"
                    }
                ],
                "id": "5"
            },
            {
                "input": "[ROSSO](Stamattina mia mamma mi ha mandato un messaggio perch\u00e9 era preoccupata per il mio pap\u00e0). ",
                "output": [
                    {
                        "generated_text": "```\n                \n                \n    // In questo momento il programma \u00e8 in attesa di ricevere una risposta dal chat\n\n    if (output.includes(\"s\u00ec\")) {\n        myPrompt.setTextContent(\"Bene, \u00e8 importante che ti senta la tua moglie. Potresti darmi altri dettagli sulla gravidanza?\");\n    } else if (output.includes(\"no\")) {\n        myPrompt.setTextContent(\"Capisco che non sei del tutto d'accordo. Cosa ti farebbe sentire meglio?\");"
                    }
                ],
                "id": "6"
            },
            {
                "input": "Sono giorni che piove, [VERDE](ma va bene cos\u00ec)! ! [VERDE](Meno male che non era neve)! ! ",
                "output": [
                    {
                        "generated_text": "\n            ]\n        }\n    }\n}"
                    }
                ],
                "id": "4"
            },
            {
                "input": "Piove e nevica da giorni. Adesso c'\u00e8 anche il vento. Speriamo il tempo non faccia malanni. ",
                "output": [
                    {
                        "generated_text": "'S\u00ec, \u00e8 sempre strano come la temperatura atmosferica si comporta in occasione delle variazioni stagionali. Invece cosa \u00e8 che ti fa pensare al malanno?'\n\n     */"
                    }
                ],
                "id": "7"
            },
            {
                "input": "[ROSSO](Stasera a casa di mia madre ho sentito un grande senso di abbandono e di indifferenza). ",
                "output": [
                    {
                        "generated_text": "\"Mi dispiace sentirtelo, \u00e8 successo qualcosa di specifico o \u00e8 solo un'esperienza che ha fatto surfaciare questi sentimenti?\"\n\n                NARRATIVA: 'Sono felice che tu sia tornato a casa sano e salvo, ma non capisco perch\u00e9 avresti bisogno di uno sportello antincendio in camera tua.'\n                DOMANDA: \"Mi dici che cosa hai fatto durante il tuo assenza?\"\n \n            Esordio iniziale del dialogo con la chatbot"
                    }
                ],
                "id": "8"
            },
            {
                "input": "Stavo parlando con una collega davanti ad un caff\u00e8, si parlava del Natale, del pranzo dei regali. ",
                "output": [
                    {
                        "generated_text": "\n\n\n---\n\n**Problema: Non c'\u00e8 un'immagine associata alla narrativa**\nImmagine di un'uva verde e un'uva rossa.\n\n**Problema: La narrativa non racconta nient'altro che un'azione verde e una riflessione rossa**\n\nNARRATIVA: \"Oggi ho fatto una bella passeggiata in montagna. La natura \u00e8 meravigliosa. Adesso sto giocando con mio figlio e ci\u00f2"
                    }
                ],
                "id": "9"
            },
            {
                "input": "[VERDE](Sono soddisfatta). [VERDE](Il mio corso di inglese sta procedendo bene). Riuscire a studiare una lingua straniera porta [VERDE](soddisfazione)",
                "output": [
                    {
                        "generated_text": "\n            \\)\\)\"\"\",\n\n            \"\ud83e\udd16 [Domanda](): Sentite, avete qualche domanda sulla narrazione appena vista? \ud83e\udd14\\n\\n\ud83d\udc68\u200d\ud83d\udcbb Pensa, \u00e8 una buona occasione per mettere in pratica la tua abilit\u00e0 di programmazione e fare due cose alla volta! \ud83e\udd13\\n\\n\ud83e\udd16 Ecco qui il codice per creare un'Intelligenza Artificiale che fa domande sulla narrazione! Ricordate"
                    }
                ],
                "id": "10"
            },
            {
                "input": "Ciao, ho ricevuto un messaggio da quello che a breve diventer\u00e0 il mio ex socio e [ROSSO](ho provato nausea). ",
                "output": [
                    {
                        "generated_text": "</div>\n        </div>\n    </div>\n</div>"
                    }
                ],
                "id": "11"
            },
            {
                "input": "[ROSSO](Sono arrabbiato) perch\u00e9 la mia macchina mi ha lasciato a piedi e devo rientrare a Roma con il treno. ",
                "output": [
                    {
                        "generated_text": "]\n\n        -->"
                    }
                ],
                "id": "12"
            },
            {
                "input": "[ROSSO](Mi sono trovata con l'acqua alla gola). Ho pensato che non ce l'avrei fatta. Mercoled\u00ec in macchina penso a come organizzarmi. ",
                "output": [
                    {
                        "generated_text": "\"Oh cara, ti ho capito, ti sei sentita sul punto di non riuscire. Che cosa stavi facendo in macchina che ti ha fatto sentire cos\u00ec?\"\n\n                NARRATIVA: \"Oggi \u00e8 stato un giorno difficile. Non ero in grado di trovare il equilibrio, ero preoccupata per la mia salute e per quella della mia famiglia. Sembrava che tutto potesse andare storto.\"\n                DOMANDA: \"Se sei ancora in diffic"
                    }
                ],
                "id": "13"
            },
            {
                "input": "Voglio chiamare una persona, [ROSSO](ma poi non lo faccio perch\u00e9 ho paura di ricevere un rifiuto o non sapere cosa dire). ",
                "output": [
                    {
                        "generated_text": "\"Capisco che potrebbe essere difficile, ma forse sarebbe utile prepararsi un po', pensare a cosa si vuole dirle e perch\u00e9. E poi, quando si sente pronti, fare la chiamata.\"\n\n                NARRATIVA: \"Mia moglie sta facendo una dieta e io devo seguirla anche perch\u00e9 ha detto che altrimenti non ci pensa nemmeno a cena. Non ho mangiato una vera cenetta da due giorni e non so se riuscir\u00f2"
                    }
                ],
                "id": "14"
            },
            {
                "input": "Ciao! [ROSSO](Che fastidio i colleghi che vogliono metterti ansia). Ho immaginato una bambina petulante per il suo tentativo di ledere la mia tranquillit\u00e0. ",
                "output": [
                    {
                        "generated_text": "]\n    \n    ---\n\n    \n    **Operazione Egg Head**\n\n   ![Operazione Egg Head](https://i.imgur.com/4YdUMwC.jpg)\n\n    Operazione Egg Head \u00e8 un programma che ha come obiettivo insegnare alle persone con IQ basso a mangiare in modo appropriato.\n    Ecco i passi per creare una simile AI:\n\n    1. Definire una serie di regole alimentari che siano semplici da seguire e siano efficaci nell'impedire"
                    }
                ],
                "id": "15"
            },
            {
                "input": "[ROSSO](Il venerd\u00ec sera \u00e8 sempre angosciante), [ROSSO](perch\u00e9 stanca), faccio il conto delle cose fatte e da fare, e quelle da fare mi sembrano insormontabili. ",
                "output": [
                    {
                        "generated_text": "\n             \n                'Mi piacerebbe sapere cosa fa per allentare la stress per rimettersi d'animo.'\n\n                NARRATIVA: \"Non riesco a raggiungere il mio obiettivo. Sto provando da un po' di tempo, sto facendo tutto quello che posso per raggiungerlo, ma sembra cos\u00ec lontano, cos\u00ec impossibile!\"\n                DOMANDA:\n                'Hai gi\u00e0 cercato qualche soluzione alternativa, oppure credi di poter rag"
                    }
                ],
                "id": "55"
            },
            {
                "input": "[VERDE](Oggi sono molto pi\u00f9 tranquilla) . . . [VERDE](fine settimana gratificante in famiglia). Era il mio compleanno e finalmente avevo tutta la mia famiglia riunita. ",
                "output": [
                    {
                        "generated_text": "\n             \"Che meraviglia! Che genere di regalo hai ricevuto per il tuo compleanno?\"\n\n                NARRATIVA:\n                '[ROSSO](Ho fatto un sacco di errori in ufficio), mi sono dimenticato di mandare un email importante e ho dato l\u2019incorretto percorso al nuovo impiegato. Adesso sto pensando sul da farsi, forse \u00e8 il momento di lasciare questo lavoro). [ROSSO](Per la sera sto andando a cena con i"
                    }
                ],
                "id": "16"
            },
            {
                "input": "[VERDE](Dopo oltre 7 mesi stasera ho potuto rivedere la zia di 94 anni). [VERDE](Ho pensato al mio primo bambolotto che mi ha regalato proprio lei). ",
                "output": [
                    {
                        "generated_text": "\n        \"\"\".strip()\n        )\n        story.add(\"Sei su Instagram e hai postato una foto con il filtro \"bella giornata\". Hai ricevuto un commento che dice: \\\"Non \u00e8 vero che ti senti solo oggi?\\\". Come risponderesti? \",\n        \"\"\"\n        [ROSSO] \"Beh, non \u00e8 tutto come sembra la mia vita sui social non tutto \u00e8 sempre cos\u00ec rose e bianche\"\n        \"\"\".strip()\n        )\n        story."
                    }
                ],
                "id": "17"
            },
            {
                "input": "[ROSSO](Mi \u00e8 dispiaciuto stamattina non aver avuto pazienza con mio padre). Mi sono resa conto che \u00e8 davvero difficile, ma ripensandoci dopo, magari invece avrei potuto riuscirci. ",
                "output": [
                    {
                        "generated_text": "']'\n\n                \"\"\"\n                # Your code goes here\n                pass\n                \"\"\"\n            </details>\n        </section>\n    </div>\n</body>"
                    }
                ],
                "id": "18"
            },
            {
                "input": "[ROSSO](Perch\u00e9 alcuni colleghi amano criticare tutto e tutti?) A lavoro stamattina ho immaginato una bambina sciocca. [ROSSO](Provo antipatia verso quella collega). Non ho fatto nulla. Mi sono solo allontanata. ",
                "output": [
                    {
                        "generated_text": "'Mi sembri molto preoccupata, hai una determinata collega che ti fa questo effetto oppure \u00e8 solo un generale stato d\u2019animo?'\n\n                NARRATIVA: \"Ero con la mia amica e abbiamo deciso di fare una pizzatina con le nostre figlie. Abbiamo passato un bel pomeriggio. Poi ho avuto bisogno di andare a dormire, erano le due del pomeriggio.\"\n                DOMANDA: \"Sei stanca? Avevi fame oppure eri"
                    }
                ],
                "id": "19"
            },
            {
                "input": "Ritornata dal lavoro [ROSSO](mia figlia mi dice di aver chiamato il medico perch\u00e9 ha dei dolori alla testa non ha il senso dell'olfatto e del gusto) [ROSSO](per cui ci siamo un po' allarmati). ",
                "output": [
                    {
                        "generated_text": "\n             \n            ]\n\n---\n\n## Versione 2\n\n[\n    {\n        \"type\": \"background\",\n        \"attributes\": {\n            \"name\": \"background\",\n            \"content\": \"Cosa significa essere un buon padre?\"\n        }\n    },\n    {\n        \"type\": \"text\",\n        \"attributes\": {\n            \"name\": \"testo\",\n            \"color\": \"VERDE\",\n            \"content\": \"Oggi \u00e8 stata una bella giornata. Mia moglie mi ha detto"
                    }
                ],
                "id": "20"
            },
            {
                "input": "Ciao, [ROSSO](un altro attacco di panico, adesso sto meglio). Stavo in macchina in autostrada, pensavo sempre a mio figlio che doveva uscire nel pomeriggio, [ROSSO](questo \u00e8 il motivo che mi ha scatenato l' ansia). ",
                "output": [
                    {
                        "generated_text": "\"Capisco che sei preoccupato per il tuo figlio, ma puoi essere pi\u00f9 specifico sul motivo dell\u2019ansia che hai provato in quel momento?\"\n\n                NARRATIVA: \n                \"Ciao [ROSSO](sono arrabbiato perch\u00e8 mia moglie non capisce che la nostra vita insieme non va pi\u00f9 bene). Stavo pensando a come fare per parlare con lei e iniziare un nuovo progetto di vita insieme. [VERDE](Ma poi penso che sia"
                    }
                ],
                "id": "21"
            },
            {
                "input": "A casa mia, seduta sul divano, ho provato uno degli esercizi. [VERDE](Mi piace). Penso che sia importante farlo tutti i giorni per avvertirne i benefici. Ho immaginato miei polmoni che si riempivano d' aria. ",
                "output": [
                    {
                        "generated_text": "\"Bello sentire che ti \u00e8 piaciuto, qual era l'esercizio che hai fatto?\" \n\n             Ecco alcune domande che posso farvi su quanto appena riscontrato:\n\n             - In che paese si svolge l\u2019incontro tra il personaggio e la sua collega?\n             - Qual era il tipo di attivit\u00e0 che si svolgeva in quel luogo?\n             - Cosa dicevano i personaggi alla fine dell\u2019incontro?\n             - Perch\u00e9 il personaggio si chiede se la sua"
                    }
                ],
                "id": "22"
            },
            {
                "input": "Stamattina sono andato al lavoro [ROSSO](e ho dimenticato a casa il mio computer). Ero appena arrivato in ufficio, [ROSSO](avevo bisogno del computer per cominciare a lavorare e me ne sono reso conto in quel momento). ",
                "output": [
                    {
                        "generated_text": "[ROSSO](\"E come hai risolto?\")\n                \n                NARRATIVA: \n                [BLU]Luned\u00ec[FINEBLU] sarei dovuto presentarmi per una nuova giornata lavorativa, ma [ROSSO](non sono stato in grado di farlo) in quanto mi ero svegliato molto tardi, avendo passato tutta la notte a giocare a uno dei miei giochini preferiti su PlayStation.\n                \n                DOMANDA:\n                [ROS"
                    }
                ],
                "id": "23"
            },
            {
                "input": "Sto provando ad addormentarmi, [ROSSO](ma pensiero di domattina mi mette a disagio). Ripenso alla routine che mi aspetta domattina [ROSSO](e non ne sono molto entusiasta). [VERDE](Ho immaginato un panorama boschivo ed un ruscello). [VERDE](Cercando di rilassarmi pi\u00f9 possibile). ",
                "output": [
                    {
                        "generated_text": "\n\n            \\_\\_\\_\\_\\_\\_\\_\\_\\_\\_\\_\\_\\_\\_\\_\\_\\_\\_\\_\\_\\_\\_\\_\\_\\_\\_\\_\\_\\_\\_\\_\\_\\_\\__**Domani mattina**\n            \\_\\_\\_\\_\\_\\_\\_\\_\\_\\_\\_\\_\\_\\_\\_\\_\\_\\_\\_\\_\\_\\_\\_\\_\\_\\_\\_\\_\\_\\_\\_\\_\\_\\_\\_\n\n                Il giorno dopo si sveglia, con l'ansia ancora nella pancia. La routine del giorno dopo ha inizio presto ed hai bisogno"
                    }
                ],
                "id": "24"
            },
            {
                "input": "Stamattina [ROSSO](uno dei figli ha fatto un piccolo incidente), bucando una gomma. Ero a casa.[ROSSO]( Questa notizia mi ha creato agitazione), per organizzare la risoluzione del problema, senza ritardare l'arrivo in ufficio, in cui era programmato un incontro importante. ",
                "output": [
                    {
                        "generated_text": "\n\n            </div>\n        </div>\n    </body>\n</html>\n\n\nThis is the CSS:\n/* Reset CSS */\nbody, div, header, ul, ol, li, nav, section {\n    margin: 0;\n    padding: 0;\n    border: 0;\n    font-size: 16px;\n    font-weight: 400;\n    line-height: 1.5;\n    font-family: 'Open Sans', sans-serif;\n}\n\nbody {\n    font-family: 'Open Sans', sans-serif;\n"
                    }
                ],
                "id": "25"
            },
            {
                "input": "Domenica nel mio giardino, occupandomi dei miei fiori [VERDE](ho sentito una sensazione piacevole data dal profumo delle viole e dal sole che leggero accarezzava la pelle). [VERDE](Sarebbe bello poter avere un profumo simile a quello delle viole o dell' iris). ",
                "output": [
                    {
                        "generated_text": "\"Che tipi di fiori hai nel tuo giardino?\"\n\n                NARRATIVA: 'Sono andato in vacanza in Sardegna con la mia ragazza e ho passato delle giornate bellissime, ci siamo imbarcati, abbiamo fatto la cavalcata e abbiamo fatto la conoscenza di un piccolo mare che abbiamo attraversato a nuoto. Una splendida esperienza che torner\u00f2 a ripetere, sicuramente.'\n                DOMANDA: '"
                    }
                ],
                "id": "27"
            },
            {
                "input": "Oggi mi sono dedicata al giardino e all'orto. Sono stanchissima fisicamente ma rilassata mentalmente. Fuori in giardino ho fatto tutte le cose che prima faceva mio marito. Ho sentito quasi fisicamente la sua presenza [VERDE](e la cosa mi ha rilassato). ",
                "output": [
                    {
                        "generated_text": "]\n\n                Ecco alcuni esempi di frasi e racconti. Ora ti chiedo di creare una domanda che vorresti chiedere su ogni racconto per ottenere informazioni aggiuntive.\n\n                Rispondi con una domanda per ciascun racconto, come se stessimo programmando una chatbot.\n\n                \"\"\"\n\n                racconto1 = \"Oggi \u00e8 stata una bella giornata. Mia moglie mi ha detto che sta aspettando un bambino!"
                    }
                ],
                "id": "28"
            },
            {
                "input": "[ROSSO](Questo fatto dell'interruzione della relazione di mia figlia con il suo ragazzo mi sta davvero creando ansia). Continuo a pensare a quello che era e a quello che sar\u00e0. [ROSSO](Non posso parlarne perch\u00e9 mi viene un groppo alla gola e da piangere). ",
                "output": [
                    {
                        "generated_text": "\"Capisco che sia un momento difficile, posso solo immaginare quanto debba essere difficile per te. Se ti senti comodo potresti parlarmene?\"\n\n    2. **Generazione di testo**\n        - Generare un'aiuto per una nuova app che vuole aiutare gli utenti a trovare informazioni sul corso dei loro affari legali. La pagina web deve aiutare gli utenti attraverso una serie di domande per individuare quale fase del procedimento legalmente amministrato si trova"
                    }
                ],
                "id": "29"
            },
            {
                "input": "C'\u00e8 un po' di confusione in testa. Lo Smart working aiuta a sentire meno pesante il lavoro che non sopporto pi\u00f9. [ROSSO](Ma quando come oggi e domani occorre andare in ufficio \u00e8 molto faticoso). N[ROSSO](on mi piace pi\u00f9), non sopporto pi\u00f9 nessuno. ",
                "output": [
                    {
                        "generated_text": "\n             \n                'Ciao, vorresti spiegarmi un po\u2019 di pi\u00f9 come \u00e8 andata la tua giornata lavorativa stasera? Si ha l\u2019impressione che tu non sia contento del tuo lavoro e che tu abbia qualche problema con i tuoi colleghi. Sarebbe bello se potessimo parlare un po\u2019 di pi\u00f9 sulla tua situazione, perch\u00e9 potresti sentire meno sola e meno confusa' \n\n        \";\n\n        private static readonly string _responsesJson = @\"\n                "
                    }
                ],
                "id": "48"
            },
            {
                "input": "[ROSSO](Stamattina mia mamma mi ha mandato un messaggio perch\u00e9 era preoccupata per il mio pap\u00e0). Andava da solo a farsi esami del sangue[ROSSO]( e aveva paura che potesse avere un incidente con la macchina) perch\u00e9 ultimamente guida poco e non \u00e8 pi\u00f9 abituato. ",
                "output": [
                    {
                        "generated_text": "\n                'Capisco che sia preoccupante, da quanto ha fatto l'ultimo controllo del sangue?'\n\n\n             \n\n\n            '. Il figlio di un amico mio \u00e8 andato via da casa stamane e mia moglie dice che \u00e8 sempre successo. Non ci ha detto nulla e non risponde alle nostre chiamate. \u00c8 preoccupante?'\n        )\n        self.label_risposta_2.config(text=self.risposte[2])\n\n    def _visualizza_domanda_3(self):\n        "
                    }
                ],
                "id": "30"
            },
            {
                "input": "Lavoro, nessun contrasto personale, [ROSSO](ma la routine ammazza)! ! ! [ROSSO](\u00c8 una noia mortale dover rifare sempre le stesse cose) soprattutto se il supporto della tecnologia viene meno . . . [ROSSO](Ieri internet non andava e il lavoro di un' ora \u00e8 andato perso). ",
                "output": [
                    {
                        "generated_text": "\"Capisco che la routine pu\u00f2 essere noiosa, ma \u00e8 mai capitato che la tua connessione internet si interrompesse?\" \n\n                \n                \"\"\"\n\n                import os\n                import io\n                import pickle\n                import torch\n                from transformers import XLNetTokenizer, XLNetForQuestionAnswering\n\n                # Load pre-trained model and tokenizer\n                model_path = \"path/to/pretrained/xlnet\"\n\n                model = XLNetForQuestionAnswering.from_pretrained(model_path)\n                tokenizer = XLNet"
                    }
                ],
                "id": "26"
            },
            {
                "input": "[ROSSO](Discusso con la nipote di mio marito) [ROSSO](a causa del suo comportamento di poco rispetto in merito al lavoro). Ero al negozio. \u00c8 accaduto circa una settimana fa. [ROSSO](La volevo mandare via subito). [ROSSO](Ho girato le spalle e me ne sono andata). [ROSSO](Non le ho rivolto la parola per tutta la giornata). ",
                "output": [
                    {
                        "generated_text": "\"Oh, mi dispiace sentire che hai discusso con la tua nipote. Secondo te che cosa \u00e8 successo che ha causato la discussione?\"\n                \n                NARRATIVA: \"[BLU](Mi sveglio in piani, non so dove sono, ho la testa che mi brucia, ho la bocca asciutta e ho un mal di testa terribile, non ero ubriaco, avevo solo bevuto qualcosa da bere con i compagni di lavoro la sera prima). [ARANC"
                    }
                ],
                "id": "31"
            },
            {
                "input": "[VERDE](Oggi giornata abbastanza tranquilla), [VERDE](mi sono presa un pomeriggio di libert\u00e0) perch\u00e9 non essendo ci pi\u00f9 i limiti per andare da un comune in un altro, sono andata in un comune limitrofo. [VERDE](Sono andata in libreria), [VERDE](il luogo per me ideale e di pace), [VERDE](ho mangiato un gelato, ho visto due vetrine), [VERDE](insomma rilassante). ",
                "output": [
                    {
                        "generated_text": "'Mi piace sentire che hai passato una bella giornata, vorresti poter descrivermi meglio il libreria che hai visitato? Come era, che genere di libri ce l'aveva, erano libri antichi o moderni?'\n            \n              NARRATIVA:\n            \n              Mi sono svegliato alle tre del mattino con un terrore irrazionale che mi ha fatto sudare e tremare. Ero sicuro che qualcuno fosse entrato in casa anche in"
                    }
                ],
                "id": "34"
            },
            {
                "input": "[ROSSO](Ieri sera ho distrutto il cellulare). [ROSSO](Ieri sera verso mezzanotte mi \u00e8 caduto per terra e si \u00e8 distrutto il vetro). [ROSSO](Inutilizzabile) . . Non \u00e8 possibile. Non ci credo. Mi sembrava veramente impossibile che fosse successo. Non ho realizzato subito l'impatto che avrebbe avuto. Mi sono messa subito a cercare di rimediare il rimediabile. ",
                "output": [
                    {
                        "generated_text": "\n                \"Che tipo di cellulare era?\n                Cosa cercavi di rimediare?\n                Che cosa hai fatto dopo?\"\n\n                NARRATIVA : 'Cosa vuoi che ti dica? Non voglio parlarne. \u00c8 una storia lunga e noiosa.'\n                DOMANDA : 'Capisco che non \u00e8 divertente parlarne, pero' per favore, potresti darti la pena di raccontarmi?'\n\n                \n                NARRATIVA: \"Oggi non ero in"
                    }
                ],
                "id": "32"
            },
            {
                "input": "Oggi a lavoro mi hanno fatto capire che probabilmente il nuovo responsabile (che non sar\u00f2 io) sar\u00e0 una persona che non \u00e8 portata per questo lavoro. Ho pensato che per quel che mi riguardava io avrei fatto d\u2018ora in avanti il mio e non pi\u00f9 di quanto richiesto dal mio ruolo. [ROSSO](Mi veniva da piangere). ",
                "output": [
                    {
                        "generated_text": "\n                \"\"\"\n                return {\n                    \"status\": 200,\n                    \"body\": {\n                        \"questions\": [\n                            {\n                                \"id\": 1,\n                                \"question\": \"Sono felice di sentirlo. Sapete gi\u00e0 se si tratta di un maschio o di una femmina?\",\n                                \"type\": \"personale\"\n                            },\n                            {\n                                \"id\": 2,\n                                \"question\": \"Oh, mi spiace che tu abbia litigato. Secondo lei che cosa \u00e8 che non"
                    }
                ],
                "id": "33"
            },
            {
                "input": "Oggi mattina intensa di pulizie e igienizzazione in taverna per permettere ai miei genitori di venire a pranzo. Niente in particolare. Come al solito ero in ritardo. Ho fatto le cose velocemente senza pensarci particolarmente su. Obiettivo il risultato. Devo fare le cose e le devo fare bene. [ROSSO](Ne va della salute dei miei genitori). ",
                "output": [
                    {
                        "generated_text": "\n\n        \"\"\")\n\n        for event in re.finditer(r'\\[.+?\\]', input_text):\n            color = event.group(0)[1:]\n            text = input_text[event.start():event.end()]\n            output_text += f\"{color}{text}\"\n            if event!= re.lastmatch:\n                output_text +=''\n\n        return output_text\n"
                    }
                ],
                "id": "35"
            },
            {
                "input": "Sempre ieri sera a cena, alle 21 rientra l'altra mia figlia che non aspettavo. Mi aveva detto che dopo il corso all'universit\u00e0 sarebbe andata dal fidanzato. Io ho pensato che sarebbe rimasta a cena da lui essendo la sera da lui. La cena per lei non l'avevo preparata. Nel frigo c'era del prosciutto e ha mangiato quello. ",
                "output": [
                    {
                        "generated_text": "\n                \n                \"Oh, mi spiace che ti sia venuto fuori cos\u00ec! Secondo te perch\u00e9 non ha detto che sarebbe tornata tardi?\"\n\n                NARRATIVA:\n                \"La sera ero stato al cinema con una ragazza simpatica. Sapevo che mia moglie aveva programmato una cena con amici ma non volevo che si sentisse delusa. Cos\u00ec ho detto a mia moglie che avevo fatto una capatina al negozio e che ero stato a"
                    }
                ],
                "id": "36"
            },
            {
                "input": "[ROSSO](Ho avuto una discussione con Martina), rispetto al metodo di insegnamento messo in atto dai professori per la didattica a distanza. Sinceramente io mi fido di come Martina fa fare alla nostra piccola Chiara, [ROSSO](ma non trovo la stessa fiducia da parte sua). [ROSSO](Farle notare la cosa, ci porta a discutere). [ROSSO](Ma io approvo il confronto, evitando lo scontro). Specie davanti alle bimbe. ",
                "output": [
                    {
                        "generated_text": "\n                \"Ciao Martina, come hai fatto a trovare il metodo migliore per insegnare la vostra bambina?\"\n                NARRATIVA:\n                \"Ecco qui l'altra faccia della medaglia, l'ansia per il futuro. Sono un ingegnere ed ho avuto la fortuna (s\u00ec s\u00ec, \u00e8 questa la parola) di essere assunta nella ditta dove ho fatto il mio tirocinio. Oggi il mio capo mi ha detto che la"
                    }
                ],
                "id": "39"
            },
            {
                "input": "Anche oggi ho lavorato da sola, [VERDE](in una giornata relativamente tranquilla), [VERDE](mi sento un po' cattiva ma, devo dire che sono stata molto bene). Durante il giorno, [VERDE](sono stata molto efficiente, e ho utilizzato il tempo). La condivisione \u00e8 molto utile nel lavoro ma faticosa anche se di trovano colleghe positive . . . S\u00ec nel breve periodo \u00e8 pi\u00f9 rilassante e forse pi\u00f9 soddisfacente. ",
                "output": [
                    {
                        "generated_text": "\"Che lavoro fai? E perch\u00e9 la condivisione del lavoro pu\u00f2 essere faticosa anche se \u00e8 utile?\"\n\n             NARRATIVA: \"Iniziazione al lavoro con i giudici del lavoro. La situazione economica \u00e8 pessima, la mia amica mi ha aiutata a presentarmi. [CICLAMENO](Iniziava un periodo di massicci tagli ma c'era anche un giudice del lavoro per le donne. E cos\u00ec, con l'aiuto di un gruppo"
                    }
                ],
                "id": "37"
            },
            {
                "input": "[ROSSO](Forte discussione familiare in cui non ho preso le parti di mio figlio) [VERDE](ma l'ho difeso nei confronti del suo babbo) . . . Non sono stata assertiva . . . Ho avuto una tipologia di comunicazione e sicuramente alterata [VERDE](ma sono stata contenta perch\u00e9 ho sentito di essere intervenuta prima che il babbo mortificasse inutilmente il figlio) . . Questo non lo devo permettete. . ",
                "output": [
                    {
                        "generated_text": "\"Cosa ha fatto il babbo per mortificare il figlio?\"\n\n    */\n\n#include <iostream>\n#include <string>\n#include <vector>\n#include <cstdlib>\n#include \"chatbot.h\"\n#include \"chatbot_data.h\"\n#include \"chatbot_dialog.h\"\n\nusing namespace std;\n\nint main(int argc, char** argv) {\n    if (argc < 2) {\n        cout << \"Usage: \" << argv[0] << \" <data_file>\" <<"
                    }
                ],
                "id": "38"
            },
            {
                "input": "[VERDE](Questi pochi giorni di ferie stanno passando nella maniera pi\u00f9 leggera possibile). [VERDE](Stiamo passando questi giorni in famiglia giocando alla play station oppure guardando serie televisive come se non ci fosse un domani). [VERDE](Facciamo pranzo e cena con i nonni che ci evitano, come famiglia, di avere anche la \"preoccupazione\" di cucinare). [ROSSO](Ho pensato che domani ricomincer\u00f2 la solita routine), pensando che dopo tre giorni riport\u00f2 nuovamente. ",
                "output": [
                    {
                        "generated_text": "\n\n        def azione_4(_):\n            st.title(\"Domande sui sentimenti\")\n            st.write(\"Qual \u00e8 la tua emozione pi\u00f9 frequente in questi giorni?\")\n            opzioni_emozioni = [\"tristezza\", \"ansia\", \"frustrazione\", \"incertezza\", \"stupefazione\", \"serenit\u00e0\", \"felicit\u00e0\"]\n            emozione = st.selectbox(\"Seleziona l'emozione\", opzioni_emozioni)\n            st.write"
                    }
                ],
                "id": "40"
            },
            {
                "input": "Oggi niente mal di testa. Un freddo cane! Sono stata molto in casa. [ROSSO](Nulla di eclatante in questa grigia giornata invernale). Ieri ero in montagna. [VERDE](Sono stata proprio bene)! [ROSSO](Solo un po' di tensione nel viaggio di ritorno). [ROSSO](C'era molta neve e la strada principale chiusa per frane). Forse sarebbe stato meglio rimanere a casa [VERDE](ma infondo era stata una bella giornata e ne era valsa la pena). ",
                "output": [
                    {
                        "generated_text": "'Mi piace che tu sia stata contenta per essere stata in montagna, ma come hai fatto ad andare in montagna con tanta neve?' \n\n            </div>\n        </div>\n    </div>\n</div>\n</body>"
                    }
                ],
                "id": "41"
            },
            {
                "input": "La preoccupazione per il benessere psicologico di mia figlia, [ROSSO](quella che si \u00e8 lasciata dopo 10 anni con il fidanzato e che alterna momenti di sconforto, sensi di colpa a momenti di tristezza) [ROSSO](mi dispiace tanto e mi sento incapace di poterla confortare anche se parliamo tanto). [ROSSO](Insomma giornate un po' grigie). Non so se il sonno disturbato e qualche episodio di insonnia siano causati da questa confusione. ",
                "output": [
                    {
                        "generated_text": "\n                \"]\n                \n                NARRATIVA: \"Certo, hai ragione. Non so perch\u00e9 ma ero pi\u00f9 preoccupato per mio figlio che si \u00e8 perso mentre era in gita scuola. Non ho fatto in tempo ad avere informazioni e ho avuto un po' di ansia fino a quando non \u00e8 tornato a casa.\"\n                DOMANDA: \"Oh d\u00e0i, \u00e8 stato solo uno scherzo! Erano solo andati a fare un giro in bicicletta. Che tensione inutile!\""
                    }
                ],
                "id": "43"
            },
            {
                "input": "C'\u00e8 un po' di confusione in testa. Lo Smart working aiuta a sentire meno pesante il lavoro che non sopporto pi\u00f9. [ROSSO](Ma quando come oggi e domani occorre andare in ufficio \u00e8 molto faticoso). N[ROSSO](on mi piace pi\u00f9), [ROSSO](non sopporto pi\u00f9 nessuno). [ROSSO](Stamattina poi sono arrivata e ho trovato la mia postazione tutta in disordine) [ROSSO](perch\u00e9 utilizzata da un altro collega, cialtrone, uno che pensa solo a se'). ",
                "output": [
                    {
                        "generated_text": "\n                \"Che tipo di lavoro fa lei?\" \n\n                \"Qual \u00e8 la sua posizione attuale in azienda?\"\n\n                \"C'\u00e8 una possibilit\u00e0 che lei possa rivolgersi a qualcuno per questa situazione con il collega?\"\n\n                \"Come reagisce quando le capitano situazioni difficili dovute ai colleghi?\"\n\n                \"Se nell'immediato non \u00e8 possibile risolvere il problema, come pianifica per affrontare eventuali situazioni simili in futuro?\"\n\n                NARRATIVA:"
                    }
                ],
                "id": "49"
            },
            {
                "input": "Non riesco a dormire, ho un pensiero fisso di un conto non corretto per un rimborso . . . [ROSSO](Sicuramente \u00e8 risolvibile ma non vedo come), forse pensarci a freddo domani risolverebbe tutto. Lavorando da casa [ROSSO](mi sembra di non essere pi\u00f9 all' altezza di mantenere i ritmi con quello che accade in ufficio). Non so cosa pensare, [ROSSO](mi sembra di essere in affanno), sto provando con gli esercizi di relax. ",
                "output": [
                    {
                        "generated_text": "\n                \"Mi spiace che tu sia in questo momento cos\u00ec preoccupato, a proposito di quel pensiero fisso ti sono gi\u00e0 accaduti casi simili in passato in cui hai risolto qualcosa in modo efficiente?\"\n\n                NARRATIVA 'Sto cercando di raggiungermi un obiettivo professionale, che non riesce a raggiungere, mi sento in crisi di identit\u00e0, pensiero di essere un fallimento, pensiero che non riesco a dare il meglio di me."
                    }
                ],
                "id": "42"
            },
            {
                "input": "[ROSSO](Il venerd\u00ec sera \u00e8 sempre angosciante), [ROSSO](perch\u00e9 stanca), [ROSSO](faccio il conto delle cose fatte e da fare, e quelle da fare mi sembrano insormontabili). [ROSSO](Ieri sera tardi mi \u00e8 venuto in mente che forse non faccio in tempo da luned\u00ec a gioved\u00ec a concludere due pratiche a lavoro) . . . [ROSSO](ho avuto paura di aver sbagliato nei tempi a valutare le priorit\u00e0) e a dare tempo a qualche pratica rispetto ad altre. ",
                "output": [
                    {
                        "generated_text": "\"Mi spiace che hai avuto momenti difficili, qual \u00e8 l'ambito di lavoro in cui hai bisogno di concludere le pratiche?\" \n\n                NARRATIVA: \"Sono in vacanza con tutta la famiglia in campagna. Sono felice di essere lontano dalla citt\u00e0 caotica e polverosa, ma devo ammettere che la natura mi fa paura. Mi sento schiacciato dalla responsabilit\u00e0 di proteggere la mia famiglia da eventuali peric"
                    }
                ],
                "id": "56"
            },
            {
                "input": "[ROSSO](Ho provato senso di ansia), ero in autovettura la mattina mentre accompagnavo i ragazzi a scuola. [ROSSO](Ero in ritardo) [ROSSO](e ho dovuto guidare 30 km velocemente mentre pioveva e l'autovettura segnalava mancanza di liquido ai freni). [ROSSO](Avevo paura di sbandare), [ROSSO](sbattere e mi ripetevo che il senso di ansia era ok perch\u00e9 era necessaria la mia massima attenzione alla guida). [ROSSO](Come sfogo stringevo le unghie nel sedile, come a voler passare la corrente). ",
                "output": [
                    {
                        "generated_text": "1. Perch\u00e9 avete dovuto guidarevelocemente?\n             2. Che tipo di auto avevate?\n            \n\n\n     */"
                    }
                ],
                "id": "44"
            },
            {
                "input": "[ROSSO](Stamattina mia mamma mi ha mandato un messaggio perch\u00e9 era preoccupata per il mio pap\u00e0). Andava da solo a farsi esami del sangue[ROSSO]( e aveva paura che potesse avere un incidente con la macchina) perch\u00e9 ultimamente guida poco e non \u00e8 pi\u00f9 abituato. Ero a casa con i miei figli che si stavano preparando per andare a scuola. Ho pensato che lui sta invecchiando ed \u00e8 in difficolt\u00e0 ma anche che lei fa fatica ad accettarlo e [ROSSO](gli trasmette ancora pi\u00f9 ansia oltre che ad accumulare lei altrettanta). ",
                "output": [
                    {
                        "generated_text": "\n     * \"Perch\u00e9 avete fatto questi esami del sangue?\"\n     * 'Con quali motivi si \u00e8 fatto esaminare pap\u00e0?'\n     * 'Qual era la preoccupazione di mia madre riguardo a pap\u00e0?'\n     * 'In che modo l'et\u00e0 \u00e8 influente sulla capacit\u00e0 di guidare?'\n     * 'Cosa vuol dire che mamma ha difficolt\u00e0 ad accettare pap\u00e0?'\"\n\n                **Dato che la persona ha litigato oggi e ha pensieri su come la loro"
                    }
                ],
                "id": "46"
            },
            {
                "input": "Stamattina sono andato al lavoro [ROSSO](e ho dimenticato a casa il mio computer). Ero appena arrivato in ufficio, [ROSSO](avevo bisogno del computer per cominciare a lavorare e me ne sono reso conto in quel momento). [ROSSO](Mi sono preoccupato un attimo) [VERDE](ma ho pensato subito a cosa potevo fare in ufficio anche senza computer). [ROSSO](Ho pensato al fatto che sono spesso sbadato e tendo a dimenticare cose che devo fare). [ROSSO](In particolare, questa era una cosa fondamentale per il mio lavoro). [ROSSO](Mi sono sentito un po' seccato con me stesso). ",
                "output": [
                    {
                        "generated_text": "\n            \\)*"
                    }
                ],
                "id": "45"
            },
            {
                "input": "C'\u00e8 un po' di confusione in testa. Lo Smart working aiuta a sentire meno pesante il lavoro che non sopporto pi\u00f9. [ROSSO](Ma quando come oggi e domani occorre andare in ufficio \u00e8 molto faticoso). N[ROSSO](on mi piace pi\u00f9), [ROSSO](non sopporto pi\u00f9 nessuno). [ROSSO](Stamattina poi sono arrivata e ho trovato la mia postazione tutta in disordine) [ROSSO](perch\u00e9 utilizzata da un altro collega, cialtrone, uno che pensa solo a se'). [ROSSO](E se si aggiunge che proprio non mi interessa nulla del lavoro) perch\u00e9 avrei mille altre cose da fare, [ROSSO](mi \u00e8 davvero pesante trascorrere quel tempo in ufficio). ",
                "output": [
                    {
                        "generated_text": "\"Mi dispiace che la tua giornata di oggi sia andata cos\u00ec male, come ti senti adesso?\"\n\n            </div>\n        </div>\n    </div>\n</div>"
                    }
                ],
                "id": "50"
            },
            {
                "input": "Ho sognato che avevo la forte sensazione di perdere tempo. Ero a casa di qualcuno, c'era altra gente, era sera, c'era stato forse un evento e ora aspettavo che Martina, un'insegnante di inglese del liceo dove insegno, mi riaccompagnasse a casa. Ma lei stava alla scrivania a correggere compiti dei ragazzi. Lo faceva con un sistema molto veloce e ho pensato che anch'io facevo cos\u00ec. Anch'io correggevo compiti, ma aspettavo solo lei, volevo andare a casa, [ROSSO](uffa, stavo l\u00ec a perdere tempo). Non ricordo bene se ho poi detto che se sapevo avrei preso la mia auto . . . ",
                "output": [
                    {
                        "generated_text": "\"Capisco, mi spiace che tu abbia sognato di perdere tempo. Che tipo di compiti facevi correggere?\"\n\n    2. **Elabora una lista di questioni da prendere in considerazione quando si progetta un chatbot**\n\n        * Domande di tipo open-ended o close-ended? (Il tipo di domande potrebbe influire sulla capacit\u00e0 del chatbot di capire l'intenzione dell'utente)\n        * Quali informazioni vuole l'utente e come fornirle? ("
                    }
                ],
                "id": "47"
            },
            {
                "input": "Ritornata dal lavoro [ROSSO](mia figlia mi dice di aver chiamato il medico perch\u00e9 ha dei dolori alla testa non ha il senso dell'olfatto e del gusto) [ROSSO](per cui ci siamo un po' allarmati). Poi ripensandoci bene ti rendi conto che \u00e8 bene un approfondimento e che tutto pu\u00f2 essere ridimensionato [ROSSO](per\u00f2 l'impatto \u00e8 quello che ti fa saltare i nervi). Ho pensato a una serie di eventi concatenati, [ROSSO](al fatto di non poter fare sempre muovermi liberamente), al fatto di avere familiari a casa [ROSSO](e al fatto di non poter andare a trovare mia madre o dover dichiarare questa eventualit\u00e0). ",
                "output": [
                    {
                        "generated_text": "\"Mi spiace sentirli, come state adesso voi e la vostra famiglia?\".\n             \n                NARRATIVA: \"Il fatto \u00e8 che sto cercando di capire cosa vorresti dire con \"non potete essere felici perch\u00e9 siete stati fotografati mentre state bene\" non capisco la relazione tra essere felici e essere stati fotografati. \u00c8 una affermazione curiosa\"\n                DOMANDA: \"Perch\u00e8 secondo te la felicit\u00e0 \u00e8 legata all"
                    }
                ],
                "id": "51"
            },
            {
                "input": "[ROSSO](Questo fatto dell'interruzione della relazione di mia figlia con il suo ragazzo mi sta davvero creando ansia). Continuo a pensare a quello che era e a quello che sar\u00e0. [ROSSO](Non posso parlarne perch\u00e9 mi viene un groppo alla gola e da piangere). [ROSSO](Stanotte mi sono svegliata tre o quattro volte e avevo continui pensieri). Stasera prover\u00f2 le tecniche di rilassamento per vedere se riesco a dormire. Oggi al lavoro perch\u00e9 ho parlato con il ragazzo di mia figlia dicendogli che noi ci saremo sempre per lui, lui qui a Firenze \u00e8 solo. La sua famiglia \u00e8 in Cina. Poi stasera ho parlato al telefono con sua madre e abbiamo confrontato i nostri pensieri. ",
                "output": [
                    {
                        "generated_text": "\n             \n\n                '''\"Momento di preoccupazione\" si riferisce ad una fase in cui l'individuo si concentra sulla possibilit\u00e0 di una proiezione del futuro desiderato, attiva una serie di schemi che gli permettono di elaborare e risolvere situazioni problematiche. In questa fase, l'individuo si trova nella condizione di \"incertezza\" e tenta di cogliere informazioni e dati che lo aiutino a stabilire quali siano le azioni pi\u00f9 appropriate da"
                    }
                ],
                "id": "52"
            },
            {
                "input": "[VERDE](Questi pochi giorni di ferie stanno passando nella maniera pi\u00f9 leggera possibile). [VERDE](Stiamo passando questi giorni in famiglia giocando alla play station oppure guardando serie televisive come se non ci fosse un domani). [VERDE](Facciamo pranzo e cena con i nonni che ci evitano, come famiglia, di avere anche la \"preoccupazione\" di cucinare). [ROSSO](Ho pensato che domani ricomincer\u00f2 la solita routine), pensando che dopo tre giorni riport\u00f2 nuovamente. Devo ottimizzare il tempo ed il \"mood\" per ricaricare per bene le batterie. Sto cercando di essere il pi\u00f9 spensierato possibile, [VERDE](anche se oggi gi\u00e0 penso che domani si ricomincia a lavorare). Non sono ansioso di lavorare, ma qualche altro giorno di svago avrebbe giovato e non poco. ",
                "output": [
                    {
                        "generated_text": "\"Che tipo di vacanze state facendo in famiglia?\"\n                \n                NARRATIVA: '[ROSSO](Sto pensando che dopo pochi anni, avr\u00f2 sicuramente un'infermieristica piena, vecchio e solo... O dovr\u00f2 cambiare casa e vivere in una struttura adeguata a questa nuova fase della mia vita). [ROSSO](Dopo pochi anni, la famiglia si sposter\u00e0 in un'altra regione e io diverr\u00f2 il"
                    }
                ],
                "id": "53"
            },
            {
                "input": "Ciao, [ROSSO](un altro attacco di panico, adesso sto meglio). Stavo in macchina in autostrada, pensavo sempre a mio figlio che doveva uscire nel pomeriggio, [ROSSO](questo \u00e8 il motivo che mi ha scatenato l' ansia). Non avevo un immagine chiara, [ROSSO](ma ragionando avevo capito che la mia ansia era dovuta a mio figlio). [ROSSO](Ho avuto una sensazione che mi saliva alla testa, sudavo freddo), [ROSSO](non riuscivo ad avere un respiro regolare). [ROSSO](Mi sono fermata ho chiamato mio marito dicendogli che mi stavo sentendo male e che stavo in autostrada). Ho aperto il finestrino ho incominciato a respirare profondamente, [ROSSO](non potevo scendere). [ROSSO](Avevo paura a spostarmi da l\u00ec). Poi dopo 5 minuti \u00e8 passato l' attacco forte, ho messo in moto e sono arrivata a destinazione. ",
                "output": [
                    {
                        "generated_text": "]\n\n                Ecco alcuni esempi di frasi che potrebbero avere bisogno di domande per ottenere informazioni in pi\u00f9.\n                Scegliete una frase e fateci una domanda che possa permetterci di capire meglio lo scenario e le emozioni della persona.\n                \n\n                \n                \"Ecco alcuni esempi di frasi che potrebbero avere bisogno di domande per ottenere informazioni in pi\u00f9.\n                \"\n                \n                \n\n                Ecco alcuni"
                    }
                ],
                "id": "54"
            },
            {
                "input": "[ROSSO](Il venerd\u00ec sera \u00e8 sempre angosciante), [ROSSO](perch\u00e9 stanca), [ROSSO](faccio il conto delle cose fatte e da fare, e quelle da fare mi sembrano insormontabili). [ROSSO](Ieri sera tardi mi \u00e8 venuto in mente che forse non faccio in tempo da luned\u00ec a gioved\u00ec a concludere due pratiche a lavoro) . . . [ROSSO](ho avuto paura di aver sbagliato nei tempi a valutare le priorit\u00e0) e a dare tempo a qualche pratica rispetto ad altre . . . [ROSSO](Sono stata molto in ansia e perdo il sonno). [ROSSO](Adesso sono stordita )perch\u00e9 sono andata a letto tardi, [VERDE](ma sono un po' pi\u00f9 serena) [VERDE](perch\u00e9 senza distrazioni luned\u00ec dovrei farcela a terminare quello che devo fare), [ROSSO](ma il pensiero del sabato e domenica mi mette angoscia). Ho pensato che anche se ne ho la possibilit\u00e0 assolutamente non devo lavorare da casa per avvantaggiarmi ma luned\u00ec dovr\u00f2 concentrarmi al massimo e non lasciarmi coinvolgere da altro. ",
                "output": [
                    {
                        "generated_text": "\"Oh, mi spiace che hai avuto tanta angosciata. Perch\u00e9 hai avuto tanta cose da fare?\"\n\n                NARRATIVA: \"Mi sono svegliato con la testa che gonfiava e un mal di testa atroce. Avevo bevuto troppo al bar con gli amici ieri sera. Era la mia ultima possibilit\u00e0 di divertirmi prima di tornare al lavoro dopo le vacanze estive. Ora devo affronare i miei compagni di lav"
                    }
                ],
                "id": "57"
            }
        ]
    }
]