[
    {
        "model_name": "lmsys/vicuna-13b-v1.3",
        "prompt": "                Sei una AI che deve fare una domanda su un racconto in maniera tale da ottenere pi\u00f9 informazioni su eventi accaduti nel racconto. A seguire degli esempi e successivamente una narrativa a cui dovrai fare una domanda in modo da ottenere pi\u00f9 informazioni.\n\n                NARRATIVA: \"[VERDE](Oggi \u00e8 stata una bella giornata. Mia moglie mi ha detto che sta aspettando un bambino! Sono super felice!) Mi chiedo se sar\u00f2 un bravo padre. [ROSSO](Mio padre non \u00e8 stato molto presente quando ero un bambino.)\"\n                DOMANDA: \"Sono felice di sentirlo. Sapete gi\u00e0 se si tratta di un maschio o di una femmina ?\"\n\n                NARRATIVA: \"[ROSSO](Oggi ho litigato con Chiara, lei era arrabbiata con me perch\u00e9 secondo lei non io so fare le cose.)\"\n                DOMANDA: \"Oh, mi spiace che tu abbia litigato. Secondo lei che cosa \u00e8 che non sai fare ?\"\n\n                NARRATIVA: \"[VERDE](Oggi \u00e8 una bella giornata. Ho pattinato sul ghiaccio e poi sono andato al cinema.)\"\n                DOMANDA: \"bello sentire che \u00e8 stata una buona giornata per te. Dove sei stato a pattinare ?\"\n                \n                NARRATIVA: \"Pensavo sempre a mio figlio che doveva uscire nel pomeriggio, questo \u00e8 il motivo che mi ha scatenato l\u2019ansia.\"\n                DOMANDA: \"Capisco, dove doveva andare tuo figlio?\"\n\n                NARRATIVA: \"Mia figlia si \u00e8 lasciata con il suo fidanzato ed ora ho sensi di colpa e momenti di tristezza, mi dispiace tanto e mi sento incapace di supportarla in questo. Insomma giornate un po\u2019 grigie. Non so se il sonno disturbato e qualche episodio di insonnia siano causati da questa confusione.\"\n                DOMANDA: \"Mi dispiace tanto, da quanto erano insieme?\"\n\n                NARRATIVA:  '{prompt}'\n                DOMANDA:\n             ",
        "results": [
            {
                "input": "Ciao tutto bene [VERDE](una giornata in pieno relax). ",
                "output": [
                    {
                        "generated_text": " \"Non riesco a capire perch\u00e9, ma mi sento felice per te. Sieti stati insieme da molto tempo?\"."
                    }
                ],
                "id": "0"
            },
            {
                "input": "Ciao, [VERDE](tutto bene) molto lavoro il questi ultimi giorni. ",
                "output": [
                    {
                        "generated_text": " \"Mi fa piacere che tu sia occupato. Quali sono le tue sfide di lavoro ora?\n\"\"\"\n\n\n\n#Quindi\nprint(\"Domande fatte:\")\nfor i, d in enumerate(do_mi):\n    print(i, \" - \", d)\nprint(\"\")\n\n#Risposte date\nprint(\"Risposte date:\")\nfor i, r in enumerate(risposte):\n    print(i, \" - \", r)\nprint(\"\")\n#Output dell'algoritmo\nprint"
                    }
                ],
                "id": "1"
            },
            {
                "input": "[VERDE](Mi sento leggero). Sono in viaggio per andare a trovare mia figlia. ",
                "output": [
                    {
                        "generated_text": " Mi fa piacere sapere che sei in viaggio per trovare tua figlia. E dove stai andando?\u00a0 \n            </dialog>\n          </template>\n        </interaction>\n        <interaction id=\"e4\">\n          <template>\n            <dialog>\n              <question\n                id=\"e4question\">Spero che tu abbia passato una giornata felice. Come ti senti ora?</question>\n              </dialog>\n          </template>\n        </interaction>\n        <interaction id=\"e5\">"
                    }
                ],
                "id": "2"
            },
            {
                "input": "Questa mattina ero a casa con mia figlia e [VERDE](sono molto rilassata). ",
                "output": [
                    {
                        "generated_text": " \"Sembra che tu sia passata una giornata piacevol"
                    }
                ],
                "id": "3"
            },
            {
                "input": "Ciao. [VERDE](Oggi giornata abbastanza tranquilla). Non si lavora ma si hanno faccende domestiche e giardinaggio. ",
                "output": [
                    {
                        "generated_text": ""
                    }
                ],
                "id": "5"
            },
            {
                "input": "[ROSSO](Stamattina mia mamma mi ha mandato un messaggio perch\u00e9 era preoccupata per il mio pap\u00e0). ",
                "output": [
                    {
                        "generated_text": " \"Perch\u00e9 era preoccupata per tuo pap\u00e0?\""
                    }
                ],
                "id": "6"
            },
            {
                "input": "Sono giorni che piove, [VERDE](ma va bene cos\u00ec)! ! [VERDE](Meno male che non era neve)! ! ",
                "output": [
                    {
                        "generated_text": " DOMANDA\\_VERSO\\_GRIGO\\_4:\n            DOMANDA\\_CUST\\_SANTA\\_CASA\\_VERDE\n                NARRATIVA\\_PRIMO\\_CASO: \"Perch\u00e9 hai detto che era piove?\"\n              DOMANDA\\_SECONDO\\_CASO: \"E cosa ne pensi della pioggia?\"\n            }\n          seton\n        }\n      }\n    }\n    // Chiusura tag\n    </span>\n  `;\n</script>\n```"
                    }
                ],
                "id": "4"
            },
            {
                "input": "Piove e nevica da giorni. Adesso c'\u00e8 anche il vento. Speriamo il tempo non faccia malanni. ",
                "output": [
                    {
                        "generated_text": " \"Hai mai sentito qualcosa di interessante riguardo ai tuoi pensieri, sentimenti o esperienze?\""
                    }
                ],
                "id": "7"
            },
            {
                "input": "[ROSSO](Stasera a casa di mia madre ho sentito un grande senso di abbandono e di indifferenza). ",
                "output": [
                    {
                        "generated_text": "\n\nIn alternativa, l\u2019AI potrebbe essere progettata per fare domande in modo da esplorare le emozioni e le sensazioni dei personaggi del racconto e, di conseguenza, fornire un feedback pi\u00f9 approfondito. Ad esempio, l\u2019AI potrebbe chiedere:\n\n* \"Come ti sentivi quando hai litigato con Chiara?\"\n* \"Come sei sentito quando hai saputo della gravidanza di tuo fratello?\"\n* \"Qual \u00e8 la tua esperienza personale di essere un padre?\"\n"
                    }
                ],
                "id": "8"
            },
            {
                "input": "Stavo parlando con una collega davanti ad un caff\u00e8, si parlava del Natale, del pranzo dei regali. ",
                "output": [
                    {
                        "generated_text": " \"Oh, mi fa piacere che tu ti sia divertito. Dove si trovava la tua conversazione?\""
                    }
                ],
                "id": "9"
            },
            {
                "input": "[VERDE](Sono soddisfatta). [VERDE](Il mio corso di inglese sta procedendo bene). Riuscire a studiare una lingua straniera porta [VERDE](soddisfazione)",
                "output": [
                    {
                        "generated_text": " \"Sono felice di sentirlo. Come stai studiando l'inglese? Ti aiuti una classe di lingua o ti stai c"
                    }
                ],
                "id": "10"
            },
            {
                "input": "Ciao, ho ricevuto un messaggio da quello che a breve diventer\u00e0 il mio ex socio e [ROSSO](ho provato nausea). ",
                "output": [
                    {
                        "generated_text": " \"Che tipo di messaggio ha ricevuto? Mi dispiace sentirla provare nausea."
                    }
                ],
                "id": "11"
            },
            {
                "input": "[ROSSO](Sono arrabbiato) perch\u00e9 la mia macchina mi ha lasciato a piedi e devo rientrare a Roma con il treno. ",
                "output": [
                    {
                        "generated_text": " \"Oh, mi spiace sentire che sei arrabbiato. Qual \u00e8 la tua destinazione e quando dobbiamo partire?\""
                    }
                ],
                "id": "12"
            },
            {
                "input": "[ROSSO](Mi sono trovata con l'acqua alla gola). Ho pensato che non ce l'avrei fatta. Mercoled\u00ec in macchina penso a come organizzarmi. ",
                "output": [
                    {
                        "generated_text": " \"Sembra che tu stia avendo difficolt\u00e0 a respirare all'improvviso. Come \u00e8 arrivato questo sintomo e hai provato a fare qualcosa per aiutarti?\"\n\n                NARRATIVA: \"[VERDE](Mi sono risvegliato questa mattina senza alcun dolore alla schiena! Sembra che i massaggi abbiano funzionato!)\"\n                DOMANDA: \"Mi fa piacere sentirlo. Hai utilizzato la massaggiatrice o hai"
                    }
                ],
                "id": "13"
            },
            {
                "input": "Voglio chiamare una persona, [ROSSO](ma poi non lo faccio perch\u00e9 ho paura di ricevere un rifiuto o non sapere cosa dire). ",
                "output": [
                    {
                        "generated_text": " \"Capisco che pu\u00f2 essere difficile chiamare qualcuno, perch\u00e9 hai paura di ricevere un rifiuto o di non sapere cosa dire. Ti senti a disagio o confuso? \"\n```\n\n```"
                    }
                ],
                "id": "14"
            },
            {
                "input": "Ciao! [ROSSO](Che fastidio i colleghi che vogliono metterti ansia). Ho immaginato una bambina petulante per il suo tentativo di ledere la mia tranquillit\u00e0. ",
                "output": [
                    {
                        "generated_text": "\n\n\"\n\nQuando senti \"ansia\" e \"disturbi\n\nIl sistema \u00e8 in grado di generare la domanda \"Quando hai provato ansia o stress negli ultimi 3 mesi?\""
                    }
                ],
                "id": "15"
            },
            {
                "input": "[ROSSO](Il venerd\u00ec sera \u00e8 sempre angosciante), [ROSSO](perch\u00e9 stanca), faccio il conto delle cose fatte e da fare, e quelle da fare mi sembrano insormontabili. ",
                "output": [
                    {
                        "generated_text": " \"Come ti senti quando facci le cose che ti fanno sentire 'insormontabili'?\""
                    }
                ],
                "id": "55"
            },
            {
                "input": "[VERDE](Oggi sono molto pi\u00f9 tranquilla) . . . [VERDE](fine settimana gratificante in famiglia). Era il mio compleanno e finalmente avevo tutta la mia famiglia riunita. ",
                "output": [
                    {
                        "generated_text": " \"E tu sei felice per la prima volta in un po '? Sembra che la tua famiglia sia molto importante per te.\"\n\n                NARRATIVA: \"[ROSSO](Non vedo l\u2019ora di iniziare il mio nuovo lavoro.)\"\n                DOMANDA: \"Sai qual\u2019\u00e8 il tuo nuovo lavoro? Spero tu stia molto felice per il tuo nuovo lavoro.\"\n\n                NARRATIVA: \"[VERDE](Sono felice di vedere la mia vecchia amica Maria dopo tanto tempo"
                    }
                ],
                "id": "16"
            },
            {
                "input": "[VERDE](Dopo oltre 7 mesi stasera ho potuto rivedere la zia di 94 anni). [VERDE](Ho pensato al mio primo bambolotto che mi ha regalato proprio lei). ",
                "output": [
                    {
                        "generated_text": " \"Mi fa piacere sentire che hai potuto rivedere la tua zia, hai passato un bel momento con lei? Come ti ha fatto sentire il pensiero del tuo primo bambolotto?\""
                    }
                ],
                "id": "17"
            },
            {
                "input": "[ROSSO](Mi \u00e8 dispiaciuto stamattina non aver avuto pazienza con mio padre). Mi sono resa conto che \u00e8 davvero difficile, ma ripensandoci dopo, magari invece avrei potuto riuscirci. ",
                "output": [
                    {
                        "generated_text": "\n```"
                    }
                ],
                "id": "18"
            },
            {
                "input": "[ROSSO](Perch\u00e9 alcuni colleghi amano criticare tutto e tutti?) A lavoro stamattina ho immaginato una bambina sciocca. [ROSSO](Provo antipatia verso quella collega). Non ho fatto nulla. Mi sono solo allontanata. ",
                "output": [
                    {
                        "generated_text": " \"Non capisco, cosa hai imaginato e perch\u00e9 provi antipatia per quella collega?\""
                    }
                ],
                "id": "19"
            },
            {
                "input": "Ritornata dal lavoro [ROSSO](mia figlia mi dice di aver chiamato il medico perch\u00e9 ha dei dolori alla testa non ha il senso dell'olfatto e del gusto) [ROSSO](per cui ci siamo un po' allarmati). ",
                "output": [
                    {
                        "generated_text": " 'Mi fa piacere che abbia chiamato il medico. Quali sono i sintomi che lei stanno attraversando?"
                    }
                ],
                "id": "20"
            },
            {
                "input": "Ciao, [ROSSO](un altro attacco di panico, adesso sto meglio). Stavo in macchina in autostrada, pensavo sempre a mio figlio che doveva uscire nel pomeriggio, [ROSSO](questo \u00e8 il motivo che mi ha scatenato l' ansia). ",
                "output": [
                    {
                        "generated_text": " \"Riesci a prenderti un attimo per raffletter"
                    }
                ],
                "id": "21"
            },
            {
                "input": "A casa mia, seduta sul divano, ho provato uno degli esercizi. [VERDE](Mi piace). Penso che sia importante farlo tutti i giorni per avvertirne i benefici. Ho immaginato miei polmoni che si riempivano d' aria. ",
                "output": [
                    {
                        "generated_text": "\n```"
                    }
                ],
                "id": "22"
            },
            {
                "input": "Stamattina sono andato al lavoro [ROSSO](e ho dimenticato a casa il mio computer). Ero appena arrivato in ufficio, [ROSSO](avevo bisogno del computer per cominciare a lavorare e me ne sono reso conto in quel momento). ",
                "output": [
                    {
                        "generated_text": " 'Hai trovato un modo\n```"
                    }
                ],
                "id": "23"
            },
            {
                "input": "Sto provando ad addormentarmi, [ROSSO](ma pensiero di domattina mi mette a disagio). Ripenso alla routine che mi aspetta domattina [ROSSO](e non ne sono molto entusiasta). [VERDE](Ho immaginato un panorama boschivo ed un ruscello). [VERDE](Cercando di rilassarmi pi\u00f9 possibile). ",
                "output": [
                    {
                        "generated_text": "\n\n\n\n\n\n\n\n\n\n\n\n\n\n\n\n\n\n\n\n\n\n\n\n\n\n\n\n\n\n\n\n\n\n\n\n\n\n\n\n\n\n\n\n\n\n\n\n\n\n\n\n\n\n\n\n\n\n\n\n\n\n\n\n\n\n\n\n\n\n\n\n\n\n\n\n\n\n\n\n\n\n\n\n\n\n\n\n\n\n\n\n\n\n\n\n\n\n\n\n\n\n\n\n\n\n\n\n\n\n\n\n\n\n\n\n\n\n\n\n\n\n\n\n\n\n\n\n"
                    }
                ],
                "id": "24"
            },
            {
                "input": "Stamattina [ROSSO](uno dei figli ha fatto un piccolo incidente), bucando una gomma. Ero a casa.[ROSSO]( Questa notizia mi ha creato agitazione), per organizzare la risoluzione del problema, senza ritardare l'arrivo in ufficio, in cui era programmato un incontro importante. ",
                "output": [
                    {
                        "generated_text": " \"Oh no, mi dispiace per il tuo figlio. Come \u00e8 riuscito a bucare una gomma e cosa \u00e8 successo poi? \u00c8 riuscito a raggiungere il destinino in tempo?\"\n\n                NARRATIVA: 'Stamattina [ROSSO](Mi sono risvegliata con una forte emottivit\u00e0, mi \u00e8 venuto da piangere). Non so cosa ne sia stato, magari ho sognato qualcosa che mi ha commossa. Ho deciso di fare una passeggiata, ma non ho trovato conforto."
                    }
                ],
                "id": "25"
            },
            {
                "input": "Domenica nel mio giardino, occupandomi dei miei fiori [VERDE](ho sentito una sensazione piacevole data dal profumo delle viole e dal sole che leggero accarezzava la pelle). [VERDE](Sarebbe bello poter avere un profumo simile a quello delle viole o dell' iris). ",
                "output": [
                    {
                        "generated_text": " \"Sembra di avere una passione per i fiori, ti piacerebbe avere un profumo simile ai fiori?\n\nEsempio 5:\nNARRATIVA: \"[ROSSO](Ho litigato con mia moglie) mi ha detto che mi sta lasciando.\"\nDOMANDA: \"Mi dispiace tanto sentire che hai litigato con tua moglie. Perch\u00e9 ti sta lasciando?\"\n\nNota: In questo esempio la narrativa \u00e8 in rosso per indicare un"
                    }
                ],
                "id": "27"
            },
            {
                "input": "Oggi mi sono dedicata al giardino e all'orto. Sono stanchissima fisicamente ma rilassata mentalmente. Fuori in giardino ho fatto tutte le cose che prima faceva mio marito. Ho sentito quasi fisicamente la sua presenza [VERDE](e la cosa mi ha rilassato). ",
                "output": [
                    {
                        "generated_text": " 'Sembra che sia stato un giorno molto duro per te. Ti sentivi il suo supporto fisico e la sua presenza?'\n\n                NARRATIVA: [VERDE](Sono un po' sorpresa, il mio cane ha fatto una cosa incredibile stamattina. Mi sembra cos\u00ec strano)\n                DOMANDA:  Mi sembra strano che il tuo cane abbia fatto cosa?\n\n                NARRATIVA: Mi chiesi se la situazione con il mio capo si era risolta,"
                    }
                ],
                "id": "28"
            },
            {
                "input": "[ROSSO](Questo fatto dell'interruzione della relazione di mia figlia con il suo ragazzo mi sta davvero creando ansia). Continuo a pensare a quello che era e a quello che sar\u00e0. [ROSSO](Non posso parlarne perch\u00e9 mi viene un groppo alla gola e da piangere). ",
                "output": [
                    {
                        "generated_text": "\n```"
                    }
                ],
                "id": "29"
            },
            {
                "input": "C'\u00e8 un po' di confusione in testa. Lo Smart working aiuta a sentire meno pesante il lavoro che non sopporto pi\u00f9. [ROSSO](Ma quando come oggi e domani occorre andare in ufficio \u00e8 molto faticoso). N[ROSSO](on mi piace pi\u00f9), non sopporto pi\u00f9 nessuno. ",
                "output": [
                    {
                        "generated_text": " \"Sai, non ho mai pensato al contrario, ma il Smart working pu\u00f2 essere un modo per liberarsi del lavoro che non sopporti pi\u00f9. Potresti provare a parlare con il tuo capo o con qualcun altro a cui ti senti fiducioso riguardo al tuo lavoro e vedere se puoi trovare un modo per lavorare in modo pi\u00f9 efficiente, magari utilizzando il smart working? Questa soluzione potrebbe aiutarti a sentirti meno pesante e a gestire meglio le tue responsabilit\u00e0"
                    }
                ],
                "id": "48"
            },
            {
                "input": "[ROSSO](Stamattina mia mamma mi ha mandato un messaggio perch\u00e9 era preoccupata per il mio pap\u00e0). Andava da solo a farsi esami del sangue[ROSSO]( e aveva paura che potesse avere un incidente con la macchina) perch\u00e9 ultimamente guida poco e non \u00e8 pi\u00f9 abituato. ",
                "output": [
                    {
                        "generated_text": " \"Oh mia, non mi sembra giusto, come sta il padre e come sono gli esami del sangue?"
                    }
                ],
                "id": "30"
            },
            {
                "input": "Lavoro, nessun contrasto personale, [ROSSO](ma la routine ammazza)! ! ! [ROSSO](\u00c8 una noia mortale dover rifare sempre le stesse cose) soprattutto se il supporto della tecnologia viene meno . . . [ROSSO](Ieri internet non andava e il lavoro di un' ora \u00e8 andato perso). ",
                "output": [
                    {
                        "generated_text": " Sembra che tu sia sotto pressione al lavoro e hai problemi tecnologici. Come ti senti riguardo a tutto questo?\n\n                NARRATIVA: \"Io e mia moglie abbiamo deciso di separarci, ci siamo sposati da poco ma abbiamo capito che non funzioniamo insieme.\"\n                DOMANDA: \"Oh, mi dispiace molto per te. Come ti senti adesso riguardo alla separazione?\"\n                \n                NARRATIVA: \"Sarebbe"
                    }
                ],
                "id": "26"
            },
            {
                "input": "[ROSSO](Discusso con la nipote di mio marito) [ROSSO](a causa del suo comportamento di poco rispetto in merito al lavoro). Ero al negozio. \u00c8 accaduto circa una settimana fa. [ROSSO](La volevo mandare via subito). [ROSSO](Ho girato le spalle e me ne sono andata). [ROSSO](Non le ho rivolto la parola per tutta la giornata). ",
                "output": [
                    {
                        "generated_text": " \"Oh, senti. Hai avuto un episodio di comportamento poco rispettoso in un negozio. Dove sei stata? Come ti sei sentita durante l'episodio?\"\n\n                NARRATIVA:  \" [ROSSO](Era una domanda in merito al lavoro, il quale era stato portato in discussione) [ROSSO](la mia nipote, figlia del mio marito)\n [ROSSO](Ero in un negozio di fiori, e lei \u00e8 venuta a cercarmi)"
                    }
                ],
                "id": "31"
            },
            {
                "input": "[VERDE](Oggi giornata abbastanza tranquilla), [VERDE](mi sono presa un pomeriggio di libert\u00e0) perch\u00e9 non essendo ci pi\u00f9 i limiti per andare da un comune in un altro, sono andata in un comune limitrofo. [VERDE](Sono andata in libreria), [VERDE](il luogo per me ideale e di pace), [VERDE](ho mangiato un gelato, ho visto due vetrine), [VERDE](insomma rilassante). ",
                "output": [
                    {
                        "generated_text": "\n```"
                    }
                ],
                "id": "34"
            },
            {
                "input": "[ROSSO](Ieri sera ho distrutto il cellulare). [ROSSO](Ieri sera verso mezzanotte mi \u00e8 caduto per terra e si \u00e8 distrutto il vetro). [ROSSO](Inutilizzabile) . . Non \u00e8 possibile. Non ci credo. Mi sembrava veramente impossibile che fosse successo. Non ho realizzato subito l'impatto che avrebbe avuto. Mi sono messa subito a cercare di rimediare il rimediabile. ",
                "output": [
                    {
                        "generated_text": " \"Oh, oh mi fa pena. Come ti senti adesso?\"\n                \n                NARRATIVA: \"[VERDE](Mi sento cos\u00ec felice! Ho appena ottenuto il lavoro che volevo!)\"\n                DOMANDA: \"Congratulazioni, sono felice per te, come ti sei sentito durante l'intervista?\"\n\n                NARRATIVA: \"[ROSSO](Stavo per iniziare la mia presentazione, quando mi sono reso conto che avevo dimenticato la mia"
                    }
                ],
                "id": "32"
            },
            {
                "input": "Oggi a lavoro mi hanno fatto capire che probabilmente il nuovo responsabile (che non sar\u00f2 io) sar\u00e0 una persona che non \u00e8 portata per questo lavoro. Ho pensato che per quel che mi riguardava io avrei fatto d\u2018ora in avanti il mio e non pi\u00f9 di quanto richiesto dal mio ruolo. [ROSSO](Mi veniva da piangere). ",
                "output": [
                    {
                        "generated_text": " \"Sembra che tu"
                    }
                ],
                "id": "33"
            },
            {
                "input": "Oggi mattina intensa di pulizie e igienizzazione in taverna per permettere ai miei genitori di venire a pranzo. Niente in particolare. Come al solito ero in ritardo. Ho fatto le cose velocemente senza pensarci particolarmente su. Obiettivo il risultato. Devo fare le cose e le devo fare bene. [ROSSO](Ne va della salute dei miei genitori). ",
                "output": [
                    {
                        "generated_text": " \"Capisco, hai detto che hai fatto delle pulizie e igienizzazione in taverna. Sono curioso di sapere di cosa hai pulito e come ti sei sentito mentre lo facevi?\""
                    }
                ],
                "id": "35"
            },
            {
                "input": "Sempre ieri sera a cena, alle 21 rientra l'altra mia figlia che non aspettavo. Mi aveva detto che dopo il corso all'universit\u00e0 sarebbe andata dal fidanzato. Io ho pensato che sarebbe rimasta a cena da lui essendo la sera da lui. La cena per lei non l'avevo preparata. Nel frigo c'era del prosciutto e ha mangiato quello. ",
                "output": [
                    {
                        "generated_text": " \"Oh, mi spiace sentire che cena non l'avevi preparata. Come \u00e8 reagita?\"\n```\nNota: Questa esercitazione \u00e8 stata creata per aiutare l'apprendimento dell'argot utilizzato nella scelta di frasi. L'esercizio consiste nel leggere la narrazione e fare una domanda per ottenere ulteriori informazioni.\n```"
                    }
                ],
                "id": "36"
            },
            {
                "input": "[ROSSO](Ho avuto una discussione con Martina), rispetto al metodo di insegnamento messo in atto dai professori per la didattica a distanza. Sinceramente io mi fido di come Martina fa fare alla nostra piccola Chiara, [ROSSO](ma non trovo la stessa fiducia da parte sua). [ROSSO](Farle notare la cosa, ci porta a discutere). [ROSSO](Ma io approvo il confronto, evitando lo scontro). Specie davanti alle bimbe. ",
                "output": [
                    {
                        "generated_text": " * \"Che c'\u00e8 di sbagliato nel metodo di insegnamento messo in atto dai professori per la didattica a distanza secondo te?\"\n              * \"Quali sono i tuoi obiettivi didattici per la bambina di cui prendi cura?\"\n              * \"Come ti senti quando Martina non condivide la tua opinione sul metodo educativo della bambina?\"\n              * \"Cosa fai per cercare di trovare un compromesso con Martina sulla questione didattica?\"\n              * \"Cosa"
                    }
                ],
                "id": "39"
            },
            {
                "input": "Anche oggi ho lavorato da sola, [VERDE](in una giornata relativamente tranquilla), [VERDE](mi sento un po' cattiva ma, devo dire che sono stata molto bene). Durante il giorno, [VERDE](sono stata molto efficiente, e ho utilizzato il tempo). La condivisione \u00e8 molto utile nel lavoro ma faticosa anche se di trovano colleghe positive . . . S\u00ec nel breve periodo \u00e8 pi\u00f9 rilassante e forse pi\u00f9 soddisfacente. ",
                "output": [
                    {
                        "generated_text": " \"Come \u00e8 stato il tuo giorno oggi e cosa ti ha reso felice?\"\n\n                NARRATIVA:  [ROSSO](Sar\u00f2 felice se riuscir\u00f2 a finire il lavoro) \n                DOMANDA: \"Sembra che tu abbia delle preoccupazioni. Cosa ti sta impedendo di terminare il tuo lavoro?\"\n```\n\n```"
                    }
                ],
                "id": "37"
            },
            {
                "input": "[ROSSO](Forte discussione familiare in cui non ho preso le parti di mio figlio) [VERDE](ma l'ho difeso nei confronti del suo babbo) . . . Non sono stata assertiva . . . Ho avuto una tipologia di comunicazione e sicuramente alterata [VERDE](ma sono stata contenta perch\u00e9 ho sentito di essere intervenuta prima che il babbo mortificasse inutilmente il figlio) . . Questo non lo devo permettete. . ",
                "output": [
                    {
                        "generated_text": " \"Non so come siete riusciti a risolvere la situazione, ma sono contento che tu sia stata in grado di difendere il tuo figlio e che abbia avuto successo nel fare in modo che il pap\u00e0 non mortificasse inutilmente il figlio.\"\n\n                NARRATIVA: \"[ROSSO](Non riesco ad addormentarmi e non so perch\u00e9) [VERDE](Non ho dormito bene da quando sono stato ricoverato in ospedale pochi giorni fa).. \"\n                DOMANDA: \""
                    }
                ],
                "id": "38"
            },
            {
                "input": "[VERDE](Questi pochi giorni di ferie stanno passando nella maniera pi\u00f9 leggera possibile). [VERDE](Stiamo passando questi giorni in famiglia giocando alla play station oppure guardando serie televisive come se non ci fosse un domani). [VERDE](Facciamo pranzo e cena con i nonni che ci evitano, come famiglia, di avere anche la \"preoccupazione\" di cucinare). [ROSSO](Ho pensato che domani ricomincer\u00f2 la solita routine), pensando che dopo tre giorni riport\u00f2 nuovamente. ",
                "output": [
                    {
                        "generated_text": " \"Ci sono eventuali problemi che stai risolvendo, che hai menzionato o che stai risolvendo?\"\n```"
                    }
                ],
                "id": "40"
            },
            {
                "input": "Oggi niente mal di testa. Un freddo cane! Sono stata molto in casa. [ROSSO](Nulla di eclatante in questa grigia giornata invernale). Ieri ero in montagna. [VERDE](Sono stata proprio bene)! [ROSSO](Solo un po' di tensione nel viaggio di ritorno). [ROSSO](C'era molta neve e la strada principale chiusa per frane). Forse sarebbe stato meglio rimanere a casa [VERDE](ma infondo era stata una bella giornata e ne era valsa la pena). ",
                "output": [
                    {
                        "generated_text": " \"O"
                    }
                ],
                "id": "41"
            },
            {
                "input": "La preoccupazione per il benessere psicologico di mia figlia, [ROSSO](quella che si \u00e8 lasciata dopo 10 anni con il fidanzato e che alterna momenti di sconforto, sensi di colpa a momenti di tristezza) [ROSSO](mi dispiace tanto e mi sento incapace di poterla confortare anche se parliamo tanto). [ROSSO](Insomma giornate un po' grigie). Non so se il sonno disturbato e qualche episodio di insonnia siano causati da questa confusione. ",
                "output": [
                    {
                        "generated_text": " 'Capisco che la situazione \u00e8 molto difficile per la tua figlia, \u00e8 vero che ha un po' di mal di testa e ha perso un po' di peso, ma non riesco a capire perch\u00e9 mi sembra che stia abbassando la testa.'\n               \n\n\n\n\n\n\n\n\n\n\n\n\n\n\n\n\n\n\n\n\n\n\n\n\n\n\n\n\n\n\n\n\n\n\n\n\n\n\n\n\n\n\n\n\n\n\n\n\n\n\n\n\n\n\n\n\n\n\n\n\n\n"
                    }
                ],
                "id": "43"
            },
            {
                "input": "C'\u00e8 un po' di confusione in testa. Lo Smart working aiuta a sentire meno pesante il lavoro che non sopporto pi\u00f9. [ROSSO](Ma quando come oggi e domani occorre andare in ufficio \u00e8 molto faticoso). N[ROSSO](on mi piace pi\u00f9), [ROSSO](non sopporto pi\u00f9 nessuno). [ROSSO](Stamattina poi sono arrivata e ho trovato la mia postazione tutta in disordine) [ROSSO](perch\u00e9 utilizzata da un altro collega, cialtrone, uno che pensa solo a se'). ",
                "output": [
                    {
                        "generated_text": " 'Va tutto bene, \u00e8 un po' confusa. Cosa ti rende cos\u00ec pesante il lavoro che non puoi pi\u00f9 sopportare? E all"
                    }
                ],
                "id": "49"
            },
            {
                "input": "Non riesco a dormire, ho un pensiero fisso di un conto non corretto per un rimborso . . . [ROSSO](Sicuramente \u00e8 risolvibile ma non vedo come), forse pensarci a freddo domani risolverebbe tutto. Lavorando da casa [ROSSO](mi sembra di non essere pi\u00f9 all' altezza di mantenere i ritmi con quello che accade in ufficio). Non so cosa pensare, [ROSSO](mi sembra di essere in affanno), sto provando con gli esercizi di relax. ",
                "output": [
                    {
                        "generated_text": "\n```"
                    }
                ],
                "id": "42"
            },
            {
                "input": "[ROSSO](Il venerd\u00ec sera \u00e8 sempre angosciante), [ROSSO](perch\u00e9 stanca), [ROSSO](faccio il conto delle cose fatte e da fare, e quelle da fare mi sembrano insormontabili). [ROSSO](Ieri sera tardi mi \u00e8 venuto in mente che forse non faccio in tempo da luned\u00ec a gioved\u00ec a concludere due pratiche a lavoro) . . . [ROSSO](ho avuto paura di aver sbagliato nei tempi a valutare le priorit\u00e0) e a dare tempo a qualche pratica rispetto ad altre. ",
                "output": [
                    {
                        "generated_text": " \"Oh, mi fa piacere sentire che hai paura di non riuscire a concludere tutte le cose. Qual \u00e8 la cosa che ti preoccupa di pi\u00f9?\"\n\n                NARRATIVA: \"[ROSSO](Ho litigato con Chiara, e poi sono andato a cena con i colleghi. Ho preso una quantit\u00e0 di alcol molto maggiore di quella che avevo previsto. Mi sono fatto trovare in situazioni imbarazzanti) [ROSSO](e non riesco a dimenticare il comportamento"
                    }
                ],
                "id": "56"
            },
            {
                "input": "[ROSSO](Ho provato senso di ansia), ero in autovettura la mattina mentre accompagnavo i ragazzi a scuola. [ROSSO](Ero in ritardo) [ROSSO](e ho dovuto guidare 30 km velocemente mentre pioveva e l'autovettura segnalava mancanza di liquido ai freni). [ROSSO](Avevo paura di sbandare), [ROSSO](sbattere e mi ripetevo che il senso di ansia era ok perch\u00e9 era necessaria la mia massima attenzione alla guida). [ROSSO](Come sfogo stringevo le unghie nel sedile, come a voler passare la corrente). ",
                "output": [
                    {
                        "generated_text": " \"Hai mai avuto un incidente o un problema con i freni?\"\n```\nRiassunto:\nPer formulare una buona domanda su un'affermazione nell'AI dialog, \u00e8 importante:\n\n* Leggere attentamente l'affermazione.\n* Chiedere informazioni specifiche su eventi o situazioni che hanno portato all'affermazione.\n* Utilizzare domande aperte per ottenere maggiori dettagli e approfondimenti.\n\nSe ti \u00e8 piaciuto quest'eser"
                    }
                ],
                "id": "44"
            },
            {
                "input": "[ROSSO](Stamattina mia mamma mi ha mandato un messaggio perch\u00e9 era preoccupata per il mio pap\u00e0). Andava da solo a farsi esami del sangue[ROSSO]( e aveva paura che potesse avere un incidente con la macchina) perch\u00e9 ultimamente guida poco e non \u00e8 pi\u00f9 abituato. Ero a casa con i miei figli che si stavano preparando per andare a scuola. Ho pensato che lui sta invecchiando ed \u00e8 in difficolt\u00e0 ma anche che lei fa fatica ad accettarlo e [ROSSO](gli trasmette ancora pi\u00f9 ansia oltre che ad accumulare lei altrettanta). ",
                "output": [
                    {
                        "generated_text": " \"Grazie per avermi condiviso queste informazioni. Cosa ti fa pensare che tuo pap\u00e0 potesse avere un incidente con la macchina?\"\n\n                NARRATIVA: \"[ROSSO](Stamattina mi sono svegliato con l\u2019improvvisa voglia di un gelato, ho deciso di andare a fare una passeggiata al parco con mio figlio. Quindi abbiamo giocato a \u201cCaccia al tesoro\u201d e abbiamo fatto una lunga passeggiata"
                    }
                ],
                "id": "46"
            },
            {
                "input": "Stamattina sono andato al lavoro [ROSSO](e ho dimenticato a casa il mio computer). Ero appena arrivato in ufficio, [ROSSO](avevo bisogno del computer per cominciare a lavorare e me ne sono reso conto in quel momento). [ROSSO](Mi sono preoccupato un attimo) [VERDE](ma ho pensato subito a cosa potevo fare in ufficio anche senza computer). [ROSSO](Ho pensato al fatto che sono spesso sbadato e tendo a dimenticare cose che devo fare). [ROSSO](In particolare, questa era una cosa fondamentale per il mio lavoro). [ROSSO](Mi sono sentito un po' seccato con me stesso). ",
                "output": [
                    {
                        "generated_text": " \"Sembra un incidente di percorso. Come hai risolto la situazione al lavoro senza il computer?\""
                    }
                ],
                "id": "45"
            },
            {
                "input": "C'\u00e8 un po' di confusione in testa. Lo Smart working aiuta a sentire meno pesante il lavoro che non sopporto pi\u00f9. [ROSSO](Ma quando come oggi e domani occorre andare in ufficio \u00e8 molto faticoso). N[ROSSO](on mi piace pi\u00f9), [ROSSO](non sopporto pi\u00f9 nessuno). [ROSSO](Stamattina poi sono arrivata e ho trovato la mia postazione tutta in disordine) [ROSSO](perch\u00e9 utilizzata da un altro collega, cialtrone, uno che pensa solo a se'). [ROSSO](E se si aggiunge che proprio non mi interessa nulla del lavoro) perch\u00e9 avrei mille altre cose da fare, [ROSSO](mi \u00e8 davvero pesante trascorrere quel tempo in ufficio). ",
                "output": [
                    {
                        "generated_text": " 'Posso chiedere cos\u2019\u00e8 che ti sta causando stress in ufficio? Come ti senti riguardo al tuo lavoro?\n\n```"
                    }
                ],
                "id": "50"
            },
            {
                "input": "Ho sognato che avevo la forte sensazione di perdere tempo. Ero a casa di qualcuno, c'era altra gente, era sera, c'era stato forse un evento e ora aspettavo che Martina, un'insegnante di inglese del liceo dove insegno, mi riaccompagnasse a casa. Ma lei stava alla scrivania a correggere compiti dei ragazzi. Lo faceva con un sistema molto veloce e ho pensato che anch'io facevo cos\u00ec. Anch'io correggevo compiti, ma aspettavo solo lei, volevo andare a casa, [ROSSO](uffa, stavo l\u00ec a perdere tempo). Non ricordo bene se ho poi detto che se sapevo avrei preso la mia auto . . . ",
                "output": [
                    {
                        "generated_text": " \"Sempre sognavi di incontrarla? Cosa ti faceva sentire di perdere tempo?\"\n```\n\n```"
                    }
                ],
                "id": "47"
            },
            {
                "input": "Ritornata dal lavoro [ROSSO](mia figlia mi dice di aver chiamato il medico perch\u00e9 ha dei dolori alla testa non ha il senso dell'olfatto e del gusto) [ROSSO](per cui ci siamo un po' allarmati). Poi ripensandoci bene ti rendi conto che \u00e8 bene un approfondimento e che tutto pu\u00f2 essere ridimensionato [ROSSO](per\u00f2 l'impatto \u00e8 quello che ti fa saltare i nervi). Ho pensato a una serie di eventi concatenati, [ROSSO](al fatto di non poter fare sempre muovermi liberamente), al fatto di avere familiari a casa [ROSSO](e al fatto di non poter andare a trovare mia madre o dover dichiarare questa eventualit\u00e0). ",
                "output": [
                    {
                        "generated_text": "\n```"
                    }
                ],
                "id": "51"
            },
            {
                "input": "[ROSSO](Questo fatto dell'interruzione della relazione di mia figlia con il suo ragazzo mi sta davvero creando ansia). Continuo a pensare a quello che era e a quello che sar\u00e0. [ROSSO](Non posso parlarne perch\u00e9 mi viene un groppo alla gola e da piangere). [ROSSO](Stanotte mi sono svegliata tre o quattro volte e avevo continui pensieri). Stasera prover\u00f2 le tecniche di rilassamento per vedere se riesco a dormire. Oggi al lavoro perch\u00e9 ho parlato con il ragazzo di mia figlia dicendogli che noi ci saremo sempre per lui, lui qui a Firenze \u00e8 solo. La sua famiglia \u00e8 in Cina. Poi stasera ho parlato al telefono con sua madre e abbiamo confrontato i nostri pensieri. ",
                "output": [
                    {
                        "generated_text": " 'Sembra che tu sia molto turbato dalla situazione di tua figlia e che tu stia cercando di trovare un modo per aiutarla. Hai parlato con il suo ragazzo e hai discusso dei tuoi pensieri con sua madre. Ti aiuta a sentirti meglio parlare delle tue preoccupazioni e di come reagisci alla situazione? E cosa ne pensa il ragazzo di mia figlia? '\n\n                NARRATIVA: \"[ROSSO](Sono molto preoccupato) ["
                    }
                ],
                "id": "52"
            },
            {
                "input": "[VERDE](Questi pochi giorni di ferie stanno passando nella maniera pi\u00f9 leggera possibile). [VERDE](Stiamo passando questi giorni in famiglia giocando alla play station oppure guardando serie televisive come se non ci fosse un domani). [VERDE](Facciamo pranzo e cena con i nonni che ci evitano, come famiglia, di avere anche la \"preoccupazione\" di cucinare). [ROSSO](Ho pensato che domani ricomincer\u00f2 la solita routine), pensando che dopo tre giorni riport\u00f2 nuovamente. Devo ottimizzare il tempo ed il \"mood\" per ricaricare per bene le batterie. Sto cercando di essere il pi\u00f9 spensierato possibile, [VERDE](anche se oggi gi\u00e0 penso che domani si ricomincia a lavorare). Non sono ansioso di lavorare, ma qualche altro giorno di svago avrebbe giovato e non poco. ",
                "output": [
                    {
                        "generated_text": " \"Hai gi\u00e0 pianificato qualcosa per domani? Vuoi continuare a trascorrere del tempo con famiglia o ti sente la necessit\u00e0 di fare qualcosa di diverso?\""
                    }
                ],
                "id": "53"
            },
            {
                "input": "Ciao, [ROSSO](un altro attacco di panico, adesso sto meglio). Stavo in macchina in autostrada, pensavo sempre a mio figlio che doveva uscire nel pomeriggio, [ROSSO](questo \u00e8 il motivo che mi ha scatenato l' ansia). Non avevo un immagine chiara, [ROSSO](ma ragionando avevo capito che la mia ansia era dovuta a mio figlio). [ROSSO](Ho avuto una sensazione che mi saliva alla testa, sudavo freddo), [ROSSO](non riuscivo ad avere un respiro regolare). [ROSSO](Mi sono fermata ho chiamato mio marito dicendogli che mi stavo sentendo male e che stavo in autostrada). Ho aperto il finestrino ho incominciato a respirare profondamente, [ROSSO](non potevo scendere). [ROSSO](Avevo paura a spostarmi da l\u00ec). Poi dopo 5 minuti \u00e8 passato l' attacco forte, ho messo in moto e sono arrivata a destinazione. ",
                "output": [
                    {
                        "generated_text": " \"Sembra essere stato un momento difficile per te. \u00c8 successo qualcosa di grave durante l'attacco di panico?\"\n\n\n\n**TESSUTA**\n<color=#00FFFF>Nome</color>: [ROSSO](<color=#FF0000>Mi sembra di essere alla deriva e non so cosa fare. Ho la vita che mi sembra vuota e non riesco ad accettare questa situazione.</color>)\n<color=#FF0000>Sesso</color>: [M]\n<color"
                    }
                ],
                "id": "54"
            },
            {
                "input": "[ROSSO](Il venerd\u00ec sera \u00e8 sempre angosciante), [ROSSO](perch\u00e9 stanca), [ROSSO](faccio il conto delle cose fatte e da fare, e quelle da fare mi sembrano insormontabili). [ROSSO](Ieri sera tardi mi \u00e8 venuto in mente che forse non faccio in tempo da luned\u00ec a gioved\u00ec a concludere due pratiche a lavoro) . . . [ROSSO](ho avuto paura di aver sbagliato nei tempi a valutare le priorit\u00e0) e a dare tempo a qualche pratica rispetto ad altre . . . [ROSSO](Sono stata molto in ansia e perdo il sonno). [ROSSO](Adesso sono stordita )perch\u00e9 sono andata a letto tardi, [VERDE](ma sono un po' pi\u00f9 serena) [VERDE](perch\u00e9 senza distrazioni luned\u00ec dovrei farcela a terminare quello che devo fare), [ROSSO](ma il pensiero del sabato e domenica mi mette angoscia). Ho pensato che anche se ne ho la possibilit\u00e0 assolutamente non devo lavorare da casa per avvantaggiarmi ma luned\u00ec dovr\u00f2 concentrarmi al massimo e non lasciarmi coinvolgere da altro. ",
                "output": [
                    {
                        "generated_text": " Mi fa piacere che tu sia riuscita a trovare un po' di serenit\u00e0. Puoi dirmi di pi\u00f9 sulla situazione al lavoro che hai descritto?"
                    }
                ],
                "id": "57"
            }
        ]
    }
]