[
    {
        "model_name": "mosaicml/mpt-7b",
        "results": [
            {
                "input": "Jennifer aveva un esame importante il giorno dopo. Era cos\u00ec stressata che pass\u00f2 la notte in bianco. Il giorno dopo era andata in classe, stanca morta. L'insegnante le comunic\u00f2 che l'esame \u00e8 rimandato alla settimana successiva.",
                "output": [
                    {
                        "generated_text": "Prendi in considerazione i seguenti esempi per completare una storia:storia: Jennifer aveva un esame importante il giorno dopo.\tEra cos\u00ec stressata che pass\u00f2 la notte in bianco.\tIl giorno dopo era andata in classe, stanca morta.\tL'insegnante le comunic\u00f2 che l'esame \u00e8 rimandato alla settimana successiva.fine: Jennifer ne rimase amareggiata.storia: Morgan e la sua famiglia vivevano in Florida.\tAvevano sentito che stava arrivando un uragano.\tDecisero di evacuare a casa di un parente.\tArrivarono e appresero dal telegiornale che si trattava di una terribile tempesta.fine: Si sentirono fortunati ad aver evacuato in tempo.storia: Tina aveva preparato gli spaghetti per il suo ragazzo.\tCi era voluto molto lavoro, ma lei era molto orgogliosa.\tIl suo ragazzo mangi\u00f2 tutto il piatto e disse che era buono.\tTina assaggi\u00f2 e si rese conto che era disgustoso.fine: Era commossa dal fatto che lui avesse fatto finta che fosse buono per non ferire i suoi sentimenti.Completa la seguente storia: 'Jennifer aveva un esame importante il giorno dopo. Era cos\u00ec stressata che pass\u00f2 la notte in bianco. Il giorno dopo era andata in classe, stanca morta. L'insegnante le comunic\u00f2 che l'esame \u00e8 rimandato alla settimana successiva.'fine: Jennifer ne rimase amareggiata."
                    }
                ]
            },
            {
                "input": "Morgan e la sua famiglia vivevano in Florida. Avevano sentito che stava arrivando un uragano. Decisero di evacuare a casa di un parente. Arrivarono e appresero dal telegiornale che si trattava di una terribile tempesta.",
                "output": [
                    {
                        "generated_text": "Prendi in considerazione i seguenti esempi per completare una storia:storia: Jennifer aveva un esame importante il giorno dopo.\tEra cos\u00ec stressata che pass\u00f2 la notte in bianco.\tIl giorno dopo era andata in classe, stanca morta.\tL'insegnante le comunic\u00f2 che l'esame \u00e8 rimandato alla settimana successiva.fine: Jennifer ne rimase amareggiata.storia: Morgan e la sua famiglia vivevano in Florida.\tAvevano sentito che stava arrivando un uragano.\tDecisero di evacuare a casa di un parente.\tArrivarono e appresero dal telegiornale che si trattava di una terribile tempesta.fine: Si sentirono fortunati ad aver evacuato in tempo.storia: Tina aveva preparato gli spaghetti per il suo ragazzo.\tCi era voluto molto lavoro, ma lei era molto orgogliosa.\tIl suo ragazzo mangi\u00f2 tutto il piatto e disse che era buono.\tTina assaggi\u00f2 e si rese conto che era disgustoso.fine: Era commossa dal fatto che lui avesse fatto finta che fosse buono per non ferire i suoi sentimenti.Completa la seguente storia: 'Morgan e la sua famiglia vivevano in Florida. Avevano sentito che stava arrivando un uragano. Decisero di evacuare a casa di un parente. Arrivarono e appresero dal telegiornale che si trattava di una terribile tempesta.'fine: 'Si sentirono fortunati ad aver evacuato in tempo.'\n\n| 1  | 2  | 3  | 4  | 5  | 6  | 7  | 8  | 9  | 10  |\n|----:|---- |---- |---- |---- |---- |---- |---- |---- |----  |---- |\n| 1   | 2   | 3   | 4   | 5   | 6   | 7   | 8   | 9   | 10  |\n| 11  | 12  | 13  | 14"
                    }
                ]
            },
            {
                "input": "Tina aveva preparato gli spaghetti per il suo ragazzo. Ci era voluto molto lavoro, ma lei era molto orgogliosa. Il suo ragazzo mangi\u00f2 tutto il piatto e disse che era buono. Tina assaggi\u00f2 e si rese conto che era disgustoso.",
                "output": [
                    {
                        "generated_text": "Prendi in considerazione i seguenti esempi per completare una storia:storia: Jennifer aveva un esame importante il giorno dopo.\tEra cos\u00ec stressata che pass\u00f2 la notte in bianco.\tIl giorno dopo era andata in classe, stanca morta.\tL'insegnante le comunic\u00f2 che l'esame \u00e8 rimandato alla settimana successiva.fine: Jennifer ne rimase amareggiata.storia: Morgan e la sua famiglia vivevano in Florida.\tAvevano sentito che stava arrivando un uragano.\tDecisero di evacuare a casa di un parente.\tArrivarono e appresero dal telegiornale che si trattava di una terribile tempesta.fine: Si sentirono fortunati ad aver evacuato in tempo.storia: Tina aveva preparato gli spaghetti per il suo ragazzo.\tCi era voluto molto lavoro, ma lei era molto orgogliosa.\tIl suo ragazzo mangi\u00f2 tutto il piatto e disse che era buono.\tTina assaggi\u00f2 e si rese conto che era disgustoso.fine: Era commossa dal fatto che lui avesse fatto finta che fosse buono per non ferire i suoi sentimenti.Completa la seguente storia: 'Tina aveva preparato gli spaghetti per il suo ragazzo. Ci era voluto molto lavoro, ma lei era molto orgogliosa. Il suo ragazzo mangi\u00f2 tutto il piatto e disse che era buono. Tina assaggi\u00f2 e si rese conto che era disgustoso.'fine: era molto orgogliosa.\nComplete the following sentences.\tUse a present perfect or a past perfect.\tYou can also use past perfect to talk about something that has just happened.\n1. We've been in Paris for a week. We've seen some museums and had some very good food. I'm tired of this city.\t2.\tHe's a good cook.\tHe can cook a lot of different things.\t3.\tI've been in London for five years. I can't wait to leave! 4. I've been working in a"
                    }
                ]
            },
            {
                "input": "Il mio professore assegn\u00f2 alla mia classe un tema. Tempo di uscire dall'aula e me ne ero gi\u00e0 dimenticata. Qualche giorno dopo, una mia compagna di classe mi scrisse per chiedermi se l'avessi fatto. Ero cos\u00ec arrabbiata con me stessa perch\u00e9 me ne ero completamente dimenticata.",
                "output": [
                    {
                        "generated_text": "Prendi in considerazione i seguenti esempi per completare una storia:storia: Jennifer aveva un esame importante il giorno dopo.\tEra cos\u00ec stressata che pass\u00f2 la notte in bianco.\tIl giorno dopo era andata in classe, stanca morta.\tL'insegnante le comunic\u00f2 che l'esame \u00e8 rimandato alla settimana successiva.fine: Jennifer ne rimase amareggiata.storia: Morgan e la sua famiglia vivevano in Florida.\tAvevano sentito che stava arrivando un uragano.\tDecisero di evacuare a casa di un parente.\tArrivarono e appresero dal telegiornale che si trattava di una terribile tempesta.fine: Si sentirono fortunati ad aver evacuato in tempo.storia: Tina aveva preparato gli spaghetti per il suo ragazzo.\tCi era voluto molto lavoro, ma lei era molto orgogliosa.\tIl suo ragazzo mangi\u00f2 tutto il piatto e disse che era buono.\tTina assaggi\u00f2 e si rese conto che era disgustoso.fine: Era commossa dal fatto che lui avesse fatto finta che fosse buono per non ferire i suoi sentimenti.Completa la seguente storia: 'Il mio professore assegn\u00f2 alla mia classe un tema. Tempo di uscire dall'aula e me ne ero gi\u00e0 dimenticata. Qualche giorno dopo, una mia compagna di classe mi scrisse per chiedermi se l'avessi fatto. Ero cos\u00ec arrabbiata con me stessa perch\u00e9 me ne ero completamente dimenticata.'fine: Il mondo che avevo creato per me stessa non poteva essere sbagliato.storia: La mia mamma mi disse che stava per partire per un viaggio a un paese lontano in una nave.\tMi dispiaceva tanto di perderla, ma non avevo nessuna scelta.fine: La vita era un continuo perdono, e"
                    }
                ]
            },
            {
                "input": "Kaitlyn pensava che i jeans con i buchi fossero molto alla moda. Li indoss\u00f2 a scuola per sfoggiarli. Il preside le disse che erano contrari al codice di abbigliamento. Dovette cambiare i suoi jeans.",
                "output": [
                    {
                        "generated_text": "Prendi in considerazione i seguenti esempi per completare una storia:storia: Jennifer aveva un esame importante il giorno dopo.\tEra cos\u00ec stressata che pass\u00f2 la notte in bianco.\tIl giorno dopo era andata in classe, stanca morta.\tL'insegnante le comunic\u00f2 che l'esame \u00e8 rimandato alla settimana successiva.fine: Jennifer ne rimase amareggiata.storia: Morgan e la sua famiglia vivevano in Florida.\tAvevano sentito che stava arrivando un uragano.\tDecisero di evacuare a casa di un parente.\tArrivarono e appresero dal telegiornale che si trattava di una terribile tempesta.fine: Si sentirono fortunati ad aver evacuato in tempo.storia: Tina aveva preparato gli spaghetti per il suo ragazzo.\tCi era voluto molto lavoro, ma lei era molto orgogliosa.\tIl suo ragazzo mangi\u00f2 tutto il piatto e disse che era buono.\tTina assaggi\u00f2 e si rese conto che era disgustoso.fine: Era commossa dal fatto che lui avesse fatto finta che fosse buono per non ferire i suoi sentimenti.Completa la seguente storia: 'Kaitlyn pensava che i jeans con i buchi fossero molto alla moda. Li indoss\u00f2 a scuola per sfoggiarli. Il preside le disse che erano contrari al codice di abbigliamento. Dovette cambiare i suoi jeans.'fine: 'Kaitlyn era contenta che il preside non lasciato i jeans con i buchi indossati.'Se vuoi saperne di pi\u00f9 su storie con esempi e suggerimenti, visita le lezione di Inglese di Cambridge.Se vuoi migliorare la tua scrittura in Inglese, visita il nostro sito di inglese online.\nI have some problems with the exercises.\nIn the first exercise, the last sentence is not the right one (she was glad the headteacher didn't let the"
                    }
                ]
            },
            {
                "input": "James si svegli\u00f2 nel cuore della notte e trov\u00f2 il suo letto che tremava. Tutte le cose nella sua stanza tremavano furiosamente. Era spaventato, ma poi all'improvviso smise. Si alz\u00f2 e controll\u00f2 il telegiornale.",
                "output": [
                    {
                        "generated_text": "Prendi in considerazione i seguenti esempi per completare una storia:storia: Jennifer aveva un esame importante il giorno dopo.\tEra cos\u00ec stressata che pass\u00f2 la notte in bianco.\tIl giorno dopo era andata in classe, stanca morta.\tL'insegnante le comunic\u00f2 che l'esame \u00e8 rimandato alla settimana successiva.fine: Jennifer ne rimase amareggiata.storia: Morgan e la sua famiglia vivevano in Florida.\tAvevano sentito che stava arrivando un uragano.\tDecisero di evacuare a casa di un parente.\tArrivarono e appresero dal telegiornale che si trattava di una terribile tempesta.fine: Si sentirono fortunati ad aver evacuato in tempo.storia: Tina aveva preparato gli spaghetti per il suo ragazzo.\tCi era voluto molto lavoro, ma lei era molto orgogliosa.\tIl suo ragazzo mangi\u00f2 tutto il piatto e disse che era buono.\tTina assaggi\u00f2 e si rese conto che era disgustoso.fine: Era commossa dal fatto che lui avesse fatto finta che fosse buono per non ferire i suoi sentimenti.Completa la seguente storia: 'James si svegli\u00f2 nel cuore della notte e trov\u00f2 il suo letto che tremava. Tutte le cose nella sua stanza tremavano furiosamente. Era spaventato, ma poi all'improvviso smise. Si alz\u00f2 e controll\u00f2 il telegiornale.'fine: James si alz\u00f2 e controll\u00f2 il telegiornale per vedere che si trattava.\n1. Complete each sentence with one word only.\n2. Complete the sentences with the words in bold.\n1. He had a big argument with his girlfriend.\n2. She was so stressed out that she spent the night in tears.\n3. The teacher told her that her exam had been postponed to next week.\n4. The weather forecaster said there was a big hurricane.\n5. They decided to leave the town because of"
                    }
                ]
            },
            {
                "input": "Ero cos\u00ec nervosa per il mio primo giorno di scuola. Quando arrivai alla prima lezione, tremavo. Mi sedetti accanto alla ragazza pi\u00f9 carina della classe. Parlammo tutto il tempo, durante e dopo le lezioni.",
                "output": [
                    {
                        "generated_text": "Prendi in considerazione i seguenti esempi per completare una storia:storia: Jennifer aveva un esame importante il giorno dopo.\tEra cos\u00ec stressata che pass\u00f2 la notte in bianco.\tIl giorno dopo era andata in classe, stanca morta.\tL'insegnante le comunic\u00f2 che l'esame \u00e8 rimandato alla settimana successiva.fine: Jennifer ne rimase amareggiata.storia: Morgan e la sua famiglia vivevano in Florida.\tAvevano sentito che stava arrivando un uragano.\tDecisero di evacuare a casa di un parente.\tArrivarono e appresero dal telegiornale che si trattava di una terribile tempesta.fine: Si sentirono fortunati ad aver evacuato in tempo.storia: Tina aveva preparato gli spaghetti per il suo ragazzo.\tCi era voluto molto lavoro, ma lei era molto orgogliosa.\tIl suo ragazzo mangi\u00f2 tutto il piatto e disse che era buono.\tTina assaggi\u00f2 e si rese conto che era disgustoso.fine: Era commossa dal fatto che lui avesse fatto finta che fosse buono per non ferire i suoi sentimenti.Completa la seguente storia: 'Ero cos\u00ec nervosa per il mio primo giorno di scuola. Quando arrivai alla prima lezione, tremavo. Mi sedetti accanto alla ragazza pi\u00f9 carina della classe. Parlammo tutto il tempo, durante e dopo le lezioni.'fine: 'L'ultima volta che la vidi, la ragazza aveva una macchinina bianca e un vestito nero.'\tPer questo esempio la scelta sicuramente migliore \u00e8 'Ero cos\u00ec nervosa per il mio primo giorno di scuola. Quando arrivai alla prima lezione, tremavo. Mi sedetti accanto alla ragazza pi\u00f9 carina della classe. Parlammo tutto il tempo, durante e dopo le lezioni'.\tPer il resto dei esempi"
                    }
                ]
            },
            {
                "input": "Uli non vedeva l'ora di giocare a basket quel pomeriggio. Entr\u00f2 in palestra e lasci\u00f2 lo zaino sulle gradinate. Dopo la partita, non aveva ritrovato il telefono nello zaino. Era rimasta triste tutta la notte e al mattino controll\u00f2 in ufficio.",
                "output": [
                    {
                        "generated_text": "Prendi in considerazione i seguenti esempi per completare una storia:storia: Jennifer aveva un esame importante il giorno dopo.\tEra cos\u00ec stressata che pass\u00f2 la notte in bianco.\tIl giorno dopo era andata in classe, stanca morta.\tL'insegnante le comunic\u00f2 che l'esame \u00e8 rimandato alla settimana successiva.fine: Jennifer ne rimase amareggiata.storia: Morgan e la sua famiglia vivevano in Florida.\tAvevano sentito che stava arrivando un uragano.\tDecisero di evacuare a casa di un parente.\tArrivarono e appresero dal telegiornale che si trattava di una terribile tempesta.fine: Si sentirono fortunati ad aver evacuato in tempo.storia: Tina aveva preparato gli spaghetti per il suo ragazzo.\tCi era voluto molto lavoro, ma lei era molto orgogliosa.\tIl suo ragazzo mangi\u00f2 tutto il piatto e disse che era buono.\tTina assaggi\u00f2 e si rese conto che era disgustoso.fine: Era commossa dal fatto che lui avesse fatto finta che fosse buono per non ferire i suoi sentimenti.Completa la seguente storia: 'Uli non vedeva l'ora di giocare a basket quel pomeriggio. Entr\u00f2 in palestra e lasci\u00f2 lo zaino sulle gradinate. Dopo la partita, non aveva ritrovato il telefono nello zaino. Era rimasta triste tutta la notte e al mattino controll\u00f2 in ufficio.'fine: Il giocatore ha ritrovato il telefono nel suo zaino, quando ha tornato a casa."
                    }
                ]
            },
            {
                "input": "Anna era una trombettista professionista. Aveva preso un nuovo appartamento in citt\u00e0. Sfortunatamente, le pareti erano molto pi\u00f9 sottili di quelle del vecchio appartamento. Ben presto i vicini si lamentarono del suo incessante esercizio.",
                "output": [
                    {
                        "generated_text": "Prendi in considerazione i seguenti esempi per completare una storia:storia: Jennifer aveva un esame importante il giorno dopo.\tEra cos\u00ec stressata che pass\u00f2 la notte in bianco.\tIl giorno dopo era andata in classe, stanca morta.\tL'insegnante le comunic\u00f2 che l'esame \u00e8 rimandato alla settimana successiva.fine: Jennifer ne rimase amareggiata.storia: Morgan e la sua famiglia vivevano in Florida.\tAvevano sentito che stava arrivando un uragano.\tDecisero di evacuare a casa di un parente.\tArrivarono e appresero dal telegiornale che si trattava di una terribile tempesta.fine: Si sentirono fortunati ad aver evacuato in tempo.storia: Tina aveva preparato gli spaghetti per il suo ragazzo.\tCi era voluto molto lavoro, ma lei era molto orgogliosa.\tIl suo ragazzo mangi\u00f2 tutto il piatto e disse che era buono.\tTina assaggi\u00f2 e si rese conto che era disgustoso.fine: Era commossa dal fatto che lui avesse fatto finta che fosse buono per non ferire i suoi sentimenti.Completa la seguente storia: 'Anna era una trombettista professionista. Aveva preso un nuovo appartamento in citt\u00e0. Sfortunatamente, le pareti erano molto pi\u00f9 sottili di quelle del vecchio appartamento. Ben presto i vicini si lamentarono del suo incessante esercizio.'fine: Anna aveva speso un sacco d'oro.\tIl problema era che i suoi vicini erano molto in grado di sentire le sue note e non erano molto contenti.storia: 'Gianna era una bambina di sette anni. Si era accorta che le pareti della sua casa di appartamento erano molto sottili. Ben presto, gli uffici della casa di appartamento si lamentarono della sua incessante esercizio.'fine"
                    }
                ]
            },
            {
                "input": "Bill decise di andare a scuola in bicicletta. Durante il tragitto buc\u00f2 una gomma. Un uomo vide la gomma a terra di Bill e ferm\u00f2 la sua auto. L'autista si offr\u00ec di accompagnare Bill a scuola.",
                "output": [
                    {
                        "generated_text": "Prendi in considerazione i seguenti esempi per completare una storia:storia: Jennifer aveva un esame importante il giorno dopo.\tEra cos\u00ec stressata che pass\u00f2 la notte in bianco.\tIl giorno dopo era andata in classe, stanca morta.\tL'insegnante le comunic\u00f2 che l'esame \u00e8 rimandato alla settimana successiva.fine: Jennifer ne rimase amareggiata.storia: Morgan e la sua famiglia vivevano in Florida.\tAvevano sentito che stava arrivando un uragano.\tDecisero di evacuare a casa di un parente.\tArrivarono e appresero dal telegiornale che si trattava di una terribile tempesta.fine: Si sentirono fortunati ad aver evacuato in tempo.storia: Tina aveva preparato gli spaghetti per il suo ragazzo.\tCi era voluto molto lavoro, ma lei era molto orgogliosa.\tIl suo ragazzo mangi\u00f2 tutto il piatto e disse che era buono.\tTina assaggi\u00f2 e si rese conto che era disgustoso.fine: Era commossa dal fatto che lui avesse fatto finta che fosse buono per non ferire i suoi sentimenti.Completa la seguente storia: 'Bill decise di andare a scuola in bicicletta. Durante il tragitto buc\u00f2 una gomma. Un uomo vide la gomma a terra di Bill e ferm\u00f2 la sua auto. L'autista si offr\u00ec di accompagnare Bill a scuola.'fine: 'Bill and\u00f2 a scuola a piedi e non scoppi\u00f2 alcuna gomma.'"
                    }
                ]
            },
            {
                "input": "Mentre era a casa, Robert sent\u00ec un odore terribile. And\u00f2 in cucina per indagare. La fonte dell'odore sembrava provenire dal frigorifero. Lo apr\u00ec e vide che c'era della carne avariata che aveva dimenticato.",
                "output": [
                    {
                        "generated_text": "Prendi in considerazione i seguenti esempi per completare una storia:storia: Jennifer aveva un esame importante il giorno dopo.\tEra cos\u00ec stressata che pass\u00f2 la notte in bianco.\tIl giorno dopo era andata in classe, stanca morta.\tL'insegnante le comunic\u00f2 che l'esame \u00e8 rimandato alla settimana successiva.fine: Jennifer ne rimase amareggiata.storia: Morgan e la sua famiglia vivevano in Florida.\tAvevano sentito che stava arrivando un uragano.\tDecisero di evacuare a casa di un parente.\tArrivarono e appresero dal telegiornale che si trattava di una terribile tempesta.fine: Si sentirono fortunati ad aver evacuato in tempo.storia: Tina aveva preparato gli spaghetti per il suo ragazzo.\tCi era voluto molto lavoro, ma lei era molto orgogliosa.\tIl suo ragazzo mangi\u00f2 tutto il piatto e disse che era buono.\tTina assaggi\u00f2 e si rese conto che era disgustoso.fine: Era commossa dal fatto che lui avesse fatto finta che fosse buono per non ferire i suoi sentimenti.Completa la seguente storia: 'Mentre era a casa, Robert sent\u00ec un odore terribile. And\u00f2 in cucina per indagare. La fonte dell'odore sembrava provenire dal frigorifero. Lo apr\u00ec e vide che c'era della carne avariata che aveva dimenticato.'fine: Robert si sentiva disgustato e lo apr\u00ec in fretta.fine: Robert apr\u00ec il frigorifero e vide un'ora fotografica di lui e suo padre.\n'Mentre era a casa, Robert sent\u00ec un odore terribile. And\u00f2 in cucina per indagare. La fonte dell'odore sembrava provenire dal frigorifero. Lo apr\u00ec e vista che c'era della carne avariata che aveva dimenticato.'fine: Robert si trov\u00f2"
                    }
                ]
            },
            {
                "input": "Joe si ferm\u00f2 a un semaforo. Il semaforo era verde, ma lui non part\u00ec. Le persone dietro di lui suonarono il clacson. Si sentirono frustrati, ma Joe non si mosse.",
                "output": [
                    {
                        "generated_text": "Prendi in considerazione i seguenti esempi per completare una storia:storia: Jennifer aveva un esame importante il giorno dopo.\tEra cos\u00ec stressata che pass\u00f2 la notte in bianco.\tIl giorno dopo era andata in classe, stanca morta.\tL'insegnante le comunic\u00f2 che l'esame \u00e8 rimandato alla settimana successiva.fine: Jennifer ne rimase amareggiata.storia: Morgan e la sua famiglia vivevano in Florida.\tAvevano sentito che stava arrivando un uragano.\tDecisero di evacuare a casa di un parente.\tArrivarono e appresero dal telegiornale che si trattava di una terribile tempesta.fine: Si sentirono fortunati ad aver evacuato in tempo.storia: Tina aveva preparato gli spaghetti per il suo ragazzo.\tCi era voluto molto lavoro, ma lei era molto orgogliosa.\tIl suo ragazzo mangi\u00f2 tutto il piatto e disse che era buono.\tTina assaggi\u00f2 e si rese conto che era disgustoso.fine: Era commossa dal fatto che lui avesse fatto finta che fosse buono per non ferire i suoi sentimenti.Completa la seguente storia: 'Joe si ferm\u00f2 a un semaforo. Il semaforo era verde, ma lui non part\u00ec. Le persone dietro di lui suonarono il clacson. Si sentirono frustrati, ma Joe non si mosse.'fine: Joe fu prescritto un'azione per la sua depressione."
                    }
                ]
            },
            {
                "input": "Un uomo trov\u00f2 una perla in un'ostrica. Purtroppo, proprio in quel momento stava mangiando l'ostrica. Con la perla si scheggi\u00f2 un dente. Fortunatamente, la perla copr\u00ec il costo dell'intervento dentistico.",
                "output": [
                    {
                        "generated_text": "Prendi in considerazione i seguenti esempi per completare una storia:storia: Jennifer aveva un esame importante il giorno dopo.\tEra cos\u00ec stressata che pass\u00f2 la notte in bianco.\tIl giorno dopo era andata in classe, stanca morta.\tL'insegnante le comunic\u00f2 che l'esame \u00e8 rimandato alla settimana successiva.fine: Jennifer ne rimase amareggiata.storia: Morgan e la sua famiglia vivevano in Florida.\tAvevano sentito che stava arrivando un uragano.\tDecisero di evacuare a casa di un parente.\tArrivarono e appresero dal telegiornale che si trattava di una terribile tempesta.fine: Si sentirono fortunati ad aver evacuato in tempo.storia: Tina aveva preparato gli spaghetti per il suo ragazzo.\tCi era voluto molto lavoro, ma lei era molto orgogliosa.\tIl suo ragazzo mangi\u00f2 tutto il piatto e disse che era buono.\tTina assaggi\u00f2 e si rese conto che era disgustoso.fine: Era commossa dal fatto che lui avesse fatto finta che fosse buono per non ferire i suoi sentimenti.Completa la seguente storia: 'Un uomo trov\u00f2 una perla in un'ostrica. Purtroppo, proprio in quel momento stava mangiando l'ostrica. Con la perla si scheggi\u00f2 un dente. Fortunatamente, la perla copr\u00ec il costo dell'intervento dentistico.'fine: La perla non si scambi\u00f2 mai per qualcosa d'altro.\tIl soggetto si scus\u00f2, ma il signor uomo non gli lasci\u00f2 farlo, cos\u00ec si scambi\u00f2 la perla per un'immagine di una cicatrice, e quindi lott\u00f2 per il suo dente.\tIl soggetto rimase sorpreso per quello che avvenne poi.\tL'immagine di una cicatrice divent\u00f2 la perla."
                    }
                ]
            },
            {
                "input": "Un silo di missili nucleari ricevette un ordine di lancio. L'ufficiale responsabile apr\u00ec la cassaforte per verificarne il codice. Apr\u00ec la busta contenente il codice di quel giorno. All'interno c'era un buono sconto per un panino.",
                "output": [
                    {
                        "generated_text": "Prendi in considerazione i seguenti esempi per completare una storia:storia: Jennifer aveva un esame importante il giorno dopo.\tEra cos\u00ec stressata che pass\u00f2 la notte in bianco.\tIl giorno dopo era andata in classe, stanca morta.\tL'insegnante le comunic\u00f2 che l'esame \u00e8 rimandato alla settimana successiva.fine: Jennifer ne rimase amareggiata.storia: Morgan e la sua famiglia vivevano in Florida.\tAvevano sentito che stava arrivando un uragano.\tDecisero di evacuare a casa di un parente.\tArrivarono e appresero dal telegiornale che si trattava di una terribile tempesta.fine: Si sentirono fortunati ad aver evacuato in tempo.storia: Tina aveva preparato gli spaghetti per il suo ragazzo.\tCi era voluto molto lavoro, ma lei era molto orgogliosa.\tIl suo ragazzo mangi\u00f2 tutto il piatto e disse che era buono.\tTina assaggi\u00f2 e si rese conto che era disgustoso.fine: Era commossa dal fatto che lui avesse fatto finta che fosse buono per non ferire i suoi sentimenti.Completa la seguente storia: 'Un silo di missili nucleari ricevette un ordine di lancio. L'ufficiale responsabile apr\u00ec la cassaforte per verificarne il codice. Apr\u00ec la busta contenente il codice di quel giorno. All'interno c'era un buono sconto per un panino.'fine: L'ufficiale non riusc\u00ec a aprire il contenitore."
                    }
                ]
            },
            {
                "input": "Una famiglia decise di costruire una nuova fossa per il barbecue nel proprio giardino. Piuttosto che pagare per un escavatore, decisero di scavare da soli. A pochi metri di profondit\u00e0, uno di loro colp\u00ec quella che pensava fosse una piccola radice. Si rivel\u00f2 essere un cavo in fibra ottica che forniva Internet e la TV.",
                "output": [
                    {
                        "generated_text": "Prendi in considerazione i seguenti esempi per completare una storia:storia: Jennifer aveva un esame importante il giorno dopo.\tEra cos\u00ec stressata che pass\u00f2 la notte in bianco.\tIl giorno dopo era andata in classe, stanca morta.\tL'insegnante le comunic\u00f2 che l'esame \u00e8 rimandato alla settimana successiva.fine: Jennifer ne rimase amareggiata.storia: Morgan e la sua famiglia vivevano in Florida.\tAvevano sentito che stava arrivando un uragano.\tDecisero di evacuare a casa di un parente.\tArrivarono e appresero dal telegiornale che si trattava di una terribile tempesta.fine: Si sentirono fortunati ad aver evacuato in tempo.storia: Tina aveva preparato gli spaghetti per il suo ragazzo.\tCi era voluto molto lavoro, ma lei era molto orgogliosa.\tIl suo ragazzo mangi\u00f2 tutto il piatto e disse che era buono.\tTina assaggi\u00f2 e si rese conto che era disgustoso.fine: Era commossa dal fatto che lui avesse fatto finta che fosse buono per non ferire i suoi sentimenti.Completa la seguente storia: 'Una famiglia decise di costruire una nuova fossa per il barbecue nel proprio giardino. Piuttosto che pagare per un escavatore, decisero di scavare da soli. A pochi metri di profondit\u00e0, uno di loro colp\u00ec quella che pensava fosse una piccola radice. Si rivel\u00f2 essere un cavo in fibra ottica che forniva Internet e la TV.'fine: La famiglia decise di costruire una nuova fossa per il barbecue nel proprio giardino. Piuttosto che pagare per un escavatore, decidono di scavare da soli. A pochi metri di profondit\u00e0, uno di loro colp\u00ec quella che pensava fosse un'albicocca. Si rivel\u00f2 essere un cavo in fibra ott"
                    }
                ]
            },
            {
                "input": "Briana stava guidando un fuoristrada con suo fratello. Stavano andando veloci su una strada sterrata. All'improvviso, colpirono una roccia. La macchina si ribalt\u00f2.",
                "output": [
                    {
                        "generated_text": "Prendi in considerazione i seguenti esempi per completare una storia:storia: Jennifer aveva un esame importante il giorno dopo.\tEra cos\u00ec stressata che pass\u00f2 la notte in bianco.\tIl giorno dopo era andata in classe, stanca morta.\tL'insegnante le comunic\u00f2 che l'esame \u00e8 rimandato alla settimana successiva.fine: Jennifer ne rimase amareggiata.storia: Morgan e la sua famiglia vivevano in Florida.\tAvevano sentito che stava arrivando un uragano.\tDecisero di evacuare a casa di un parente.\tArrivarono e appresero dal telegiornale che si trattava di una terribile tempesta.fine: Si sentirono fortunati ad aver evacuato in tempo.storia: Tina aveva preparato gli spaghetti per il suo ragazzo.\tCi era voluto molto lavoro, ma lei era molto orgogliosa.\tIl suo ragazzo mangi\u00f2 tutto il piatto e disse che era buono.\tTina assaggi\u00f2 e si rese conto che era disgustoso.fine: Era commossa dal fatto che lui avesse fatto finta che fosse buono per non ferire i suoi sentimenti.Completa la seguente storia: 'Briana stava guidando un fuoristrada con suo fratello. Stavano andando veloci su una strada sterrata. All'improvviso, colpirono una roccia. La macchina si ribalt\u00f2.'fine: I due ragazzi erano scesi sulla strada in ginocchio per guardare in direzione di una strada.Storia: 'I due ragazioni avevano visto un film d'azione. La prima era una superstar. La seconda era un'agente della CIA.'fine: La superstar era la CIA.\nThe following are examples of sentences:Jennifer had an important exam the next day.\tShe was so stressed that she spent the night awake.\tThe next day she went to school, very tired.\tThe teacher told her the exam had been postponed to the"
                    }
                ]
            },
            {
                "input": "Un giorno di sole Jeff stava giocando all'aperto. Sent\u00ec un ronzio provenire dalle siepi. Quando si avvicin\u00f2 alla siepe, usc\u00ec uno sciame di api. Le api lo inseguirono fino in casa.",
                "output": [
                    {
                        "generated_text": "Prendi in considerazione i seguenti esempi per completare una storia:storia: Jennifer aveva un esame importante il giorno dopo.\tEra cos\u00ec stressata che pass\u00f2 la notte in bianco.\tIl giorno dopo era andata in classe, stanca morta.\tL'insegnante le comunic\u00f2 che l'esame \u00e8 rimandato alla settimana successiva.fine: Jennifer ne rimase amareggiata.storia: Morgan e la sua famiglia vivevano in Florida.\tAvevano sentito che stava arrivando un uragano.\tDecisero di evacuare a casa di un parente.\tArrivarono e appresero dal telegiornale che si trattava di una terribile tempesta.fine: Si sentirono fortunati ad aver evacuato in tempo.storia: Tina aveva preparato gli spaghetti per il suo ragazzo.\tCi era voluto molto lavoro, ma lei era molto orgogliosa.\tIl suo ragazzo mangi\u00f2 tutto il piatto e disse che era buono.\tTina assaggi\u00f2 e si rese conto che era disgustoso.fine: Era commossa dal fatto che lui avesse fatto finta che fosse buono per non ferire i suoi sentimenti.Completa la seguente storia: 'Un giorno di sole Jeff stava giocando all'aperto. Sent\u00ec un ronzio provenire dalle siepi. Quando si avvicin\u00f2 alla siepe, usc\u00ec uno sciame di api. Le api lo inseguirono fino in casa.'fine: Jeff non aveva niente da perire d'animale. Quando gli apri\u00f2 la porta dell'appartamento, le api lo raggiunsero.fine: Jeff aveva un po' di freddo quando si rese conto di essere svegliato da una maledizione azzurrina.storia: Una sera, Mary stava guardando TV con la luce acceso.\tDopo un po', si accese un fiocco sotto le mani del suo cane.\tIl cane si mise addosso e si av"
                    }
                ]
            },
            {
                "input": "Chelsea si era fatta male alle dita giocando a basket. Aveva molta paura di andare dal medico. Il padre di Chelsea la convinse ad andare a farsi controllare. Si scopr\u00ec che le ossa delle dita erano fratturate.",
                "output": [
                    {
                        "generated_text": "Prendi in considerazione i seguenti esempi per completare una storia:storia: Jennifer aveva un esame importante il giorno dopo.\tEra cos\u00ec stressata che pass\u00f2 la notte in bianco.\tIl giorno dopo era andata in classe, stanca morta.\tL'insegnante le comunic\u00f2 che l'esame \u00e8 rimandato alla settimana successiva.fine: Jennifer ne rimase amareggiata.storia: Morgan e la sua famiglia vivevano in Florida.\tAvevano sentito che stava arrivando un uragano.\tDecisero di evacuare a casa di un parente.\tArrivarono e appresero dal telegiornale che si trattava di una terribile tempesta.fine: Si sentirono fortunati ad aver evacuato in tempo.storia: Tina aveva preparato gli spaghetti per il suo ragazzo.\tCi era voluto molto lavoro, ma lei era molto orgogliosa.\tIl suo ragazzo mangi\u00f2 tutto il piatto e disse che era buono.\tTina assaggi\u00f2 e si rese conto che era disgustoso.fine: Era commossa dal fatto che lui avesse fatto finta che fosse buono per non ferire i suoi sentimenti.Completa la seguente storia: 'Chelsea si era fatta male alle dita giocando a basket. Aveva molta paura di andare dal medico. Il padre di Chelsea la convinse ad andare a farsi controllare. Si scopr\u00ec che le ossa delle dita erano fratturate.'fine: Dopo l'operazione, Chelsea and\u00f2 al mio giardino."
                    }
                ]
            },
            {
                "input": "Beth, un'amica di Amy, era incinta di un bambino. Amy chiam\u00f2 le sue amiche a partecipare a una festa a sorpresa per il bambino. Tutti aspettarono in silenzio che Beth entrasse. Quando vide tutti, rimase scioccata.",
                "output": [
                    {
                        "generated_text": "Prendi in considerazione i seguenti esempi per completare una storia:storia: Jennifer aveva un esame importante il giorno dopo.\tEra cos\u00ec stressata che pass\u00f2 la notte in bianco.\tIl giorno dopo era andata in classe, stanca morta.\tL'insegnante le comunic\u00f2 che l'esame \u00e8 rimandato alla settimana successiva.fine: Jennifer ne rimase amareggiata.storia: Morgan e la sua famiglia vivevano in Florida.\tAvevano sentito che stava arrivando un uragano.\tDecisero di evacuare a casa di un parente.\tArrivarono e appresero dal telegiornale che si trattava di una terribile tempesta.fine: Si sentirono fortunati ad aver evacuato in tempo.storia: Tina aveva preparato gli spaghetti per il suo ragazzo.\tCi era voluto molto lavoro, ma lei era molto orgogliosa.\tIl suo ragazzo mangi\u00f2 tutto il piatto e disse che era buono.\tTina assaggi\u00f2 e si rese conto che era disgustoso.fine: Era commossa dal fatto che lui avesse fatto finta che fosse buono per non ferire i suoi sentimenti.Completa la seguente storia: 'Beth, un'amica di Amy, era incinta di un bambino. Amy chiam\u00f2 le sue amiche a partecipare a una festa a sorpresa per il bambino. Tutti aspettarono in silenzio che Beth entrasse. Quando vide tutti, rimase scioccata.'fine: Amy e i suoi amici erano felicissimi per lei."
                    }
                ]
            },
            {
                "input": "Tyler era entusiasta di acquistare il nuovo telefono cellulare. Quando arriv\u00f2 al negozio fu sorpreso di vedere una lunga fila. Aspett\u00f2 in fila per un'ora per acquistare il telefono. Quando arriv\u00f2 alla cassa, la cassiera lo inform\u00f2 che era tutto esaurito.",
                "output": [
                    {
                        "generated_text": "Prendi in considerazione i seguenti esempi per completare una storia:storia: Jennifer aveva un esame importante il giorno dopo.\tEra cos\u00ec stressata che pass\u00f2 la notte in bianco.\tIl giorno dopo era andata in classe, stanca morta.\tL'insegnante le comunic\u00f2 che l'esame \u00e8 rimandato alla settimana successiva.fine: Jennifer ne rimase amareggiata.storia: Morgan e la sua famiglia vivevano in Florida.\tAvevano sentito che stava arrivando un uragano.\tDecisero di evacuare a casa di un parente.\tArrivarono e appresero dal telegiornale che si trattava di una terribile tempesta.fine: Si sentirono fortunati ad aver evacuato in tempo.storia: Tina aveva preparato gli spaghetti per il suo ragazzo.\tCi era voluto molto lavoro, ma lei era molto orgogliosa.\tIl suo ragazzo mangi\u00f2 tutto il piatto e disse che era buono.\tTina assaggi\u00f2 e si rese conto che era disgustoso.fine: Era commossa dal fatto che lui avesse fatto finta che fosse buono per non ferire i suoi sentimenti.Completa la seguente storia: 'Tyler era entusiasta di acquistare il nuovo telefono cellulare. Quando arriv\u00f2 al negozio fu sorpreso di vedere una lunga fila. Aspett\u00f2 in fila per un'ora per acquistare il telefono. Quando arriv\u00f2 alla cassa, la cassiera lo inform\u00f2 che era tutto esaurito.'fine: Tyler fu costretto a ritirarsi il telefono perch\u00e9 non aveva nessun credito.storia: Una volta in vacanza a Londra con la mia famiglia, venni a scoprire che i miei biglietti avessero finito dopo solo due giorni, perci\u00f2 dovetti trovare una soluzione pronta.fine: Quando scoprire la stazione della metropolit"
                    }
                ]
            },
            {
                "input": "Andrew pensava di essere un buon giocatore di golf. Sfid\u00f2 il suo amico Dylan per vedere chi fosse pi\u00f9 bravo. Dylan accett\u00f2 la sfida e lavor\u00f2 duramente per prepararsi. All'inizio Andrew stava vincendo, ma le cose sarebbero presto cambiate.",
                "output": [
                    {
                        "generated_text": "Prendi in considerazione i seguenti esempi per completare una storia:storia: Jennifer aveva un esame importante il giorno dopo.\tEra cos\u00ec stressata che pass\u00f2 la notte in bianco.\tIl giorno dopo era andata in classe, stanca morta.\tL'insegnante le comunic\u00f2 che l'esame \u00e8 rimandato alla settimana successiva.fine: Jennifer ne rimase amareggiata.storia: Morgan e la sua famiglia vivevano in Florida.\tAvevano sentito che stava arrivando un uragano.\tDecisero di evacuare a casa di un parente.\tArrivarono e appresero dal telegiornale che si trattava di una terribile tempesta.fine: Si sentirono fortunati ad aver evacuato in tempo.storia: Tina aveva preparato gli spaghetti per il suo ragazzo.\tCi era voluto molto lavoro, ma lei era molto orgogliosa.\tIl suo ragazzo mangi\u00f2 tutto il piatto e disse che era buono.\tTina assaggi\u00f2 e si rese conto che era disgustoso.fine: Era commossa dal fatto che lui avesse fatto finta che fosse buono per non ferire i suoi sentimenti.Completa la seguente storia: 'Andrew pensava di essere un buon giocatore di golf. Sfid\u00f2 il suo amico Dylan per vedere chi fosse pi\u00f9 bravo. Dylan accett\u00f2 la sfida e lavor\u00f2 duramente per prepararsi. All'inizio Andrew stava vincendo, ma le cose sarebbero presto cambiate.'fine: Andrew si era reso conto che Dylan era molto migliore di lui e si sentiva offeso.\tPer\u00f2 Dylan lo conquist\u00f2 alla fine.\tPer Andrew era un'epicentro.\nThe story below is written in the past tense.\nAndrew thought he was a good at golf. He challenged his friend Dylan to see who was the better one. Dylan accepted the challenge and worked very hard to prepare for it. At first,Andrew was winning but things would soon change."
                    }
                ]
            },
            {
                "input": "Mi ero preparata un panino al tonno per pranzo. Mentre ero seduta a mangiare, mi \u00e8 squillato il telefono. Mi sono alzata per rispondere e ho avuto una breve conversazione. Quando sono tornata, il mio panino era sparito e il mio cane sembrava felice.",
                "output": [
                    {
                        "generated_text": "Prendi in considerazione i seguenti esempi per completare una storia:storia: Jennifer aveva un esame importante il giorno dopo.\tEra cos\u00ec stressata che pass\u00f2 la notte in bianco.\tIl giorno dopo era andata in classe, stanca morta.\tL'insegnante le comunic\u00f2 che l'esame \u00e8 rimandato alla settimana successiva.fine: Jennifer ne rimase amareggiata.storia: Morgan e la sua famiglia vivevano in Florida.\tAvevano sentito che stava arrivando un uragano.\tDecisero di evacuare a casa di un parente.\tArrivarono e appresero dal telegiornale che si trattava di una terribile tempesta.fine: Si sentirono fortunati ad aver evacuato in tempo.storia: Tina aveva preparato gli spaghetti per il suo ragazzo.\tCi era voluto molto lavoro, ma lei era molto orgogliosa.\tIl suo ragazzo mangi\u00f2 tutto il piatto e disse che era buono.\tTina assaggi\u00f2 e si rese conto che era disgustoso.fine: Era commossa dal fatto che lui avesse fatto finta che fosse buono per non ferire i suoi sentimenti.Completa la seguente storia: 'Mi ero preparata un panino al tonno per pranzo. Mentre ero seduta a mangiare, mi \u00e8 squillato il telefono. Mi sono alzata per rispondere e ho avuto una breve conversazione. Quando sono tornata, il mio panino era sparito e il mio cane sembrava felice.'fine: Lei non aveva avuto una bella serata."
                    }
                ]
            },
            {
                "input": "Beth stava uscendo dal lavoro marted\u00ec. Si era accorta che ad un uomo era caduto il portafoglio nel parcheggio. Ha attraversato di corsa il parcheggio per restituirglielo. L'uomo era cos\u00ec felice che gli fosse stato restituito il portafoglio.",
                "output": [
                    {
                        "generated_text": "Prendi in considerazione i seguenti esempi per completare una storia:storia: Jennifer aveva un esame importante il giorno dopo.\tEra cos\u00ec stressata che pass\u00f2 la notte in bianco.\tIl giorno dopo era andata in classe, stanca morta.\tL'insegnante le comunic\u00f2 che l'esame \u00e8 rimandato alla settimana successiva.fine: Jennifer ne rimase amareggiata.storia: Morgan e la sua famiglia vivevano in Florida.\tAvevano sentito che stava arrivando un uragano.\tDecisero di evacuare a casa di un parente.\tArrivarono e appresero dal telegiornale che si trattava di una terribile tempesta.fine: Si sentirono fortunati ad aver evacuato in tempo.storia: Tina aveva preparato gli spaghetti per il suo ragazzo.\tCi era voluto molto lavoro, ma lei era molto orgogliosa.\tIl suo ragazzo mangi\u00f2 tutto il piatto e disse che era buono.\tTina assaggi\u00f2 e si rese conto che era disgustoso.fine: Era commossa dal fatto che lui avesse fatto finta che fosse buono per non ferire i suoi sentimenti.Completa la seguente storia: 'Beth stava uscendo dal lavoro marted\u00ec. Si era accorta che ad un uomo era caduto il portafoglio nel parcheggio. Ha attraversato di corsa il parcheggio per restituirglielo. L'uomo era cos\u00ec felice che gli fosse stato restituito il portafoglio.'fine: Beth stava uscendo dal lavoro marted\u00ec. Si era accorta che ad un uomo era caduto il portafoglio nel parcheggio. Ha attraversato di corsa il parcheggio per restituirglielo. L'uomo si era molto felice che gli fosse stato restituito il portafoglio.Storie di tipo \"A man found a wallet in the parking lot.\"\nPrendi in consider"
                    }
                ]
            },
            {
                "input": "Un amico di Dan lo introdusse al poker. Dan si rese conto di essere molto bravo a giocare a poker. Dan decise di andare a Las Vegas per mettere alla prova la sua abilit\u00e0. Dan vinse milioni di dollari a Las Vegas.",
                "output": [
                    {
                        "generated_text": "Prendi in considerazione i seguenti esempi per completare una storia:storia: Jennifer aveva un esame importante il giorno dopo.\tEra cos\u00ec stressata che pass\u00f2 la notte in bianco.\tIl giorno dopo era andata in classe, stanca morta.\tL'insegnante le comunic\u00f2 che l'esame \u00e8 rimandato alla settimana successiva.fine: Jennifer ne rimase amareggiata.storia: Morgan e la sua famiglia vivevano in Florida.\tAvevano sentito che stava arrivando un uragano.\tDecisero di evacuare a casa di un parente.\tArrivarono e appresero dal telegiornale che si trattava di una terribile tempesta.fine: Si sentirono fortunati ad aver evacuato in tempo.storia: Tina aveva preparato gli spaghetti per il suo ragazzo.\tCi era voluto molto lavoro, ma lei era molto orgogliosa.\tIl suo ragazzo mangi\u00f2 tutto il piatto e disse che era buono.\tTina assaggi\u00f2 e si rese conto che era disgustoso.fine: Era commossa dal fatto che lui avesse fatto finta che fosse buono per non ferire i suoi sentimenti.Completa la seguente storia: 'Un amico di Dan lo introdusse al poker. Dan si rese conto di essere molto bravo a giocare a poker. Dan decise di andare a Las Vegas per mettere alla prova la sua abilit\u00e0. Dan vinse milioni di dollari a Las Vegas.'fine: Dan decise di fare una vacanza in Las Vegas e giocare al poker. Dan decise che la sua abilit\u00e0 di gioco a poker non era un'occasione.fine: Dan decideva di lasciare l'Italia per Las Vegas per mettere alla prova la sua abilit\u00e0. Dan decise di lasciare il poker per Las Vegas.fine: Dan si \u00e8 fatto conto che la sua abilit\u00e0 di gioco a Las Vegas non era un'occasione."
                    }
                ]
            },
            {
                "input": "Lo swing di Harry era terribile. Un giorno Harry decide di cercare aiuto per migliorare il suo swing. Assunse un allenatore privato. L'allenatore privato riusc\u00ec a migliorare lo swing di Harry.",
                "output": [
                    {
                        "generated_text": "Prendi in considerazione i seguenti esempi per completare una storia:storia: Jennifer aveva un esame importante il giorno dopo.\tEra cos\u00ec stressata che pass\u00f2 la notte in bianco.\tIl giorno dopo era andata in classe, stanca morta.\tL'insegnante le comunic\u00f2 che l'esame \u00e8 rimandato alla settimana successiva.fine: Jennifer ne rimase amareggiata.storia: Morgan e la sua famiglia vivevano in Florida.\tAvevano sentito che stava arrivando un uragano.\tDecisero di evacuare a casa di un parente.\tArrivarono e appresero dal telegiornale che si trattava di una terribile tempesta.fine: Si sentirono fortunati ad aver evacuato in tempo.storia: Tina aveva preparato gli spaghetti per il suo ragazzo.\tCi era voluto molto lavoro, ma lei era molto orgogliosa.\tIl suo ragazzo mangi\u00f2 tutto il piatto e disse che era buono.\tTina assaggi\u00f2 e si rese conto che era disgustoso.fine: Era commossa dal fatto che lui avesse fatto finta che fosse buono per non ferire i suoi sentimenti.Completa la seguente storia: 'Lo swing di Harry era terribile. Un giorno Harry decide di cercare aiuto per migliorare il suo swing. Assunse un allenatore privato. L'allenatore privato riusc\u00ec a migliorare lo swing di Harry.'fine: Harry non riusc\u00ec a migliorare il suo swing.'Lo swing di Harry era terribile. Un giorno Harry decide di cercare aiuto per migliorare il suo swing. Assunse un allenatore privato. L'allenatore privato riusc\u00ec a migliorare lo swing di Harry.'fine: Harry non riusc\u00ec a migliorare il suo swing.\nI can't believe that my daughter is in her second year at University. She's doing a four-year course in law. Her marks last year were very high.\nShe's doing"
                    }
                ]
            },
            {
                "input": "Sam aveva appuntamento con suo padre per pranzo in un ristorante italiano. Arriv\u00f2 in anticipo e aspett\u00f2 suo padre. Cominci\u00f2 a preoccuparsi quando suo padre non si present\u00f2 e non rispose al cellulare. Chiam\u00f2 sua madre per sapere cosa stesse succedendo.",
                "output": [
                    {
                        "generated_text": "Prendi in considerazione i seguenti esempi per completare una storia:storia: Jennifer aveva un esame importante il giorno dopo.\tEra cos\u00ec stressata che pass\u00f2 la notte in bianco.\tIl giorno dopo era andata in classe, stanca morta.\tL'insegnante le comunic\u00f2 che l'esame \u00e8 rimandato alla settimana successiva.fine: Jennifer ne rimase amareggiata.storia: Morgan e la sua famiglia vivevano in Florida.\tAvevano sentito che stava arrivando un uragano.\tDecisero di evacuare a casa di un parente.\tArrivarono e appresero dal telegiornale che si trattava di una terribile tempesta.fine: Si sentirono fortunati ad aver evacuato in tempo.storia: Tina aveva preparato gli spaghetti per il suo ragazzo.\tCi era voluto molto lavoro, ma lei era molto orgogliosa.\tIl suo ragazzo mangi\u00f2 tutto il piatto e disse che era buono.\tTina assaggi\u00f2 e si rese conto che era disgustoso.fine: Era commossa dal fatto che lui avesse fatto finta che fosse buono per non ferire i suoi sentimenti.Completa la seguente storia: 'Sam aveva appuntamento con suo padre per pranzo in un ristorante italiano. Arriv\u00f2 in anticipo e aspett\u00f2 suo padre. Cominci\u00f2 a preoccuparsi quando suo padre non si present\u00f2 e non rispose al cellulare. Chiam\u00f2 sua madre per sapere cosa stesse succedendo.'fine: Suo padre era morto.storia: Una volta, mio padre aveva un appuntamento con il suo collega per la sera.\tDopo aver parlato a lungo, il collega si alz\u00f2 per andare.\tIl padre, che stava in una camera con una finestra al piano dei gradini, si alz\u00f2 con lei.\tNon era stato pi\u00f9 molto dopo che il suo collega torn\u00f2.fine: Il collega aveva spar"
                    }
                ]
            },
            {
                "input": "Randy possiede la stessa chitarra da dieci anni. Purtroppo, due giorni fa l'aveva persa. Aveva chiamato tutti quelli che ricordava di aver visitato negli ultimi giorni. Fortunatamente, l'aveva appena lasciata a casa di un amico.",
                "output": [
                    {
                        "generated_text": "Prendi in considerazione i seguenti esempi per completare una storia:storia: Jennifer aveva un esame importante il giorno dopo.\tEra cos\u00ec stressata che pass\u00f2 la notte in bianco.\tIl giorno dopo era andata in classe, stanca morta.\tL'insegnante le comunic\u00f2 che l'esame \u00e8 rimandato alla settimana successiva.fine: Jennifer ne rimase amareggiata.storia: Morgan e la sua famiglia vivevano in Florida.\tAvevano sentito che stava arrivando un uragano.\tDecisero di evacuare a casa di un parente.\tArrivarono e appresero dal telegiornale che si trattava di una terribile tempesta.fine: Si sentirono fortunati ad aver evacuato in tempo.storia: Tina aveva preparato gli spaghetti per il suo ragazzo.\tCi era voluto molto lavoro, ma lei era molto orgogliosa.\tIl suo ragazzo mangi\u00f2 tutto il piatto e disse che era buono.\tTina assaggi\u00f2 e si rese conto che era disgustoso.fine: Era commossa dal fatto che lui avesse fatto finta che fosse buono per non ferire i suoi sentimenti.Completa la seguente storia: 'Randy possiede la stessa chitarra da dieci anni. Purtroppo, due giorni fa l'aveva persa. Aveva chiamato tutti quelli che ricordava di aver visitato negli ultimi giorni. Fortunatamente, l'aveva appena lasciata a casa di un amico.'fine: Randy trov\u00f2 la chitarra, ma era danneggiata.storia: Alf e la sua moglie erano all'hotel quando le ciliege vennero.\tSi sono divertiti e sono ritornati a casa.fine: Alf e la moglie non si sono sentite male.\tNon avevano fatto molto da fare.\tQuesti giorni si sono sentiti bene.storia: Alf e la sua moglie erano all'"
                    }
                ]
            },
            {
                "input": "Maria voleva stupire tutti al ballo della scuola. Invece di comprare un vestito, decise di farne uno nuovo. Scelse un tessuto morbido e viola da utilizzare. Cuc\u00ec giorno e notte finch\u00e9 non ebbe finito.",
                "output": [
                    {
                        "generated_text": "Prendi in considerazione i seguenti esempi per completare una storia:storia: Jennifer aveva un esame importante il giorno dopo.\tEra cos\u00ec stressata che pass\u00f2 la notte in bianco.\tIl giorno dopo era andata in classe, stanca morta.\tL'insegnante le comunic\u00f2 che l'esame \u00e8 rimandato alla settimana successiva.fine: Jennifer ne rimase amareggiata.storia: Morgan e la sua famiglia vivevano in Florida.\tAvevano sentito che stava arrivando un uragano.\tDecisero di evacuare a casa di un parente.\tArrivarono e appresero dal telegiornale che si trattava di una terribile tempesta.fine: Si sentirono fortunati ad aver evacuato in tempo.storia: Tina aveva preparato gli spaghetti per il suo ragazzo.\tCi era voluto molto lavoro, ma lei era molto orgogliosa.\tIl suo ragazzo mangi\u00f2 tutto il piatto e disse che era buono.\tTina assaggi\u00f2 e si rese conto che era disgustoso.fine: Era commossa dal fatto che lui avesse fatto finta che fosse buono per non ferire i suoi sentimenti.Completa la seguente storia: 'Maria voleva stupire tutti al ballo della scuola. Invece di comprare un vestito, decise di farne uno nuovo. Scelse un tessuto morbido e viola da utilizzare. Cuc\u00ec giorno e notte finch\u00e9 non ebbe finito.'fine: Lei voleva stupire tutte con il suo vestito nuovo.storia: Il dottore disse a laurie che aveva una forma di cancer della panciera ed era gravidante.\tLaurie aveva la febbre e il dolore all'estero.\tSi sentiva come se avesse l'acido olfativo.\tLa dottore le indic\u00f2 che l'avrebbe fatto una bioscopie.fine: La febbre e le paure erano cos\u00ec grandi"
                    }
                ]
            },
            {
                "input": "La madre di Carson gli prepar\u00f2 una cioccolata calda come regalo. Lo avvert\u00ec di aspettare cinque minuti perch\u00e9 si raffreddasse. Carson riusc\u00ec ad aspettare a malapena un minuto. Bevve la cioccolata molto calda.",
                "output": [
                    {
                        "generated_text": "Prendi in considerazione i seguenti esempi per completare una storia:storia: Jennifer aveva un esame importante il giorno dopo.\tEra cos\u00ec stressata che pass\u00f2 la notte in bianco.\tIl giorno dopo era andata in classe, stanca morta.\tL'insegnante le comunic\u00f2 che l'esame \u00e8 rimandato alla settimana successiva.fine: Jennifer ne rimase amareggiata.storia: Morgan e la sua famiglia vivevano in Florida.\tAvevano sentito che stava arrivando un uragano.\tDecisero di evacuare a casa di un parente.\tArrivarono e appresero dal telegiornale che si trattava di una terribile tempesta.fine: Si sentirono fortunati ad aver evacuato in tempo.storia: Tina aveva preparato gli spaghetti per il suo ragazzo.\tCi era voluto molto lavoro, ma lei era molto orgogliosa.\tIl suo ragazzo mangi\u00f2 tutto il piatto e disse che era buono.\tTina assaggi\u00f2 e si rese conto che era disgustoso.fine: Era commossa dal fatto che lui avesse fatto finta che fosse buono per non ferire i suoi sentimenti.Completa la seguente storia: 'La madre di Carson gli prepar\u00f2 una cioccolata calda come regalo. Lo avvert\u00ec di aspettare cinque minuti perch\u00e9 si raffreddasse. Carson riusc\u00ec ad aspettare a malapena un minuto. Bevve la cioccolata molto calda.'fine: Carson si sentirono fortunati perch\u00e9 avevano avuto un regalo speciale.\nA. A. (2017, July 31). Storia, che? (Parte 2), [Blog Post]. https://blogs.unimelb.edu.au/languages/storia-che-parte-2\nA. A. (2017, July 31). Storia, che? (Parte 2), Retrieved from https://blogs.unimelb.edu.au/languages/storia-che-parte-2\n"
                    }
                ]
            },
            {
                "input": "Di recente ho comprato un nuovo colore di smalto. Mi stavo dipingendo le unghie quando il gatto ha saltato e l'ha fatto cadere. Lo smalto era finito su tutto il pavimento. Ho provato a pulirlo, ma non ha funzionato.",
                "output": [
                    {
                        "generated_text": "Prendi in considerazione i seguenti esempi per completare una storia:storia: Jennifer aveva un esame importante il giorno dopo.\tEra cos\u00ec stressata che pass\u00f2 la notte in bianco.\tIl giorno dopo era andata in classe, stanca morta.\tL'insegnante le comunic\u00f2 che l'esame \u00e8 rimandato alla settimana successiva.fine: Jennifer ne rimase amareggiata.storia: Morgan e la sua famiglia vivevano in Florida.\tAvevano sentito che stava arrivando un uragano.\tDecisero di evacuare a casa di un parente.\tArrivarono e appresero dal telegiornale che si trattava di una terribile tempesta.fine: Si sentirono fortunati ad aver evacuato in tempo.storia: Tina aveva preparato gli spaghetti per il suo ragazzo.\tCi era voluto molto lavoro, ma lei era molto orgogliosa.\tIl suo ragazzo mangi\u00f2 tutto il piatto e disse che era buono.\tTina assaggi\u00f2 e si rese conto che era disgustoso.fine: Era commossa dal fatto che lui avesse fatto finta che fosse buono per non ferire i suoi sentimenti.Completa la seguente storia: 'Di recente ho comprato un nuovo colore di smalto. Mi stavo dipingendo le unghie quando il gatto ha saltato e l'ha fatto cadere. Lo smalto era finito su tutto il pavimento. Ho provato a pulirlo, ma non ha funzionato.'fine: Il gatto ha fatto cadere un'altra cosa.\n\"It's been a really hard week at work,\" she said, as she took the pen from his hand. \"You don't have to do this,\" she added, taking a step back. \"No one will ever know.\"\nHe smiled a small, apologetic smile. \"Well, the truth is, it's not that I don't want to. I actually enjoy doing this. You see, there's something very personal about it. And, it's not as if you have"
                    }
                ]
            },
            {
                "input": "Un uomo pens\u00f2 di provare a coltivare i pomodori nel suo giardino. Cos\u00ec compr\u00f2 semi e attrezzature. Piant\u00f2 i semi e aspett\u00f2. Qualche mese dopo, si ritrov\u00f2 proprietario di un piccolo campo di grano.",
                "output": [
                    {
                        "generated_text": "Prendi in considerazione i seguenti esempi per completare una storia:storia: Jennifer aveva un esame importante il giorno dopo.\tEra cos\u00ec stressata che pass\u00f2 la notte in bianco.\tIl giorno dopo era andata in classe, stanca morta.\tL'insegnante le comunic\u00f2 che l'esame \u00e8 rimandato alla settimana successiva.fine: Jennifer ne rimase amareggiata.storia: Morgan e la sua famiglia vivevano in Florida.\tAvevano sentito che stava arrivando un uragano.\tDecisero di evacuare a casa di un parente.\tArrivarono e appresero dal telegiornale che si trattava di una terribile tempesta.fine: Si sentirono fortunati ad aver evacuato in tempo.storia: Tina aveva preparato gli spaghetti per il suo ragazzo.\tCi era voluto molto lavoro, ma lei era molto orgogliosa.\tIl suo ragazzo mangi\u00f2 tutto il piatto e disse che era buono.\tTina assaggi\u00f2 e si rese conto che era disgustoso.fine: Era commossa dal fatto che lui avesse fatto finta che fosse buono per non ferire i suoi sentimenti.Completa la seguente storia: 'Un uomo pens\u00f2 di provare a coltivare i pomodori nel suo giardino. Cos\u00ec compr\u00f2 semi e attrezzature. Piant\u00f2 i semi e aspett\u00f2. Qualche mese dopo, si ritrov\u00f2 proprietario di un piccolo campo di grano.'fine: Il seme non germin\u00f2.storia: Uno spos\u00f2 una donna.\tDopo il matrimonio, la donna si sent\u00ec pi\u00f9 allegra.\tPoi si sent\u00ec meno allegra.fine: La donna si spos\u00f2 per il secondo volta.storia: Uno si spos\u00f2 con una ragazza.\tIl matrimonio non si riusc\u00ec.\tIl primo figlioletti nasceva un anno dopo il matrimonio.fine: Dopo l"
                    }
                ]
            },
            {
                "input": "Cathy lavora in uno Starbucks. La settimana scorsa ha avuto una cliente indisciplinata. La cliente continuava a chiedere una bevanda non esistente. Alla fine, Cathy le aveva dato un latte macchiato.",
                "output": [
                    {
                        "generated_text": "Prendi in considerazione i seguenti esempi per completare una storia:storia: Jennifer aveva un esame importante il giorno dopo.\tEra cos\u00ec stressata che pass\u00f2 la notte in bianco.\tIl giorno dopo era andata in classe, stanca morta.\tL'insegnante le comunic\u00f2 che l'esame \u00e8 rimandato alla settimana successiva.fine: Jennifer ne rimase amareggiata.storia: Morgan e la sua famiglia vivevano in Florida.\tAvevano sentito che stava arrivando un uragano.\tDecisero di evacuare a casa di un parente.\tArrivarono e appresero dal telegiornale che si trattava di una terribile tempesta.fine: Si sentirono fortunati ad aver evacuato in tempo.storia: Tina aveva preparato gli spaghetti per il suo ragazzo.\tCi era voluto molto lavoro, ma lei era molto orgogliosa.\tIl suo ragazzo mangi\u00f2 tutto il piatto e disse che era buono.\tTina assaggi\u00f2 e si rese conto che era disgustoso.fine: Era commossa dal fatto che lui avesse fatto finta che fosse buono per non ferire i suoi sentimenti.Completa la seguente storia: 'Cathy lavora in uno Starbucks. La settimana scorsa ha avuto una cliente indisciplinata. La cliente continuava a chiedere una bevanda non esistente. Alla fine, Cathy le aveva dato un latte macchiato.'fine: 'Cathy \u00e8 rimasta indignata.'\tSeleziona l'ultima parola riportata che si applica ad ogni storia.fine: 'Cathy \u00e8 rimasta indignata.'fine: 'Cathy ha continuato a lavare e a cucire senza essere scontenta.'fine: 'Cathy ha continuato a lavare e a cucire senza essere scontenta.'fine: 'Cathy \u00e8 rimasta soddisfatta.'fine: 'La cliente \u00e8 rimasta soddisfatta.'fine: 'La cliente \u00e8 stata soddisf"
                    }
                ]
            },
            {
                "input": "Oliver era entusiasta per suoi regali di compleanno. Doveva aspettare, ma era impaziente. Si intrufol\u00f2 nell'armadio dei genitori. L\u00ec trov\u00f2 i suoi regali e li controll\u00f2 tutti.",
                "output": [
                    {
                        "generated_text": "Prendi in considerazione i seguenti esempi per completare una storia:storia: Jennifer aveva un esame importante il giorno dopo.\tEra cos\u00ec stressata che pass\u00f2 la notte in bianco.\tIl giorno dopo era andata in classe, stanca morta.\tL'insegnante le comunic\u00f2 che l'esame \u00e8 rimandato alla settimana successiva.fine: Jennifer ne rimase amareggiata.storia: Morgan e la sua famiglia vivevano in Florida.\tAvevano sentito che stava arrivando un uragano.\tDecisero di evacuare a casa di un parente.\tArrivarono e appresero dal telegiornale che si trattava di una terribile tempesta.fine: Si sentirono fortunati ad aver evacuato in tempo.storia: Tina aveva preparato gli spaghetti per il suo ragazzo.\tCi era voluto molto lavoro, ma lei era molto orgogliosa.\tIl suo ragazzo mangi\u00f2 tutto il piatto e disse che era buono.\tTina assaggi\u00f2 e si rese conto che era disgustoso.fine: Era commossa dal fatto che lui avesse fatto finta che fosse buono per non ferire i suoi sentimenti.Completa la seguente storia: 'Oliver era entusiasta per suoi regali di compleanno. Doveva aspettare, ma era impaziente. Si intrufol\u00f2 nell'armadio dei genitori. L\u00ec trov\u00f2 i suoi regali e li controll\u00f2 tutti.'fine: Oliver si sentiva contento.Storia: Il giorno dopo i genitori del piccolo Tony avevano scoperto che era venuto a casa una scimmia. Lui aveva un cappellino nero. L'holetto aveva la cappa rossa, il collo nero e gli occhi rossi. La scimmia non aveva il cappellino. Il ragazzo aveva la cappa bianco, il collo bianco, gli occhi rossi e il cappellino nero."
                    }
                ]
            },
            {
                "input": "Tina aveva in programma una gita con gli amici, cos\u00ec controll\u00f2 le previsioni meteo. Le previsioni del tempo dicevano che ci sarebbe stato il sole per tutto il giorno. Tina si era fidata delle previsioni e si era vestita di conseguenza. Tuttavia, le previsioni erano sbagliate e ci fu stato un enorme acquazzone.",
                "output": [
                    {
                        "generated_text": "Prendi in considerazione i seguenti esempi per completare una storia:storia: Jennifer aveva un esame importante il giorno dopo.\tEra cos\u00ec stressata che pass\u00f2 la notte in bianco.\tIl giorno dopo era andata in classe, stanca morta.\tL'insegnante le comunic\u00f2 che l'esame \u00e8 rimandato alla settimana successiva.fine: Jennifer ne rimase amareggiata.storia: Morgan e la sua famiglia vivevano in Florida.\tAvevano sentito che stava arrivando un uragano.\tDecisero di evacuare a casa di un parente.\tArrivarono e appresero dal telegiornale che si trattava di una terribile tempesta.fine: Si sentirono fortunati ad aver evacuato in tempo.storia: Tina aveva preparato gli spaghetti per il suo ragazzo.\tCi era voluto molto lavoro, ma lei era molto orgogliosa.\tIl suo ragazzo mangi\u00f2 tutto il piatto e disse che era buono.\tTina assaggi\u00f2 e si rese conto che era disgustoso.fine: Era commossa dal fatto che lui avesse fatto finta che fosse buono per non ferire i suoi sentimenti.Completa la seguente storia: 'Tina aveva in programma una gita con gli amici, cos\u00ec controll\u00f2 le previsioni meteo. Le previsioni del tempo dicevano che ci sarebbe stato il sole per tutto il giorno. Tina si era fidata delle previsioni e si era vestita di conseguenza. Tuttavia, le previsioni erano sbagliate e ci fu stato un enorme acquazzone.'fine: 'Il sole non fu mai visto. Tutti gli altri viaggiati sarebbero rimasti in gelo, se non fosse stato per una bella donna che ci aveva messo i piedi nelle sue scarpe, ci ha aiutato a riscaldarci e a trovare un'acqua fredda.'\tInserisci la tua risposta.\nIn"
                    }
                ]
            },
            {
                "input": "Kayla stava cercando di trovare dei nomi per il suo bambino. Suo marito non era d'accordo con tutti i nomi che gli venivano proposti. Kayla gli chiese un elenco di nomi accettabili. Insieme raggiunsero un compromesso.",
                "output": [
                    {
                        "generated_text": "Prendi in considerazione i seguenti esempi per completare una storia:storia: Jennifer aveva un esame importante il giorno dopo.\tEra cos\u00ec stressata che pass\u00f2 la notte in bianco.\tIl giorno dopo era andata in classe, stanca morta.\tL'insegnante le comunic\u00f2 che l'esame \u00e8 rimandato alla settimana successiva.fine: Jennifer ne rimase amareggiata.storia: Morgan e la sua famiglia vivevano in Florida.\tAvevano sentito che stava arrivando un uragano.\tDecisero di evacuare a casa di un parente.\tArrivarono e appresero dal telegiornale che si trattava di una terribile tempesta.fine: Si sentirono fortunati ad aver evacuato in tempo.storia: Tina aveva preparato gli spaghetti per il suo ragazzo.\tCi era voluto molto lavoro, ma lei era molto orgogliosa.\tIl suo ragazzo mangi\u00f2 tutto il piatto e disse che era buono.\tTina assaggi\u00f2 e si rese conto che era disgustoso.fine: Era commossa dal fatto che lui avesse fatto finta che fosse buono per non ferire i suoi sentimenti.Completa la seguente storia: 'Kayla stava cercando di trovare dei nomi per il suo bambino. Suo marito non era d'accordo con tutti i nomi che gli venivano proposti. Kayla gli chiese un elenco di nomi accettabili. Insieme raggiunsero un compromesso.'fine: Il nome della bimba era Gina, ma la persona che gli aveva detto il nome non l'avrebbe detto a suo marito!\tIl suo marito non avrebbe detto mai che l'era.\tKayla non l'abbia sposato."
                    }
                ]
            },
            {
                "input": "Molly si stava preparando per il suo matrimonio. Aveva appena indossato il suo abito bianco. All'improvviso, una bevanda si rovesci\u00f2 e macchi\u00f2 il vestito di rosa. Per fortuna arriv\u00f2 sua madre.",
                "output": [
                    {
                        "generated_text": "Prendi in considerazione i seguenti esempi per completare una storia:storia: Jennifer aveva un esame importante il giorno dopo.\tEra cos\u00ec stressata che pass\u00f2 la notte in bianco.\tIl giorno dopo era andata in classe, stanca morta.\tL'insegnante le comunic\u00f2 che l'esame \u00e8 rimandato alla settimana successiva.fine: Jennifer ne rimase amareggiata.storia: Morgan e la sua famiglia vivevano in Florida.\tAvevano sentito che stava arrivando un uragano.\tDecisero di evacuare a casa di un parente.\tArrivarono e appresero dal telegiornale che si trattava di una terribile tempesta.fine: Si sentirono fortunati ad aver evacuato in tempo.storia: Tina aveva preparato gli spaghetti per il suo ragazzo.\tCi era voluto molto lavoro, ma lei era molto orgogliosa.\tIl suo ragazzo mangi\u00f2 tutto il piatto e disse che era buono.\tTina assaggi\u00f2 e si rese conto che era disgustoso.fine: Era commossa dal fatto che lui avesse fatto finta che fosse buono per non ferire i suoi sentimenti.Completa la seguente storia: 'Molly si stava preparando per il suo matrimonio. Aveva appena indossato il suo abito bianco. All'improvviso, una bevanda si rovesci\u00f2 e macchi\u00f2 il vestito di rosa. Per fortuna arriv\u00f2 sua madre.'fine: Non aveva alcuna scusante per questo errore.\nThe present perfect continuous tense is used to show an action that has just finished, or one that started before a particular date and continues after that date.\nI am playing tennis with my friends.\nThey are waiting for the train.\nI've been in London for three years.\nYou have been watching TV for hours.\nShe has been working in this hospital for ten years.\nThey have visited Rome last summer.\nWe have not eaten since morning.\nThe verb forms in the present perfect continuous are the same as those"
                    }
                ]
            },
            {
                "input": "Ross si iscrisse a una gara di 6 miglia a due mesi di distanza. Tuttavia, Ross aveva corso ogni volta solo per circa 3 miglia. Si rese conto che doveva impegnarsi ed allenarsi. Dedic\u00f2 pi\u00f9 tempo all'allenamento e aument\u00f2 lentamente la distanza di corsa.",
                "output": [
                    {
                        "generated_text": "Prendi in considerazione i seguenti esempi per completare una storia:storia: Jennifer aveva un esame importante il giorno dopo.\tEra cos\u00ec stressata che pass\u00f2 la notte in bianco.\tIl giorno dopo era andata in classe, stanca morta.\tL'insegnante le comunic\u00f2 che l'esame \u00e8 rimandato alla settimana successiva.fine: Jennifer ne rimase amareggiata.storia: Morgan e la sua famiglia vivevano in Florida.\tAvevano sentito che stava arrivando un uragano.\tDecisero di evacuare a casa di un parente.\tArrivarono e appresero dal telegiornale che si trattava di una terribile tempesta.fine: Si sentirono fortunati ad aver evacuato in tempo.storia: Tina aveva preparato gli spaghetti per il suo ragazzo.\tCi era voluto molto lavoro, ma lei era molto orgogliosa.\tIl suo ragazzo mangi\u00f2 tutto il piatto e disse che era buono.\tTina assaggi\u00f2 e si rese conto che era disgustoso.fine: Era commossa dal fatto che lui avesse fatto finta che fosse buono per non ferire i suoi sentimenti.Completa la seguente storia: 'Ross si iscrisse a una gara di 6 miglia a due mesi di distanza. Tuttavia, Ross aveva corso ogni volta solo per circa 3 miglia. Si rese conto che doveva impegnarsi ed allenarsi. Dedic\u00f2 pi\u00f9 tempo all'allenamento e aument\u00f2 lentamente la distanza di corsa.'fine: Il giorno della gara, Ross raggiunse la meta.\n1. Jennifer had an important exam the day after. She was so nervous about it that she spent the night in white. The next day, she went to class, tired and bored. Her teacher told her that the exam had been postponed to the following week.\n2. Morgan and his family lived in Florida. They had heard that a hurricane was coming. They decided to evacuate at a relative's house. When they got there,"
                    }
                ]
            },
            {
                "input": "Jane era fuori per una passeggiata. Sent\u00ec un rombo tra le nuvole e inizi\u00f2 a piovere. Cerc\u00f2 di affrettarsi e di correre per il resto della strada. Era troppo tardi e quando arriv\u00f2 a casa era gi\u00e0 fradicia.",
                "output": [
                    {
                        "generated_text": "Prendi in considerazione i seguenti esempi per completare una storia:storia: Jennifer aveva un esame importante il giorno dopo.\tEra cos\u00ec stressata che pass\u00f2 la notte in bianco.\tIl giorno dopo era andata in classe, stanca morta.\tL'insegnante le comunic\u00f2 che l'esame \u00e8 rimandato alla settimana successiva.fine: Jennifer ne rimase amareggiata.storia: Morgan e la sua famiglia vivevano in Florida.\tAvevano sentito che stava arrivando un uragano.\tDecisero di evacuare a casa di un parente.\tArrivarono e appresero dal telegiornale che si trattava di una terribile tempesta.fine: Si sentirono fortunati ad aver evacuato in tempo.storia: Tina aveva preparato gli spaghetti per il suo ragazzo.\tCi era voluto molto lavoro, ma lei era molto orgogliosa.\tIl suo ragazzo mangi\u00f2 tutto il piatto e disse che era buono.\tTina assaggi\u00f2 e si rese conto che era disgustoso.fine: Era commossa dal fatto che lui avesse fatto finta che fosse buono per non ferire i suoi sentimenti.Completa la seguente storia: 'Jane era fuori per una passeggiata. Sent\u00ec un rombo tra le nuvole e inizi\u00f2 a piovere. Cerc\u00f2 di affrettarsi e di correre per il resto della strada. Era troppo tardi e quando arriv\u00f2 a casa era gi\u00e0 fradicia.'fine: Jane non poteva fermarsi davanti ad una nuvola che si stacchiava su di lei.\tNon poteva nemmeno andarsene.\tNon poteva andare indietro.\tEra troppo tardi perch\u00e9 lei si stesse svegliare.\tQuesto era il momento per fare una grande scoperta.fine: Jane era stanca, e quando arriv\u00f2 a casa aveva fatto una grandissima scoperta.storia: La famiglia di Mary si era trasferita in California"
                    }
                ]
            },
            {
                "input": "Sam and\u00f2 alla tavola calda e ordin\u00f2 la colazione e un caff\u00e8 decaffeinato. La cameriera aveva una aria colpevole mentre gli versava il caff\u00e8. Sam sorseggi\u00f2 il caff\u00e8 e cap\u00ec che gli aveva dato un caff\u00e8 normale. La sgrid\u00f2 quando torn\u00f2 con il cibo.",
                "output": [
                    {
                        "generated_text": "Prendi in considerazione i seguenti esempi per completare una storia:storia: Jennifer aveva un esame importante il giorno dopo.\tEra cos\u00ec stressata che pass\u00f2 la notte in bianco.\tIl giorno dopo era andata in classe, stanca morta.\tL'insegnante le comunic\u00f2 che l'esame \u00e8 rimandato alla settimana successiva.fine: Jennifer ne rimase amareggiata.storia: Morgan e la sua famiglia vivevano in Florida.\tAvevano sentito che stava arrivando un uragano.\tDecisero di evacuare a casa di un parente.\tArrivarono e appresero dal telegiornale che si trattava di una terribile tempesta.fine: Si sentirono fortunati ad aver evacuato in tempo.storia: Tina aveva preparato gli spaghetti per il suo ragazzo.\tCi era voluto molto lavoro, ma lei era molto orgogliosa.\tIl suo ragazzo mangi\u00f2 tutto il piatto e disse che era buono.\tTina assaggi\u00f2 e si rese conto che era disgustoso.fine: Era commossa dal fatto che lui avesse fatto finta che fosse buono per non ferire i suoi sentimenti.Completa la seguente storia: 'Sam and\u00f2 alla tavola calda e ordin\u00f2 la colazione e un caff\u00e8 decaffeinato. La cameriera aveva una aria colpevole mentre gli versava il caff\u00e8. Sam sorseggi\u00f2 il caff\u00e8 e cap\u00ec che gli aveva dato un caff\u00e8 normale. La sgrid\u00f2 quando torn\u00f2 con il cibo.'fine: Sam era un ospite di un bagno di lussuria.storia: John e la sua famiglia avevano un viaggio da fare.\tIeri sera avevano fatto una spesa importante e stava molto in cauza di questo.\tIeri sera avevano comprato una macchina nuova.fine: La famiglia non aveva un buon rapporto con John."
                    }
                ]
            },
            {
                "input": "Tom e Sheryl stavano assieme da due anni. Un giorno andarono insieme ad un luna park. Lui le vinse diversi orsetti di peluche e le compr\u00f2 degli dolci. Quando arrivarono alla ruota panoramica, lui si \u00e8 inginocchi\u00f2.",
                "output": [
                    {
                        "generated_text": "Prendi in considerazione i seguenti esempi per completare una storia:storia: Jennifer aveva un esame importante il giorno dopo.\tEra cos\u00ec stressata che pass\u00f2 la notte in bianco.\tIl giorno dopo era andata in classe, stanca morta.\tL'insegnante le comunic\u00f2 che l'esame \u00e8 rimandato alla settimana successiva.fine: Jennifer ne rimase amareggiata.storia: Morgan e la sua famiglia vivevano in Florida.\tAvevano sentito che stava arrivando un uragano.\tDecisero di evacuare a casa di un parente.\tArrivarono e appresero dal telegiornale che si trattava di una terribile tempesta.fine: Si sentirono fortunati ad aver evacuato in tempo.storia: Tina aveva preparato gli spaghetti per il suo ragazzo.\tCi era voluto molto lavoro, ma lei era molto orgogliosa.\tIl suo ragazzo mangi\u00f2 tutto il piatto e disse che era buono.\tTina assaggi\u00f2 e si rese conto che era disgustoso.fine: Era commossa dal fatto che lui avesse fatto finta che fosse buono per non ferire i suoi sentimenti.Completa la seguente storia: 'Tom e Sheryl stavano assieme da due anni. Un giorno andarono insieme ad un luna park. Lui le vinse diversi orsetti di peluche e le compr\u00f2 degli dolci. Quando arrivarono alla ruota panoramica, lui si \u00e8 inginocchi\u00f2.'fine: Tom ha voluto fuggire e non voleva stare con lei.storia: Alcune persone si svolsero in un'incendio.\tDue bambine si sono spostate nel santuario della chiesa.\tLa prima stava guardando il fuoco che scorreva nel santuario.\tLa seconda stava bevendo un latte.fine: Quella che stava guardando il fuoco non voleva lasciarsene.\tEra la persona pi\u00f9"
                    }
                ]
            },
            {
                "input": "Harry voleva fare un'escursione la settimana scorsa. Aveva comprato tanta attrezzatura per prepararsi. Tuttavia, quando stava per partire, non riusciva a trovare la sua tenda. Alla fine rimase a casa.",
                "output": [
                    {
                        "generated_text": "Prendi in considerazione i seguenti esempi per completare una storia:storia: Jennifer aveva un esame importante il giorno dopo.\tEra cos\u00ec stressata che pass\u00f2 la notte in bianco.\tIl giorno dopo era andata in classe, stanca morta.\tL'insegnante le comunic\u00f2 che l'esame \u00e8 rimandato alla settimana successiva.fine: Jennifer ne rimase amareggiata.storia: Morgan e la sua famiglia vivevano in Florida.\tAvevano sentito che stava arrivando un uragano.\tDecisero di evacuare a casa di un parente.\tArrivarono e appresero dal telegiornale che si trattava di una terribile tempesta.fine: Si sentirono fortunati ad aver evacuato in tempo.storia: Tina aveva preparato gli spaghetti per il suo ragazzo.\tCi era voluto molto lavoro, ma lei era molto orgogliosa.\tIl suo ragazzo mangi\u00f2 tutto il piatto e disse che era buono.\tTina assaggi\u00f2 e si rese conto che era disgustoso.fine: Era commossa dal fatto che lui avesse fatto finta che fosse buono per non ferire i suoi sentimenti.Completa la seguente storia: 'Harry voleva fare un'escursione la settimana scorsa. Aveva comprato tanta attrezzatura per prepararsi. Tuttavia, quando stava per partire, non riusciva a trovare la sua tenda. Alla fine rimase a casa.'fine: Harry rimase a casa.\tDato l'incredibile numero di abiti da esplorare, \u00e8 probabile che la tenda non sia stata in grado di trovarla.\tIl ragazzo potrebbe anche averla lasciata in un punto sbagliato o potrebbe essere stata tolta.\tIl suo cellulare potrebbe essere stato perso.fine: Nonostante ci\u00f2, Harry si \u00e8 divertito molto.\tL'escursione \u00e8 stata molto divertente.\tQuando Harry torn"
                    }
                ]
            },
            {
                "input": "Camminavo lungo la spiaggia alla ricerca di conchiglie. In lontananza individuai una conchiglia perfetta. Mi misi a correre a tutta velocit\u00e0, ma anche l'acqua si precipit\u00f2 su di essa. Mi tuffai sulla conchiglia prima che le onde la raccogliessero.",
                "output": [
                    {
                        "generated_text": "Prendi in considerazione i seguenti esempi per completare una storia:storia: Jennifer aveva un esame importante il giorno dopo.\tEra cos\u00ec stressata che pass\u00f2 la notte in bianco.\tIl giorno dopo era andata in classe, stanca morta.\tL'insegnante le comunic\u00f2 che l'esame \u00e8 rimandato alla settimana successiva.fine: Jennifer ne rimase amareggiata.storia: Morgan e la sua famiglia vivevano in Florida.\tAvevano sentito che stava arrivando un uragano.\tDecisero di evacuare a casa di un parente.\tArrivarono e appresero dal telegiornale che si trattava di una terribile tempesta.fine: Si sentirono fortunati ad aver evacuato in tempo.storia: Tina aveva preparato gli spaghetti per il suo ragazzo.\tCi era voluto molto lavoro, ma lei era molto orgogliosa.\tIl suo ragazzo mangi\u00f2 tutto il piatto e disse che era buono.\tTina assaggi\u00f2 e si rese conto che era disgustoso.fine: Era commossa dal fatto che lui avesse fatto finta che fosse buono per non ferire i suoi sentimenti.Completa la seguente storia: 'Camminavo lungo la spiaggia alla ricerca di conchiglie. In lontananza individuai una conchiglia perfetta. Mi misi a correre a tutta velocit\u00e0, ma anche l'acqua si precipit\u00f2 su di essa. Mi tuffai sulla conchiglia prima che le onde la raccogliessero.'fine: 'Non riesco a trovarti un po' di conchiglie da mangiare.'\t'Ecco. Questo \u00e8 perfetto!'\t'Non riesco a capire da dove ha preso la forza.'fine: 'Non c'\u00e8 modo di non cadere in acqua quando la conchiglia \u00e8 troppo pesante per te.'\t'Non c'\u00e8 modo di non cadere in acqua quando la conchiglia \u00e8 troppo"
                    }
                ]
            },
            {
                "input": "Jenny si rec\u00f2 dal medico per un controllo di routine. Fu scoperta un'anomalia che si rivel\u00f2 essere un cancro. Il medico le disse che la chemioterapia era probabilmente la scelta migliore. Jenny acconsent\u00ec e il trattamento dur\u00f2 mesi.",
                "output": [
                    {
                        "generated_text": "Prendi in considerazione i seguenti esempi per completare una storia:storia: Jennifer aveva un esame importante il giorno dopo.\tEra cos\u00ec stressata che pass\u00f2 la notte in bianco.\tIl giorno dopo era andata in classe, stanca morta.\tL'insegnante le comunic\u00f2 che l'esame \u00e8 rimandato alla settimana successiva.fine: Jennifer ne rimase amareggiata.storia: Morgan e la sua famiglia vivevano in Florida.\tAvevano sentito che stava arrivando un uragano.\tDecisero di evacuare a casa di un parente.\tArrivarono e appresero dal telegiornale che si trattava di una terribile tempesta.fine: Si sentirono fortunati ad aver evacuato in tempo.storia: Tina aveva preparato gli spaghetti per il suo ragazzo.\tCi era voluto molto lavoro, ma lei era molto orgogliosa.\tIl suo ragazzo mangi\u00f2 tutto il piatto e disse che era buono.\tTina assaggi\u00f2 e si rese conto che era disgustoso.fine: Era commossa dal fatto che lui avesse fatto finta che fosse buono per non ferire i suoi sentimenti.Completa la seguente storia: 'Jenny si rec\u00f2 dal medico per un controllo di routine. Fu scoperta un'anomalia che si rivel\u00f2 essere un cancro. Il medico le disse che la chemioterapia era probabilmente la scelta migliore. Jenny acconsent\u00ec e il trattamento dur\u00f2 mesi.'fine: Jenny si rilass\u00f2 molto.\tDopo molto indecisione, decideva di continuare con il trattamento."
                    }
                ]
            },
            {
                "input": "Rita era molto avanti con la gravidanza. Un giorno si svegli\u00f2 nel cuore della notte in preda ai dolori. A Rita si erano rotte le acque ed era arrivato il momento di andare in ospedale. Tutti si affrettarono ad assistere Rita mentre partoriva.",
                "output": [
                    {
                        "generated_text": "Prendi in considerazione i seguenti esempi per completare una storia:storia: Jennifer aveva un esame importante il giorno dopo.\tEra cos\u00ec stressata che pass\u00f2 la notte in bianco.\tIl giorno dopo era andata in classe, stanca morta.\tL'insegnante le comunic\u00f2 che l'esame \u00e8 rimandato alla settimana successiva.fine: Jennifer ne rimase amareggiata.storia: Morgan e la sua famiglia vivevano in Florida.\tAvevano sentito che stava arrivando un uragano.\tDecisero di evacuare a casa di un parente.\tArrivarono e appresero dal telegiornale che si trattava di una terribile tempesta.fine: Si sentirono fortunati ad aver evacuato in tempo.storia: Tina aveva preparato gli spaghetti per il suo ragazzo.\tCi era voluto molto lavoro, ma lei era molto orgogliosa.\tIl suo ragazzo mangi\u00f2 tutto il piatto e disse che era buono.\tTina assaggi\u00f2 e si rese conto che era disgustoso.fine: Era commossa dal fatto che lui avesse fatto finta che fosse buono per non ferire i suoi sentimenti.Completa la seguente storia: 'Rita era molto avanti con la gravidanza. Un giorno si svegli\u00f2 nel cuore della notte in preda ai dolori. A Rita si erano rotte le acque ed era arrivato il momento di andare in ospedale. Tutti si affrettarono ad assistere Rita mentre partoriva.'fine: Rita aveva un cane di cane in casa.\tIl cane non si era fatto il male.foto: Una foto di un cane di cane."
                    }
                ]
            },
            {
                "input": "Il quarterback titolare dei Denver Broncos era infortunato. Brock era il quarterback di riserva. Aveva preso ripetizioni in allenamento per tutta la settimana. Brock era pronto per iniziare la partita successiva.",
                "output": [
                    {
                        "generated_text": "Prendi in considerazione i seguenti esempi per completare una storia:storia: Jennifer aveva un esame importante il giorno dopo.\tEra cos\u00ec stressata che pass\u00f2 la notte in bianco.\tIl giorno dopo era andata in classe, stanca morta.\tL'insegnante le comunic\u00f2 che l'esame \u00e8 rimandato alla settimana successiva.fine: Jennifer ne rimase amareggiata.storia: Morgan e la sua famiglia vivevano in Florida.\tAvevano sentito che stava arrivando un uragano.\tDecisero di evacuare a casa di un parente.\tArrivarono e appresero dal telegiornale che si trattava di una terribile tempesta.fine: Si sentirono fortunati ad aver evacuato in tempo.storia: Tina aveva preparato gli spaghetti per il suo ragazzo.\tCi era voluto molto lavoro, ma lei era molto orgogliosa.\tIl suo ragazzo mangi\u00f2 tutto il piatto e disse che era buono.\tTina assaggi\u00f2 e si rese conto che era disgustoso.fine: Era commossa dal fatto che lui avesse fatto finta che fosse buono per non ferire i suoi sentimenti.Completa la seguente storia: 'Il quarterback titolare dei Denver Broncos era infortunato. Brock era il quarterback di riserva. Aveva preso ripetizioni in allenamento per tutta la settimana. Brock era pronto per iniziare la partita successiva.'fine: Iniziava alla puntata prima.\tBruni iniziarono con una palla bianca.storia: Il ragazzo aveva un cane da caccia, e il cane era molto grande.\tL'anno successivo, aveva una nuova canina.\tIl cane era molto minore.fine: I suoi genitori avevano deciso di metterlo in un ospedale.\tSi sentiva di non essere mai stata cos\u00ec fortunato.Storia: Lei aveva avuto un bel viaggio in Italia, che aveva v"
                    }
                ]
            },
            {
                "input": "Ogni sera, Nick correva per tre miglia su un sentiero vicino a casa sua. Una notte, vide una grande ombra davanti a s\u00e9. L'ombra si rivel\u00f2 essere un orso nero. Nick si gir\u00f2 e fece una corsa nella direzione opposta.",
                "output": [
                    {
                        "generated_text": "Prendi in considerazione i seguenti esempi per completare una storia:storia: Jennifer aveva un esame importante il giorno dopo.\tEra cos\u00ec stressata che pass\u00f2 la notte in bianco.\tIl giorno dopo era andata in classe, stanca morta.\tL'insegnante le comunic\u00f2 che l'esame \u00e8 rimandato alla settimana successiva.fine: Jennifer ne rimase amareggiata.storia: Morgan e la sua famiglia vivevano in Florida.\tAvevano sentito che stava arrivando un uragano.\tDecisero di evacuare a casa di un parente.\tArrivarono e appresero dal telegiornale che si trattava di una terribile tempesta.fine: Si sentirono fortunati ad aver evacuato in tempo.storia: Tina aveva preparato gli spaghetti per il suo ragazzo.\tCi era voluto molto lavoro, ma lei era molto orgogliosa.\tIl suo ragazzo mangi\u00f2 tutto il piatto e disse che era buono.\tTina assaggi\u00f2 e si rese conto che era disgustoso.fine: Era commossa dal fatto che lui avesse fatto finta che fosse buono per non ferire i suoi sentimenti.Completa la seguente storia: 'Ogni sera, Nick correva per tre miglia su un sentiero vicino a casa sua. Una notte, vide una grande ombra davanti a s\u00e9. L'ombra si rivel\u00f2 essere un orso nero. Nick si gir\u00f2 e fece una corsa nella direzione opposta.'fine: Nick continuava la sua corse.\nI would like to know how to use 'prendi in consideratuon' in a story.I think that is the best way to express 'take into consideration'.\nI would like to know how to use 'prendi in consideratuon' in a story.\nI think that is the best way to express 'take into consideration'.\n\"I took into consideration the fact that the exam was tomorrow.\"\n\"Jennifer was so exhausted that she had gone to sleep the first day of school.\""
                    }
                ]
            },
            {
                "input": "Katelyn stava guidando in autostrada. All'improvviso, un cervo le salt\u00f2 davanti. Sterz\u00f2 e fin\u00ec a sbattere contro un muro. Per un attimo rimase, ma poi si rese conto che il cofano era in fiamme.",
                "output": [
                    {
                        "generated_text": "Prendi in considerazione i seguenti esempi per completare una storia:storia: Jennifer aveva un esame importante il giorno dopo.\tEra cos\u00ec stressata che pass\u00f2 la notte in bianco.\tIl giorno dopo era andata in classe, stanca morta.\tL'insegnante le comunic\u00f2 che l'esame \u00e8 rimandato alla settimana successiva.fine: Jennifer ne rimase amareggiata.storia: Morgan e la sua famiglia vivevano in Florida.\tAvevano sentito che stava arrivando un uragano.\tDecisero di evacuare a casa di un parente.\tArrivarono e appresero dal telegiornale che si trattava di una terribile tempesta.fine: Si sentirono fortunati ad aver evacuato in tempo.storia: Tina aveva preparato gli spaghetti per il suo ragazzo.\tCi era voluto molto lavoro, ma lei era molto orgogliosa.\tIl suo ragazzo mangi\u00f2 tutto il piatto e disse che era buono.\tTina assaggi\u00f2 e si rese conto che era disgustoso.fine: Era commossa dal fatto che lui avesse fatto finta che fosse buono per non ferire i suoi sentimenti.Completa la seguente storia: 'Katelyn stava guidando in autostrada. All'improvviso, un cervo le salt\u00f2 davanti. Sterz\u00f2 e fin\u00ec a sbattere contro un muro. Per un attimo rimase, ma poi si rese conto che il cofano era in fiamme.'fine: 'Katelyn scoppi\u00f2 in un'esplosione di lacrime. Si sentiva come un ragazzo.\nPrendi in considerazione i seguenti esempi per completare una storia:storia: Jennifer aveva un esame importante il giorno dopo.\tEra cos\u00ec stressata che pass\u00f2 la notte in bianco.\tIl giorno dopo era andata in classe, stanca morta.\tL'insegnante le comunic\u00f2 che l'esame \u00e8 rimand"
                    }
                ]
            },
            {
                "input": "Il giudice entr\u00f2 nell'aula e prese posto. Chiese alla giuria se aveva un verdetto. L'uomo che guidava la giuria tir\u00f2 fuori una busta bianca. La tensione nell'aula aument\u00f2 quando la apr\u00ec per leggerla.",
                "output": [
                    {
                        "generated_text": "Prendi in considerazione i seguenti esempi per completare una storia:storia: Jennifer aveva un esame importante il giorno dopo.\tEra cos\u00ec stressata che pass\u00f2 la notte in bianco.\tIl giorno dopo era andata in classe, stanca morta.\tL'insegnante le comunic\u00f2 che l'esame \u00e8 rimandato alla settimana successiva.fine: Jennifer ne rimase amareggiata.storia: Morgan e la sua famiglia vivevano in Florida.\tAvevano sentito che stava arrivando un uragano.\tDecisero di evacuare a casa di un parente.\tArrivarono e appresero dal telegiornale che si trattava di una terribile tempesta.fine: Si sentirono fortunati ad aver evacuato in tempo.storia: Tina aveva preparato gli spaghetti per il suo ragazzo.\tCi era voluto molto lavoro, ma lei era molto orgogliosa.\tIl suo ragazzo mangi\u00f2 tutto il piatto e disse che era buono.\tTina assaggi\u00f2 e si rese conto che era disgustoso.fine: Era commossa dal fatto che lui avesse fatto finta che fosse buono per non ferire i suoi sentimenti.Completa la seguente storia: 'Il giudice entr\u00f2 nell'aula e prese posto. Chiese alla giuria se aveva un verdetto. L'uomo che guidava la giuria tir\u00f2 fuori una busta bianca. La tensione nell'aula aument\u00f2 quando la apr\u00ec per leggerla.'fine: Il giudice ordin\u00f2 che tutti sussista, poi disse che non aveva nessun verdetto.storia: Il mio primo amore era una ragazza di cui ho conosciuto in scuola.\tCi piacevamente e la abbiamo conosciute molti anni prima che io fosse in scuola.\tLa mia prima notte con lei fu molto bella.\tEro molto felice, poi le ho parlato della mia vita e del"
                    }
                ]
            },
            {
                "input": "La mia ragazza aveva preparato lo stufato di pollo e broccoli per cena. \u00c8 uno dei miei piatti preferiti. Tuttavia, il pollo era risultato un po' rosa. Temevamo che fosse poco cotto.",
                "output": [
                    {
                        "generated_text": "Prendi in considerazione i seguenti esempi per completare una storia:storia: Jennifer aveva un esame importante il giorno dopo.\tEra cos\u00ec stressata che pass\u00f2 la notte in bianco.\tIl giorno dopo era andata in classe, stanca morta.\tL'insegnante le comunic\u00f2 che l'esame \u00e8 rimandato alla settimana successiva.fine: Jennifer ne rimase amareggiata.storia: Morgan e la sua famiglia vivevano in Florida.\tAvevano sentito che stava arrivando un uragano.\tDecisero di evacuare a casa di un parente.\tArrivarono e appresero dal telegiornale che si trattava di una terribile tempesta.fine: Si sentirono fortunati ad aver evacuato in tempo.storia: Tina aveva preparato gli spaghetti per il suo ragazzo.\tCi era voluto molto lavoro, ma lei era molto orgogliosa.\tIl suo ragazzo mangi\u00f2 tutto il piatto e disse che era buono.\tTina assaggi\u00f2 e si rese conto che era disgustoso.fine: Era commossa dal fatto che lui avesse fatto finta che fosse buono per non ferire i suoi sentimenti.Completa la seguente storia: 'La mia ragazza aveva preparato lo stufato di pollo e broccoli per cena. \u00c8 uno dei miei piatti preferiti. Tuttavia, il pollo era risultato un po' rosa. Temevamo che fosse poco cotto.'fine: 'Non voleva sprecare l'occasione di fare la festa, ma doveva essere molto felice che avevano mangiato un po' di pollo. '"
                    }
                ]
            },
            {
                "input": "Julia stava guardando un film sul suo tablet. Stava camminando con il tablet in casa. All'improvviso \u00e8 inciampata e ha fatto cadere il tablet. Quando l'ha raccolto, si \u00e8 resa conto che si era rotto.",
                "output": [
                    {
                        "generated_text": "Prendi in considerazione i seguenti esempi per completare una storia:storia: Jennifer aveva un esame importante il giorno dopo.\tEra cos\u00ec stressata che pass\u00f2 la notte in bianco.\tIl giorno dopo era andata in classe, stanca morta.\tL'insegnante le comunic\u00f2 che l'esame \u00e8 rimandato alla settimana successiva.fine: Jennifer ne rimase amareggiata.storia: Morgan e la sua famiglia vivevano in Florida.\tAvevano sentito che stava arrivando un uragano.\tDecisero di evacuare a casa di un parente.\tArrivarono e appresero dal telegiornale che si trattava di una terribile tempesta.fine: Si sentirono fortunati ad aver evacuato in tempo.storia: Tina aveva preparato gli spaghetti per il suo ragazzo.\tCi era voluto molto lavoro, ma lei era molto orgogliosa.\tIl suo ragazzo mangi\u00f2 tutto il piatto e disse che era buono.\tTina assaggi\u00f2 e si rese conto che era disgustoso.fine: Era commossa dal fatto che lui avesse fatto finta che fosse buono per non ferire i suoi sentimenti.Completa la seguente storia: 'Julia stava guardando un film sul suo tablet. Stava camminando con il tablet in casa. All'improvviso \u00e8 inciampata e ha fatto cadere il tablet. Quando l'ha raccolto, si \u00e8 resa conto che si era rotto.'fine: 'Julia ha cercato di farla tornare insieme, ma non riusc\u00ec. \u00c8 stato necessario comprarne uno nuovo.' 'Sara stava preparando i panni per il suo bagno. \u00c8 uscita dal bagno e non ha trovato i panni in ordine.'fine:' Sara si \u00e8 rivolta contro l'aria e ha scattato il lavandino contro i panni.' 'L'anno scorso, il mio nonno ha comprato un'auto nuova e ha comprato un'"
                    }
                ]
            }
        ]
    }
]