[
    {
        "model_name": "TheBloke/Wizard-Vicuna-13B-Uncensored-HF",
        "results": [
            {
                "input": "Jennifer aveva un esame importante il giorno dopo. Era cos\u00ec stressata che pass\u00f2 la notte in bianco. Il giorno dopo era andata in classe, stanca morta. L'insegnante le comunic\u00f2 che l'esame \u00e8 rimandato alla settimana successiva.",
                "output": [
                    {
                        "generated_text": "Prendi in considerazione i seguenti esempi per completare una storia:storia: Jennifer aveva un esame importante il giorno dopo.\tEra cos\u00ec stressata che pass\u00f2 la notte in bianco.\tIl giorno dopo era andata in classe, stanca morta.\tL'insegnante le comunic\u00f2 che l'esame \u00e8 rimandato alla settimana successiva.fine: Jennifer ne rimase amareggiata.storia: Morgan e la sua famiglia vivevano in Florida.\tAvevano sentito che stava arrivando un uragano.\tDecisero di evacuare a casa di un parente.\tArrivarono e appresero dal telegiornale che si trattava di una terribile tempesta.fine: Si sentirono fortunati ad aver evacuato in tempo.storia: Tina aveva preparato gli spaghetti per il suo ragazzo.\tCi era voluto molto lavoro, ma lei era molto orgogliosa.\tIl suo ragazzo mangi\u00f2 tutto il piatto e disse che era buono.\tTina assaggi\u00f2 e si rese conto che era disgustoso.fine: Era commossa dal fatto che lui avesse fatto finta che fosse buono per non ferire i suoi sentimenti.Completa la seguente storia: 'Jennifer aveva un esame importante il giorno dopo. Era cos\u00ec stressata che pass\u00f2 la notte in bianco. Il giorno dopo era andata in classe, stanca morta. L'insegnante le comunic\u00f2 che l'esame \u00e8 rimandato alla settimana successiva.'fine: Jennifer ne rimase amareggiata."
                    }
                ]
            },
            {
                "input": "Morgan e la sua famiglia vivevano in Florida. Avevano sentito che stava arrivando un uragano. Decisero di evacuare a casa di un parente. Arrivarono e appresero dal telegiornale che si trattava di una terribile tempesta.",
                "output": [
                    {
                        "generated_text": "Prendi in considerazione i seguenti esempi per completare una storia:storia: Jennifer aveva un esame importante il giorno dopo.\tEra cos\u00ec stressata che pass\u00f2 la notte in bianco.\tIl giorno dopo era andata in classe, stanca morta.\tL'insegnante le comunic\u00f2 che l'esame \u00e8 rimandato alla settimana successiva.fine: Jennifer ne rimase amareggiata.storia: Morgan e la sua famiglia vivevano in Florida.\tAvevano sentito che stava arrivando un uragano.\tDecisero di evacuare a casa di un parente.\tArrivarono e appresero dal telegiornale che si trattava di una terribile tempesta.fine: Si sentirono fortunati ad aver evacuato in tempo.storia: Tina aveva preparato gli spaghetti per il suo ragazzo.\tCi era voluto molto lavoro, ma lei era molto orgogliosa.\tIl suo ragazzo mangi\u00f2 tutto il piatto e disse che era buono.\tTina assaggi\u00f2 e si rese conto che era disgustoso.fine: Era commossa dal fatto che lui avesse fatto finta che fosse buono per non ferire i suoi sentimenti.Completa la seguente storia: 'Morgan e la sua famiglia vivevano in Florida. Avevano sentito che stava arrivando un uragano. Decisero di evacuare a casa di un parente. Arrivarono e appresero dal telegiornale che si trattava di una terribile tempesta.'fine:"
                    }
                ]
            },
            {
                "input": "Tina aveva preparato gli spaghetti per il suo ragazzo. Ci era voluto molto lavoro, ma lei era molto orgogliosa. Il suo ragazzo mangi\u00f2 tutto il piatto e disse che era buono. Tina assaggi\u00f2 e si rese conto che era disgustoso.",
                "output": [
                    {
                        "generated_text": "Prendi in considerazione i seguenti esempi per completare una storia:storia: Jennifer aveva un esame importante il giorno dopo.\tEra cos\u00ec stressata che pass\u00f2 la notte in bianco.\tIl giorno dopo era andata in classe, stanca morta.\tL'insegnante le comunic\u00f2 che l'esame \u00e8 rimandato alla settimana successiva.fine: Jennifer ne rimase amareggiata.storia: Morgan e la sua famiglia vivevano in Florida.\tAvevano sentito che stava arrivando un uragano.\tDecisero di evacuare a casa di un parente.\tArrivarono e appresero dal telegiornale che si trattava di una terribile tempesta.fine: Si sentirono fortunati ad aver evacuato in tempo.storia: Tina aveva preparato gli spaghetti per il suo ragazzo.\tCi era voluto molto lavoro, ma lei era molto orgogliosa.\tIl suo ragazzo mangi\u00f2 tutto il piatto e disse che era buono.\tTina assaggi\u00f2 e si rese conto che era disgustoso.fine: Era commossa dal fatto che lui avesse fatto finta che fosse buono per non ferire i suoi sentimenti.Completa la seguente storia: 'Tina aveva preparato gli spaghetti per il suo ragazzo. Ci era voluto molto lavoro, ma lei era molto orgogliosa. Il suo ragazzo mangi\u00f2 tutto il piatto e disse che era buono. Tina assaggi\u00f2 e si rese conto che era disgustoso.'fine: 'Tina era commossa dal fatto che lui avesse fatto finta che fosse buono per non ferire i suoi sentimenti.' Questo \u00e8 il finale appropriato per il breve racconto dato. Tina si rende conto che il ragazzo ha mentito sui suoi gusti e ci\u00f2 le causa un certo dispiacere e delusione. Il ragazzo, inoltre, aveva il compito di farla sentire speciale e apprezzata ma, in realt\u00e0, si \u00e8 rivelato incapace di farlo. Il finale \u00e8 divertente, sebbene sia triste, e offre una lezione"
                    }
                ]
            },
            {
                "input": "Il mio professore assegn\u00f2 alla mia classe un tema. Tempo di uscire dall'aula e me ne ero gi\u00e0 dimenticata. Qualche giorno dopo, una mia compagna di classe mi scrisse per chiedermi se l'avessi fatto. Ero cos\u00ec arrabbiata con me stessa perch\u00e9 me ne ero completamente dimenticata.",
                "output": [
                    {
                        "generated_text": "Prendi in considerazione i seguenti esempi per completare una storia:storia: Jennifer aveva un esame importante il giorno dopo.\tEra cos\u00ec stressata che pass\u00f2 la notte in bianco.\tIl giorno dopo era andata in classe, stanca morta.\tL'insegnante le comunic\u00f2 che l'esame \u00e8 rimandato alla settimana successiva.fine: Jennifer ne rimase amareggiata.storia: Morgan e la sua famiglia vivevano in Florida.\tAvevano sentito che stava arrivando un uragano.\tDecisero di evacuare a casa di un parente.\tArrivarono e appresero dal telegiornale che si trattava di una terribile tempesta.fine: Si sentirono fortunati ad aver evacuato in tempo.storia: Tina aveva preparato gli spaghetti per il suo ragazzo.\tCi era voluto molto lavoro, ma lei era molto orgogliosa.\tIl suo ragazzo mangi\u00f2 tutto il piatto e disse che era buono.\tTina assaggi\u00f2 e si rese conto che era disgustoso.fine: Era commossa dal fatto che lui avesse fatto finta che fosse buono per non ferire i suoi sentimenti.Completa la seguente storia: 'Il mio professore assegn\u00f2 alla mia classe un tema. Tempo di uscire dall'aula e me ne ero gi\u00e0 dimenticata. Qualche giorno dopo, una mia compagna di classe mi scrisse per chiedermi se l'avessi fatto. Ero cos\u00ec arrabbiata con me stessa perch\u00e9 me ne ero completamente dimenticata.'fine: Avevo perso il mio tempo e la possibilit\u00e0 di fare del benessere. Per\u00f2, non avevo perso l'occasione di imparare una preziosa lezione."
                    }
                ]
            },
            {
                "input": "Kaitlyn pensava che i jeans con i buchi fossero molto alla moda. Li indoss\u00f2 a scuola per sfoggiarli. Il preside le disse che erano contrari al codice di abbigliamento. Dovette cambiare i suoi jeans.",
                "output": [
                    {
                        "generated_text": "Prendi in considerazione i seguenti esempi per completare una storia:storia: Jennifer aveva un esame importante il giorno dopo.\tEra cos\u00ec stressata che pass\u00f2 la notte in bianco.\tIl giorno dopo era andata in classe, stanca morta.\tL'insegnante le comunic\u00f2 che l'esame \u00e8 rimandato alla settimana successiva.fine: Jennifer ne rimase amareggiata.storia: Morgan e la sua famiglia vivevano in Florida.\tAvevano sentito che stava arrivando un uragano.\tDecisero di evacuare a casa di un parente.\tArrivarono e appresero dal telegiornale che si trattava di una terribile tempesta.fine: Si sentirono fortunati ad aver evacuato in tempo.storia: Tina aveva preparato gli spaghetti per il suo ragazzo.\tCi era voluto molto lavoro, ma lei era molto orgogliosa.\tIl suo ragazzo mangi\u00f2 tutto il piatto e disse che era buono.\tTina assaggi\u00f2 e si rese conto che era disgustoso.fine: Era commossa dal fatto che lui avesse fatto finta che fosse buono per non ferire i suoi sentimenti.Completa la seguente storia: 'Kaitlyn pensava che i jeans con i buchi fossero molto alla moda. Li indoss\u00f2 a scuola per sfoggiarli. Il preside le disse che erano contrari al codice di abbigliamento. Dovette cambiare i suoi jeans.'fine: Kaitlyn era arrabbiata e sent\u00ec che il preside era una rigida scaltra. Decise di portare i jeans con i buchi la settimana successiva, ma in realt\u00e0 si sentiva in imbarazzo a portarli."
                    }
                ]
            },
            {
                "input": "James si svegli\u00f2 nel cuore della notte e trov\u00f2 il suo letto che tremava. Tutte le cose nella sua stanza tremavano furiosamente. Era spaventato, ma poi all'improvviso smise. Si alz\u00f2 e controll\u00f2 il telegiornale.",
                "output": [
                    {
                        "generated_text": "Prendi in considerazione i seguenti esempi per completare una storia:storia: Jennifer aveva un esame importante il giorno dopo.\tEra cos\u00ec stressata che pass\u00f2 la notte in bianco.\tIl giorno dopo era andata in classe, stanca morta.\tL'insegnante le comunic\u00f2 che l'esame \u00e8 rimandato alla settimana successiva.fine: Jennifer ne rimase amareggiata.storia: Morgan e la sua famiglia vivevano in Florida.\tAvevano sentito che stava arrivando un uragano.\tDecisero di evacuare a casa di un parente.\tArrivarono e appresero dal telegiornale che si trattava di una terribile tempesta.fine: Si sentirono fortunati ad aver evacuato in tempo.storia: Tina aveva preparato gli spaghetti per il suo ragazzo.\tCi era voluto molto lavoro, ma lei era molto orgogliosa.\tIl suo ragazzo mangi\u00f2 tutto il piatto e disse che era buono.\tTina assaggi\u00f2 e si rese conto che era disgustoso.fine: Era commossa dal fatto che lui avesse fatto finta che fosse buono per non ferire i suoi sentimenti.Completa la seguente storia: 'James si svegli\u00f2 nel cuore della notte e trov\u00f2 il suo letto che tremava. Tutte le cose nella sua stanza tremavano furiosamente. Era spaventato, ma poi all'improvviso smise. Si alz\u00f2 e controll\u00f2 il telegiornale.'fine: Si scopr\u00ec che c'era stato un terremoto."
                    }
                ]
            },
            {
                "input": "Ero cos\u00ec nervosa per il mio primo giorno di scuola. Quando arrivai alla prima lezione, tremavo. Mi sedetti accanto alla ragazza pi\u00f9 carina della classe. Parlammo tutto il tempo, durante e dopo le lezioni.",
                "output": [
                    {
                        "generated_text": "Prendi in considerazione i seguenti esempi per completare una storia:storia: Jennifer aveva un esame importante il giorno dopo.\tEra cos\u00ec stressata che pass\u00f2 la notte in bianco.\tIl giorno dopo era andata in classe, stanca morta.\tL'insegnante le comunic\u00f2 che l'esame \u00e8 rimandato alla settimana successiva.fine: Jennifer ne rimase amareggiata.storia: Morgan e la sua famiglia vivevano in Florida.\tAvevano sentito che stava arrivando un uragano.\tDecisero di evacuare a casa di un parente.\tArrivarono e appresero dal telegiornale che si trattava di una terribile tempesta.fine: Si sentirono fortunati ad aver evacuato in tempo.storia: Tina aveva preparato gli spaghetti per il suo ragazzo.\tCi era voluto molto lavoro, ma lei era molto orgogliosa.\tIl suo ragazzo mangi\u00f2 tutto il piatto e disse che era buono.\tTina assaggi\u00f2 e si rese conto che era disgustoso.fine: Era commossa dal fatto che lui avesse fatto finta che fosse buono per non ferire i suoi sentimenti.Completa la seguente storia: 'Ero cos\u00ec nervosa per il mio primo giorno di scuola. Quando arrivai alla prima lezione, tremavo. Mi sedetti accanto alla ragazza pi\u00f9 carina della classe. Parlammo tutto il tempo, durante e dopo le lezioni.'fine: Mi resi conto che non ero solo ed ero contenta di fare nuove amicizie."
                    }
                ]
            },
            {
                "input": "Uli non vedeva l'ora di giocare a basket quel pomeriggio. Entr\u00f2 in palestra e lasci\u00f2 lo zaino sulle gradinate. Dopo la partita, non aveva ritrovato il telefono nello zaino. Era rimasta triste tutta la notte e al mattino controll\u00f2 in ufficio.",
                "output": [
                    {
                        "generated_text": "Prendi in considerazione i seguenti esempi per completare una storia:storia: Jennifer aveva un esame importante il giorno dopo.\tEra cos\u00ec stressata che pass\u00f2 la notte in bianco.\tIl giorno dopo era andata in classe, stanca morta.\tL'insegnante le comunic\u00f2 che l'esame \u00e8 rimandato alla settimana successiva.fine: Jennifer ne rimase amareggiata.storia: Morgan e la sua famiglia vivevano in Florida.\tAvevano sentito che stava arrivando un uragano.\tDecisero di evacuare a casa di un parente.\tArrivarono e appresero dal telegiornale che si trattava di una terribile tempesta.fine: Si sentirono fortunati ad aver evacuato in tempo.storia: Tina aveva preparato gli spaghetti per il suo ragazzo.\tCi era voluto molto lavoro, ma lei era molto orgogliosa.\tIl suo ragazzo mangi\u00f2 tutto il piatto e disse che era buono.\tTina assaggi\u00f2 e si rese conto che era disgustoso.fine: Era commossa dal fatto che lui avesse fatto finta che fosse buono per non ferire i suoi sentimenti.Completa la seguente storia: 'Uli non vedeva l'ora di giocare a basket quel pomeriggio. Entr\u00f2 in palestra e lasci\u00f2 lo zaino sulle gradinate. Dopo la partita, non aveva ritrovato il telefono nello zaino. Era rimasta triste tutta la notte e al mattino controll\u00f2 in ufficio.'fine: Il giorno successivo, Uli trov\u00f2 il telefono tra il materiale di un compagno di lavoro. Si rallegr\u00f2 per averlo ritrovato ma rimase delusa dal fatto che non fosse stato trovato durante la notte."
                    }
                ]
            },
            {
                "input": "Anna era una trombettista professionista. Aveva preso un nuovo appartamento in citt\u00e0. Sfortunatamente, le pareti erano molto pi\u00f9 sottili di quelle del vecchio appartamento. Ben presto i vicini si lamentarono del suo incessante esercizio.",
                "output": [
                    {
                        "generated_text": "Prendi in considerazione i seguenti esempi per completare una storia:storia: Jennifer aveva un esame importante il giorno dopo.\tEra cos\u00ec stressata che pass\u00f2 la notte in bianco.\tIl giorno dopo era andata in classe, stanca morta.\tL'insegnante le comunic\u00f2 che l'esame \u00e8 rimandato alla settimana successiva.fine: Jennifer ne rimase amareggiata.storia: Morgan e la sua famiglia vivevano in Florida.\tAvevano sentito che stava arrivando un uragano.\tDecisero di evacuare a casa di un parente.\tArrivarono e appresero dal telegiornale che si trattava di una terribile tempesta.fine: Si sentirono fortunati ad aver evacuato in tempo.storia: Tina aveva preparato gli spaghetti per il suo ragazzo.\tCi era voluto molto lavoro, ma lei era molto orgogliosa.\tIl suo ragazzo mangi\u00f2 tutto il piatto e disse che era buono.\tTina assaggi\u00f2 e si rese conto che era disgustoso.fine: Era commossa dal fatto che lui avesse fatto finta che fosse buono per non ferire i suoi sentimenti.Completa la seguente storia: 'Anna era una trombettista professionista. Aveva preso un nuovo appartamento in citt\u00e0. Sfortunatamente, le pareti erano molto pi\u00f9 sottili di quelle del vecchio appartamento. Ben presto i vicini si lamentarono del suo incessante esercizio.'fine: Anna si rese conto che era il suo dovere di informare i vicini del suo lavoro e chiedere loro se ci fosse qualcosa che potesse fare per alleviare il loro fastidio.\""
                    }
                ]
            },
            {
                "input": "Bill decise di andare a scuola in bicicletta. Durante il tragitto buc\u00f2 una gomma. Un uomo vide la gomma a terra di Bill e ferm\u00f2 la sua auto. L'autista si offr\u00ec di accompagnare Bill a scuola.",
                "output": [
                    {
                        "generated_text": "Prendi in considerazione i seguenti esempi per completare una storia:storia: Jennifer aveva un esame importante il giorno dopo.\tEra cos\u00ec stressata che pass\u00f2 la notte in bianco.\tIl giorno dopo era andata in classe, stanca morta.\tL'insegnante le comunic\u00f2 che l'esame \u00e8 rimandato alla settimana successiva.fine: Jennifer ne rimase amareggiata.storia: Morgan e la sua famiglia vivevano in Florida.\tAvevano sentito che stava arrivando un uragano.\tDecisero di evacuare a casa di un parente.\tArrivarono e appresero dal telegiornale che si trattava di una terribile tempesta.fine: Si sentirono fortunati ad aver evacuato in tempo.storia: Tina aveva preparato gli spaghetti per il suo ragazzo.\tCi era voluto molto lavoro, ma lei era molto orgogliosa.\tIl suo ragazzo mangi\u00f2 tutto il piatto e disse che era buono.\tTina assaggi\u00f2 e si rese conto che era disgustoso.fine: Era commossa dal fatto che lui avesse fatto finta che fosse buono per non ferire i suoi sentimenti.Completa la seguente storia: 'Bill decise di andare a scuola in bicicletta. Durante il tragitto buc\u00f2 una gomma. Un uomo vide la gomma a terra di Bill e ferm\u00f2 la sua auto. L'autista si offr\u00ec di accompagnare Bill a scuola.'fine: Bill arriv\u00f2 in sella all'auto dell'uomo e gli ringrazi\u00f2 per l'aiuto. L'uomo disse a Bill che non si deve mai arrischiare di scendere in gamba quando si trova a centinaia di chilometri da casa.\n\nQuesto esercit\u00f2 un impatto profondo su Bill, che decise di non andare in bicicletta mai pi\u00f9. L'uomo rimase in contatto con la famiglia e li invit\u00f2 a casa sua per una cena di benvenuto."
                    }
                ]
            },
            {
                "input": "Mentre era a casa, Robert sent\u00ec un odore terribile. And\u00f2 in cucina per indagare. La fonte dell'odore sembrava provenire dal frigorifero. Lo apr\u00ec e vide che c'era della carne avariata che aveva dimenticato.",
                "output": [
                    {
                        "generated_text": "Prendi in considerazione i seguenti esempi per completare una storia:storia: Jennifer aveva un esame importante il giorno dopo.\tEra cos\u00ec stressata che pass\u00f2 la notte in bianco.\tIl giorno dopo era andata in classe, stanca morta.\tL'insegnante le comunic\u00f2 che l'esame \u00e8 rimandato alla settimana successiva.fine: Jennifer ne rimase amareggiata.storia: Morgan e la sua famiglia vivevano in Florida.\tAvevano sentito che stava arrivando un uragano.\tDecisero di evacuare a casa di un parente.\tArrivarono e appresero dal telegiornale che si trattava di una terribile tempesta.fine: Si sentirono fortunati ad aver evacuato in tempo.storia: Tina aveva preparato gli spaghetti per il suo ragazzo.\tCi era voluto molto lavoro, ma lei era molto orgogliosa.\tIl suo ragazzo mangi\u00f2 tutto il piatto e disse che era buono.\tTina assaggi\u00f2 e si rese conto che era disgustoso.fine: Era commossa dal fatto che lui avesse fatto finta che fosse buono per non ferire i suoi sentimenti.Completa la seguente storia: 'Mentre era a casa, Robert sent\u00ec un odore terribile. And\u00f2 in cucina per indagare. La fonte dell'odore sembrava provenire dal frigorifero. Lo apr\u00ec e vide che c'era della carne avariata che aveva dimenticato.'fine: Robert si rese conto che quella carne avaria era lo stesso piatto che aveva preparato per un invitato importante due giorni prima e lo aveva messo in frigo. Si sent\u00ec mortificato e si chiese come avesse potuto fare una cosa del genere. Nonostante il suo imbarazzo, decise di cucinare il piatto e di farsi coraggio per spiegare al suo amico cosa era successo."
                    }
                ]
            },
            {
                "input": "Joe si ferm\u00f2 a un semaforo. Il semaforo era verde, ma lui non part\u00ec. Le persone dietro di lui suonarono il clacson. Si sentirono frustrati, ma Joe non si mosse.",
                "output": [
                    {
                        "generated_text": "Prendi in considerazione i seguenti esempi per completare una storia:storia: Jennifer aveva un esame importante il giorno dopo.\tEra cos\u00ec stressata che pass\u00f2 la notte in bianco.\tIl giorno dopo era andata in classe, stanca morta.\tL'insegnante le comunic\u00f2 che l'esame \u00e8 rimandato alla settimana successiva.fine: Jennifer ne rimase amareggiata.storia: Morgan e la sua famiglia vivevano in Florida.\tAvevano sentito che stava arrivando un uragano.\tDecisero di evacuare a casa di un parente.\tArrivarono e appresero dal telegiornale che si trattava di una terribile tempesta.fine: Si sentirono fortunati ad aver evacuato in tempo.storia: Tina aveva preparato gli spaghetti per il suo ragazzo.\tCi era voluto molto lavoro, ma lei era molto orgogliosa.\tIl suo ragazzo mangi\u00f2 tutto il piatto e disse che era buono.\tTina assaggi\u00f2 e si rese conto che era disgustoso.fine: Era commossa dal fatto che lui avesse fatto finta che fosse buono per non ferire i suoi sentimenti.Completa la seguente storia: 'Joe si ferm\u00f2 a un semaforo. Il semaforo era verde, ma lui non part\u00ec. Le persone dietro di lui suonarono il clacson. Si sentirono frustrati, ma Joe non si mosse.'fine: Joe era un uomo anziano e aveva perso la vista. Non era consapevole della situazione. Il semaforo era verde ma non si era accorto."
                    }
                ]
            },
            {
                "input": "Un uomo trov\u00f2 una perla in un'ostrica. Purtroppo, proprio in quel momento stava mangiando l'ostrica. Con la perla si scheggi\u00f2 un dente. Fortunatamente, la perla copr\u00ec il costo dell'intervento dentistico.",
                "output": [
                    {
                        "generated_text": "Prendi in considerazione i seguenti esempi per completare una storia:storia: Jennifer aveva un esame importante il giorno dopo.\tEra cos\u00ec stressata che pass\u00f2 la notte in bianco.\tIl giorno dopo era andata in classe, stanca morta.\tL'insegnante le comunic\u00f2 che l'esame \u00e8 rimandato alla settimana successiva.fine: Jennifer ne rimase amareggiata.storia: Morgan e la sua famiglia vivevano in Florida.\tAvevano sentito che stava arrivando un uragano.\tDecisero di evacuare a casa di un parente.\tArrivarono e appresero dal telegiornale che si trattava di una terribile tempesta.fine: Si sentirono fortunati ad aver evacuato in tempo.storia: Tina aveva preparato gli spaghetti per il suo ragazzo.\tCi era voluto molto lavoro, ma lei era molto orgogliosa.\tIl suo ragazzo mangi\u00f2 tutto il piatto e disse che era buono.\tTina assaggi\u00f2 e si rese conto che era disgustoso.fine: Era commossa dal fatto che lui avesse fatto finta che fosse buono per non ferire i suoi sentimenti.Completa la seguente storia: 'Un uomo trov\u00f2 una perla in un'ostrica. Purtroppo, proprio in quel momento stava mangiando l'ostrica. Con la perla si scheggi\u00f2 un dente. Fortunatamente, la perla copr\u00ec il costo dell'intervento dentistico.'fine: Il uomo decise di vendere la perla e utilizzarne il denaro per rimuovere il dente. In seguito acquist\u00f2 un'ostrica congelata in un negozio e si limit\u00f2 a mangiare la pietanza senza alcuna paura o preoccupazione."
                    }
                ]
            },
            {
                "input": "Un silo di missili nucleari ricevette un ordine di lancio. L'ufficiale responsabile apr\u00ec la cassaforte per verificarne il codice. Apr\u00ec la busta contenente il codice di quel giorno. All'interno c'era un buono sconto per un panino.",
                "output": [
                    {
                        "generated_text": "Prendi in considerazione i seguenti esempi per completare una storia:storia: Jennifer aveva un esame importante il giorno dopo.\tEra cos\u00ec stressata che pass\u00f2 la notte in bianco.\tIl giorno dopo era andata in classe, stanca morta.\tL'insegnante le comunic\u00f2 che l'esame \u00e8 rimandato alla settimana successiva.fine: Jennifer ne rimase amareggiata.storia: Morgan e la sua famiglia vivevano in Florida.\tAvevano sentito che stava arrivando un uragano.\tDecisero di evacuare a casa di un parente.\tArrivarono e appresero dal telegiornale che si trattava di una terribile tempesta.fine: Si sentirono fortunati ad aver evacuato in tempo.storia: Tina aveva preparato gli spaghetti per il suo ragazzo.\tCi era voluto molto lavoro, ma lei era molto orgogliosa.\tIl suo ragazzo mangi\u00f2 tutto il piatto e disse che era buono.\tTina assaggi\u00f2 e si rese conto che era disgustoso.fine: Era commossa dal fatto che lui avesse fatto finta che fosse buono per non ferire i suoi sentimenti.Completa la seguente storia: 'Un silo di missili nucleari ricevette un ordine di lancio. L'ufficiale responsabile apr\u00ec la cassaforte per verificarne il codice. Apr\u00ec la busta contenente il codice di quel giorno. All'interno c'era un buono sconto per un panino.'fine: 'L'ufficiale si domand\u00f2 se avrebbe dovuto o meno usarlo. Il panino stava diventando sempre pi\u00f9 irrisistibile e infine cedette alla tentazione. Mettendo da parte il codice di lancio, si diresse verso la cassaforte della panineria, dove acquist\u00f2 il suo pasto.'"
                    }
                ]
            },
            {
                "input": "Una famiglia decise di costruire una nuova fossa per il barbecue nel proprio giardino. Piuttosto che pagare per un escavatore, decisero di scavare da soli. A pochi metri di profondit\u00e0, uno di loro colp\u00ec quella che pensava fosse una piccola radice. Si rivel\u00f2 essere un cavo in fibra ottica che forniva Internet e la TV.",
                "output": [
                    {
                        "generated_text": "Prendi in considerazione i seguenti esempi per completare una storia:storia: Jennifer aveva un esame importante il giorno dopo.\tEra cos\u00ec stressata che pass\u00f2 la notte in bianco.\tIl giorno dopo era andata in classe, stanca morta.\tL'insegnante le comunic\u00f2 che l'esame \u00e8 rimandato alla settimana successiva.fine: Jennifer ne rimase amareggiata.storia: Morgan e la sua famiglia vivevano in Florida.\tAvevano sentito che stava arrivando un uragano.\tDecisero di evacuare a casa di un parente.\tArrivarono e appresero dal telegiornale che si trattava di una terribile tempesta.fine: Si sentirono fortunati ad aver evacuato in tempo.storia: Tina aveva preparato gli spaghetti per il suo ragazzo.\tCi era voluto molto lavoro, ma lei era molto orgogliosa.\tIl suo ragazzo mangi\u00f2 tutto il piatto e disse che era buono.\tTina assaggi\u00f2 e si rese conto che era disgustoso.fine: Era commossa dal fatto che lui avesse fatto finta che fosse buono per non ferire i suoi sentimenti.Completa la seguente storia: 'Una famiglia decise di costruire una nuova fossa per il barbecue nel proprio giardino. Piuttosto che pagare per un escavatore, decisero di scavare da soli. A pochi metri di profondit\u00e0, uno di loro colp\u00ec quella che pensava fosse una piccola radice. Si rivel\u00f2 essere un cavo in fibra ottica che forniva Internet e la TV.'fine: Il giardino era diventato un vero e proprio cantiere, ma i membri della famiglia si divertirono mentre lavoravano insieme e la fossa per il barbecue si rivel\u00f2 essere una pietra miliare del loro giardino."
                    }
                ]
            },
            {
                "input": "Briana stava guidando un fuoristrada con suo fratello. Stavano andando veloci su una strada sterrata. All'improvviso, colpirono una roccia. La macchina si ribalt\u00f2.",
                "output": [
                    {
                        "generated_text": "Prendi in considerazione i seguenti esempi per completare una storia:storia: Jennifer aveva un esame importante il giorno dopo.\tEra cos\u00ec stressata che pass\u00f2 la notte in bianco.\tIl giorno dopo era andata in classe, stanca morta.\tL'insegnante le comunic\u00f2 che l'esame \u00e8 rimandato alla settimana successiva.fine: Jennifer ne rimase amareggiata.storia: Morgan e la sua famiglia vivevano in Florida.\tAvevano sentito che stava arrivando un uragano.\tDecisero di evacuare a casa di un parente.\tArrivarono e appresero dal telegiornale che si trattava di una terribile tempesta.fine: Si sentirono fortunati ad aver evacuato in tempo.storia: Tina aveva preparato gli spaghetti per il suo ragazzo.\tCi era voluto molto lavoro, ma lei era molto orgogliosa.\tIl suo ragazzo mangi\u00f2 tutto il piatto e disse che era buono.\tTina assaggi\u00f2 e si rese conto che era disgustoso.fine: Era commossa dal fatto che lui avesse fatto finta che fosse buono per non ferire i suoi sentimenti.Completa la seguente storia: 'Briana stava guidando un fuoristrada con suo fratello. Stavano andando veloci su una strada sterrata. All'improvviso, colpirono una roccia. La macchina si ribalt\u00f2.'fine: Quando Briana si riprese, si accorse che suo fratello era rimasto intrappolato nel proprio sedile. Dopo molte ore di tentativi, la polizia arriv\u00f2 sul posto e liber\u00f2 il fratello. Briana si sent\u00ec fortunata di avere avuto l'imprudenza di fermarsi e chiamare aiuto."
                    }
                ]
            },
            {
                "input": "Un giorno di sole Jeff stava giocando all'aperto. Sent\u00ec un ronzio provenire dalle siepi. Quando si avvicin\u00f2 alla siepe, usc\u00ec uno sciame di api. Le api lo inseguirono fino in casa.",
                "output": [
                    {
                        "generated_text": "Prendi in considerazione i seguenti esempi per completare una storia:storia: Jennifer aveva un esame importante il giorno dopo.\tEra cos\u00ec stressata che pass\u00f2 la notte in bianco.\tIl giorno dopo era andata in classe, stanca morta.\tL'insegnante le comunic\u00f2 che l'esame \u00e8 rimandato alla settimana successiva.fine: Jennifer ne rimase amareggiata.storia: Morgan e la sua famiglia vivevano in Florida.\tAvevano sentito che stava arrivando un uragano.\tDecisero di evacuare a casa di un parente.\tArrivarono e appresero dal telegiornale che si trattava di una terribile tempesta.fine: Si sentirono fortunati ad aver evacuato in tempo.storia: Tina aveva preparato gli spaghetti per il suo ragazzo.\tCi era voluto molto lavoro, ma lei era molto orgogliosa.\tIl suo ragazzo mangi\u00f2 tutto il piatto e disse che era buono.\tTina assaggi\u00f2 e si rese conto che era disgustoso.fine: Era commossa dal fatto che lui avesse fatto finta che fosse buono per non ferire i suoi sentimenti.Completa la seguente storia: 'Un giorno di sole Jeff stava giocando all'aperto. Sent\u00ec un ronzio provenire dalle siepi. Quando si avvicin\u00f2 alla siepe, usc\u00ec uno sciame di api. Le api lo inseguirono fino in casa.'fine: Non avendo nessun contesto per la storia, non possiamo sapere se Jeff sia morto, se le api avessero perso il loro stregone o se si sia semplicemente dimenticato il suo gioco. La storia rimane un'esercita aperta alla nostra immaginazione."
                    }
                ]
            },
            {
                "input": "Chelsea si era fatta male alle dita giocando a basket. Aveva molta paura di andare dal medico. Il padre di Chelsea la convinse ad andare a farsi controllare. Si scopr\u00ec che le ossa delle dita erano fratturate.",
                "output": [
                    {
                        "generated_text": "Prendi in considerazione i seguenti esempi per completare una storia:storia: Jennifer aveva un esame importante il giorno dopo.\tEra cos\u00ec stressata che pass\u00f2 la notte in bianco.\tIl giorno dopo era andata in classe, stanca morta.\tL'insegnante le comunic\u00f2 che l'esame \u00e8 rimandato alla settimana successiva.fine: Jennifer ne rimase amareggiata.storia: Morgan e la sua famiglia vivevano in Florida.\tAvevano sentito che stava arrivando un uragano.\tDecisero di evacuare a casa di un parente.\tArrivarono e appresero dal telegiornale che si trattava di una terribile tempesta.fine: Si sentirono fortunati ad aver evacuato in tempo.storia: Tina aveva preparato gli spaghetti per il suo ragazzo.\tCi era voluto molto lavoro, ma lei era molto orgogliosa.\tIl suo ragazzo mangi\u00f2 tutto il piatto e disse che era buono.\tTina assaggi\u00f2 e si rese conto che era disgustoso.fine: Era commossa dal fatto che lui avesse fatto finta che fosse buono per non ferire i suoi sentimenti.Completa la seguente storia: 'Chelsea si era fatta male alle dita giocando a basket. Aveva molta paura di andare dal medico. Il padre di Chelsea la convinse ad andare a farsi controllare. Si scopr\u00ec che le ossa delle dita erano fratturate.'fine: Inizialmente Chelsea prov\u00f2 un grande dolore, ma con il tempo si stacc\u00f2 il dente di gomma e fu in grado di usare le dita nuovamente. Torn\u00f2 a giocare a basket e si sent\u00ec molto felice.\" \n\n### Narrativa in prossimit\u00e0\n\nLa narrazione in prossimit\u00e0 consente allo scrittore di entrare in un contesto e di raccontare una storia attraverso il punto di vista di un personaggio o dei personaggi. Questo tipo di narrativa pu\u00f2 essere utilizzata per creare intimit\u00e0 tra il protagonista ed i lettori"
                    }
                ]
            },
            {
                "input": "Beth, un'amica di Amy, era incinta di un bambino. Amy chiam\u00f2 le sue amiche a partecipare a una festa a sorpresa per il bambino. Tutti aspettarono in silenzio che Beth entrasse. Quando vide tutti, rimase scioccata.",
                "output": [
                    {
                        "generated_text": "Prendi in considerazione i seguenti esempi per completare una storia:storia: Jennifer aveva un esame importante il giorno dopo.\tEra cos\u00ec stressata che pass\u00f2 la notte in bianco.\tIl giorno dopo era andata in classe, stanca morta.\tL'insegnante le comunic\u00f2 che l'esame \u00e8 rimandato alla settimana successiva.fine: Jennifer ne rimase amareggiata.storia: Morgan e la sua famiglia vivevano in Florida.\tAvevano sentito che stava arrivando un uragano.\tDecisero di evacuare a casa di un parente.\tArrivarono e appresero dal telegiornale che si trattava di una terribile tempesta.fine: Si sentirono fortunati ad aver evacuato in tempo.storia: Tina aveva preparato gli spaghetti per il suo ragazzo.\tCi era voluto molto lavoro, ma lei era molto orgogliosa.\tIl suo ragazzo mangi\u00f2 tutto il piatto e disse che era buono.\tTina assaggi\u00f2 e si rese conto che era disgustoso.fine: Era commossa dal fatto che lui avesse fatto finta che fosse buono per non ferire i suoi sentimenti.Completa la seguente storia: 'Beth, un'amica di Amy, era incinta di un bambino. Amy chiam\u00f2 le sue amiche a partecipare a una festa a sorpresa per il bambino. Tutti aspettarono in silenzio che Beth entrasse. Quando vide tutti, rimase scioccata.'fine: Beth era felice e commossa dal fatto che le amiche le avessero dato una festa, ma non era pronta per diventare madre."
                    }
                ]
            },
            {
                "input": "Tyler era entusiasta di acquistare il nuovo telefono cellulare. Quando arriv\u00f2 al negozio fu sorpreso di vedere una lunga fila. Aspett\u00f2 in fila per un'ora per acquistare il telefono. Quando arriv\u00f2 alla cassa, la cassiera lo inform\u00f2 che era tutto esaurito.",
                "output": [
                    {
                        "generated_text": "Prendi in considerazione i seguenti esempi per completare una storia:storia: Jennifer aveva un esame importante il giorno dopo.\tEra cos\u00ec stressata che pass\u00f2 la notte in bianco.\tIl giorno dopo era andata in classe, stanca morta.\tL'insegnante le comunic\u00f2 che l'esame \u00e8 rimandato alla settimana successiva.fine: Jennifer ne rimase amareggiata.storia: Morgan e la sua famiglia vivevano in Florida.\tAvevano sentito che stava arrivando un uragano.\tDecisero di evacuare a casa di un parente.\tArrivarono e appresero dal telegiornale che si trattava di una terribile tempesta.fine: Si sentirono fortunati ad aver evacuato in tempo.storia: Tina aveva preparato gli spaghetti per il suo ragazzo.\tCi era voluto molto lavoro, ma lei era molto orgogliosa.\tIl suo ragazzo mangi\u00f2 tutto il piatto e disse che era buono.\tTina assaggi\u00f2 e si rese conto che era disgustoso.fine: Era commossa dal fatto che lui avesse fatto finta che fosse buono per non ferire i suoi sentimenti.Completa la seguente storia: 'Tyler era entusiasta di acquistare il nuovo telefono cellulare. Quando arriv\u00f2 al negozio fu sorpreso di vedere una lunga fila. Aspett\u00f2 in fila per un'ora per acquistare il telefono. Quando arriv\u00f2 alla cassa, la cassiera lo inform\u00f2 che era tutto esaurito.'fine: Tyler fu sconvolto e deluso, ma decise di tornare la settimana successiva per tentare di acquistare uno di nuovi. Il negozio aveva fatto ritorno con una grande scorta di telefoni, ma la fila era ancora lunga quanto quella della settimana precedente. Tyler decise di cercarla in un altro negozio e infine trov\u00f2 il telefono che stava cercando."
                    }
                ]
            },
            {
                "input": "Andrew pensava di essere un buon giocatore di golf. Sfid\u00f2 il suo amico Dylan per vedere chi fosse pi\u00f9 bravo. Dylan accett\u00f2 la sfida e lavor\u00f2 duramente per prepararsi. All'inizio Andrew stava vincendo, ma le cose sarebbero presto cambiate.",
                "output": [
                    {
                        "generated_text": "Prendi in considerazione i seguenti esempi per completare una storia:storia: Jennifer aveva un esame importante il giorno dopo.\tEra cos\u00ec stressata che pass\u00f2 la notte in bianco.\tIl giorno dopo era andata in classe, stanca morta.\tL'insegnante le comunic\u00f2 che l'esame \u00e8 rimandato alla settimana successiva.fine: Jennifer ne rimase amareggiata.storia: Morgan e la sua famiglia vivevano in Florida.\tAvevano sentito che stava arrivando un uragano.\tDecisero di evacuare a casa di un parente.\tArrivarono e appresero dal telegiornale che si trattava di una terribile tempesta.fine: Si sentirono fortunati ad aver evacuato in tempo.storia: Tina aveva preparato gli spaghetti per il suo ragazzo.\tCi era voluto molto lavoro, ma lei era molto orgogliosa.\tIl suo ragazzo mangi\u00f2 tutto il piatto e disse che era buono.\tTina assaggi\u00f2 e si rese conto che era disgustoso.fine: Era commossa dal fatto che lui avesse fatto finta che fosse buono per non ferire i suoi sentimenti.Completa la seguente storia: 'Andrew pensava di essere un buon giocatore di golf. Sfid\u00f2 il suo amico Dylan per vedere chi fosse pi\u00f9 bravo. Dylan accett\u00f2 la sfida e lavor\u00f2 duramente per prepararsi. All'inizio Andrew stava vincendo, ma le cose sarebbero presto cambiate.'fine: Dopo diversi giri, Dylan era in vantaggio. Andrew prov\u00f2 a rallentare, ma non ci riusc\u00ec. Inizi\u00f2 a sentirsi frustrato e infine perse. Non era sicuro di come si sentisse, ma cap\u00ec che non era il vero vincitore. Invece Dylan si sent\u00ec orgoglioso di aver superato il suo amico.\n\n### Esempi di storie\n\nEsempi di storie di vario genere:\n\n* Storia di fantascienza: Il protagonista era un ingegnere sp"
                    }
                ]
            },
            {
                "input": "Mi ero preparata un panino al tonno per pranzo. Mentre ero seduta a mangiare, mi \u00e8 squillato il telefono. Mi sono alzata per rispondere e ho avuto una breve conversazione. Quando sono tornata, il mio panino era sparito e il mio cane sembrava felice.",
                "output": [
                    {
                        "generated_text": "Prendi in considerazione i seguenti esempi per completare una storia:storia: Jennifer aveva un esame importante il giorno dopo.\tEra cos\u00ec stressata che pass\u00f2 la notte in bianco.\tIl giorno dopo era andata in classe, stanca morta.\tL'insegnante le comunic\u00f2 che l'esame \u00e8 rimandato alla settimana successiva.fine: Jennifer ne rimase amareggiata.storia: Morgan e la sua famiglia vivevano in Florida.\tAvevano sentito che stava arrivando un uragano.\tDecisero di evacuare a casa di un parente.\tArrivarono e appresero dal telegiornale che si trattava di una terribile tempesta.fine: Si sentirono fortunati ad aver evacuato in tempo.storia: Tina aveva preparato gli spaghetti per il suo ragazzo.\tCi era voluto molto lavoro, ma lei era molto orgogliosa.\tIl suo ragazzo mangi\u00f2 tutto il piatto e disse che era buono.\tTina assaggi\u00f2 e si rese conto che era disgustoso.fine: Era commossa dal fatto che lui avesse fatto finta che fosse buono per non ferire i suoi sentimenti.Completa la seguente storia: 'Mi ero preparata un panino al tonno per pranzo. Mentre ero seduta a mangiare, mi \u00e8 squillato il telefono. Mi sono alzata per rispondere e ho avuto una breve conversazione. Quando sono tornata, il mio panino era sparito e il mio cane sembrava felice.'fine: Mi sono accorta che la mia casa era in disordine, quindi ho cominciato a rimettere in ordine. Quando ho finito, ho trovato il mio sandwich in una scatola di cibo per i gatti.\"\n\n### Narrativi\n\nUn narrativo \u00e8 una narrazione di avvenimenti. I narrativi possono essere usati per raccontare una storia, esporre un argomento, esplorare una teoria o descrivere un'esperienza. I narrativi possono presentare un"
                    }
                ]
            },
            {
                "input": "Beth stava uscendo dal lavoro marted\u00ec. Si era accorta che ad un uomo era caduto il portafoglio nel parcheggio. Ha attraversato di corsa il parcheggio per restituirglielo. L'uomo era cos\u00ec felice che gli fosse stato restituito il portafoglio.",
                "output": [
                    {
                        "generated_text": "Prendi in considerazione i seguenti esempi per completare una storia:storia: Jennifer aveva un esame importante il giorno dopo.\tEra cos\u00ec stressata che pass\u00f2 la notte in bianco.\tIl giorno dopo era andata in classe, stanca morta.\tL'insegnante le comunic\u00f2 che l'esame \u00e8 rimandato alla settimana successiva.fine: Jennifer ne rimase amareggiata.storia: Morgan e la sua famiglia vivevano in Florida.\tAvevano sentito che stava arrivando un uragano.\tDecisero di evacuare a casa di un parente.\tArrivarono e appresero dal telegiornale che si trattava di una terribile tempesta.fine: Si sentirono fortunati ad aver evacuato in tempo.storia: Tina aveva preparato gli spaghetti per il suo ragazzo.\tCi era voluto molto lavoro, ma lei era molto orgogliosa.\tIl suo ragazzo mangi\u00f2 tutto il piatto e disse che era buono.\tTina assaggi\u00f2 e si rese conto che era disgustoso.fine: Era commossa dal fatto che lui avesse fatto finta che fosse buono per non ferire i suoi sentimenti.Completa la seguente storia: 'Beth stava uscendo dal lavoro marted\u00ec. Si era accorta che ad un uomo era caduto il portafoglio nel parcheggio. Ha attraversato di corsa il parcheggio per restituirglielo. L'uomo era cos\u00ec felice che gli fosse stato restituito il portafoglio.'fine: L'uomo le ha chiesto il proprio nome, e la donna gli ha detto il suo."
                    }
                ]
            },
            {
                "input": "Un amico di Dan lo introdusse al poker. Dan si rese conto di essere molto bravo a giocare a poker. Dan decise di andare a Las Vegas per mettere alla prova la sua abilit\u00e0. Dan vinse milioni di dollari a Las Vegas.",
                "output": [
                    {
                        "generated_text": "Prendi in considerazione i seguenti esempi per completare una storia:storia: Jennifer aveva un esame importante il giorno dopo.\tEra cos\u00ec stressata che pass\u00f2 la notte in bianco.\tIl giorno dopo era andata in classe, stanca morta.\tL'insegnante le comunic\u00f2 che l'esame \u00e8 rimandato alla settimana successiva.fine: Jennifer ne rimase amareggiata.storia: Morgan e la sua famiglia vivevano in Florida.\tAvevano sentito che stava arrivando un uragano.\tDecisero di evacuare a casa di un parente.\tArrivarono e appresero dal telegiornale che si trattava di una terribile tempesta.fine: Si sentirono fortunati ad aver evacuato in tempo.storia: Tina aveva preparato gli spaghetti per il suo ragazzo.\tCi era voluto molto lavoro, ma lei era molto orgogliosa.\tIl suo ragazzo mangi\u00f2 tutto il piatto e disse che era buono.\tTina assaggi\u00f2 e si rese conto che era disgustoso.fine: Era commossa dal fatto che lui avesse fatto finta che fosse buono per non ferire i suoi sentimenti.Completa la seguente storia: 'Un amico di Dan lo introdusse al poker. Dan si rese conto di essere molto bravo a giocare a poker. Dan decise di andare a Las Vegas per mettere alla prova la sua abilit\u00e0. Dan vinse milioni di dollari a Las Vegas.'fine: Dan era entusiasta di aver vinto cos\u00ec tante volte, ma era consapevole del fatto che i suoi compagni di gioco sarebbero stati molto gelosi. Inoltre, era preoccupato di aver perso l'appuntamento con il suo amico perch\u00e9 era molto impegnato con il gioco. Ma alla fine riusc\u00ec a riallacciare i contatti e a fare pace con i suoi amici, e decise di mettere parte delle proprie vincite al conto dei propri figli.'"
                    }
                ]
            },
            {
                "input": "Lo swing di Harry era terribile. Un giorno Harry decide di cercare aiuto per migliorare il suo swing. Assunse un allenatore privato. L'allenatore privato riusc\u00ec a migliorare lo swing di Harry.",
                "output": [
                    {
                        "generated_text": "Prendi in considerazione i seguenti esempi per completare una storia:storia: Jennifer aveva un esame importante il giorno dopo.\tEra cos\u00ec stressata che pass\u00f2 la notte in bianco.\tIl giorno dopo era andata in classe, stanca morta.\tL'insegnante le comunic\u00f2 che l'esame \u00e8 rimandato alla settimana successiva.fine: Jennifer ne rimase amareggiata.storia: Morgan e la sua famiglia vivevano in Florida.\tAvevano sentito che stava arrivando un uragano.\tDecisero di evacuare a casa di un parente.\tArrivarono e appresero dal telegiornale che si trattava di una terribile tempesta.fine: Si sentirono fortunati ad aver evacuato in tempo.storia: Tina aveva preparato gli spaghetti per il suo ragazzo.\tCi era voluto molto lavoro, ma lei era molto orgogliosa.\tIl suo ragazzo mangi\u00f2 tutto il piatto e disse che era buono.\tTina assaggi\u00f2 e si rese conto che era disgustoso.fine: Era commossa dal fatto che lui avesse fatto finta che fosse buono per non ferire i suoi sentimenti.Completa la seguente storia: 'Lo swing di Harry era terribile. Un giorno Harry decide di cercare aiuto per migliorare il suo swing. Assunse un allenatore privato. L'allenatore privato riusc\u00ec a migliorare lo swing di Harry.'fine:"
                    }
                ]
            },
            {
                "input": "Sam aveva appuntamento con suo padre per pranzo in un ristorante italiano. Arriv\u00f2 in anticipo e aspett\u00f2 suo padre. Cominci\u00f2 a preoccuparsi quando suo padre non si present\u00f2 e non rispose al cellulare. Chiam\u00f2 sua madre per sapere cosa stesse succedendo.",
                "output": [
                    {
                        "generated_text": "Prendi in considerazione i seguenti esempi per completare una storia:storia: Jennifer aveva un esame importante il giorno dopo.\tEra cos\u00ec stressata che pass\u00f2 la notte in bianco.\tIl giorno dopo era andata in classe, stanca morta.\tL'insegnante le comunic\u00f2 che l'esame \u00e8 rimandato alla settimana successiva.fine: Jennifer ne rimase amareggiata.storia: Morgan e la sua famiglia vivevano in Florida.\tAvevano sentito che stava arrivando un uragano.\tDecisero di evacuare a casa di un parente.\tArrivarono e appresero dal telegiornale che si trattava di una terribile tempesta.fine: Si sentirono fortunati ad aver evacuato in tempo.storia: Tina aveva preparato gli spaghetti per il suo ragazzo.\tCi era voluto molto lavoro, ma lei era molto orgogliosa.\tIl suo ragazzo mangi\u00f2 tutto il piatto e disse che era buono.\tTina assaggi\u00f2 e si rese conto che era disgustoso.fine: Era commossa dal fatto che lui avesse fatto finta che fosse buono per non ferire i suoi sentimenti.Completa la seguente storia: 'Sam aveva appuntamento con suo padre per pranzo in un ristorante italiano. Arriv\u00f2 in anticipo e aspett\u00f2 suo padre. Cominci\u00f2 a preoccuparsi quando suo padre non si present\u00f2 e non rispose al cellulare. Chiam\u00f2 sua madre per sapere cosa stesse succedendo.'fine: Sua madre rispose che suo padre era stato chiamato in ospedale per un problema medico urgente e non poteva venire. Sam fu molto sconvolto e decise di rimanere nel ristorante e terminare il pranzo da solo.'"
                    }
                ]
            },
            {
                "input": "Randy possiede la stessa chitarra da dieci anni. Purtroppo, due giorni fa l'aveva persa. Aveva chiamato tutti quelli che ricordava di aver visitato negli ultimi giorni. Fortunatamente, l'aveva appena lasciata a casa di un amico.",
                "output": [
                    {
                        "generated_text": "Prendi in considerazione i seguenti esempi per completare una storia:storia: Jennifer aveva un esame importante il giorno dopo.\tEra cos\u00ec stressata che pass\u00f2 la notte in bianco.\tIl giorno dopo era andata in classe, stanca morta.\tL'insegnante le comunic\u00f2 che l'esame \u00e8 rimandato alla settimana successiva.fine: Jennifer ne rimase amareggiata.storia: Morgan e la sua famiglia vivevano in Florida.\tAvevano sentito che stava arrivando un uragano.\tDecisero di evacuare a casa di un parente.\tArrivarono e appresero dal telegiornale che si trattava di una terribile tempesta.fine: Si sentirono fortunati ad aver evacuato in tempo.storia: Tina aveva preparato gli spaghetti per il suo ragazzo.\tCi era voluto molto lavoro, ma lei era molto orgogliosa.\tIl suo ragazzo mangi\u00f2 tutto il piatto e disse che era buono.\tTina assaggi\u00f2 e si rese conto che era disgustoso.fine: Era commossa dal fatto che lui avesse fatto finta che fosse buono per non ferire i suoi sentimenti.Completa la seguente storia: 'Randy possiede la stessa chitarra da dieci anni. Purtroppo, due giorni fa l'aveva persa. Aveva chiamato tutti quelli che ricordava di aver visitato negli ultimi giorni. Fortunatamente, l'aveva appena lasciata a casa di un amico.'fine: Randy era felice quando si rec\u00f2 a casa di suo amico."
                    }
                ]
            },
            {
                "input": "Maria voleva stupire tutti al ballo della scuola. Invece di comprare un vestito, decise di farne uno nuovo. Scelse un tessuto morbido e viola da utilizzare. Cuc\u00ec giorno e notte finch\u00e9 non ebbe finito.",
                "output": [
                    {
                        "generated_text": "Prendi in considerazione i seguenti esempi per completare una storia:storia: Jennifer aveva un esame importante il giorno dopo.\tEra cos\u00ec stressata che pass\u00f2 la notte in bianco.\tIl giorno dopo era andata in classe, stanca morta.\tL'insegnante le comunic\u00f2 che l'esame \u00e8 rimandato alla settimana successiva.fine: Jennifer ne rimase amareggiata.storia: Morgan e la sua famiglia vivevano in Florida.\tAvevano sentito che stava arrivando un uragano.\tDecisero di evacuare a casa di un parente.\tArrivarono e appresero dal telegiornale che si trattava di una terribile tempesta.fine: Si sentirono fortunati ad aver evacuato in tempo.storia: Tina aveva preparato gli spaghetti per il suo ragazzo.\tCi era voluto molto lavoro, ma lei era molto orgogliosa.\tIl suo ragazzo mangi\u00f2 tutto il piatto e disse che era buono.\tTina assaggi\u00f2 e si rese conto che era disgustoso.fine: Era commossa dal fatto che lui avesse fatto finta che fosse buono per non ferire i suoi sentimenti.Completa la seguente storia: 'Maria voleva stupire tutti al ballo della scuola. Invece di comprare un vestito, decise di farne uno nuovo. Scelse un tessuto morbido e viola da utilizzare. Cuc\u00ec giorno e notte finch\u00e9 non ebbe finito.'fine: Il ballo era arrivato e Maria fece la sua comparsa con il vestito che aveva realizzato con i suoi stessi mani. I suoi amici si meravigliavano del suo talento e l'elogiavano continuamente."
                    }
                ]
            },
            {
                "input": "La madre di Carson gli prepar\u00f2 una cioccolata calda come regalo. Lo avvert\u00ec di aspettare cinque minuti perch\u00e9 si raffreddasse. Carson riusc\u00ec ad aspettare a malapena un minuto. Bevve la cioccolata molto calda.",
                "output": [
                    {
                        "generated_text": "Prendi in considerazione i seguenti esempi per completare una storia:storia: Jennifer aveva un esame importante il giorno dopo.\tEra cos\u00ec stressata che pass\u00f2 la notte in bianco.\tIl giorno dopo era andata in classe, stanca morta.\tL'insegnante le comunic\u00f2 che l'esame \u00e8 rimandato alla settimana successiva.fine: Jennifer ne rimase amareggiata.storia: Morgan e la sua famiglia vivevano in Florida.\tAvevano sentito che stava arrivando un uragano.\tDecisero di evacuare a casa di un parente.\tArrivarono e appresero dal telegiornale che si trattava di una terribile tempesta.fine: Si sentirono fortunati ad aver evacuato in tempo.storia: Tina aveva preparato gli spaghetti per il suo ragazzo.\tCi era voluto molto lavoro, ma lei era molto orgogliosa.\tIl suo ragazzo mangi\u00f2 tutto il piatto e disse che era buono.\tTina assaggi\u00f2 e si rese conto che era disgustoso.fine: Era commossa dal fatto che lui avesse fatto finta che fosse buono per non ferire i suoi sentimenti.Completa la seguente storia: 'La madre di Carson gli prepar\u00f2 una cioccolata calda come regalo. Lo avvert\u00ec di aspettare cinque minuti perch\u00e9 si raffreddasse. Carson riusc\u00ec ad aspettare a malapena un minuto. Bevve la cioccolata molto calda.'fine: Carson soffriva di mal di stomaco e sent\u00ec il suo corpo reagire in fretta."
                    }
                ]
            },
            {
                "input": "Di recente ho comprato un nuovo colore di smalto. Mi stavo dipingendo le unghie quando il gatto ha saltato e l'ha fatto cadere. Lo smalto era finito su tutto il pavimento. Ho provato a pulirlo, ma non ha funzionato.",
                "output": [
                    {
                        "generated_text": "Prendi in considerazione i seguenti esempi per completare una storia:storia: Jennifer aveva un esame importante il giorno dopo.\tEra cos\u00ec stressata che pass\u00f2 la notte in bianco.\tIl giorno dopo era andata in classe, stanca morta.\tL'insegnante le comunic\u00f2 che l'esame \u00e8 rimandato alla settimana successiva.fine: Jennifer ne rimase amareggiata.storia: Morgan e la sua famiglia vivevano in Florida.\tAvevano sentito che stava arrivando un uragano.\tDecisero di evacuare a casa di un parente.\tArrivarono e appresero dal telegiornale che si trattava di una terribile tempesta.fine: Si sentirono fortunati ad aver evacuato in tempo.storia: Tina aveva preparato gli spaghetti per il suo ragazzo.\tCi era voluto molto lavoro, ma lei era molto orgogliosa.\tIl suo ragazzo mangi\u00f2 tutto il piatto e disse che era buono.\tTina assaggi\u00f2 e si rese conto che era disgustoso.fine: Era commossa dal fatto che lui avesse fatto finta che fosse buono per non ferire i suoi sentimenti.Completa la seguente storia: 'Di recente ho comprato un nuovo colore di smalto. Mi stavo dipingendo le unghie quando il gatto ha saltato e l'ha fatto cadere. Lo smalto era finito su tutto il pavimento. Ho provato a pulirlo, ma non ha funzionato.'fine: Il gatto \u00e8 stato punito con un allontanamento temporaneo dalla stanza.\"\nI am not sure if there is a right or wrong answer. The story is just to inspire you to continue the story with a happy or sad ending depending on your personal preference."
                    }
                ]
            },
            {
                "input": "Un uomo pens\u00f2 di provare a coltivare i pomodori nel suo giardino. Cos\u00ec compr\u00f2 semi e attrezzature. Piant\u00f2 i semi e aspett\u00f2. Qualche mese dopo, si ritrov\u00f2 proprietario di un piccolo campo di grano.",
                "output": [
                    {
                        "generated_text": "Prendi in considerazione i seguenti esempi per completare una storia:storia: Jennifer aveva un esame importante il giorno dopo.\tEra cos\u00ec stressata che pass\u00f2 la notte in bianco.\tIl giorno dopo era andata in classe, stanca morta.\tL'insegnante le comunic\u00f2 che l'esame \u00e8 rimandato alla settimana successiva.fine: Jennifer ne rimase amareggiata.storia: Morgan e la sua famiglia vivevano in Florida.\tAvevano sentito che stava arrivando un uragano.\tDecisero di evacuare a casa di un parente.\tArrivarono e appresero dal telegiornale che si trattava di una terribile tempesta.fine: Si sentirono fortunati ad aver evacuato in tempo.storia: Tina aveva preparato gli spaghetti per il suo ragazzo.\tCi era voluto molto lavoro, ma lei era molto orgogliosa.\tIl suo ragazzo mangi\u00f2 tutto il piatto e disse che era buono.\tTina assaggi\u00f2 e si rese conto che era disgustoso.fine: Era commossa dal fatto che lui avesse fatto finta che fosse buono per non ferire i suoi sentimenti.Completa la seguente storia: 'Un uomo pens\u00f2 di provare a coltivare i pomodori nel suo giardino. Cos\u00ec compr\u00f2 semi e attrezzature. Piant\u00f2 i semi e aspett\u00f2. Qualche mese dopo, si ritrov\u00f2 proprietario di un piccolo campo di grano.'fine: Ma il problema era che l'uomo desiderava piantare dei pomodori e non il grano!"
                    }
                ]
            },
            {
                "input": "Cathy lavora in uno Starbucks. La settimana scorsa ha avuto una cliente indisciplinata. La cliente continuava a chiedere una bevanda non esistente. Alla fine, Cathy le aveva dato un latte macchiato.",
                "output": [
                    {
                        "generated_text": "Prendi in considerazione i seguenti esempi per completare una storia:storia: Jennifer aveva un esame importante il giorno dopo.\tEra cos\u00ec stressata che pass\u00f2 la notte in bianco.\tIl giorno dopo era andata in classe, stanca morta.\tL'insegnante le comunic\u00f2 che l'esame \u00e8 rimandato alla settimana successiva.fine: Jennifer ne rimase amareggiata.storia: Morgan e la sua famiglia vivevano in Florida.\tAvevano sentito che stava arrivando un uragano.\tDecisero di evacuare a casa di un parente.\tArrivarono e appresero dal telegiornale che si trattava di una terribile tempesta.fine: Si sentirono fortunati ad aver evacuato in tempo.storia: Tina aveva preparato gli spaghetti per il suo ragazzo.\tCi era voluto molto lavoro, ma lei era molto orgogliosa.\tIl suo ragazzo mangi\u00f2 tutto il piatto e disse che era buono.\tTina assaggi\u00f2 e si rese conto che era disgustoso.fine: Era commossa dal fatto che lui avesse fatto finta che fosse buono per non ferire i suoi sentimenti.Completa la seguente storia: 'Cathy lavora in uno Starbucks. La settimana scorsa ha avuto una cliente indisciplinata. La cliente continuava a chiedere una bevanda non esistente. Alla fine, Cathy le aveva dato un latte macchiato.'fine: La cliente era molto offesa e le ha detto che non sarebbe tornata pi\u00f9 nel negozio."
                    }
                ]
            },
            {
                "input": "Oliver era entusiasta per suoi regali di compleanno. Doveva aspettare, ma era impaziente. Si intrufol\u00f2 nell'armadio dei genitori. L\u00ec trov\u00f2 i suoi regali e li controll\u00f2 tutti.",
                "output": [
                    {
                        "generated_text": "Prendi in considerazione i seguenti esempi per completare una storia:storia: Jennifer aveva un esame importante il giorno dopo.\tEra cos\u00ec stressata che pass\u00f2 la notte in bianco.\tIl giorno dopo era andata in classe, stanca morta.\tL'insegnante le comunic\u00f2 che l'esame \u00e8 rimandato alla settimana successiva.fine: Jennifer ne rimase amareggiata.storia: Morgan e la sua famiglia vivevano in Florida.\tAvevano sentito che stava arrivando un uragano.\tDecisero di evacuare a casa di un parente.\tArrivarono e appresero dal telegiornale che si trattava di una terribile tempesta.fine: Si sentirono fortunati ad aver evacuato in tempo.storia: Tina aveva preparato gli spaghetti per il suo ragazzo.\tCi era voluto molto lavoro, ma lei era molto orgogliosa.\tIl suo ragazzo mangi\u00f2 tutto il piatto e disse che era buono.\tTina assaggi\u00f2 e si rese conto che era disgustoso.fine: Era commossa dal fatto che lui avesse fatto finta che fosse buono per non ferire i suoi sentimenti.Completa la seguente storia: 'Oliver era entusiasta per suoi regali di compleanno. Doveva aspettare, ma era impaziente. Si intrufol\u00f2 nell'armadio dei genitori. L\u00ec trov\u00f2 i suoi regali e li controll\u00f2 tutti.'fine: 'Erano i regali che aveva sognato da mesi! Un pallone da football, una t-shirt del suo team preferito, e una bicicletta nuova. Oliver era felice e li port\u00f2 fuori in giardino per provarli.'"
                    }
                ]
            },
            {
                "input": "Tina aveva in programma una gita con gli amici, cos\u00ec controll\u00f2 le previsioni meteo. Le previsioni del tempo dicevano che ci sarebbe stato il sole per tutto il giorno. Tina si era fidata delle previsioni e si era vestita di conseguenza. Tuttavia, le previsioni erano sbagliate e ci fu stato un enorme acquazzone.",
                "output": [
                    {
                        "generated_text": "Prendi in considerazione i seguenti esempi per completare una storia:storia: Jennifer aveva un esame importante il giorno dopo.\tEra cos\u00ec stressata che pass\u00f2 la notte in bianco.\tIl giorno dopo era andata in classe, stanca morta.\tL'insegnante le comunic\u00f2 che l'esame \u00e8 rimandato alla settimana successiva.fine: Jennifer ne rimase amareggiata.storia: Morgan e la sua famiglia vivevano in Florida.\tAvevano sentito che stava arrivando un uragano.\tDecisero di evacuare a casa di un parente.\tArrivarono e appresero dal telegiornale che si trattava di una terribile tempesta.fine: Si sentirono fortunati ad aver evacuato in tempo.storia: Tina aveva preparato gli spaghetti per il suo ragazzo.\tCi era voluto molto lavoro, ma lei era molto orgogliosa.\tIl suo ragazzo mangi\u00f2 tutto il piatto e disse che era buono.\tTina assaggi\u00f2 e si rese conto che era disgustoso.fine: Era commossa dal fatto che lui avesse fatto finta che fosse buono per non ferire i suoi sentimenti.Completa la seguente storia: 'Tina aveva in programma una gita con gli amici, cos\u00ec controll\u00f2 le previsioni meteo. Le previsioni del tempo dicevano che ci sarebbe stato il sole per tutto il giorno. Tina si era fidata delle previsioni e si era vestita di conseguenza. Tuttavia, le previsioni erano sbagliate e ci fu stato un enorme acquazzone.'fine: Tina e gli amici si sono asciugati in fretta e furia e si sono riferito alla gita come \"Il nostro piccolo acquazzone\"."
                    }
                ]
            },
            {
                "input": "Kayla stava cercando di trovare dei nomi per il suo bambino. Suo marito non era d'accordo con tutti i nomi che gli venivano proposti. Kayla gli chiese un elenco di nomi accettabili. Insieme raggiunsero un compromesso.",
                "output": [
                    {
                        "generated_text": "Prendi in considerazione i seguenti esempi per completare una storia:storia: Jennifer aveva un esame importante il giorno dopo.\tEra cos\u00ec stressata che pass\u00f2 la notte in bianco.\tIl giorno dopo era andata in classe, stanca morta.\tL'insegnante le comunic\u00f2 che l'esame \u00e8 rimandato alla settimana successiva.fine: Jennifer ne rimase amareggiata.storia: Morgan e la sua famiglia vivevano in Florida.\tAvevano sentito che stava arrivando un uragano.\tDecisero di evacuare a casa di un parente.\tArrivarono e appresero dal telegiornale che si trattava di una terribile tempesta.fine: Si sentirono fortunati ad aver evacuato in tempo.storia: Tina aveva preparato gli spaghetti per il suo ragazzo.\tCi era voluto molto lavoro, ma lei era molto orgogliosa.\tIl suo ragazzo mangi\u00f2 tutto il piatto e disse che era buono.\tTina assaggi\u00f2 e si rese conto che era disgustoso.fine: Era commossa dal fatto che lui avesse fatto finta che fosse buono per non ferire i suoi sentimenti.Completa la seguente storia: 'Kayla stava cercando di trovare dei nomi per il suo bambino. Suo marito non era d'accordo con tutti i nomi che gli venivano proposti. Kayla gli chiese un elenco di nomi accettabili. Insieme raggiunsero un compromesso.'fine: Il loro bambino fu chiamato 'Oliver' che era il nome preferito di entrambi."
                    }
                ]
            },
            {
                "input": "Molly si stava preparando per il suo matrimonio. Aveva appena indossato il suo abito bianco. All'improvviso, una bevanda si rovesci\u00f2 e macchi\u00f2 il vestito di rosa. Per fortuna arriv\u00f2 sua madre.",
                "output": [
                    {
                        "generated_text": "Prendi in considerazione i seguenti esempi per completare una storia:storia: Jennifer aveva un esame importante il giorno dopo.\tEra cos\u00ec stressata che pass\u00f2 la notte in bianco.\tIl giorno dopo era andata in classe, stanca morta.\tL'insegnante le comunic\u00f2 che l'esame \u00e8 rimandato alla settimana successiva.fine: Jennifer ne rimase amareggiata.storia: Morgan e la sua famiglia vivevano in Florida.\tAvevano sentito che stava arrivando un uragano.\tDecisero di evacuare a casa di un parente.\tArrivarono e appresero dal telegiornale che si trattava di una terribile tempesta.fine: Si sentirono fortunati ad aver evacuato in tempo.storia: Tina aveva preparato gli spaghetti per il suo ragazzo.\tCi era voluto molto lavoro, ma lei era molto orgogliosa.\tIl suo ragazzo mangi\u00f2 tutto il piatto e disse che era buono.\tTina assaggi\u00f2 e si rese conto che era disgustoso.fine: Era commossa dal fatto che lui avesse fatto finta che fosse buono per non ferire i suoi sentimenti.Completa la seguente storia: 'Molly si stava preparando per il suo matrimonio. Aveva appena indossato il suo abito bianco. All'improvviso, una bevanda si rovesci\u00f2 e macchi\u00f2 il vestito di rosa. Per fortuna arriv\u00f2 sua madre.'fine: Sua madre prese il vestito e lo fece asciugare subito. Molly non riusciva a credere che il suo abito fosse stato salvato, e si sent\u00ec incredibilmente fortunata di averla con se."
                    }
                ]
            },
            {
                "input": "Ross si iscrisse a una gara di 6 miglia a due mesi di distanza. Tuttavia, Ross aveva corso ogni volta solo per circa 3 miglia. Si rese conto che doveva impegnarsi ed allenarsi. Dedic\u00f2 pi\u00f9 tempo all'allenamento e aument\u00f2 lentamente la distanza di corsa.",
                "output": [
                    {
                        "generated_text": "Prendi in considerazione i seguenti esempi per completare una storia:storia: Jennifer aveva un esame importante il giorno dopo.\tEra cos\u00ec stressata che pass\u00f2 la notte in bianco.\tIl giorno dopo era andata in classe, stanca morta.\tL'insegnante le comunic\u00f2 che l'esame \u00e8 rimandato alla settimana successiva.fine: Jennifer ne rimase amareggiata.storia: Morgan e la sua famiglia vivevano in Florida.\tAvevano sentito che stava arrivando un uragano.\tDecisero di evacuare a casa di un parente.\tArrivarono e appresero dal telegiornale che si trattava di una terribile tempesta.fine: Si sentirono fortunati ad aver evacuato in tempo.storia: Tina aveva preparato gli spaghetti per il suo ragazzo.\tCi era voluto molto lavoro, ma lei era molto orgogliosa.\tIl suo ragazzo mangi\u00f2 tutto il piatto e disse che era buono.\tTina assaggi\u00f2 e si rese conto che era disgustoso.fine: Era commossa dal fatto che lui avesse fatto finta che fosse buono per non ferire i suoi sentimenti.Completa la seguente storia: 'Ross si iscrisse a una gara di 6 miglia a due mesi di distanza. Tuttavia, Ross aveva corso ogni volta solo per circa 3 miglia. Si rese conto che doveva impegnarsi ed allenarsi. Dedic\u00f2 pi\u00f9 tempo all'allenamento e aument\u00f2 lentamente la distanza di corsa.'fine: Dopo due mesi di allenamento incessante, Ross complet\u00f2 con successo la gara di 6 miglia senza sforzi."
                    }
                ]
            },
            {
                "input": "Jane era fuori per una passeggiata. Sent\u00ec un rombo tra le nuvole e inizi\u00f2 a piovere. Cerc\u00f2 di affrettarsi e di correre per il resto della strada. Era troppo tardi e quando arriv\u00f2 a casa era gi\u00e0 fradicia.",
                "output": [
                    {
                        "generated_text": "Prendi in considerazione i seguenti esempi per completare una storia:storia: Jennifer aveva un esame importante il giorno dopo.\tEra cos\u00ec stressata che pass\u00f2 la notte in bianco.\tIl giorno dopo era andata in classe, stanca morta.\tL'insegnante le comunic\u00f2 che l'esame \u00e8 rimandato alla settimana successiva.fine: Jennifer ne rimase amareggiata.storia: Morgan e la sua famiglia vivevano in Florida.\tAvevano sentito che stava arrivando un uragano.\tDecisero di evacuare a casa di un parente.\tArrivarono e appresero dal telegiornale che si trattava di una terribile tempesta.fine: Si sentirono fortunati ad aver evacuato in tempo.storia: Tina aveva preparato gli spaghetti per il suo ragazzo.\tCi era voluto molto lavoro, ma lei era molto orgogliosa.\tIl suo ragazzo mangi\u00f2 tutto il piatto e disse che era buono.\tTina assaggi\u00f2 e si rese conto che era disgustoso.fine: Era commossa dal fatto che lui avesse fatto finta che fosse buono per non ferire i suoi sentimenti.Completa la seguente storia: 'Jane era fuori per una passeggiata. Sent\u00ec un rombo tra le nuvole e inizi\u00f2 a piovere. Cerc\u00f2 di affrettarsi e di correre per il resto della strada. Era troppo tardi e quando arriv\u00f2 a casa era gi\u00e0 fradicia.'fine: Jane si stava asciugando con un asciugamano, quando un'amica le chiese cosa le fosse accaduto. Jane si rese conto di aver perso il suo portafoglio."
                    }
                ]
            },
            {
                "input": "Sam and\u00f2 alla tavola calda e ordin\u00f2 la colazione e un caff\u00e8 decaffeinato. La cameriera aveva una aria colpevole mentre gli versava il caff\u00e8. Sam sorseggi\u00f2 il caff\u00e8 e cap\u00ec che gli aveva dato un caff\u00e8 normale. La sgrid\u00f2 quando torn\u00f2 con il cibo.",
                "output": [
                    {
                        "generated_text": "Prendi in considerazione i seguenti esempi per completare una storia:storia: Jennifer aveva un esame importante il giorno dopo.\tEra cos\u00ec stressata che pass\u00f2 la notte in bianco.\tIl giorno dopo era andata in classe, stanca morta.\tL'insegnante le comunic\u00f2 che l'esame \u00e8 rimandato alla settimana successiva.fine: Jennifer ne rimase amareggiata.storia: Morgan e la sua famiglia vivevano in Florida.\tAvevano sentito che stava arrivando un uragano.\tDecisero di evacuare a casa di un parente.\tArrivarono e appresero dal telegiornale che si trattava di una terribile tempesta.fine: Si sentirono fortunati ad aver evacuato in tempo.storia: Tina aveva preparato gli spaghetti per il suo ragazzo.\tCi era voluto molto lavoro, ma lei era molto orgogliosa.\tIl suo ragazzo mangi\u00f2 tutto il piatto e disse che era buono.\tTina assaggi\u00f2 e si rese conto che era disgustoso.fine: Era commossa dal fatto che lui avesse fatto finta che fosse buono per non ferire i suoi sentimenti.Completa la seguente storia: 'Sam and\u00f2 alla tavola calda e ordin\u00f2 la colazione e un caff\u00e8 decaffeinato. La cameriera aveva una aria colpevole mentre gli versava il caff\u00e8. Sam sorseggi\u00f2 il caff\u00e8 e cap\u00ec che gli aveva dato un caff\u00e8 normale. La sgrid\u00f2 quando torn\u00f2 con il cibo.'fine: Sam si rese conto di essere stato ingannato e si arrabbi\u00f2 con la cameriera."
                    }
                ]
            },
            {
                "input": "Tom e Sheryl stavano assieme da due anni. Un giorno andarono insieme ad un luna park. Lui le vinse diversi orsetti di peluche e le compr\u00f2 degli dolci. Quando arrivarono alla ruota panoramica, lui si \u00e8 inginocchi\u00f2.",
                "output": [
                    {
                        "generated_text": "Prendi in considerazione i seguenti esempi per completare una storia:storia: Jennifer aveva un esame importante il giorno dopo.\tEra cos\u00ec stressata che pass\u00f2 la notte in bianco.\tIl giorno dopo era andata in classe, stanca morta.\tL'insegnante le comunic\u00f2 che l'esame \u00e8 rimandato alla settimana successiva.fine: Jennifer ne rimase amareggiata.storia: Morgan e la sua famiglia vivevano in Florida.\tAvevano sentito che stava arrivando un uragano.\tDecisero di evacuare a casa di un parente.\tArrivarono e appresero dal telegiornale che si trattava di una terribile tempesta.fine: Si sentirono fortunati ad aver evacuato in tempo.storia: Tina aveva preparato gli spaghetti per il suo ragazzo.\tCi era voluto molto lavoro, ma lei era molto orgogliosa.\tIl suo ragazzo mangi\u00f2 tutto il piatto e disse che era buono.\tTina assaggi\u00f2 e si rese conto che era disgustoso.fine: Era commossa dal fatto che lui avesse fatto finta che fosse buono per non ferire i suoi sentimenti.Completa la seguente storia: 'Tom e Sheryl stavano assieme da due anni. Un giorno andarono insieme ad un luna park. Lui le vinse diversi orsetti di peluche e le compr\u00f2 degli dolci. Quando arrivarono alla ruota panoramica, lui si \u00e8 inginocchi\u00f2.'fine: A quel punto era arrivato il momento di chiedere Sheryl di sposarlo."
                    }
                ]
            },
            {
                "input": "Harry voleva fare un'escursione la settimana scorsa. Aveva comprato tanta attrezzatura per prepararsi. Tuttavia, quando stava per partire, non riusciva a trovare la sua tenda. Alla fine rimase a casa.",
                "output": [
                    {
                        "generated_text": "Prendi in considerazione i seguenti esempi per completare una storia:storia: Jennifer aveva un esame importante il giorno dopo.\tEra cos\u00ec stressata che pass\u00f2 la notte in bianco.\tIl giorno dopo era andata in classe, stanca morta.\tL'insegnante le comunic\u00f2 che l'esame \u00e8 rimandato alla settimana successiva.fine: Jennifer ne rimase amareggiata.storia: Morgan e la sua famiglia vivevano in Florida.\tAvevano sentito che stava arrivando un uragano.\tDecisero di evacuare a casa di un parente.\tArrivarono e appresero dal telegiornale che si trattava di una terribile tempesta.fine: Si sentirono fortunati ad aver evacuato in tempo.storia: Tina aveva preparato gli spaghetti per il suo ragazzo.\tCi era voluto molto lavoro, ma lei era molto orgogliosa.\tIl suo ragazzo mangi\u00f2 tutto il piatto e disse che era buono.\tTina assaggi\u00f2 e si rese conto che era disgustoso.fine: Era commossa dal fatto che lui avesse fatto finta che fosse buono per non ferire i suoi sentimenti.Completa la seguente storia: 'Harry voleva fare un'escursione la settimana scorsa. Aveva comprato tanta attrezzatura per prepararsi. Tuttavia, quando stava per partire, non riusciva a trovare la sua tenda. Alla fine rimase a casa.'fine: La tenda di Harry era sparita. Non era sicuro se l'avesse fatta cadere o se qualcuno l'avesse rubata."
                    }
                ]
            },
            {
                "input": "Camminavo lungo la spiaggia alla ricerca di conchiglie. In lontananza individuai una conchiglia perfetta. Mi misi a correre a tutta velocit\u00e0, ma anche l'acqua si precipit\u00f2 su di essa. Mi tuffai sulla conchiglia prima che le onde la raccogliessero.",
                "output": [
                    {
                        "generated_text": "Prendi in considerazione i seguenti esempi per completare una storia:storia: Jennifer aveva un esame importante il giorno dopo.\tEra cos\u00ec stressata che pass\u00f2 la notte in bianco.\tIl giorno dopo era andata in classe, stanca morta.\tL'insegnante le comunic\u00f2 che l'esame \u00e8 rimandato alla settimana successiva.fine: Jennifer ne rimase amareggiata.storia: Morgan e la sua famiglia vivevano in Florida.\tAvevano sentito che stava arrivando un uragano.\tDecisero di evacuare a casa di un parente.\tArrivarono e appresero dal telegiornale che si trattava di una terribile tempesta.fine: Si sentirono fortunati ad aver evacuato in tempo.storia: Tina aveva preparato gli spaghetti per il suo ragazzo.\tCi era voluto molto lavoro, ma lei era molto orgogliosa.\tIl suo ragazzo mangi\u00f2 tutto il piatto e disse che era buono.\tTina assaggi\u00f2 e si rese conto che era disgustoso.fine: Era commossa dal fatto che lui avesse fatto finta che fosse buono per non ferire i suoi sentimenti.Completa la seguente storia: 'Camminavo lungo la spiaggia alla ricerca di conchiglie. In lontananza individuai una conchiglia perfetta. Mi misi a correre a tutta velocit\u00e0, ma anche l'acqua si precipit\u00f2 su di essa. Mi tuffai sulla conchiglia prima che le onde la raccogliessero.'fine: Avevo perso la mia possibilit\u00e0 di prendere la conchiglia pi\u00f9 bella che avessi mai visto."
                    }
                ]
            },
            {
                "input": "Jenny si rec\u00f2 dal medico per un controllo di routine. Fu scoperta un'anomalia che si rivel\u00f2 essere un cancro. Il medico le disse che la chemioterapia era probabilmente la scelta migliore. Jenny acconsent\u00ec e il trattamento dur\u00f2 mesi.",
                "output": [
                    {
                        "generated_text": "Prendi in considerazione i seguenti esempi per completare una storia:storia: Jennifer aveva un esame importante il giorno dopo.\tEra cos\u00ec stressata che pass\u00f2 la notte in bianco.\tIl giorno dopo era andata in classe, stanca morta.\tL'insegnante le comunic\u00f2 che l'esame \u00e8 rimandato alla settimana successiva.fine: Jennifer ne rimase amareggiata.storia: Morgan e la sua famiglia vivevano in Florida.\tAvevano sentito che stava arrivando un uragano.\tDecisero di evacuare a casa di un parente.\tArrivarono e appresero dal telegiornale che si trattava di una terribile tempesta.fine: Si sentirono fortunati ad aver evacuato in tempo.storia: Tina aveva preparato gli spaghetti per il suo ragazzo.\tCi era voluto molto lavoro, ma lei era molto orgogliosa.\tIl suo ragazzo mangi\u00f2 tutto il piatto e disse che era buono.\tTina assaggi\u00f2 e si rese conto che era disgustoso.fine: Era commossa dal fatto che lui avesse fatto finta che fosse buono per non ferire i suoi sentimenti.Completa la seguente storia: 'Jenny si rec\u00f2 dal medico per un controllo di routine. Fu scoperta un'anomalia che si rivel\u00f2 essere un cancro. Il medico le disse che la chemioterapia era probabilmente la scelta migliore. Jenny acconsent\u00ec e il trattamento dur\u00f2 mesi.'fine: Jenny inizi\u00f2 a sentirsi pi\u00f9 debole e stanca dopo gli inject del farmaco. La chemioterapia ebbe successo e gli studi medici confermarono che il cancro era stato estirpato del tutto. Jenny si sent\u00ec molto libera e felice di essere guarita."
                    }
                ]
            },
            {
                "input": "Rita era molto avanti con la gravidanza. Un giorno si svegli\u00f2 nel cuore della notte in preda ai dolori. A Rita si erano rotte le acque ed era arrivato il momento di andare in ospedale. Tutti si affrettarono ad assistere Rita mentre partoriva.",
                "output": [
                    {
                        "generated_text": "Prendi in considerazione i seguenti esempi per completare una storia:storia: Jennifer aveva un esame importante il giorno dopo.\tEra cos\u00ec stressata che pass\u00f2 la notte in bianco.\tIl giorno dopo era andata in classe, stanca morta.\tL'insegnante le comunic\u00f2 che l'esame \u00e8 rimandato alla settimana successiva.fine: Jennifer ne rimase amareggiata.storia: Morgan e la sua famiglia vivevano in Florida.\tAvevano sentito che stava arrivando un uragano.\tDecisero di evacuare a casa di un parente.\tArrivarono e appresero dal telegiornale che si trattava di una terribile tempesta.fine: Si sentirono fortunati ad aver evacuato in tempo.storia: Tina aveva preparato gli spaghetti per il suo ragazzo.\tCi era voluto molto lavoro, ma lei era molto orgogliosa.\tIl suo ragazzo mangi\u00f2 tutto il piatto e disse che era buono.\tTina assaggi\u00f2 e si rese conto che era disgustoso.fine: Era commossa dal fatto che lui avesse fatto finta che fosse buono per non ferire i suoi sentimenti.Completa la seguente storia: 'Rita era molto avanti con la gravidanza. Un giorno si svegli\u00f2 nel cuore della notte in preda ai dolori. A Rita si erano rotte le acque ed era arrivato il momento di andare in ospedale. Tutti si affrettarono ad assistere Rita mentre partoriva.'fine: Rita diede alla luce una bambina sana e salva e si ricongiunse con la sua famiglia felice."
                    }
                ]
            },
            {
                "input": "Il quarterback titolare dei Denver Broncos era infortunato. Brock era il quarterback di riserva. Aveva preso ripetizioni in allenamento per tutta la settimana. Brock era pronto per iniziare la partita successiva.",
                "output": [
                    {
                        "generated_text": "Prendi in considerazione i seguenti esempi per completare una storia:storia: Jennifer aveva un esame importante il giorno dopo.\tEra cos\u00ec stressata che pass\u00f2 la notte in bianco.\tIl giorno dopo era andata in classe, stanca morta.\tL'insegnante le comunic\u00f2 che l'esame \u00e8 rimandato alla settimana successiva.fine: Jennifer ne rimase amareggiata.storia: Morgan e la sua famiglia vivevano in Florida.\tAvevano sentito che stava arrivando un uragano.\tDecisero di evacuare a casa di un parente.\tArrivarono e appresero dal telegiornale che si trattava di una terribile tempesta.fine: Si sentirono fortunati ad aver evacuato in tempo.storia: Tina aveva preparato gli spaghetti per il suo ragazzo.\tCi era voluto molto lavoro, ma lei era molto orgogliosa.\tIl suo ragazzo mangi\u00f2 tutto il piatto e disse che era buono.\tTina assaggi\u00f2 e si rese conto che era disgustoso.fine: Era commossa dal fatto che lui avesse fatto finta che fosse buono per non ferire i suoi sentimenti.Completa la seguente storia: 'Il quarterback titolare dei Denver Broncos era infortunato. Brock era il quarterback di riserva. Aveva preso ripetizioni in allenamento per tutta la settimana. Brock era pronto per iniziare la partita successiva.'fine: Brock ha giocato bene e ha portato la sua squadra alla vittoria."
                    }
                ]
            },
            {
                "input": "Ogni sera, Nick correva per tre miglia su un sentiero vicino a casa sua. Una notte, vide una grande ombra davanti a s\u00e9. L'ombra si rivel\u00f2 essere un orso nero. Nick si gir\u00f2 e fece una corsa nella direzione opposta.",
                "output": [
                    {
                        "generated_text": "Prendi in considerazione i seguenti esempi per completare una storia:storia: Jennifer aveva un esame importante il giorno dopo.\tEra cos\u00ec stressata che pass\u00f2 la notte in bianco.\tIl giorno dopo era andata in classe, stanca morta.\tL'insegnante le comunic\u00f2 che l'esame \u00e8 rimandato alla settimana successiva.fine: Jennifer ne rimase amareggiata.storia: Morgan e la sua famiglia vivevano in Florida.\tAvevano sentito che stava arrivando un uragano.\tDecisero di evacuare a casa di un parente.\tArrivarono e appresero dal telegiornale che si trattava di una terribile tempesta.fine: Si sentirono fortunati ad aver evacuato in tempo.storia: Tina aveva preparato gli spaghetti per il suo ragazzo.\tCi era voluto molto lavoro, ma lei era molto orgogliosa.\tIl suo ragazzo mangi\u00f2 tutto il piatto e disse che era buono.\tTina assaggi\u00f2 e si rese conto che era disgustoso.fine: Era commossa dal fatto che lui avesse fatto finta che fosse buono per non ferire i suoi sentimenti.Completa la seguente storia: 'Ogni sera, Nick correva per tre miglia su un sentiero vicino a casa sua. Una notte, vide una grande ombra davanti a s\u00e9. L'ombra si rivel\u00f2 essere un orso nero. Nick si gir\u00f2 e fece una corsa nella direzione opposta.'fine: Il giorno successivo Nick raccont\u00f2 la storia a tutti i suoi amici e loro decisero di non correre pi\u00f9 sul sentiero."
                    }
                ]
            },
            {
                "input": "Katelyn stava guidando in autostrada. All'improvviso, un cervo le salt\u00f2 davanti. Sterz\u00f2 e fin\u00ec a sbattere contro un muro. Per un attimo rimase, ma poi si rese conto che il cofano era in fiamme.",
                "output": [
                    {
                        "generated_text": "Prendi in considerazione i seguenti esempi per completare una storia:storia: Jennifer aveva un esame importante il giorno dopo.\tEra cos\u00ec stressata che pass\u00f2 la notte in bianco.\tIl giorno dopo era andata in classe, stanca morta.\tL'insegnante le comunic\u00f2 che l'esame \u00e8 rimandato alla settimana successiva.fine: Jennifer ne rimase amareggiata.storia: Morgan e la sua famiglia vivevano in Florida.\tAvevano sentito che stava arrivando un uragano.\tDecisero di evacuare a casa di un parente.\tArrivarono e appresero dal telegiornale che si trattava di una terribile tempesta.fine: Si sentirono fortunati ad aver evacuato in tempo.storia: Tina aveva preparato gli spaghetti per il suo ragazzo.\tCi era voluto molto lavoro, ma lei era molto orgogliosa.\tIl suo ragazzo mangi\u00f2 tutto il piatto e disse che era buono.\tTina assaggi\u00f2 e si rese conto che era disgustoso.fine: Era commossa dal fatto che lui avesse fatto finta che fosse buono per non ferire i suoi sentimenti.Completa la seguente storia: 'Katelyn stava guidando in autostrada. All'improvviso, un cervo le salt\u00f2 davanti. Sterz\u00f2 e fin\u00ec a sbattere contro un muro. Per un attimo rimase, ma poi si rese conto che il cofano era in fiamme.'fine: Katelyn usc\u00ec di corsa dal veicolo in fiamme e si accorse di essere sola, ma poi sent\u00ec delle urla in lontananza."
                    }
                ]
            },
            {
                "input": "Il giudice entr\u00f2 nell'aula e prese posto. Chiese alla giuria se aveva un verdetto. L'uomo che guidava la giuria tir\u00f2 fuori una busta bianca. La tensione nell'aula aument\u00f2 quando la apr\u00ec per leggerla.",
                "output": [
                    {
                        "generated_text": "Prendi in considerazione i seguenti esempi per completare una storia:storia: Jennifer aveva un esame importante il giorno dopo.\tEra cos\u00ec stressata che pass\u00f2 la notte in bianco.\tIl giorno dopo era andata in classe, stanca morta.\tL'insegnante le comunic\u00f2 che l'esame \u00e8 rimandato alla settimana successiva.fine: Jennifer ne rimase amareggiata.storia: Morgan e la sua famiglia vivevano in Florida.\tAvevano sentito che stava arrivando un uragano.\tDecisero di evacuare a casa di un parente.\tArrivarono e appresero dal telegiornale che si trattava di una terribile tempesta.fine: Si sentirono fortunati ad aver evacuato in tempo.storia: Tina aveva preparato gli spaghetti per il suo ragazzo.\tCi era voluto molto lavoro, ma lei era molto orgogliosa.\tIl suo ragazzo mangi\u00f2 tutto il piatto e disse che era buono.\tTina assaggi\u00f2 e si rese conto che era disgustoso.fine: Era commossa dal fatto che lui avesse fatto finta che fosse buono per non ferire i suoi sentimenti.Completa la seguente storia: 'Il giudice entr\u00f2 nell'aula e prese posto. Chiese alla giuria se aveva un verdetto. L'uomo che guidava la giuria tir\u00f2 fuori una busta bianca. La tensione nell'aula aument\u00f2 quando la apr\u00ec per leggerla.'fine: La giuria assolse l'imputato."
                    }
                ]
            },
            {
                "input": "La mia ragazza aveva preparato lo stufato di pollo e broccoli per cena. \u00c8 uno dei miei piatti preferiti. Tuttavia, il pollo era risultato un po' rosa. Temevamo che fosse poco cotto.",
                "output": [
                    {
                        "generated_text": "Prendi in considerazione i seguenti esempi per completare una storia:storia: Jennifer aveva un esame importante il giorno dopo.\tEra cos\u00ec stressata che pass\u00f2 la notte in bianco.\tIl giorno dopo era andata in classe, stanca morta.\tL'insegnante le comunic\u00f2 che l'esame \u00e8 rimandato alla settimana successiva.fine: Jennifer ne rimase amareggiata.storia: Morgan e la sua famiglia vivevano in Florida.\tAvevano sentito che stava arrivando un uragano.\tDecisero di evacuare a casa di un parente.\tArrivarono e appresero dal telegiornale che si trattava di una terribile tempesta.fine: Si sentirono fortunati ad aver evacuato in tempo.storia: Tina aveva preparato gli spaghetti per il suo ragazzo.\tCi era voluto molto lavoro, ma lei era molto orgogliosa.\tIl suo ragazzo mangi\u00f2 tutto il piatto e disse che era buono.\tTina assaggi\u00f2 e si rese conto che era disgustoso.fine: Era commossa dal fatto che lui avesse fatto finta che fosse buono per non ferire i suoi sentimenti.Completa la seguente storia: 'La mia ragazza aveva preparato lo stufato di pollo e broccoli per cena. \u00c8 uno dei miei piatti preferiti. Tuttavia, il pollo era risultato un po' rosa. Temevamo che fosse poco cotto.'fine:\n\n## Bibliografia\n\n* (EN) J. B. Sparks e A. J. Horn, The Oxford Handbook of Narrative and Interpersonal Communication, OUP USA, 2021, ISBN 9780190686810.\n* (EN) J. B. Sparks e M. C. Macy, Narrative and identity construction: Stories we live by, in The Handbook of language and social interaction, John Wiley & Sons, 1997, ISBN 9780471960578.\n* (EN) A. Mishler,"
                    }
                ]
            },
            {
                "input": "Julia stava guardando un film sul suo tablet. Stava camminando con il tablet in casa. All'improvviso \u00e8 inciampata e ha fatto cadere il tablet. Quando l'ha raccolto, si \u00e8 resa conto che si era rotto.",
                "output": [
                    {
                        "generated_text": "Prendi in considerazione i seguenti esempi per completare una storia:storia: Jennifer aveva un esame importante il giorno dopo.\tEra cos\u00ec stressata che pass\u00f2 la notte in bianco.\tIl giorno dopo era andata in classe, stanca morta.\tL'insegnante le comunic\u00f2 che l'esame \u00e8 rimandato alla settimana successiva.fine: Jennifer ne rimase amareggiata.storia: Morgan e la sua famiglia vivevano in Florida.\tAvevano sentito che stava arrivando un uragano.\tDecisero di evacuare a casa di un parente.\tArrivarono e appresero dal telegiornale che si trattava di una terribile tempesta.fine: Si sentirono fortunati ad aver evacuato in tempo.storia: Tina aveva preparato gli spaghetti per il suo ragazzo.\tCi era voluto molto lavoro, ma lei era molto orgogliosa.\tIl suo ragazzo mangi\u00f2 tutto il piatto e disse che era buono.\tTina assaggi\u00f2 e si rese conto che era disgustoso.fine: Era commossa dal fatto che lui avesse fatto finta che fosse buono per non ferire i suoi sentimenti.Completa la seguente storia: 'Julia stava guardando un film sul suo tablet. Stava camminando con il tablet in casa. All'improvviso \u00e8 inciampata e ha fatto cadere il tablet. Quando l'ha raccolto, si \u00e8 resa conto che si era rotto.'fine: Julia si era arrabbiata con se stessa per aver rotto il suo tablet."
                    }
                ]
            }
        ]
    }
]