[
    {
        "model_name": "tiiuae/falcon-40b-instruct",
        "results": [
            {
                "input": "Jennifer aveva un esame importante il giorno dopo. Era cos\u00ec stressata che pass\u00f2 la notte in bianco. Il giorno dopo era andata in classe, stanca morta. L'insegnante le comunic\u00f2 che l'esame \u00e8 rimandato alla settimana successiva.",
                "output": [
                    {
                        "generated_text": "Completa la seguente storia: 'Jennifer aveva un esame importante il giorno dopo. Era cos\u00ec stressata che pass\u00f2 la notte in bianco. Il giorno dopo era andata in classe, stanca morta. L'insegnante le comunic\u00f2 che l'esame \u00e8 rimandato alla settimana successiva.'\nJennifer \u00e8 felice di avere un'altra settimana di tempo per studiare e prepararsi adeguatamente."
                    }
                ]
            },
            {
                "input": "Morgan e la sua famiglia vivevano in Florida. Avevano sentito che stava arrivando un uragano. Decisero di evacuare a casa di un parente. Arrivarono e appresero dal telegiornale che si trattava di una terribile tempesta.",
                "output": [
                    {
                        "generated_text": "Completa la seguente storia: 'Morgan e la sua famiglia vivevano in Florida. Avevano sentito che stava arrivando un uragano. Decisero di evacuare a casa di un parente. Arrivarono e appresero dal telegiornale che si trattava di una terribile tempesta.'\nMorgan and his family were living in Florida. They heard that a hurricane was approaching. They decided to evacuate to his relative's house. They arrived and found out from the news that it was a terrible storm."
                    }
                ]
            },
            {
                "input": "Tina aveva preparato gli spaghetti per il suo ragazzo. Ci era voluto molto lavoro, ma lei era molto orgogliosa. Il suo ragazzo mangi\u00f2 tutto il piatto e disse che era buono. Tina assaggi\u00f2 e si rese conto che era disgustoso.",
                "output": [
                    {
                        "generated_text": "Completa la seguente storia: 'Tina aveva preparato gli spaghetti per il suo ragazzo. Ci era voluto molto lavoro, ma lei era molto orgogliosa. Il suo ragazzo mangi\u00f2 tutto il piatto e disse che era buono. Tina assaggi\u00f2 e si rese conto che era disgustoso.'\nDopo aver lavorato duramente per preparare gli spaghetti per il suo ragazzo, Tina era estremamente orgogliosa del suo lavoro. Il suo ragazzo ha apprezzato molto gli spaghetti e finita la ciotola in un batter d'occhio. Tina ha deciso di assaggiare gli spaghetti per vedere come fosse, ed \u00e8 rimasta scioccata quando si \u00e8 resa conto che era terribile. Il sapore era orribile e non c'era modo che li mangiasse. Era molto delusa e si sentiva in imbarazzo."
                    }
                ]
            },
            {
                "input": "Il mio professore assegn\u00f2 alla mia classe un tema. Tempo di uscire dall'aula e me ne ero gi\u00e0 dimenticata. Qualche giorno dopo, una mia compagna di classe mi scrisse per chiedermi se l'avessi fatto. Ero cos\u00ec arrabbiata con me stessa perch\u00e9 me ne ero completamente dimenticata.",
                "output": [
                    {
                        "generated_text": "Completa la seguente storia: 'Il mio professore assegn\u00f2 alla mia classe un tema. Tempo di uscire dall'aula e me ne ero gi\u00e0 dimenticata. Qualche giorno dopo, una mia compagna di classe mi scrisse per chiedermi se l'avessi fatto. Ero cos\u00ec arrabbiata con me stessa perch\u00e9 me ne ero completamente dimenticata.'\nMentre me ne stavo tornando a casa quella sera, improvvisamente mi ricordai del tema. Mi sentii malissimo. Avevo lavorato cos\u00ec duramente per ottenere una buona valutazione in quella materia e ora l'avevo rovinato. Il giorno dopo, mi recai immediatamente a parlare con il professore, gli spiegai la situazione e gli mostrai il mio tema fatto in fretta e furia. Non mi aspettavo di ricevere una buona valutazione, quindi fu una sorpresa quando il professore me lo restitu\u00ec con un 'A'."
                    }
                ]
            },
            {
                "input": "Kaitlyn pensava che i jeans con i buchi fossero molto alla moda. Li indoss\u00f2 a scuola per sfoggiarli. Il preside le disse che erano contrari al codice di abbigliamento. Dovette cambiare i suoi jeans.",
                "output": [
                    {
                        "generated_text": "Completa la seguente storia: 'Kaitlyn pensava che i jeans con i buchi fossero molto alla moda. Li indoss\u00f2 a scuola per sfoggiarli. Il preside le disse che erano contrari al codice di abbigliamento. Dovette cambiare i suoi jeans.'\nKaitlyn pensava che i jeans con i buchi fossero molto alla moda. Li indoss\u00f2 a scuola per sfoggiare i suoi nuovi vestiti. Purtroppo, poco dopo, il preside la convoc\u00f2 nel suo ufficio per dirle che il suo abbigliamento non corrispondeva al codice di abbigliamento della scuola. Il preside le spieg\u00f2 che i jeans dovevano essere senza buchi e quindi Kaitlyn dovette cambiare i suoi jeans e indossare qualcos'altro."
                    }
                ]
            },
            {
                "input": "James si svegli\u00f2 nel cuore della notte e trov\u00f2 il suo letto che tremava. Tutte le cose nella sua stanza tremavano furiosamente. Era spaventato, ma poi all'improvviso smise. Si alz\u00f2 e controll\u00f2 il telegiornale.",
                "output": [
                    {
                        "generated_text": "Completa la seguente storia: 'James si svegli\u00f2 nel cuore della notte e trov\u00f2 il suo letto che tremava. Tutte le cose nella sua stanza tremavano furiosamente. Era spaventato, ma poi all'improvviso smise. Si alz\u00f2 e controll\u00f2 il telegiornale.'\nJames si svegli\u00f2 nel cuore della notte e trov\u00f2 il suo letto che tremava. Tutte le cose nella sua stanza tremavano furiosamente. Era spaventato, e il suo cuore batteva all'impazzata. Pens\u00f2 di essere intrappolato in una scossa di terremoto. Si allung\u00f2 e afferr\u00f2 il suo telefono, pronto a chiamare aiuto. Ma poi, all'improvviso, si rese conto che era solo la sua immaginazione. Era il suo cuore a battere cos\u00ec forte. Si calm\u00f2. Si alz\u00f2 e controll\u00f2 il telegiornale, scoprendo che c'era un temporale. Una volta che si fu calmato, torn\u00f2 a letto e si mise comodo. Sospir\u00f2, sentendosi un po' sciocco per aver pensato che fosse un terremoto invece di un temporale."
                    }
                ]
            },
            {
                "input": "Ero cos\u00ec nervosa per il mio primo giorno di scuola. Quando arrivai alla prima lezione, tremavo. Mi sedetti accanto alla ragazza pi\u00f9 carina della classe. Parlammo tutto il tempo, durante e dopo le lezioni.",
                "output": [
                    {
                        "generated_text": "Completa la seguente storia: 'Ero cos\u00ec nervosa per il mio primo giorno di scuola. Quando arrivai alla prima lezione, tremavo. Mi sedetti accanto alla ragazza pi\u00f9 carina della classe. Parlammo tutto il tempo, durante e dopo le lezioni.'\n'Poi, un giorno, mentre eravamo sedute in biblioteca a studiare, ci guardammo negli occhi e improvvisamente ci baciammo. \u00c8 stato un momento meraviglioso e da allora siamo inseparabili.'"
                    }
                ]
            },
            {
                "input": "Uli non vedeva l'ora di giocare a basket quel pomeriggio. Entr\u00f2 in palestra e lasci\u00f2 lo zaino sulle gradinate. Dopo la partita, non aveva ritrovato il telefono nello zaino. Era rimasta triste tutta la notte e al mattino controll\u00f2 in ufficio.",
                "output": [
                    {
                        "generated_text": "Completa la seguente storia: 'Uli non vedeva l'ora di giocare a basket quel pomeriggio. Entr\u00f2 in palestra e lasci\u00f2 lo zaino sulle gradinate. Dopo la partita, non aveva ritrovato il telefono nello zaino. Era rimasta triste tutta la notte e al mattino controll\u00f2 in ufficio.'\nLa storia finisce con la frase : Uli non era molto contenta quella mattina, perch\u00e9 non aveva trovato il telefono."
                    }
                ]
            },
            {
                "input": "Anna era una trombettista professionista. Aveva preso un nuovo appartamento in citt\u00e0. Sfortunatamente, le pareti erano molto pi\u00f9 sottili di quelle del vecchio appartamento. Ben presto i vicini si lamentarono del suo incessante esercizio.",
                "output": [
                    {
                        "generated_text": "Completa la seguente storia: 'Anna era una trombettista professionista. Aveva preso un nuovo appartamento in citt\u00e0. Sfortunatamente, le pareti erano molto pi\u00f9 sottili di quelle del vecchio appartamento. Ben presto i vicini si lamentarono del suo incessante esercizio.'\nAnna era una trombettista professionista. Era appena arrivata in una nuova citt\u00e0 e aveva trovato un nuovo appartamento. Ma ben presto si accorse che le pareti erano molto sottili e che il suo suonare faceva molto rumore. Dopo qualche giorno, i vicini iniziarono a lamentarsi, soprattutto a notte inoltrata. Anna era in difficolt\u00e0, perch\u00e9 non riusciva a trovare il tempo per esercitarsi altrove. Doveva trovare una soluzione prima che il suo vicino si lamentasse ancora."
                    }
                ]
            },
            {
                "input": "Bill decise di andare a scuola in bicicletta. Durante il tragitto buc\u00f2 una gomma. Un uomo vide la gomma a terra di Bill e ferm\u00f2 la sua auto. L'autista si offr\u00ec di accompagnare Bill a scuola.",
                "output": [
                    {
                        "generated_text": "Completa la seguente storia: 'Bill decise di andare a scuola in bicicletta. Durante il tragitto buc\u00f2 una gomma. Un uomo vide la gomma a terra di Bill e ferm\u00f2 la sua auto. L'autista si offr\u00ec di accompagnare Bill a scuola.'\nBill decise di andare a scuola in bicicletta, anche se il cielo era coperto di nubi minacciose. Durante il tragitto, mentre attraversava un incrocio, vide un uomo che si era appena fermato per cambiare la gomma a un'auto. Bill si ferm\u00f2 anche lui e l'uomo vide la gomma a terra della bici e gli offr\u00ec di accompagnarlo a scuola. Bill, grato, accett\u00f2 e fu felice che la sua mattinata non fosse andata male."
                    }
                ]
            },
            {
                "input": "Mentre era a casa, Robert sent\u00ec un odore terribile. And\u00f2 in cucina per indagare. La fonte dell'odore sembrava provenire dal frigorifero. Lo apr\u00ec e vide che c'era della carne avariata che aveva dimenticato.",
                "output": [
                    {
                        "generated_text": "Completa la seguente storia: 'Mentre era a casa, Robert sent\u00ec un odore terribile. And\u00f2 in cucina per indagare. La fonte dell'odore sembrava provenire dal frigorifero. Lo apr\u00ec e vide che c'era della carne avariata che aveva dimenticato.'\nQuando Robert apr\u00ec il frigorifero, la puzza fu insopportabile. Lo chiuse immediatamente, ma il fetore rimase. And\u00f2 a cercare una finestra da aprire, ma era troppo tardi. L'odore era troppo forte. Robert cerc\u00f2 disperatamente un modo per liberarsene, ma il suo stomaco non era dell'umore giusto. Alla fine, fu costretto a buttare l'intera carne avariata, e il frigorifero fu ripulito in modo adeguato."
                    }
                ]
            },
            {
                "input": "Joe si ferm\u00f2 a un semaforo. Il semaforo era verde, ma lui non part\u00ec. Le persone dietro di lui suonarono il clacson. Si sentirono frustrati, ma Joe non si mosse.",
                "output": [
                    {
                        "generated_text": "Completa la seguente storia: 'Joe si ferm\u00f2 a un semaforo. Il semaforo era verde, ma lui non part\u00ec. Le persone dietro di lui suonarono il clacson. Si sentirono frustrati, ma Joe non si mosse.'\nIl semaforo era verde, quindi Joe doveva partire, ma non lo fece. Le persone dietro di lui suonarono il clacson perch\u00e9 si sentivano frustrate, ma lui non si mosse."
                    }
                ]
            },
            {
                "input": "Un uomo trov\u00f2 una perla in un'ostrica. Purtroppo, proprio in quel momento stava mangiando l'ostrica. Con la perla si scheggi\u00f2 un dente. Fortunatamente, la perla copr\u00ec il costo dell'intervento dentistico.",
                "output": [
                    {
                        "generated_text": "Completa la seguente storia: 'Un uomo trov\u00f2 una perla in un'ostrica. Purtroppo, proprio in quel momento stava mangiando l'ostrica. Con la perla si scheggi\u00f2 un dente. Fortunatamente, la perla copr\u00ec il costo dell'intervento dentistico.'\nLa storia \u00e8 completa."
                    }
                ]
            },
            {
                "input": "Un silo di missili nucleari ricevette un ordine di lancio. L'ufficiale responsabile apr\u00ec la cassaforte per verificarne il codice. Apr\u00ec la busta contenente il codice di quel giorno. All'interno c'era un buono sconto per un panino.",
                "output": [
                    {
                        "generated_text": "Completa la seguente storia: 'Un silo di missili nucleari ricevette un ordine di lancio. L'ufficiale responsabile apr\u00ec la cassaforte per verificarne il codice. Apr\u00ec la busta contenente il codice di quel giorno. All'interno c'era un buono sconto per un panino.'\nNon so quale sia l'ironia, ma questa \u00e8 la fine pi\u00f9 stupida che abbia mai letto."
                    }
                ]
            },
            {
                "input": "Una famiglia decise di costruire una nuova fossa per il barbecue nel proprio giardino. Piuttosto che pagare per un escavatore, decisero di scavare da soli. A pochi metri di profondit\u00e0, uno di loro colp\u00ec quella che pensava fosse una piccola radice. Si rivel\u00f2 essere un cavo in fibra ottica che forniva Internet e la TV.",
                "output": [
                    {
                        "generated_text": "Completa la seguente storia: 'Una famiglia decise di costruire una nuova fossa per il barbecue nel proprio giardino. Piuttosto che pagare per un escavatore, decisero di scavare da soli. A pochi metri di profondit\u00e0, uno di loro colp\u00ec quella che pensava fosse una piccola radice. Si rivel\u00f2 essere un cavo in fibra ottica che forniva Internet e la TV.'\nLa famiglia fu scioccata per aver causato un tale danno e si rivolse a un avvocato per cercare aiuto. L'avvocato consigli\u00f2 loro di contattare subito il proprietario dell'impianto, il quale li indirizz\u00f2 a una compagnia telefonica. I tecnici della compagnia telefonica furono in grado di ripristinare il cavo e la famiglia si trov\u00f2 in debito con l'impresa telefonica. In seguito, decisero di utilizzare l'escavatore."
                    }
                ]
            },
            {
                "input": "Briana stava guidando un fuoristrada con suo fratello. Stavano andando veloci su una strada sterrata. All'improvviso, colpirono una roccia. La macchina si ribalt\u00f2.",
                "output": [
                    {
                        "generated_text": "Completa la seguente storia: 'Briana stava guidando un fuoristrada con suo fratello. Stavano andando veloci su una strada sterrata. All'improvviso, colpirono una roccia. La macchina si ribalt\u00f2.'\nBriana era seduta al posto di guida mentre suo fratello si trovava accanto a lei. Stavano guidando a velocit\u00e0 sostenuta e, all'improvviso, la macchina ha colpito una roccia sul ciglio della strada sterrata. La macchina \u00e8 andata fuori strada ed \u00e8 rovesciata. Briana \u00e8 uscita illesa, mentre suo fratello ha riportato alcune ferite."
                    }
                ]
            },
            {
                "input": "Un giorno di sole Jeff stava giocando all'aperto. Sent\u00ec un ronzio provenire dalle siepi. Quando si avvicin\u00f2 alla siepe, usc\u00ec uno sciame di api. Le api lo inseguirono fino in casa.",
                "output": [
                    {
                        "generated_text": "Completa la seguente storia: 'Un giorno di sole Jeff stava giocando all'aperto. Sent\u00ec un ronzio provenire dalle siepi. Quando si avvicin\u00f2 alla siepe, usc\u00ec uno sciame di api. Le api lo inseguirono fino in casa.'\nJeff rimase scioccato dal comportamento aggressivo delle api. Corse in casa e si chiuse rapidamente la porta alle spalle, ma l'attacco era iniziato. Lo sciame lo aveva seguito, continuando a ronzare intorno a lui. Jeff cerc\u00f2 di scacciarle, ma le api lo pungevano ovunque. Corse in cucina, dove c'era un panno, lo bagn\u00f2 con acqua e cerc\u00f2 di coprirsi in fretta la testa e il corpo. Nonostante le sue sforzi, le api continuavano a pungere attraverso il tessuto sottile, e Jeff si accorse che la pelle stava iniziando a bruciargli. Dopo una breve lotta, cadde a terra, stordito. Quando rinvenne, si accorse che era circondato da un mare di api, e cap\u00ec che il suo peggio incubo si era avverato. "
                    }
                ]
            },
            {
                "input": "Chelsea si era fatta male alle dita giocando a basket. Aveva molta paura di andare dal medico. Il padre di Chelsea la convinse ad andare a farsi controllare. Si scopr\u00ec che le ossa delle dita erano fratturate.",
                "output": [
                    {
                        "generated_text": "Completa la seguente storia: 'Chelsea si era fatta male alle dita giocando a basket. Aveva molta paura di andare dal medico. Il padre di Chelsea la convinse ad andare a farsi controllare. Si scopr\u00ec che le ossa delle dita erano fratturate.'\nAfter Chelsea got hurt playing basketball, she was too scared to go to the doctor. Her father persuaded her to get checked out, and it was discovered that her fingers were broken."
                    }
                ]
            },
            {
                "input": "Beth, un'amica di Amy, era incinta di un bambino. Amy chiam\u00f2 le sue amiche a partecipare a una festa a sorpresa per il bambino. Tutti aspettarono in silenzio che Beth entrasse. Quando vide tutti, rimase scioccata.",
                "output": [
                    {
                        "generated_text": "Completa la seguente storia: 'Beth, un'amica di Amy, era incinta di un bambino. Amy chiam\u00f2 le sue amiche a partecipare a una festa a sorpresa per il bambino. Tutti aspettarono in silenzio che Beth entrasse. Quando vide tutti, rimase scioccata.'\nLeggi la storia fino a questo punto, poi completa il resto della storia.\nQuando Beth entr\u00f2 nella stanza, rimase scioccata. Tutti i suoi amici e le sue amiche la stavano aspettando per una festa a sorpresa. Era cos\u00ec felice e inaspettatamente emozionata. Tutti si congratularono per il piccolo bambino e mangiarono dolci insieme. Fu una giornata memorabile per Beth."
                    }
                ]
            },
            {
                "input": "Tyler era entusiasta di acquistare il nuovo telefono cellulare. Quando arriv\u00f2 al negozio fu sorpreso di vedere una lunga fila. Aspett\u00f2 in fila per un'ora per acquistare il telefono. Quando arriv\u00f2 alla cassa, la cassiera lo inform\u00f2 che era tutto esaurito.",
                "output": [
                    {
                        "generated_text": "Completa la seguente storia: 'Tyler era entusiasta di acquistare il nuovo telefono cellulare. Quando arriv\u00f2 al negozio fu sorpreso di vedere una lunga fila. Aspett\u00f2 in fila per un'ora per acquistare il telefono. Quando arriv\u00f2 alla cassa, la cassiera lo inform\u00f2 che era tutto esaurito.' \nLa cassiera del negozio disse a Tyler che era tutto esaurito. Lui fu deluso e pens\u00f2 di andare altrove per provare a trovare lo stesso telefono cellulare."
                    }
                ]
            },
            {
                "input": "Andrew pensava di essere un buon giocatore di golf. Sfid\u00f2 il suo amico Dylan per vedere chi fosse pi\u00f9 bravo. Dylan accett\u00f2 la sfida e lavor\u00f2 duramente per prepararsi. All'inizio Andrew stava vincendo, ma le cose sarebbero presto cambiate.",
                "output": [
                    {
                        "generated_text": "Completa la seguente storia: 'Andrew pensava di essere un buon giocatore di golf. Sfid\u00f2 il suo amico Dylan per vedere chi fosse pi\u00f9 bravo. Dylan accett\u00f2 la sfida e lavor\u00f2 duramente per prepararsi. All'inizio Andrew stava vincendo, ma le cose sarebbero presto cambiate.'\nDylan continu\u00f2 ad allenarsi duramente e miglior\u00f2 rapidamente. Alla fine, Dylan vinse la sfida di golf contro Andrew. Andrew era sconvolto, ma allo stesso tempo felice di vedere un amico crescere e migliorare."
                    }
                ]
            },
            {
                "input": "Mi ero preparata un panino al tonno per pranzo. Mentre ero seduta a mangiare, mi \u00e8 squillato il telefono. Mi sono alzata per rispondere e ho avuto una breve conversazione. Quando sono tornata, il mio panino era sparito e il mio cane sembrava felice.",
                "output": [
                    {
                        "generated_text": "Completa la seguente storia: 'Mi ero preparata un panino al tonno per pranzo. Mentre ero seduta a mangiare, mi \u00e8 squillato il telefono. Mi sono alzata per rispondere e ho avuto una breve conversazione. Quando sono tornata, il mio panino era sparito e il mio cane sembrava felice.'\nIl cane aveva rubato il panino al tonno dalla proprietaria mentre questa si era alzata per rispondere al telefono!"
                    }
                ]
            },
            {
                "input": "Beth stava uscendo dal lavoro marted\u00ec. Si era accorta che ad un uomo era caduto il portafoglio nel parcheggio. Ha attraversato di corsa il parcheggio per restituirglielo. L'uomo era cos\u00ec felice che gli fosse stato restituito il portafoglio.",
                "output": [
                    {
                        "generated_text": "Completa la seguente storia: 'Beth stava uscendo dal lavoro marted\u00ec. Si era accorta che ad un uomo era caduto il portafoglio nel parcheggio. Ha attraversato di corsa il parcheggio per restituirglielo. L'uomo era cos\u00ec felice che gli fosse stato restituito il portafoglio.'\nLa storia continua come segue:\nBeth stava uscendo dal lavoro marted\u00ec. Si era accorta che un uomo aveva perso il portafoglio nel parcheggio. Si \u00e8 avvicinata a lui, gli ha restituito il portafoglio e l'uomo le ha detto che era il suo compleanno, cos\u00ec Beth lo ha invitato a prendere un caff\u00e8. Hanno iniziato una conversazione e, alla fine della giornata, Beth gli ha dato il proprio numero."
                    }
                ]
            },
            {
                "input": "Un amico di Dan lo introdusse al poker. Dan si rese conto di essere molto bravo a giocare a poker. Dan decise di andare a Las Vegas per mettere alla prova la sua abilit\u00e0. Dan vinse milioni di dollari a Las Vegas.",
                "output": [
                    {
                        "generated_text": "Completa la seguente storia: 'Un amico di Dan lo introdusse al poker. Dan si rese conto di essere molto bravo a giocare a poker. Dan decise di andare a Las Vegas per mettere alla prova la sua abilit\u00e0. Dan vinse milioni di dollari a Las Vegas.'\nUn amico di Dan lo introdusse al poker. Dan si rese conto di essere molto bravo a giocare a poker. Dan decise di andare a Las Vegas per mettere alla prova la sua abilit\u00e0. Dan vinse milioni di dollari a Las Vegas."
                    }
                ]
            },
            {
                "input": "Lo swing di Harry era terribile. Un giorno Harry decide di cercare aiuto per migliorare il suo swing. Assunse un allenatore privato. L'allenatore privato riusc\u00ec a migliorare lo swing di Harry.",
                "output": [
                    {
                        "generated_text": "Completa la seguente storia: 'Lo swing di Harry era terribile. Un giorno Harry decide di cercare aiuto per migliorare il suo swing. Assunse un allenatore privato. L'allenatore privato riusc\u00ec a migliorare lo swing di Harry.'\n'Lo swing di Harry era terribile. Un giorno Harry decise di assumere un allenatore privato per migliorare il suo swing. L'allenatore privato riusc\u00ec a migliorare lo swing di Harry in modo notevole, rendendo il golf un gioco molto pi\u00f9 piacevole per lui. Ora Harry gioca ogni settimana e ha migliorato la sua precisione.'"
                    }
                ]
            },
            {
                "input": "Sam aveva appuntamento con suo padre per pranzo in un ristorante italiano. Arriv\u00f2 in anticipo e aspett\u00f2 suo padre. Cominci\u00f2 a preoccuparsi quando suo padre non si present\u00f2 e non rispose al cellulare. Chiam\u00f2 sua madre per sapere cosa stesse succedendo.",
                "output": [
                    {
                        "generated_text": "Completa la seguente storia: 'Sam aveva appuntamento con suo padre per pranzo in un ristorante italiano. Arriv\u00f2 in anticipo e aspett\u00f2 suo padre. Cominci\u00f2 a preoccuparsi quando suo padre non si present\u00f2 e non rispose al cellulare. Chiam\u00f2 sua madre per sapere cosa stesse succedendo.'\nSam era preoccupato per il ritardo di suo padre e chiam\u00f2 sua madre per sapere se stesse andando tutto bene. Sua madre gli disse che suo padre non avrebbe pi\u00f9 fatto parte della sua vita e che doveva smetterla di cercarlo. Sam era distrutto e pianse per il suo futuro senza un padre."
                    }
                ]
            },
            {
                "input": "Randy possiede la stessa chitarra da dieci anni. Purtroppo, due giorni fa l'aveva persa. Aveva chiamato tutti quelli che ricordava di aver visitato negli ultimi giorni. Fortunatamente, l'aveva appena lasciata a casa di un amico.",
                "output": [
                    {
                        "generated_text": "Completa la seguente storia: 'Randy possiede la stessa chitarra da dieci anni. Purtroppo, due giorni fa l'aveva persa. Aveva chiamato tutti quelli che ricordava di aver visitato negli ultimi giorni. Fortunatamente, l'aveva appena lasciata a casa di un amico.'\nRandy era disperato. Non aveva dormito bene la notte. Aveva cercato in tutti i posti dove aveva portato la sua chitarra negli ultimi dieci anni. Si era recato nei negozi e nei caff\u00e8 che ricordava di aver visitato. Aveva telefonato a tutti i suoi ex amici, sperando che l'avrebbero aiutato. Fortunatamente, uno dei suoi vecchi amici aveva trovato la chitarra a casa sua. Randy era cos\u00ec felice di riaverla indietro che non vedeva l'ora di suonarla. Aveva imparato a suonare la chitarra da bambino, e questa era speciale, in quanto l'aveva ricevuta in dono per il suo compleanno. Era cos\u00ec felice di averla ritrovata."
                    }
                ]
            },
            {
                "input": "Maria voleva stupire tutti al ballo della scuola. Invece di comprare un vestito, decise di farne uno nuovo. Scelse un tessuto morbido e viola da utilizzare. Cuc\u00ec giorno e notte finch\u00e9 non ebbe finito.",
                "output": [
                    {
                        "generated_text": "Completa la seguente storia: 'Maria voleva stupire tutti al ballo della scuola. Invece di comprare un vestito, decise di farne uno nuovo. Scelse un tessuto morbido e viola da utilizzare. Cuc\u00ec giorno e notte finch\u00e9 non ebbe finito.'\nMaria voleva essere la protagonista al ballo della scuola. Voleva far parlare tutti di lei e della sua meraviglioso vestito. Cos\u00ec decise di non comprare un abito nuovo e di fare da sola quello che indosser\u00e0 quella sera.\n\nMaria scelse il tessuto viola con delle rose stampate. Sarebbe stato un abito lungo, ma non eccessivamente.\nLei non aveva mai cucito un vestito prima d'ora. Ma era decisa a imparare.\nMaria cuc\u00ec giorno e notte. Aveva una settimana di tempo per completare il suo capolavoro. Non era facile, ma Maria ci provava.\n\nFinalmente fin\u00ec il suo vestito. Era stupendo! Il tessuto era cos\u00ec morbido, il taglio cos\u00ec perfetto. Era davvero un capo d'abbigliamento magnifico.\n\nIl giorno del ballo, Maria indoss\u00f2 il suo vestito e si sent\u00ec una principessa. Tutti i ragazzi la guardavano, tutti le facevano i complimenti. Era una sensazione meravigliosa.\n\nMaria era cos\u00ec felice di aver scelto di fare da sola il suo abito. Era unica, speciale. Aveva stupito tutti al ballo della scuola."
                    }
                ]
            },
            {
                "input": "La madre di Carson gli prepar\u00f2 una cioccolata calda come regalo. Lo avvert\u00ec di aspettare cinque minuti perch\u00e9 si raffreddasse. Carson riusc\u00ec ad aspettare a malapena un minuto. Bevve la cioccolata molto calda.",
                "output": [
                    {
                        "generated_text": "Completa la seguente storia: 'La madre di Carson gli prepar\u00f2 una cioccolata calda come regalo. Lo avvert\u00ec di aspettare cinque minuti perch\u00e9 si raffreddasse. Carson riusc\u00ec ad aspettare a malapena un minuto. Bevve la cioccolata molto calda.'\nContinua: 'Carson inizi\u00f2 a tossire e sputacchiare, soffocando a causa dell'acqua bollente che gli bruci\u00f2 la gola. La madre lo trov\u00f2 che cercava di respirare, il viso rosso come un pomodoro. Carson non avrebbe dovuto bere la cioccolata calda.'"
                    }
                ]
            },
            {
                "input": "Di recente ho comprato un nuovo colore di smalto. Mi stavo dipingendo le unghie quando il gatto ha saltato e l'ha fatto cadere. Lo smalto era finito su tutto il pavimento. Ho provato a pulirlo, ma non ha funzionato.",
                "output": [
                    {
                        "generated_text": "Completa la seguente storia: 'Di recente ho comprato un nuovo colore di smalto. Mi stavo dipingendo le unghie quando il gatto ha saltato e l'ha fatto cadere. Lo smalto era finito su tutto il pavimento. Ho provato a pulirlo, ma non ha funzionato.'\nContinua...\nIl gatto, non soddisfatto, ha iniziato a saltellare da un posto all'altro del pavimento lasciando impronte di smalto dappertutto. La mia casa sembrava una scena del crimine, cos\u00ec ho preso un panno e un secchio d'acqua. Dopo aver lavato il pavimento, ho iniziato a pensare a un modo per distrarre il mio animale domestico dalla vernice. Ho preso una palla, l'ho lanciata in aria, e il gatto ci \u00e8 saltato sopra. Era cos\u00ec felice e divertito che ha dimenticato tutto dello smalto. Dopo qualche secondo, mi sono ritrovata a giocare con il gatto per il resto del pomeriggio."
                    }
                ]
            },
            {
                "input": "Un uomo pens\u00f2 di provare a coltivare i pomodori nel suo giardino. Cos\u00ec compr\u00f2 semi e attrezzature. Piant\u00f2 i semi e aspett\u00f2. Qualche mese dopo, si ritrov\u00f2 proprietario di un piccolo campo di grano.",
                "output": [
                    {
                        "generated_text": "Completa la seguente storia: 'Un uomo pens\u00f2 di provare a coltivare i pomodori nel suo giardino. Cos\u00ec compr\u00f2 semi e attrezzature. Piant\u00f2 i semi e aspett\u00f2. Qualche mese dopo, si ritrov\u00f2 proprietario di un piccolo campo di grano.'\nL'uomo non aveva considerato che i semi di grano che piant\u00f2 inavvertitamente nel suo giardino erano volati dai campi dei suoi vicini. Questo port\u00f2 a un conflitto con la comunit\u00e0 agricola locale e alla perdita definitiva del suo giardino di pomodori."
                    }
                ]
            },
            {
                "input": "Cathy lavora in uno Starbucks. La settimana scorsa ha avuto una cliente indisciplinata. La cliente continuava a chiedere una bevanda non esistente. Alla fine, Cathy le aveva dato un latte macchiato.",
                "output": [
                    {
                        "generated_text": "Completa la seguente storia: 'Cathy lavora in uno Starbucks. La settimana scorsa ha avuto una cliente indisciplinata. La cliente continuava a chiedere una bevanda non esistente. Alla fine, Cathy le aveva dato un latte macchiato.'\nCathy era stanca di lavorare alla macchinetta del latte. Una cliente, in particolare, era molto difficile da gestire. Continuava a insistere che voleva una bevanda che non esisteva sul menu. Alla fine, Cathy le aveva dato un latte macchiato per farla andare via."
                    }
                ]
            },
            {
                "input": "Oliver era entusiasta per suoi regali di compleanno. Doveva aspettare, ma era impaziente. Si intrufol\u00f2 nell'armadio dei genitori. L\u00ec trov\u00f2 i suoi regali e li controll\u00f2 tutti.",
                "output": [
                    {
                        "generated_text": "Completa la seguente storia: 'Oliver era entusiasta per suoi regali di compleanno. Doveva aspettare, ma era impaziente. Si intrufol\u00f2 nell'armadio dei genitori. L\u00ec trov\u00f2 i suoi regali e li controll\u00f2 tutti.'\nOliver era cos\u00ec emozionato per i suoi regali di compleanno! Ma era ancora una settimana lontano e non riusciva ad aspettare. Si intrufol\u00f2 nell'armadio dei genitori e trov\u00f2 i suoi regali l\u00ec! Li controll\u00f2 uno per uno, ma non trov\u00f2 quello che si aspettava. Era cos\u00ec deluso! Ma il giorno del suo compleanno, fu sorpreso con i regali che aveva desiderato. I suoi genitori lo avevano nascosto nel suo armadio. Oliver era cos\u00ec felice!"
                    }
                ]
            },
            {
                "input": "Tina aveva in programma una gita con gli amici, cos\u00ec controll\u00f2 le previsioni meteo. Le previsioni del tempo dicevano che ci sarebbe stato il sole per tutto il giorno. Tina si era fidata delle previsioni e si era vestita di conseguenza. Tuttavia, le previsioni erano sbagliate e ci fu stato un enorme acquazzone.",
                "output": [
                    {
                        "generated_text": "Completa la seguente storia: 'Tina aveva in programma una gita con gli amici, cos\u00ec controll\u00f2 le previsioni meteo. Le previsioni del tempo dicevano che ci sarebbe stato il sole per tutto il giorno. Tina si era fidata delle previsioni e si era vestita di conseguenza. Tuttavia, le previsioni erano sbagliate e ci fu stato un enorme acquazzone.'"
                    }
                ]
            },
            {
                "input": "Kayla stava cercando di trovare dei nomi per il suo bambino. Suo marito non era d'accordo con tutti i nomi che gli venivano proposti. Kayla gli chiese un elenco di nomi accettabili. Insieme raggiunsero un compromesso.",
                "output": [
                    {
                        "generated_text": "Completa la seguente storia: 'Kayla stava cercando di trovare dei nomi per il suo bambino. Suo marito non era d'accordo con tutti i nomi che gli venivano proposti. Kayla gli chiese un elenco di nomi accettabili. Insieme raggiunsero un compromesso.'\nKayla si sedette al computer e inizi\u00f2 a cercare nomi per il suo bambino. Suo marito non era d'accordo su alcuni dei nomi che lei aveva proposto e non voleva nemmeno considerare nomi che non conosceva. Kayla inizi\u00f2 a diventare frustrata. Decise di chiamare il suo marito e chiedergli se aveva un elenco di nomi accettabili. Insieme, iniziarono a compilare un elenco di nomi che entrambi amavano. Ci fu un piccolo compromesso, ma alla fine si raggiunse un accordo e Kayla fu molto felice."
                    }
                ]
            },
            {
                "input": "Molly si stava preparando per il suo matrimonio. Aveva appena indossato il suo abito bianco. All'improvviso, una bevanda si rovesci\u00f2 e macchi\u00f2 il vestito di rosa. Per fortuna arriv\u00f2 sua madre.",
                "output": [
                    {
                        "generated_text": "Completa la seguente storia: 'Molly si stava preparando per il suo matrimonio. Aveva appena indossato il suo abito bianco. All'improvviso, una bevanda si rovesci\u00f2 e macchi\u00f2 il vestito di rosa. Per fortuna arriv\u00f2 sua madre.'\n'Molly era sconvolta, sapeva che avrebbe dovuto correre subito a cambiarsi, ma il matrimonio stava per iniziare. Sua madre si avvicin\u00f2, calmandola e consigliandole di andare a cambiarsi nel bagno degli sposi, dove le aveva fatto mettere una delle sue camicie di sicurezza. Una volta cambiata, Molly si sent\u00ec subito meglio, e il suo sorriso torn\u00f2. Il matrimonio fu perfetto, e i due novelli sposi si godettero la loro nuova vita insieme.'"
                    }
                ]
            },
            {
                "input": "Ross si iscrisse a una gara di 6 miglia a due mesi di distanza. Tuttavia, Ross aveva corso ogni volta solo per circa 3 miglia. Si rese conto che doveva impegnarsi ed allenarsi. Dedic\u00f2 pi\u00f9 tempo all'allenamento e aument\u00f2 lentamente la distanza di corsa.",
                "output": [
                    {
                        "generated_text": "Completa la seguente storia: 'Ross si iscrisse a una gara di 6 miglia a due mesi di distanza. Tuttavia, Ross aveva corso ogni volta solo per circa 3 miglia. Si rese conto che doveva impegnarsi ed allenarsi. Dedic\u00f2 pi\u00f9 tempo all'allenamento e aument\u00f2 lentamente la distanza di corsa.'\nRoss si allen\u00f2 duramente per due mesi in vista della gara di 6 miglia. Nonostante avesse corso solo per circa 3 miglia, sapeva che doveva impegnarsi maggiormente e dedicarsi ad allenarsi. Dopo aver dedicato pi\u00f9 tempo all'allenamento, Ross aument\u00f2 in modo graduale la distanza di corsa, arrivando a completare i 6 miglia della gara."
                    }
                ]
            },
            {
                "input": "Jane era fuori per una passeggiata. Sent\u00ec un rombo tra le nuvole e inizi\u00f2 a piovere. Cerc\u00f2 di affrettarsi e di correre per il resto della strada. Era troppo tardi e quando arriv\u00f2 a casa era gi\u00e0 fradicia.",
                "output": [
                    {
                        "generated_text": "Completa la seguente storia: 'Jane era fuori per una passeggiata. Sent\u00ec un rombo tra le nuvole e inizi\u00f2 a piovere. Cerc\u00f2 di affrettarsi e di correre per il resto della strada. Era troppo tardi e quando arriv\u00f2 a casa era gi\u00e0 fradicia.'\nAs I was out for a walk, a loud rumbling noise could be heard amongst the clouds and rain started pouring down. I tried to hurry up and run as fast as I could, but by the time I reached my home, it was already too late. I was drenched."
                    }
                ]
            },
            {
                "input": "Sam and\u00f2 alla tavola calda e ordin\u00f2 la colazione e un caff\u00e8 decaffeinato. La cameriera aveva una aria colpevole mentre gli versava il caff\u00e8. Sam sorseggi\u00f2 il caff\u00e8 e cap\u00ec che gli aveva dato un caff\u00e8 normale. La sgrid\u00f2 quando torn\u00f2 con il cibo.",
                "output": [
                    {
                        "generated_text": "Completa la seguente storia: 'Sam and\u00f2 alla tavola calda e ordin\u00f2 la colazione e un caff\u00e8 decaffeinato. La cameriera aveva una aria colpevole mentre gli versava il caff\u00e8. Sam sorseggi\u00f2 il caff\u00e8 e cap\u00ec che gli aveva dato un caff\u00e8 normale. La sgrid\u00f2 quando torn\u00f2 con il cibo.'\nSam and\u00f2 alla tavola calda e ordin\u00f2 la colazione e un caff\u00e8 decaffeinato. Mentre sorseggiava il caff\u00e8, not\u00f2 qualcosa di sbagliato nel sapore. Dopo aver finito, si rese conto che la cameriera gli aveva portato un caff\u00e8 normale. Si sent\u00ec ingannato e sgrid\u00f2 la cameriera quando torn\u00f2 con il suo cibo."
                    }
                ]
            },
            {
                "input": "Tom e Sheryl stavano assieme da due anni. Un giorno andarono insieme ad un luna park. Lui le vinse diversi orsetti di peluche e le compr\u00f2 degli dolci. Quando arrivarono alla ruota panoramica, lui si \u00e8 inginocchi\u00f2.",
                "output": [
                    {
                        "generated_text": "Completa la seguente storia: 'Tom e Sheryl stavano assieme da due anni. Un giorno andarono insieme ad un luna park. Lui le vinse diversi orsetti di peluche e le compr\u00f2 degli dolci. Quando arrivarono alla ruota panoramica, lui si \u00e8 inginocchi\u00f2.'\n'Tom propose a Sheryl con un bellissimo anello e le disse che era stato il giorno pi\u00f9 felice della sua vita, e ora voleva che lei diventasse sua moglie. Sheryl accett\u00f2 di sposarlo e iniziarono a pianificare il loro futuro insieme.'"
                    }
                ]
            },
            {
                "input": "Harry voleva fare un'escursione la settimana scorsa. Aveva comprato tanta attrezzatura per prepararsi. Tuttavia, quando stava per partire, non riusciva a trovare la sua tenda. Alla fine rimase a casa.",
                "output": [
                    {
                        "generated_text": "Completa la seguente storia: 'Harry voleva fare un'escursione la settimana scorsa. Aveva comprato tanta attrezzatura per prepararsi. Tuttavia, quando stava per partire, non riusciva a trovare la sua tenda. Alla fine rimase a casa.'\nSorry, I cannot complete this story as it requires more context such as details on where and when Harry was going to go on an excursion."
                    }
                ]
            },
            {
                "input": "Camminavo lungo la spiaggia alla ricerca di conchiglie. In lontananza individuai una conchiglia perfetta. Mi misi a correre a tutta velocit\u00e0, ma anche l'acqua si precipit\u00f2 su di essa. Mi tuffai sulla conchiglia prima che le onde la raccogliessero.",
                "output": [
                    {
                        "generated_text": "Completa la seguente storia: 'Camminavo lungo la spiaggia alla ricerca di conchiglie. In lontananza individuai una conchiglia perfetta. Mi misi a correre a tutta velocit\u00e0, ma anche l'acqua si precipit\u00f2 su di essa. Mi tuffai sulla conchiglia prima che le onde la raccogliessero.'\nAs I walked along the beach, I was on the lookout for seashells. In the distance, I saw the perfect shell. I started running towards it but the water rushed towards it too. I dove for the shell before the waves carried it away."
                    }
                ]
            },
            {
                "input": "Jenny si rec\u00f2 dal medico per un controllo di routine. Fu scoperta un'anomalia che si rivel\u00f2 essere un cancro. Il medico le disse che la chemioterapia era probabilmente la scelta migliore. Jenny acconsent\u00ec e il trattamento dur\u00f2 mesi.",
                "output": [
                    {
                        "generated_text": "Completa la seguente storia: 'Jenny si rec\u00f2 dal medico per un controllo di routine. Fu scoperta un'anomalia che si rivel\u00f2 essere un cancro. Il medico le disse che la chemioterapia era probabilmente la scelta migliore. Jenny acconsent\u00ec e il trattamento dur\u00f2 mesi.'\nJenny era sconvolta dalla notizia, ma accett\u00f2 la chemioterapia come prescritto dal medico. Durante il trattamento, inizi\u00f2 a sperimentare alcuni effetti collaterali, come nausea, perdita di capelli e stanchezza. Tuttavia, era determinata a combattere il cancro e non si sarebbe persa d'animo per questi piccoli inconvenienti. Continu\u00f2 il trattamento per mesi, finch\u00e9 il medico non disse che era finalmente in remissione. Era cos\u00ec felice e grata all'equipe medica che l'aveva aiutata a superare questa esperienza cos\u00ec difficile."
                    }
                ]
            },
            {
                "input": "Rita era molto avanti con la gravidanza. Un giorno si svegli\u00f2 nel cuore della notte in preda ai dolori. A Rita si erano rotte le acque ed era arrivato il momento di andare in ospedale. Tutti si affrettarono ad assistere Rita mentre partoriva.",
                "output": [
                    {
                        "generated_text": "Completa la seguente storia: 'Rita era molto avanti con la gravidanza. Un giorno si svegli\u00f2 nel cuore della notte in preda ai dolori. A Rita si erano rotte le acque ed era arrivato il momento di andare in ospedale. Tutti si affrettarono ad assistere Rita mentre partoriva.'\nRita era molto avanti con la gravidanza. Un giorno si svegli\u00f2 nel cuore della notte in preda ai dolori. A Rita si erano rotte le acque ed era arrivato il momento di andare in ospedale. Tutti si affrettarono ad assistere Rita mentre partoriva. Dopo un'ora di spinte forti, la piccola Lucy venne alla luce. Mentre Rita si riposava, il suo compagno e i suoi genitori si occupavano affettuosamente della nuova arrivata. Il primo giorno in ospedale fu pieno di emozioni, ma anche di gioia e felicit\u00e0 per la nuova famiglia creatasi."
                    }
                ]
            },
            {
                "input": "Il quarterback titolare dei Denver Broncos era infortunato. Brock era il quarterback di riserva. Aveva preso ripetizioni in allenamento per tutta la settimana. Brock era pronto per iniziare la partita successiva.",
                "output": [
                    {
                        "generated_text": "Completa la seguente storia: 'Il quarterback titolare dei Denver Broncos era infortunato. Brock era il quarterback di riserva. Aveva preso ripetizioni in allenamento per tutta la settimana. Brock era pronto per iniziare la partita successiva.'\nBrock Osweiler era il quarterback di riserva dei Denver Broncos. Con il quarterback titolare infortunato, Brock era pronto a iniziare la partita successiva. Aveva preso delle ripetizioni in allenamento per tutta la settimana e si sentiva pronto."
                    }
                ]
            },
            {
                "input": "Ogni sera, Nick correva per tre miglia su un sentiero vicino a casa sua. Una notte, vide una grande ombra davanti a s\u00e9. L'ombra si rivel\u00f2 essere un orso nero. Nick si gir\u00f2 e fece una corsa nella direzione opposta.",
                "output": [
                    {
                        "generated_text": "Completa la seguente storia: 'Ogni sera, Nick correva per tre miglia su un sentiero vicino a casa sua. Una notte, vide una grande ombra davanti a s\u00e9. L'ombra si rivel\u00f2 essere un orso nero. Nick si gir\u00f2 e fece una corsa nella direzione opposta.'\nNick era terrorizzato e corse pi\u00f9 forte che mai verso casa. Quando arriv\u00f2, si nascose in una stanza e chiam\u00f2 il servizio di emergenza. Gli operatori lo avvertirono che c'era un orso nero in libert\u00e0 nel suo quartiere e gli consigliarono di rimanere al sicuro. Nick rimase al telefono con loro per un po' di tempo, fino a quando non fu sicuro che l'orso fosse uscito dalla zona. La notte dopo, decise di correre lungo un'altra strada dove pensava non fossero presenti orsi."
                    }
                ]
            },
            {
                "input": "Katelyn stava guidando in autostrada. All'improvviso, un cervo le salt\u00f2 davanti. Sterz\u00f2 e fin\u00ec a sbattere contro un muro. Per un attimo rimase, ma poi si rese conto che il cofano era in fiamme.",
                "output": [
                    {
                        "generated_text": "Completa la seguente storia: 'Katelyn stava guidando in autostrada. All'improvviso, un cervo le salt\u00f2 davanti. Sterz\u00f2 e fin\u00ec a sbattere contro un muro. Per un attimo rimase, ma poi si rese conto che il cofano era in fiamme.'\nKatelyn rimase paralizzata, con la testa che rimbombava dal colpo. Guard\u00f2 lo specchietto retrovisore e vide il cervo morto sulla strada. La sua mente inizi\u00f2 a correre e pens\u00f2 a tutto ci\u00f2 che aveva imparato sulla gestione delle situazioni di emergenza come guidare in caso di pericolo. Il suo primo pensiero fu quello di spegnere il motore dell'auto per evitare un'esplosione. Quindi, si ricord\u00f2 che il muro era vicino a lei, il fuoco del cofano stava gi\u00e0 consumando l'intera macchina. Non riusciva a pensare ad altro che a salvarsi la vita. Allacci\u00f2 la cintura di sicurezza, apr\u00ec lo sportello, scavalc\u00f2 il sedile del passeggero, scese dall'auto e corse pi\u00f9 lontano che pot\u00e9. Si allontan\u00f2 dal muro e si sedette al centro dell'autostrada, guardando il suo veicolo che si incendiava lentamente in lontananza."
                    }
                ]
            },
            {
                "input": "Il giudice entr\u00f2 nell'aula e prese posto. Chiese alla giuria se aveva un verdetto. L'uomo che guidava la giuria tir\u00f2 fuori una busta bianca. La tensione nell'aula aument\u00f2 quando la apr\u00ec per leggerla.",
                "output": [
                    {
                        "generated_text": "Completa la seguente storia: 'Il giudice entr\u00f2 nell'aula e prese posto. Chiese alla giuria se aveva un verdetto. L'uomo che guidava la giuria tir\u00f2 fuori una busta bianca. La tensione nell'aula aument\u00f2 quando la apr\u00ec per leggerla.'\nLa giuria ha pronunciato il suo verdetto. Ora, tutti aspettavano che il giudice leggesse la sentenza."
                    }
                ]
            },
            {
                "input": "La mia ragazza aveva preparato lo stufato di pollo e broccoli per cena. \u00c8 uno dei miei piatti preferiti. Tuttavia, il pollo era risultato un po' rosa. Temevamo che fosse poco cotto.",
                "output": [
                    {
                        "generated_text": "Completa la seguente storia: 'La mia ragazza aveva preparato lo stufato di pollo e broccoli per cena. \u00c8 uno dei miei piatti preferiti. Tuttavia, il pollo era risultato un po' rosa. Temevamo che fosse poco cotto.'\nDopo aver mangiato qualche boccone dello stufato, scoprii che era delizioso, ma non potevo ignorare la preoccupazione di mia ragazza. Mi disse che pensava che il pollo fosse poco cotto. Non volendo farle preoccupare, le dissi che era perfetto e che non c'era niente di cui preoccuparsi. Dopo cena, decidemmo di cercare un termometro per alimenti per poter controllare la cottura delle nostre future preparazioni."
                    }
                ]
            },
            {
                "input": "Julia stava guardando un film sul suo tablet. Stava camminando con il tablet in casa. All'improvviso \u00e8 inciampata e ha fatto cadere il tablet. Quando l'ha raccolto, si \u00e8 resa conto che si era rotto.",
                "output": [
                    {
                        "generated_text": "Completa la seguente storia: 'Julia stava guardando un film sul suo tablet. Stava camminando con il tablet in casa. All'improvviso \u00e8 inciampata e ha fatto cadere il tablet. Quando l'ha raccolto, si \u00e8 resa conto che si era rotto.'\nJulia stava guardando un film sul suo tablet. Stava camminando con il tablet in casa. All'improvviso, inciamp\u00f2 in una pila di libri e il tablet le sfugg\u00ec dalle mani. Quando lo raccolse, si rese conto che si era rotto. Era un vecchio tablet e non valeva pi\u00f9 cos\u00ec tanto, quindi pens\u00f2 che non valeva la pena spendere i soldi per ripararlo. Quindi, si sedette e fin\u00ec il film sul cellulare."
                    }
                ]
            }
        ]
    }
]