[
    {
        "model_name": "lmsys/vicuna-33b-v1.3",
        "results": [
            {
                "input": "Jennifer aveva un esame importante il giorno dopo. Era cos\u00ec stressata che pass\u00f2 la notte in bianco. Il giorno dopo era andata in classe, stanca morta. L'insegnante le comunic\u00f2 che l'esame \u00e8 rimandato alla settimana successiva.",
                "output": [
                    {
                        "generated_text": "Completa la seguente storia: 'Jennifer aveva un esame importante il giorno dopo. Era cos\u00ec stressata che pass\u00f2 la notte in bianco. Il giorno dopo era andata in classe, stanca morta. L'insegnante le comunic\u00f2 che l'esame \u00e8 rimandato alla settimana successiva.'\n\n1. Siamo stati al mare il giorno dopo. Era molto bello e il sole splendeva nel cielo senza nuvole.\n2. Dopo aver finito il lavoro, mi sono messo a cercare il mio amico per andare al bar. Non lo trovavo ovunque. Allora mi sono deciso a andare al bar da solo.\n3. Quando eravamo al parco, ho visto una ragazza che cucinava il pranzo. \u00c8 stata una sorpresa per me. Non ero mai stato al parco prima.\n4. \u00c8 passato molto tempo dopo che mi sono innamorato di lei. Siamo diventati molto vicini e ci vediamo ogni giorne.\n5. Quando eravamo bambini, io e mio fratello ci divertivamo a giocare con i pupazzi. Eravamo cos\u00ec contenti. Ricordi belli."
                    }
                ]
            },
            {
                "input": "Morgan e la sua famiglia vivevano in Florida. Avevano sentito che stava arrivando un uragano. Decisero di evacuare a casa di un parente. Arrivarono e appresero dal telegiornale che si trattava di una terribile tempesta.",
                "output": [
                    {
                        "generated_text": "Completa la seguente storia: 'Morgan e la sua famiglia vivevano in Florida. Avevano sentito che stava arrivando un uragano. Decisero di evacuare a casa di un parente. Arrivarono e appresero dal telegiornale che si trattava di una terribile tempesta.'\n\n*Suggerimento:* La storia parla di un uragano, una tempesta molto potente e distruttiva."
                    }
                ]
            },
            {
                "input": "Tina aveva preparato gli spaghetti per il suo ragazzo. Ci era voluto molto lavoro, ma lei era molto orgogliosa. Il suo ragazzo mangi\u00f2 tutto il piatto e disse che era buono. Tina assaggi\u00f2 e si rese conto che era disgustoso.",
                "output": [
                    {
                        "generated_text": "Completa la seguente storia: 'Tina aveva preparato gli spaghetti per il suo ragazzo. Ci era voluto molto lavoro, ma lei era molto orgogliosa. Il suo ragazzo mangi\u00f2 tutto il piatto e disse che era buono. Tina assaggi\u00f2 e si rese conto che era disgustoso.'\n\nDirections: Rewite the sentence using a reflexive verb.\n\nExample: Mike cuts himself while shaving. (Mike se corta mientras se afeita.)\n\nYour turn: Rewite the sentence using a reflexive verb."
                    }
                ]
            },
            {
                "input": "Il mio professore assegn\u00f2 alla mia classe un tema. Tempo di uscire dall'aula e me ne ero gi\u00e0 dimenticata. Qualche giorno dopo, una mia compagna di classe mi scrisse per chiedermi se l'avessi fatto. Ero cos\u00ec arrabbiata con me stessa perch\u00e9 me ne ero completamente dimenticata.",
                "output": [
                    {
                        "generated_text": "Completa la seguente storia: 'Il mio professore assegn\u00f2 alla mia classe un tema. Tempo di uscire dall'aula e me ne ero gi\u00e0 dimenticata. Qualche giorno dopo, una mia compagna di classe mi scrisse per chiedermi se l'avessi fatto. Ero cos\u00ec arrabbiata con me stessa perch\u00e9 me ne ero completamente dimenticata.'\n\n1. L'insegnante assegn\u00f2 un tema alla classe di storia.\n2. Il tema riguardava l'importanza dell'acqua nella vita quotidiana.\n3. I studenti avevano una settimana per completare il lavoro.\n4. La protagonista dimentic\u00f2 completamente il tema appena usc\u00ec dall'aula.\n5. Fu sorpresa quando una compagna le scrisse per chiedere se l'avesse fatto.\n6. Sent\u00ec una grande rabbia per aver dimenticato l'incarico."
                    }
                ]
            },
            {
                "input": "Kaitlyn pensava che i jeans con i buchi fossero molto alla moda. Li indoss\u00f2 a scuola per sfoggiarli. Il preside le disse che erano contrari al codice di abbigliamento. Dovette cambiare i suoi jeans.",
                "output": [
                    {
                        "generated_text": "Completa la seguente storia: 'Kaitlyn pensava che i jeans con i buchi fossero molto alla moda. Li indoss\u00f2 a scuola per sfoggiarli. Il preside le disse che erano contrari al codice di abbigliamento. Dovette cambiare i suoi jeans.'\n\n1. Correzione: 'Kaitlyn **credeva** che i jeans con i buchi fossero molto alla moda. Indoss\u00f2 loro a scuola per sfoggiarli. Il preside le disse che erano contrari al codice di abbigliamento. Fu costretta a cambiare i suoi jeans.'\n2. Completa la seguente storia: 'Il signor Johnson aveva una collezione di vecchie monete. Era orgoglioso di esse e le mostr\u00f2 a tutti i suoi amici. Un giorno, per\u00f2, la polizia gli disse che le monete erano false e gli ord"
                    }
                ]
            },
            {
                "input": "James si svegli\u00f2 nel cuore della notte e trov\u00f2 il suo letto che tremava. Tutte le cose nella sua stanza tremavano furiosamente. Era spaventato, ma poi all'improvviso smise. Si alz\u00f2 e controll\u00f2 il telegiornale.",
                "output": [
                    {
                        "generated_text": "Completa la seguente storia: 'James si svegli\u00f2 nel cuore della notte e trov\u00f2 il suo letto che tremava. Tutte le cose nella sua stanza tremavano furiosamente. Era spaventato, ma poi all'improvviso smise. Si alz\u00f2 e controll\u00f2 il telegiornale.'\n\nA. Il telegiornale non dava notizie di un terremoto.\nB. Era una sera d'estate e una tempesta stava passando.\nC. Non c'era nessuna spiegazione per il tremito.\nD. La stanza era infestata dagli spettri."
                    }
                ]
            },
            {
                "input": "Ero cos\u00ec nervosa per il mio primo giorno di scuola. Quando arrivai alla prima lezione, tremavo. Mi sedetti accanto alla ragazza pi\u00f9 carina della classe. Parlammo tutto il tempo, durante e dopo le lezioni.",
                "output": [
                    {
                        "generated_text": "Completa la seguente storia: 'Ero cos\u00ec nervosa per il mio primo giorno di scuola. Quando arrivai alla prima lezione, tremavo. Mi sedetti accanto alla ragazza pi\u00f9 carina della classe. Parlammo tutto il tempo, durante e dopo le lezioni.'\n\nA. Mi presentai come Lily.\nB. Le chiesi del caff\u00e8.\nC. Le dissi che avevo sentito dire che era molto popolare.\nD. Le chiesi se era contenta di essere l\u00ec.\n\nRisposta: D"
                    }
                ]
            },
            {
                "input": "Uli non vedeva l'ora di giocare a basket quel pomeriggio. Entr\u00f2 in palestra e lasci\u00f2 lo zaino sulle gradinate. Dopo la partita, non aveva ritrovato il telefono nello zaino. Era rimasta triste tutta la notte e al mattino controll\u00f2 in ufficio.",
                "output": [
                    {
                        "generated_text": "Completa la seguente storia: 'Uli non vedeva l'ora di giocare a basket quel pomeriggio. Entr\u00f2 in palestra e lasci\u00f2 lo zaino sulle gradinate. Dopo la partita, non aveva ritrovato il telefono nello zaino. Era rimasta triste tutta la notte e al mattino controll\u00f2 in ufficio.'\n17. Scrivi una descrizione dettagliata di una scena notturna in una citt\u00e0.\n18. Termina la seguente storia: 'La mattina dopo, Marco e Alessandro partirono per una giornata di mountain biking. Avevano passato la notte in un bivacco e erano entusiasti all'idea di esplorare i sentieri tra i boschi. Tuttavia, quando arrivarono alla prima discesa, Marco si accorse che il freno anteriore della sua bicicletta non funzionava.'\n\nRispondi alle domande che seguono:\n\n1. Come hai organizzato il tuo spazio di scrittura?\n2. C'\u00e8 un luogo che ti ispira in particolar modo per scrivere? Dov'\u00e8 situato e perch\u00e9 ti ispira?\n3. Cosa hai imparato dal corso di scrittura creativa?\n4. Quali sono le tue principali sfide nel writing?\n5. Quali strumenti o risorse hai utilizzati per migliorare le tue competenze in scrittura?"
                    }
                ]
            },
            {
                "input": "Anna era una trombettista professionista. Aveva preso un nuovo appartamento in citt\u00e0. Sfortunatamente, le pareti erano molto pi\u00f9 sottili di quelle del vecchio appartamento. Ben presto i vicini si lamentarono del suo incessante esercizio.",
                "output": [
                    {
                        "generated_text": "Completa la seguente storia: 'Anna era una trombettista professionista. Aveva preso un nuovo appartamento in citt\u00e0. Sfortunatamente, le pareti erano molto pi\u00f9 sottili di quelle del vecchio appartamento. Ben presto i vicini si lamentarono del suo incessante esercizio.'\n\nb) Inserisci una frase riguardante un'azione che Anna fa per risolvere il problema.\n\nc) Completa la seguente storia: 'Anna era una trombettista professionista. Aveva preso un nuovo appartamento in citt\u00e0. Sfortunatamente, le pareti erano molto pi\u00f9 sottili di quelle del vecchio appartamento. Ben presto i vicini si lamentarono del suo incessante esercizio. Per risolvere il problema, Anna decise di...'\n\nd) Inserisci una frase riguardante l'opinione dei vicini sulla soluzione.\n\ne) Completa la seguente storia: 'Anna era una trombettista professionista. Aveva preso un nuovo appartamento in citt\u00e0. Sfortunatamente, le pareti erano molto pi\u00f9 sottili di quelle del vecchio appartamento. Ben presto i vicini si lamentarono del suo incessante esercizio. Per risolvere il problema, Anna decise di... (inserisci la frase riguardante l'azione che Anna fa). I vicini...'"
                    }
                ]
            },
            {
                "input": "Bill decise di andare a scuola in bicicletta. Durante il tragitto buc\u00f2 una gomma. Un uomo vide la gomma a terra di Bill e ferm\u00f2 la sua auto. L'autista si offr\u00ec di accompagnare Bill a scuola.",
                "output": [
                    {
                        "generated_text": "Completa la seguente storia: 'Bill decise di andare a scuola in bicicletta. Durante il tragitto buc\u00f2 una gomma. Un uomo vide la gomma a terra di Bill e ferm\u00f2 la sua auto. L'autista si offr\u00ec di accompagnare Bill a scuola.'"
                    }
                ]
            },
            {
                "input": "Mentre era a casa, Robert sent\u00ec un odore terribile. And\u00f2 in cucina per indagare. La fonte dell'odore sembrava provenire dal frigorifero. Lo apr\u00ec e vide che c'era della carne avariata che aveva dimenticato.",
                "output": [
                    {
                        "generated_text": "Completa la seguente storia: 'Mentre era a casa, Robert sent\u00ec un odore terribile. And\u00f2 in cucina per indagare. La fonte dell'odore sembrava provenire dal frigorifero. Lo apr\u00ec e vide che c'era della carne avariata che aveva dimenticato.'\n\na) Non era la sua carne, era quella del suo cane.\nb) La porta del frigorifero era bloccata e non poteva aprirla.\nc) La fonte dell'odore era un pugno di basilico marcio.\nd) Era la prima volta che Robert notava un odore cos\u00ec sgradevole.\n\n2. Inserisci la corretta forma verbale nel following frase: 'Robert \\_\\_\\_\\_\\_\\_\\_\\_\\_ (to open) il frigorifero.'\n\na) opened\nb) is opening\nc) will open\nd) opened\n\n3. Raffina la seguente affermazione: 'Robert trov\u00f2 la carne avariata nel frigorifero.'\n\na) Discovered\nb) Noticed\nc) Realized\nd) Observed"
                    }
                ]
            },
            {
                "input": "Joe si ferm\u00f2 a un semaforo. Il semaforo era verde, ma lui non part\u00ec. Le persone dietro di lui suonarono il clacson. Si sentirono frustrati, ma Joe non si mosse.",
                "output": [
                    {
                        "generated_text": "Completa la seguente storia: 'Joe si ferm\u00f2 a un semaforo. Il semaforo era verde, ma lui non part\u00ec. Le persone dietro di lui suonarono il clacson. Si sentirono frustrati, ma Joe non si mosse.'\n\n1. Il semaforo era rosso.\n2. Joe aveva finito di guidare e decise di fare una pausa.\n3. Joe stava aspettando un amico.\n4. Il motore della macchina di Joe si era fermato.\n5. Joe non sapeva se era il momento di partire."
                    }
                ]
            },
            {
                "input": "Un uomo trov\u00f2 una perla in un'ostrica. Purtroppo, proprio in quel momento stava mangiando l'ostrica. Con la perla si scheggi\u00f2 un dente. Fortunatamente, la perla copr\u00ec il costo dell'intervento dentistico.",
                "output": [
                    {
                        "generated_text": "Completa la seguente storia: 'Un uomo trov\u00f2 una perla in un'ostrica. Purtroppo, proprio in quel momento stava mangiando l'ostrica. Con la perla si scheggi\u00f2 un dente. Fortunatamente, la perla copr\u00ec il costo dell'intervento dentistico.'\n\nA. L'uomo era avido, cos\u00ec decise di continuare a cercare altre perle nascoste nelle ostriche.\nB. L'uomo era grasso e continu\u00f2 a mangiare ostrache, sperando di trovare un'altra perla.\nC. L'uomo si affrett\u00f2 a chiamare il dentista e fece l'intervento.\nD. L'uomo decise di vendere l'ostrica e il dente per ricavare soldi.\n\nRisposta: C"
                    }
                ]
            },
            {
                "input": "Un silo di missili nucleari ricevette un ordine di lancio. L'ufficiale responsabile apr\u00ec la cassaforte per verificarne il codice. Apr\u00ec la busta contenente il codice di quel giorno. All'interno c'era un buono sconto per un panino.",
                "output": [
                    {
                        "generated_text": "Completa la seguente storia: 'Un silo di missili nucleari ricevette un ordine di lancio. L'ufficiale responsabile apr\u00ec la cassaforte per verificarne il codice. Apr\u00ec la busta contenente il codice di quel giorno. All'interno c'era un buono sconto per un panino.'\n\n1. Insieme a un partner, discuta di un problema che la vostra famiglia o comunit\u00e0 sta affrontando e presentate tre opzioni per risolverlo, includendo l'opzione che vi pare pi\u00f9 efficace e la sua giustificazione.\n2. Parlando a una riunione di amministratori di un parco naturale, espone la vostra visione per una politica di accesso al parco. Utilizza il modello di struttura 'claim-evidence-warrant', utilizzando almeno due argomenti a supporto della vostra visione.\n3. Nella vostra comunit\u00e0 locale, un'improvvisa escursione del fiume ha causato allagamenti e danni significativi. State organizzando una riunione per discutere di possibili soluzioni per prevenire futuri allagamenti. Utilizzando la struttura 'claim-evidence-warrant', presentate una proposta per la migliore soluzione e fornisci due o pi\u00f9 argomenti a supporto della vostra proposta.\n\nSet 2 (Svizzera):\n\n1. Parlando a un gruppo di investitori durante una presentazione, spiegate un problema che la vostra azienda sta affrontando e propone un'innovativa soluzione. Utilizza la struttura 'claim-evidence-warrant' e supporta la vostra proposta con almeno due argomenti.\n2. Un'organizzazione non profit sta cercando una nuova strategia per attrarre donatori e aumentare le donazioni. Parlando con il consiglio direttivo, presentate una proposta per una nuova strategia di fundraising e utilizza il modello 'claim-evidence-warrant' per sostenere la vostra proposta con almeno due argomenti.\n3"
                    }
                ]
            },
            {
                "input": "Una famiglia decise di costruire una nuova fossa per il barbecue nel proprio giardino. Piuttosto che pagare per un escavatore, decisero di scavare da soli. A pochi metri di profondit\u00e0, uno di loro colp\u00ec quella che pensava fosse una piccola radice. Si rivel\u00f2 essere un cavo in fibra ottica che forniva Internet e la TV.",
                "output": [
                    {
                        "generated_text": "Completa la seguente storia: 'Una famiglia decise di costruire una nuova fossa per il barbecue nel proprio giardino. Piuttosto che pagare per un escavatore, decisero di scavare da soli. A pochi metri di profondit\u00e0, uno di loro colp\u00ec quella che pensava fosse una piccola radice. Si rivel\u00f2 essere un cavo in fibra ottica che forniva Internet e la TV.'\n\nSuggerimento: Il titolo di questa voce dovrebbe essere \"Risorse in eccesso e scarsezze nelle Smart City: un equilibrio da raggiungere\"."
                    }
                ]
            },
            {
                "input": "Briana stava guidando un fuoristrada con suo fratello. Stavano andando veloci su una strada sterrata. All'improvviso, colpirono una roccia. La macchina si ribalt\u00f2.",
                "output": [
                    {
                        "generated_text": "Completa la seguente storia: 'Briana stava guidando un fuoristrada con suo fratello. Stavano andando veloci su una strada sterrata. All'improvviso, colpirono una roccia. La macchina si ribalt\u00f2.'\n\nSuggerimento: Assicurati di completare la storia con un evento che coinvolga Briana, come il suo ruolo nel salvataggio, la sua reazione emotiva o una decisione che prende a seguito dell'incidente."
                    }
                ]
            },
            {
                "input": "Un giorno di sole Jeff stava giocando all'aperto. Sent\u00ec un ronzio provenire dalle siepi. Quando si avvicin\u00f2 alla siepe, usc\u00ec uno sciame di api. Le api lo inseguirono fino in casa.",
                "output": [
                    {
                        "generated_text": "Completa la seguente storia: 'Un giorno di sole Jeff stava giocando all'aperto. Sent\u00ec un ronzio provenire dalle siepi. Quando si avvicin\u00f2 alla siepe, usc\u00ec uno sciame di api. Le api lo inseguirono fino in casa.' Come hai risposto alla domande precedenti, usare frasi brevi e semplici per rispondere a questa domanda."
                    }
                ]
            },
            {
                "input": "Chelsea si era fatta male alle dita giocando a basket. Aveva molta paura di andare dal medico. Il padre di Chelsea la convinse ad andare a farsi controllare. Si scopr\u00ec che le ossa delle dita erano fratturate.",
                "output": [
                    {
                        "generated_text": "Completa la seguente storia: 'Chelsea si era fatta male alle dita giocando a basket. Aveva molta paura di andare dal medico. Il padre di Chelsea la convinse ad andare a farsi controllare. Si scopr\u00ec che le ossa delle dita erano fratturate.'\n\n1. Scrivi una frase utilizzando la parola 'frattura' nel senso di 'rotura' o 'guasto'."
                    }
                ]
            },
            {
                "input": "Beth, un'amica di Amy, era incinta di un bambino. Amy chiam\u00f2 le sue amiche a partecipare a una festa a sorpresa per il bambino. Tutti aspettarono in silenzio che Beth entrasse. Quando vide tutti, rimase scioccata.",
                "output": [
                    {
                        "generated_text": "Completa la seguente storia: 'Beth, un'amica di Amy, era incinta di un bambino. Amy chiam\u00f2 le sue amiche a partecipare a una festa a sorpresa per il bambino. Tutti aspettarono in silenzio che Beth entrasse. Quando vide tutti, rimase scioccata.'\"\n\nLa risposta pu\u00f2 essere: \"La storia completa \u00e8: 'Beth, un'amica di Amy, era incinta di un bambino. Amy chiam\u00f2 le sue amiche a partecipare a una festa a sorpresa per il bambino. Tutti aspettarono in silenzio che Beth entrasse. Quando vide tutti, rimase scioccata e pens\u00f2: \"Quanto amano i miei amici e famiglia il mio bambino? Devo ammirare queste persone che mi danno tanto amore e sostegno\".' La risposta \u00e8 stata scritta in 80 parole, come richiesto.\""
                    }
                ]
            },
            {
                "input": "Tyler era entusiasta di acquistare il nuovo telefono cellulare. Quando arriv\u00f2 al negozio fu sorpreso di vedere una lunga fila. Aspett\u00f2 in fila per un'ora per acquistare il telefono. Quando arriv\u00f2 alla cassa, la cassiera lo inform\u00f2 che era tutto esaurito.",
                "output": [
                    {
                        "generated_text": "Completa la seguente storia: 'Tyler era entusiasta di acquistare il nuovo telefono cellulare. Quando arriv\u00f2 al negozio fu sorpreso di vedere una lunga fila. Aspett\u00f2 in fila per un'ora per acquistare il telefono. Quando arriv\u00f2 alla cassa, la cassiera lo inform\u00f2 che era tutto esaurito.'\n\nLa frase mancante \u00e8: \"Tyler era dispiaciuto, ma decise di attendere ancora una settimana per see se avrebbero avuto nuovi telefoni in arrivo\".\n\nQuesta frase mancante \u00e8 importante per completare la storia e per comprendere le emozioni e le azioni di"
                    }
                ]
            },
            {
                "input": "Andrew pensava di essere un buon giocatore di golf. Sfid\u00f2 il suo amico Dylan per vedere chi fosse pi\u00f9 bravo. Dylan accett\u00f2 la sfida e lavor\u00f2 duramente per prepararsi. All'inizio Andrew stava vincendo, ma le cose sarebbero presto cambiate.",
                "output": [
                    {
                        "generated_text": "Completa la seguente storia: 'Andrew pensava di essere un buon giocatore di golf. Sfid\u00f2 il suo amico Dylan per vedere chi fosse pi\u00f9 bravo. Dylan accett\u00f2 la sfida e lavor\u00f2 duramente per prepararsi. All'inizio Andrew stava vincendo, ma le cose sarebbero presto cambiate.'\n\na. Dylan cominci\u00f2 a prendere confidenza con il campo e riusc\u00ec a segnare un birdie.\nb. Andrew commise un errore fatale e rovin\u00f2 il suo round.\nc. Dylan vinse la sfida e dimostr\u00f2 di essere il giocatore migliore.\nd. Andrew si infortun\u00f2 durante la sfida e non pot\u00e9 completare la partita."
                    }
                ]
            },
            {
                "input": "Mi ero preparata un panino al tonno per pranzo. Mentre ero seduta a mangiare, mi \u00e8 squillato il telefono. Mi sono alzata per rispondere e ho avuto una breve conversazione. Quando sono tornata, il mio panino era sparito e il mio cane sembrava felice.",
                "output": [
                    {
                        "generated_text": "Completa la seguente storia: 'Mi ero preparata un panino al tonno per pranzo. Mentre ero seduta a mangiare, mi \u00e8 squillato il telefono. Mi sono alzata per rispondere e ho avuto una breve conversazione. Quando sono tornata, il mio panino era sparito e il mio cane sembrava felice.'\n\n1. La parola'mangiare' \u00e8 una forma di ______.\na. un nome proprio\nb. un verbo\nc. un aggettivo\nd. un avverbio\n2. La parola 'rispondere' \u00e8 una forma di ______.\na. un nome proprio\nb. un verbo\nc. un aggettivo\nd. un avverbio\n3. La parola 'felice' \u00e8 una forma di ______.\na. un nome proprio\nb. un verbo\nc. un aggettivo\nd. un avverbio\n4. Riformula la frase: 'Quando sono tornata, il mio panino era sparito e il mio cane sembrava felice.' utilizzando una forma diversa di un aggettivo per descrivere l'umore del cane.\n'Quando sono tornata, il mio panino era sparito e il mio cane sembrava contento.'"
                    }
                ]
            },
            {
                "input": "Beth stava uscendo dal lavoro marted\u00ec. Si era accorta che ad un uomo era caduto il portafoglio nel parcheggio. Ha attraversato di corsa il parcheggio per restituirglielo. L'uomo era cos\u00ec felice che gli fosse stato restituito il portafoglio.",
                "output": [
                    {
                        "generated_text": "Completa la seguente storia: 'Beth stava uscendo dal lavoro marted\u00ec. Si era accorta che ad un uomo era caduto il portafoglio nel parcheggio. Ha attraversato di corsa il parcheggio per restituirglielo. L'uomo era cos\u00ec felice che gli fosse stato restituito il portafoglio.'\n\nBeth was leaving work on Tuesday when she noticed that a man had dropped his wallet in the parking lot. She crossed the parking lot on her way home to return it to him. The man was so grateful that she had returned his wallet."
                    }
                ]
            },
            {
                "input": "Un amico di Dan lo introdusse al poker. Dan si rese conto di essere molto bravo a giocare a poker. Dan decise di andare a Las Vegas per mettere alla prova la sua abilit\u00e0. Dan vinse milioni di dollari a Las Vegas.",
                "output": [
                    {
                        "generated_text": "Completa la seguente storia: 'Un amico di Dan lo introdusse al poker. Dan si rese conto di essere molto bravo a giocare a poker. Dan decise di andare a Las Vegas per mettere alla prova la sua abilit\u00e0. Dan vinse milioni di dollari a Las Vegas.'"
                    }
                ]
            },
            {
                "input": "Lo swing di Harry era terribile. Un giorno Harry decide di cercare aiuto per migliorare il suo swing. Assunse un allenatore privato. L'allenatore privato riusc\u00ec a migliorare lo swing di Harry.",
                "output": [
                    {
                        "generated_text": "Completa la seguente storia: 'Lo swing di Harry era terribile. Un giorno Harry decide di cercare aiuto per migliorare il suo swing. Assunse un allenatore privato. L'allenatore privato riusc\u00ec a migliorare lo swing di Harry.'\n\n1. Reword the following sentence: 'Harry was known for his terrible swing, but he decided to improve it.'\n2. Rewrite the following sentence: 'Harry's friends were amazed when he showed up at the golf course with a new golf bag.'\n3. Rewrite the following sentence: 'After weeks of practice, Harry's swing improved significantly.'\n4. Rewrite the following sentence: 'Harry finally got the hang of it and his scores started to drop.'\n5. Rewrite the following sentence: 'Harry's golf game went from bad to worse until he sought help from a private coach.'"
                    }
                ]
            },
            {
                "input": "Sam aveva appuntamento con suo padre per pranzo in un ristorante italiano. Arriv\u00f2 in anticipo e aspett\u00f2 suo padre. Cominci\u00f2 a preoccuparsi quando suo padre non si present\u00f2 e non rispose al cellulare. Chiam\u00f2 sua madre per sapere cosa stesse succedendo.",
                "output": [
                    {
                        "generated_text": "Completa la seguente storia: 'Sam aveva appuntamento con suo padre per pranzo in un ristorante italiano. Arriv\u00f2 in anticipo e aspett\u00f2 suo padre. Cominci\u00f2 a preoccuparsi quando suo padre non si present\u00f2 e non rispose al cellulare. Chiam\u00f2 sua madre per sapere cosa stesse succedendo.'\n\nSuggerimento: Questa domanda mira a valutare la tua capacit\u00e0 di comprendere il significato delle parole e di integrare le informazioni fornite."
                    }
                ]
            },
            {
                "input": "Randy possiede la stessa chitarra da dieci anni. Purtroppo, due giorni fa l'aveva persa. Aveva chiamato tutti quelli che ricordava di aver visitato negli ultimi giorni. Fortunatamente, l'aveva appena lasciata a casa di un amico.",
                "output": [
                    {
                        "generated_text": "Completa la seguente storia: 'Randy possiede la stessa chitarra da dieci anni. Purtroppo, due giorni fa l'aveva persa. Aveva chiamato tutti quelli che ricordava di aver visitato negli ultimi giorni. Fortunatamente, l'aveva appena lasciata a casa di un amico.'\n\n1. L'inizio della storia descrive Randy che si prepara per suonare al matrimonio. Egli si rende conto che non pu\u00f2 suonare senza la sua chitarra.\n2. Randy ricorda di aver fatto due visitazioni il giorno precedente. Decide di telefonare alla famiglia per chiedere se hanno trovato la chitarra.\n3. Randy telefona alla famiglia del defunto e chiede se hanno visto la sua chitarra. Il figlio della famiglia gli dice che l'hanno appena trovata nel cappotto di suo padre.\n4. Il figlio spiega che suo padre aveva messo la chitarra nel suo cappotto per proteggerla dalla pioggia prima di andare a casa di Randy.\n5. Randy esprime la sua gratitudine e si rende conto che la chitarra era stata con lui per dieci anni.\n6. Lui e la chitarra erano stretti come il corpo e lo spirito, e non poteva fare a meno di una delle due.\n7. Randy raccoglie la chitarra e suona \"Amazing Grace\" con la sua bellissima voce, mentre il pubblico si rende conto che la chitarra era stata trovata e si unisce a lui nel canto.\n8. La storia si conclude con Randy che suona e pensa che Dio \u00e8 grande e onorevole."
                    }
                ]
            },
            {
                "input": "Maria voleva stupire tutti al ballo della scuola. Invece di comprare un vestito, decise di farne uno nuovo. Scelse un tessuto morbido e viola da utilizzare. Cuc\u00ec giorno e notte finch\u00e9 non ebbe finito.",
                "output": [
                    {
                        "generated_text": "Completa la seguente storia: 'Maria voleva stupire tutti al ballo della scuola. Invece di comprare un vestito, decise di farne uno nuovo. Scelse un tessuto morbido e viola da utilizzare. Cuc\u00ec giorno e notte finch\u00e9 non ebbe finito.'\n\nb. Siamo in un reality show e dobbiamo preparare un piatto in 15 minuti utilizzando solo i ingredienti che troveremo in un frigo. Desideri partecipare?\n\nc. Vuoi andare a vivere in un'altra citt\u00e0 per inseguire i tuoi sogni? Spiegami perch\u00e9 o perch\u00e8 no.\n\nd. Ho bisogno del tuo aiuto per trasportare un armadio pesante al piano di sopra. Sei disposto a collaborare?\n\ne. Non mi piacciono i bambini e non ho intenzione di averne. \u00c8 una scelta personale.\n\nf. Ti piacerebbe vincere un viaggio a Copenaghen? Se si, perch\u00e9?"
                    }
                ]
            },
            {
                "input": "La madre di Carson gli prepar\u00f2 una cioccolata calda come regalo. Lo avvert\u00ec di aspettare cinque minuti perch\u00e9 si raffreddasse. Carson riusc\u00ec ad aspettare a malapena un minuto. Bevve la cioccolata molto calda.",
                "output": [
                    {
                        "generated_text": "Completa la seguente storia: 'La madre di Carson gli prepar\u00f2 una cioccolata calda come regalo. Lo avvert\u00ec di aspettare cinque minuti perch\u00e9 si raffreddasse. Carson riusc\u00ec ad aspettare a malapena un minuto. Bevve la cioccolata molto calda.'\n\n1. Carson non riusc\u00ec a seguire le istruzioni e bevve la cioccolata molto calda, rimanendo deluso per non aver potuto godersi il regalo della madre come previsto.\n2. Carson non riusc\u00ec a seguire le istruzioni e bevve la cioccolata molto calda, ma cap\u00ec la lezione e promise di essere pi\u00f9 paziente in futuro.\n3. Carson riusc\u00ec a contare fino a cinque, ma perse la pazienza e bevve la cioccolata molto calda.\n4. Carson riusc\u00ec a contare fino a cinque e riusc\u00ec a tenere sotto controllo la sua impazienza, godendo cos\u00ec della cioccolata calda come sua madre gli aveva chiesto."
                    }
                ]
            },
            {
                "input": "Di recente ho comprato un nuovo colore di smalto. Mi stavo dipingendo le unghie quando il gatto ha saltato e l'ha fatto cadere. Lo smalto era finito su tutto il pavimento. Ho provato a pulirlo, ma non ha funzionato.",
                "output": [
                    {
                        "generated_text": "Completa la seguente storia: 'Di recente ho comprato un nuovo colore di smalto. Mi stavo dipingendo le unghie quando il gatto ha saltato e l'ha fatto cadere. Lo smalto era finito su tutto il pavimento. Ho provato a pulirlo, ma non ha funzionato.'\n\nSpero che tu possa venire a trovarmi presto. Abbiamo tanto da chiedere e da dire l'uno all'altra. Ti amo,\n\nTua mamma"
                    }
                ]
            },
            {
                "input": "Un uomo pens\u00f2 di provare a coltivare i pomodori nel suo giardino. Cos\u00ec compr\u00f2 semi e attrezzature. Piant\u00f2 i semi e aspett\u00f2. Qualche mese dopo, si ritrov\u00f2 proprietario di un piccolo campo di grano.",
                "output": [
                    {
                        "generated_text": "Completa la seguente storia: 'Un uomo pens\u00f2 di provare a coltivare i pomodori nel suo giardino. Cos\u00ec compr\u00f2 semi e attrezzature. Piant\u00f2 i semi e aspett\u00f2. Qualche mese dopo, si ritrov\u00f2 proprietario di un piccolo campo di grano.'\n\n(a) Il contadino si sforz\u00f2 di coltivare i pomod"
                    }
                ]
            },
            {
                "input": "Cathy lavora in uno Starbucks. La settimana scorsa ha avuto una cliente indisciplinata. La cliente continuava a chiedere una bevanda non esistente. Alla fine, Cathy le aveva dato un latte macchiato.",
                "output": [
                    {
                        "generated_text": "Completa la seguente storia: 'Cathy lavora in uno Starbucks. La settimana scorsa ha avuto una cliente indisciplinata. La cliente continuava a chiedere una bevanda non esistente. Alla fine, Cathy le aveva dato un latte macchiato.'\n\n1. Cathy lavora in uno Starbucks. La settimana scorsa ha avuto una cliente indisciplinata. La cliente continuava a chiedere una bevanda non esistente. Alla fine, Cathy le aveva dato un latte macchiato freddo.\n2. Cathy lavora in uno Starbucks. La settimana scorsa ha avuto una cliente indisciplinata. La cliente continuava a chiedere una bevanda non esistente. Alla fine, Cathy le aveva dato un latte macchiato caldo.\n3. Cathy lavora in uno Starbucks. La settimana scorsa ha avuto una cliente indisciplinata. La cliente continuava a chiedere una bevanda non esistente. Alla fine, Cathy le aveva dato un caff\u00e8 macchiato.\n4. Cathy lavora in uno Starbucks. La settimana scorsa ha avuto una cliente indisciplinata. La cliente continuava a chiedere una bevanda non esistente. Alla fine, Cathy le aveva dato un hot chocolate.\n5. Cathy lavora in uno Starbucks. La settimana scorsa ha avuto una cliente indisciplinata. La cliente continuava a chiedere una bevanda non esistente. Alla fine, Cathy le aveva dato un latte con zucchero.\n\nSe non si trova alcuna tra le opzioni fornite che si adatti alla storia, si prega di scrivere la corretta frase nella casella di testo sotto."
                    }
                ]
            },
            {
                "input": "Oliver era entusiasta per suoi regali di compleanno. Doveva aspettare, ma era impaziente. Si intrufol\u00f2 nell'armadio dei genitori. L\u00ec trov\u00f2 i suoi regali e li controll\u00f2 tutti.",
                "output": [
                    {
                        "generated_text": "Completa la seguente storia: 'Oliver era entusiasta per suoi regali di compleanno. Doveva aspettare, ma era impaziente. Si intrufol\u00f2 nell'armadio dei genitori. L\u00ec trov\u00f2 i suoi regali e li controll\u00f2 tutti.'\n\nIl protagonista di questa storia \u00e8 un bambino di nome Oliver che riceve i suoi regali di compleanno. \u00c8 entusiasta e vorrebbe aprire i suoi regali, ma deve attendere. Tuttavia, non \u00e8 in grado di controllarsi e si intrufola nell'armadio dei genitori per vedere i regali.\nIl tema della curiosit\u00e0 \u00e8 evidente in questa storia, poich\u00e9 Oliver non \u00e8 in grado di resistere al desiderio di vedere i suoi regali. Questo tema pu\u00f2 essere utilizzato per discutere con gli studenti sulla controllabilit\u00e0 dei desideri e sulle conseguenze delle azioni impulsive.\n\nLe domande che si possono fare agli studenti riguardo a questa storia sono:\n\n1. Come si chiama il protagonista della storia?\n2. Che tipo di regalo desiderava Oliver?\n3. Perch\u00e9 non poteva aprire i suoi regali?\n4. Come Oliver scopr\u00ec i suoi regali?\n5. Ci sono stati risultati positivi o negativi per il comportamento di Oliver?\n\nQueste domande aiutano gli studenti a comprendere la storia e a discutere del tema della curiosit\u00e0 e delle sue conseguenze."
                    }
                ]
            },
            {
                "input": "Tina aveva in programma una gita con gli amici, cos\u00ec controll\u00f2 le previsioni meteo. Le previsioni del tempo dicevano che ci sarebbe stato il sole per tutto il giorno. Tina si era fidata delle previsioni e si era vestita di conseguenza. Tuttavia, le previsioni erano sbagliate e ci fu stato un enorme acquazzone.",
                "output": [
                    {
                        "generated_text": "Completa la seguente storia: 'Tina aveva in programma una gita con gli amici, cos\u00ec controll\u00f2 le previsioni meteo. Le previsioni del tempo dicevano che ci sarebbe stato il sole per tutto il giorno. Tina si era fidata delle previsioni e si era vestita di conseguenza. Tuttavia, le previsioni erano sbagliate e ci fu stato un enorme acquazzone.'\n\n* Titolo: Un'amara delusione\n* Desiderata: Desidero che il narratore mi spieghi cos'\u00e8 successo nel racconto e come mi sento.\n* Elenca:\n\t1. Titolo: Previsioni del tempo inaffidabili\n\t2. Titolo: Una gita rovinata dalle previsioni errate\n\t3. Titolo: Un'amara delusione a causa delle previsioni inesatte.\n\t4. Titolo: Incertezze nella selezione dell'abbigliamento\n\t5. Titolo: Le previsioni meteo falliscono\n\nRispondi all'esercizio fornendo il titolo pi\u00f9 appropriato o completando la frase in diversi modi, in base alla tua interpretazione del desiderato."
                    }
                ]
            },
            {
                "input": "Kayla stava cercando di trovare dei nomi per il suo bambino. Suo marito non era d'accordo con tutti i nomi che gli venivano proposti. Kayla gli chiese un elenco di nomi accettabili. Insieme raggiunsero un compromesso.",
                "output": [
                    {
                        "generated_text": "Completa la seguente storia: 'Kayla stava cercando di trovare dei nomi per il suo bambino. Suo marito non era d'accordo con tutti i nomi che gli venivano proposti. Kayla gli chiese un elenco di nomi accettabili. Insieme raggiunsero un compromesso.'\n\nNella storia, 'Kayla' \u00e8 l'oggetto diretto. Il verbo 'Cercare' \u00e8 l'azione compiuta dall'oggetto diretto. 'Marito' \u00e8 il soggetto, mentre'suo' funge da determinante. 'Bambino' \u00e8 il modificatore del nome, mentre 'trovare' \u00e8 il verbo principale. 'Non era d'accordo' \u00e8 una proposizione subordinata alla forma interrogativa. 'Venivano proposti' \u00e8 il verbo principale della frase, mentre 'gli venivano proposti' \u00e8 la forma passiva. 'Egli' \u00e8 il soggetto, 'chiese' \u00e8 il verbo principale e 'un elenco' \u00e8 il modificatore del nome. 'Accettabili' \u00e8 l'aggettivo che specifica il tipo di nomi. 'Insieme' \u00e8 il modificatore del nome, mentre'reaches a compromise' \u00e8 il verbo principale.\n\nEcco la grammatica della frase:\n\n1. Oggetto Indiretto: marito\n2. Oggetto Diretto: nomi\n3. Soggetto: Kayla\n4. Verbo Principale: raggiunse\n5. Aggiunta al Verbo: Compromesso\n6. Preposizione: con\n\nQuindi, la frase sar\u00e0: 'Kayla raggiunge un compromesso con suo marito per i nomi dei bambini.'"
                    }
                ]
            },
            {
                "input": "Molly si stava preparando per il suo matrimonio. Aveva appena indossato il suo abito bianco. All'improvviso, una bevanda si rovesci\u00f2 e macchi\u00f2 il vestito di rosa. Per fortuna arriv\u00f2 sua madre.",
                "output": [
                    {
                        "generated_text": "Completa la seguente storia: 'Molly si stava preparando per il suo matrimonio. Aveva appena indossato il suo abito bianco. All'improvviso, una bevanda si rovesci\u00f2 e macchi\u00f2 il vestito di rosa. Per fortuna arriv\u00f2 sua madre.' (hint: frase di 10-15 parole)"
                    }
                ]
            },
            {
                "input": "Ross si iscrisse a una gara di 6 miglia a due mesi di distanza. Tuttavia, Ross aveva corso ogni volta solo per circa 3 miglia. Si rese conto che doveva impegnarsi ed allenarsi. Dedic\u00f2 pi\u00f9 tempo all'allenamento e aument\u00f2 lentamente la distanza di corsa.",
                "output": [
                    {
                        "generated_text": "Completa la seguente storia: 'Ross si iscrisse a una gara di 6 miglia a due mesi di distanza. Tuttavia, Ross aveva corso ogni volta solo per circa 3 miglia. Si rese conto che doveva impegnarsi ed allenarsi. Dedic\u00f2 pi\u00f9 tempo all'allenamento e aument\u00f2 lentamente la distanza di corsa.'\n\nLa risposta corretta \u00e8: \"Ross inizi\u00f2 a dedicare pi\u00f9 tempo all'allenamento, aumentando lentamente la distanza delle sue corse.\""
                    }
                ]
            },
            {
                "input": "Jane era fuori per una passeggiata. Sent\u00ec un rombo tra le nuvole e inizi\u00f2 a piovere. Cerc\u00f2 di affrettarsi e di correre per il resto della strada. Era troppo tardi e quando arriv\u00f2 a casa era gi\u00e0 fradicia.",
                "output": [
                    {
                        "generated_text": "Completa la seguente storia: 'Jane era fuori per una passeggiata. Sent\u00ec un rombo tra le nuvole e inizi\u00f2 a piovere. Cerc\u00f2 di affrettarsi e di correre per il resto della strada. Era troppo tardi e quando arriv\u00f2 a casa era gi\u00e0 fradicia.'\n\n* \n  * La storia parla di:\na) Un temporale inaspettato\nb) Una passeggiata domenicale\nc) Un incidente stradale\nd) Una partita di tennis\n\n* \n  * La storia \u00e8 ambientata:\na) In un villaggio rurale\nb) In una citt\u00e0 piccola\nc) In un grande centro urbano\nd) In un paesaggio montuoso\n\n* \n  * La storia si conclude con:\na) Un'improvvisa tempesta\nb) Uno svolazzamento delle tende\nc) Un bagliore di lampada\nd) Un mattone che cade\n\n* \n  * L'atmosfera della storia \u00e8:\na) Solenne\nb) Inquietante\nc) Comica\nd) Tragica\n\n* \n  * L'umorismo nel racconto deriva principalmente da:\na) La descrizione di un personaggio strano\nb) Le situazioni imbarazzanti in cui ci troviamo i personaggi\nc) Un dialogo ironico tra i personaggi\nd) L'uso di paradossi e contraddizioni\n\nSe desidera ottenere i risultati dell'analisi, invi me gli esercizi completati."
                    }
                ]
            },
            {
                "input": "Sam and\u00f2 alla tavola calda e ordin\u00f2 la colazione e un caff\u00e8 decaffeinato. La cameriera aveva una aria colpevole mentre gli versava il caff\u00e8. Sam sorseggi\u00f2 il caff\u00e8 e cap\u00ec che gli aveva dato un caff\u00e8 normale. La sgrid\u00f2 quando torn\u00f2 con il cibo.",
                "output": [
                    {
                        "generated_text": "Completa la seguente storia: 'Sam and\u00f2 alla tavola calda e ordin\u00f2 la colazione e un caff\u00e8 decaffeinato. La cameriera aveva una aria colpevole mentre gli versava il caff\u00e8. Sam sorseggi\u00f2 il caff\u00e8 e cap\u00ec che gli aveva dato un caff\u00e8 normale. La sgrid\u00f2 quando torn\u00f2 con il cibo.'\n\nSuggerimenti:\n\n* Include frasi con la forma 'do' o 'does' nel passato prossimo.\n* Utilizza un verbo di movimento con 'went' o 'went' come radice.\n* Usa 'ordered' per indicare l'azione di ordinare.\n* Include parole che descrivano l'atmosfera o l'ambiente, come 'college' o 'air', e parole che descrivono il cibo o il caff\u00e8.\n* Utilizza 'had', 'was' o 'were' per la forma passiva."
                    }
                ]
            },
            {
                "input": "Tom e Sheryl stavano assieme da due anni. Un giorno andarono insieme ad un luna park. Lui le vinse diversi orsetti di peluche e le compr\u00f2 degli dolci. Quando arrivarono alla ruota panoramica, lui si \u00e8 inginocchi\u00f2.",
                "output": [
                    {
                        "generated_text": "Completa la seguente storia: 'Tom e Sheryl stavano assieme da due anni. Un giorno andarono insieme ad un luna park. Lui le vinse diversi orsetti di peluche e le compr\u00f2 degli dolci. Quando arrivarono alla ruota panoramica, lui si \u00e8 inginocchi\u00f2.'\n\n1. Tom si inginocchi\u00f2 per baciarla.\nTom si inginocchi\u00f2 per chiedere scusa.\nTom si inginocchi\u00f2 per darle l'anello.\nTom si inginocchi\u00f2 per metterle la medaglia al collo.\n\nScegli l'opzione che completa la seguente storia: 'Tom e Sheryl stavano assieme da due anni. Un giorno andarono insieme ad un luna park. Lui le vinse diversi orsetti di peluche e le compr\u00f2 degli dolci. Quando arrivarono alla ruota panoramica, lui si \u00e8 inginocchiato.'\n\n1. Tom si inginocchi\u00f2 per baciarla.\nTom si inginocchi\u00f2 per chiedere scusa.\nTom si inginocchi\u00f2 per darle l'anello.\nTom si inginocchi\u00f2 per metterle la medaglia"
                    }
                ]
            },
            {
                "input": "Harry voleva fare un'escursione la settimana scorsa. Aveva comprato tanta attrezzatura per prepararsi. Tuttavia, quando stava per partire, non riusciva a trovare la sua tenda. Alla fine rimase a casa.",
                "output": [
                    {
                        "generated_text": "Completa la seguente storia: 'Harry voleva fare un'escursione la settimana scorsa. Aveva comprato tanta attrezzatura per prepararsi. Tuttavia, quando stava per partire, non riusciva a trovare la sua tenda. Alla fine rimase a casa.'\n\n1. Domande a risposta aperta:\n\t* Per chi lavoravi prima di lasciare il lavoro per seguire il tuo sogno di diventare un'artista?\n\t* In cui citt\u00e0 hai passato la tua infanzia?\n\t* Qual \u00e9 stata la tua pi\u00f9 grande sfida nella tua vita?\n\t* Cosa ti ha ispirato a creare il tuo primo album?\n\t* Qual \u00e9 l'evento pi\u00f9 importante che \u00e8 successo nella tua vita?\n\t* Quando hai cominciato a interessarti all'impegno sociale e ambientale?\n\t* Come hai passato il tuo primo Natale in Sudafrica?\n\t* Quali esperienze importanti hai avuto durante il tuo ultimo tour?\n\t* Quale \u00e9 stato il tuo primo incontro con qualcuno che ti ha aiutato a diventare l'artista che sei ora?"
                    }
                ]
            },
            {
                "input": "Camminavo lungo la spiaggia alla ricerca di conchiglie. In lontananza individuai una conchiglia perfetta. Mi misi a correre a tutta velocit\u00e0, ma anche l'acqua si precipit\u00f2 su di essa. Mi tuffai sulla conchiglia prima che le onde la raccogliessero.",
                "output": [
                    {
                        "generated_text": "Completa la seguente storia: 'Camminavo lungo la spiaggia alla ricerca di conchiglie. In lontananza individuai una conchiglia perfetta. Mi misi a correre a tutta velocit\u00e0, ma anche l'acqua si precipit\u00f2 su di essa. Mi tuffai sulla conchiglia prima che le onde la raccogliessero.'\n\nA. Mi sentii avvolto da una fitta paura mentre cercavo di respirare sotto la superficie dell'acqua salata.\n\nB. Mi rialzai in fretta e furia, scuotendo l'acqua dai capelli, e continuai a cercare con pazienza.\n\nC. Misi unghie e pelle per raggiungere la conchiglia, sentendo un dolore acuto mentre l'acqua mi entrava nelle orecchie.\n\nD. La marea si ritir\u00f2, esponendo la conchiglia, e la raccoglii con gioia.\n\nLe opzioni A, B, C e D sono ugualmente valide, e possono servire tutte per completare la storia in modo soddisfacente. La scelta dipendr\u00e0 dalle preferenze e dalle caratteristiche del personaggio. Ad esempio:\n\n* Se il personaggio \u00e8 impulsivo e passionale, potrebbe optare per A.\n* Se il personaggio \u00e8 meticoloso e paziente, potrebbe optare per B.\n* Se il personaggio \u00e8 determinato e"
                    }
                ]
            },
            {
                "input": "Jenny si rec\u00f2 dal medico per un controllo di routine. Fu scoperta un'anomalia che si rivel\u00f2 essere un cancro. Il medico le disse che la chemioterapia era probabilmente la scelta migliore. Jenny acconsent\u00ec e il trattamento dur\u00f2 mesi.",
                "output": [
                    {
                        "generated_text": "Completa la seguente storia: 'Jenny si rec\u00f2 dal medico per un controllo di routine. Fu scoperta un'anomalia che si rivel\u00f2 essere un cancro. Il medico le disse che la chemioterapia era probabilmente la scelta migliore. Jenny acconsent\u00ec e il trattamento dur\u00f2 mesi.'\n\nNell'aprile 1999, un incendio scoppi\u00f2 nella sua casa di Santa Fe, nell'Ensenada, nella bassa California. Nonostante la presenza di un nipote al primo piano, non ci furono feriti e Jenny si salv\u00f2 con un paracadute.\n\nDopo un periodo di depressione e ricoveri in ospedale, inizi\u00f2 a scrivere un libro sull'incidente, intitolato Miracolo nel cielo, pubblicato nel 2006. Il libro \u00e8 diventato un bestseller in Messico e ha venduto pi\u00f9 di 200 000 copie.\n\nNel 2017 ha pubblicato il suo secondo libro, intitolato L'amore \u00e8 la forza che ci salva.\n\nIn seguito alla pubblicazione del suo libro, ha partecipato a diverse conferenze e dibattiti sulle esperienze di premorte, la sopravvivenza e la ricerca sulle esperienze di premorte in Messico e nel mondo.\n\nAttualmente vive a Citt\u00e0 del Messico, in Messico, dove continua a condurre conferenze e a scrivere libri su argomenti legati all'aldil\u00e0, alla spiritualit\u00e0 e alla ricerca sulla sopravvivenza della coscienza.\n\n## Opere\n\n* Miracolo nel cielo (2006)\n* L'amore \u00e8 la forza che ci salva (2017)\n\n## Collegamenti esterni\n\n* (EN) Jenny C\u00e1rdenas, su Goodreads."
                    }
                ]
            },
            {
                "input": "Rita era molto avanti con la gravidanza. Un giorno si svegli\u00f2 nel cuore della notte in preda ai dolori. A Rita si erano rotte le acque ed era arrivato il momento di andare in ospedale. Tutti si affrettarono ad assistere Rita mentre partoriva.",
                "output": [
                    {
                        "generated_text": "Completa la seguente storia: 'Rita era molto avanti con la gravidanza. Un giorno si svegli\u00f2 nel cuore della notte in preda ai dolori. A Rita si erano rotte le acque ed era arrivato il momento di andare in ospedale. Tutti si affrettarono ad assistere Rita mentre partoriva.'\n\n1. Nell'immaginare e completare la storia, si evidenzia che la frase 'Tutti si affrettarono ad assistere Rita' pu\u00f2 essere interpretata in modi diversi. Potrebbe riferirsi a parenti, amici o addirittura medici e personnel ospedaliero. Inoltre, la frase potrebbe riferirsi sia alla situazione descritta precedentemente, con Rita che si alza dal tavolo, sia a un'altra situazione in cui gli altri personaggi siano attivamente presenti durante il parto.\n2. La frase 'Tutti si affrettarono ad assistere Rita' potrebbe essere interpretata in vari modi, inclusi molti dei quali non erano stati precedentemente considerati. Ad esempio, la frase potrebbe riferirsi a una situazione in cui i passanti o i residenti del quartiere s'affrettano ad assistere Rita, fornendo supporto e assistenza durante il parto.\n3. Viene evidenziato che, come per le altre frasi, la frase 'Tutti si affrettarono ad"
                    }
                ]
            },
            {
                "input": "Il quarterback titolare dei Denver Broncos era infortunato. Brock era il quarterback di riserva. Aveva preso ripetizioni in allenamento per tutta la settimana. Brock era pronto per iniziare la partita successiva.",
                "output": [
                    {
                        "generated_text": "Completa la seguente storia: 'Il quarterback titolare dei Denver Broncos era infortunato. Brock era il quarterback di riserva. Aveva preso ripetizioni in allenamento per tutta la settimana. Brock era pronto per iniziare la partita successiva.'\n\n1. Predisponi un elenco di 10 parole che inizino per la lettera \"R\".\n2. Scrivi una breve storia in cui il personaggio principale si trova in una situazione in cui deve prendere una decisione. La decisione non debba essere semplice, e il personaggio dovrebbe fare un ragionamento attento per arrivare a una conclusione.\n3. Nella storia precedente, aggiungi un elemento sorpresa che cambi il corso degli eventi.\n4. Inserisci l'elemento sorpresa in una delle storie che hai scritto nella Sessione 1. Riprova a prevedere la sorpresa e analizza come questa modifiche il resto della storia.\n5. Predisponi una sequenza di 5 domande che riguardano la stessa situazione o argomento. Ogni domanda successiva deve essere una risposta pi\u00f9 specifica rispetto alla domanda precedente.\n6. Scrivi due versioni di una domanda, con l'obiettivo di ottenere due diverse risposte specifiche e pertinenti attraverso l'uso di parole chiave differenti.\n7. Completa la seguente frase: 'Era una notte tempestosa e...'\n8. Predisponi una sequenza di 5 frasi che terminano con una proposizione finale diversa, ma che condividono lo stesso tema o argomento.\n9. Scrivi un breve passaggio che utilizzi la stessa parola o frase quattro volte in modo differente.\n10. Con l'aiuto di un compagno di classe, inventa una storia di 500 parole in cui il protagonista si trova in una situazione in cui deve superare un ostacolo o risolvere un enigma per raggiungere un oggetto o un luogo."
                    }
                ]
            },
            {
                "input": "Ogni sera, Nick correva per tre miglia su un sentiero vicino a casa sua. Una notte, vide una grande ombra davanti a s\u00e9. L'ombra si rivel\u00f2 essere un orso nero. Nick si gir\u00f2 e fece una corsa nella direzione opposta.",
                "output": [
                    {
                        "generated_text": "Completa la seguente storia: 'Ogni sera, Nick correva per tre miglia su un sentiero vicino a casa sua. Una notte, vide una grande ombra davanti a s\u00e9. L'ombra si rivel\u00f2 essere un orso nero. Nick si gir\u00f2 e fece una corsa nella direzione opposta.'\""
                    }
                ]
            },
            {
                "input": "Katelyn stava guidando in autostrada. All'improvviso, un cervo le salt\u00f2 davanti. Sterz\u00f2 e fin\u00ec a sbattere contro un muro. Per un attimo rimase, ma poi si rese conto che il cofano era in fiamme.",
                "output": [
                    {
                        "generated_text": "Completa la seguente storia: 'Katelyn stava guidando in autostrada. All'improvviso, un cervo le salt\u00f2 davanti. Sterz\u00f2 e fin\u00ec a sbattere contro un muro. Per un attimo rimase, ma poi si rese conto che il cofano era in fiamme.'\n\n1. 'La notte del terrore' - Completa la seguente storia: 'Era una notte tempestosa. Un flash di fulmine illumin\u00f2 il cielo, seguito da un boato assordante. La signora Thompson si rese conto che il camino era in fiamme e che il fuoco stava avanzando veloce.'\n2. 'Il disastro aereo' - Completa la seguente storia: 'Il volo 652 era in rotta per la citt\u00e0, quando improvvisamente un'esplosione scoppi\u00f2 nella cabina di pilotaggio. Il pilota e il copilota persero conoscenza. L'aereo inizi\u00f2 a perdere quota.'\n3. 'Il laboratorio contaminato' - Completa la seguente storia: 'Il professor Brown era intento a lavorare nel suo laboratorio quando not\u00f2 un odore strano. Apr\u00ec una porta di sicurezza e scopr\u00ec un container di materiale tossico che stava lentamente emanando vapori nocivi.'\n4. 'Il naufragio' - Completa la seguente storia: 'Il vascello 'Oceania' era in rotta per l'Australia, quando una violenta tempesta si scaten\u00f2 contro di loro. Un enorme mare mosse il battello, facendolo traboccare e causando panico tra i passeggeri.'\n5. 'L'eruzione vulcanica' - Completa la seguente storia: 'L'intera citt\u00e0 era in fermento per l'imminente eruzione del vulcano vicino. Le sirene antincendio suonarono e la gente cominci\u00f2 a fuggire in preda al panico. Il vulcano erutt\u00f2, spingendo una nuvola di cenere alta nel cielo.'\n6. 'L'incendio nel bosco' - Comple"
                    }
                ]
            },
            {
                "input": "Il giudice entr\u00f2 nell'aula e prese posto. Chiese alla giuria se aveva un verdetto. L'uomo che guidava la giuria tir\u00f2 fuori una busta bianca. La tensione nell'aula aument\u00f2 quando la apr\u00ec per leggerla.",
                "output": [
                    {
                        "generated_text": "Completa la seguente storia: 'Il giudice entr\u00f2 nell'aula e prese posto. Chiese alla giuria se aveva un verdetto. L'uomo che guidava la giuria tir\u00f2 fuori una busta bianca. La tensione nell'aula aument\u00f2 quando la apr\u00ec per leggerla.'\n\nA) La busta era vuota\nB) Il verdetto era \"colpevole\"\nC) Il verdetto era \"non colpevole\"\nD) Il verdetto era \"non sufficientemente provato\""
                    }
                ]
            },
            {
                "input": "La mia ragazza aveva preparato lo stufato di pollo e broccoli per cena. \u00c8 uno dei miei piatti preferiti. Tuttavia, il pollo era risultato un po' rosa. Temevamo che fosse poco cotto.",
                "output": [
                    {
                        "generated_text": "Completa la seguente storia: 'La mia ragazza aveva preparato lo stufato di pollo e broccoli per cena. \u00c8 uno dei miei piatti preferiti. Tuttavia, il pollo era risultato un po' rosa. Temevamo che fosse poco cotto.'"
                    }
                ]
            },
            {
                "input": "Julia stava guardando un film sul suo tablet. Stava camminando con il tablet in casa. All'improvviso \u00e8 inciampata e ha fatto cadere il tablet. Quando l'ha raccolto, si \u00e8 resa conto che si era rotto.",
                "output": [
                    {
                        "generated_text": "Completa la seguente storia: 'Julia stava guardando un film sul suo tablet. Stava camminando con il tablet in casa. All'improvviso \u00e8 inciampata e ha fatto cadere il tablet. Quando l'ha raccolto, si \u00e8 resa conto che si era rotto.'\n\nIl film segue le avventure di una ragazza di nome Julia che vive con i suoi genitori e il suo cane in una casa grande e accogliente"
                    }
                ]
            }
        ]
    }
]