[
    {
        "model_name": "oracle",
        "results": [
            {
                "input": "Jennifer aveva un esame importante il giorno dopo. Era cos\u00ec stressata che pass\u00f2 la notte in bianco. Il giorno dopo era andata in classe, stanca morta. L'insegnante le comunic\u00f2 che l'esame \u00e8 rimandato alla settimana successiva.",
                "output": [
                    {
                        "generated_text": "' Jennifer ne rimase amareggiata."
                    }
                ]
            },
            {
                "input": "Morgan e la sua famiglia vivevano in Florida. Avevano sentito che stava arrivando un uragano. Decisero di evacuare a casa di un parente. Arrivarono e appresero dal telegiornale che si trattava di una terribile tempesta.",
                "output": [
                    {
                        "generated_text": "' Si sentirono fortunati ad aver evacuato in tempo."
                    }
                ]
            },
            {
                "input": "Tina aveva preparato gli spaghetti per il suo ragazzo. Ci era voluto molto lavoro, ma lei era molto orgogliosa. Il suo ragazzo mangi\u00f2 tutto il piatto e disse che era buono. Tina assaggi\u00f2 e si rese conto che era disgustoso.",
                "output": [
                    {
                        "generated_text": "' Era commossa dal fatto che lui avesse fatto finta che fosse buono per non ferire i suoi sentimenti."
                    }
                ]
            },
            {
                "input": "Il mio professore assegn\u00f2 alla mia classe un tema. Tempo di uscire dall'aula e me ne ero gi\u00e0 dimenticata. Qualche giorno dopo, una mia compagna di classe mi scrisse per chiedermi se l'avessi fatto. Ero cos\u00ec arrabbiata con me stessa perch\u00e9 me ne ero completamente dimenticata.",
                "output": [
                    {
                        "generated_text": "' Passai tutta la notte a lavorare sul tema, ma feci in tempo."
                    }
                ]
            },
            {
                "input": "Kaitlyn pensava che i jeans con i buchi fossero molto alla moda. Li indoss\u00f2 a scuola per sfoggiarli. Il preside le disse che erano contrari al codice di abbigliamento. Dovette cambiare i suoi jeans.",
                "output": [
                    {
                        "generated_text": "' Ora indossa i suoi jeans bucati solo a casa."
                    }
                ]
            },
            {
                "input": "James si svegli\u00f2 nel cuore della notte e trov\u00f2 il suo letto che tremava. Tutte le cose nella sua stanza tremavano furiosamente. Era spaventato, ma poi all'improvviso smise. Si alz\u00f2 e controll\u00f2 il telegiornale.",
                "output": [
                    {
                        "generated_text": "' Scopr\u00ec che c'era stato un terremoto."
                    }
                ]
            },
            {
                "input": "Ero cos\u00ec nervosa per il mio primo giorno di scuola. Quando arrivai alla prima lezione, tremavo. Mi sedetti accanto alla ragazza pi\u00f9 carina della classe. Parlammo tutto il tempo, durante e dopo le lezioni.",
                "output": [
                    {
                        "generated_text": "' Siamo diventate migliori amiche e lei rese l'universit\u00e0 molto pi\u00f9 facile."
                    }
                ]
            },
            {
                "input": "Uli non vedeva l'ora di giocare a basket quel pomeriggio. Entr\u00f2 in palestra e lasci\u00f2 lo zaino sulle gradinate. Dopo la partita, non aveva ritrovato il telefono nello zaino. Era rimasta triste tutta la notte e al mattino controll\u00f2 in ufficio.",
                "output": [
                    {
                        "generated_text": "' \u00c8 stata felice di sapere che qualcuno aveva trovato il suo telefono."
                    }
                ]
            },
            {
                "input": "Anna era una trombettista professionista. Aveva preso un nuovo appartamento in citt\u00e0. Sfortunatamente, le pareti erano molto pi\u00f9 sottili di quelle del vecchio appartamento. Ben presto i vicini si lamentarono del suo incessante esercizio.",
                "output": [
                    {
                        "generated_text": "' Lei li placava con biglietti gratuiti per l'orchestra e biscotti fatti in casa."
                    }
                ]
            },
            {
                "input": "Bill decise di andare a scuola in bicicletta. Durante il tragitto buc\u00f2 una gomma. Un uomo vide la gomma a terra di Bill e ferm\u00f2 la sua auto. L'autista si offr\u00ec di accompagnare Bill a scuola.",
                "output": [
                    {
                        "generated_text": "' Bill arriv\u00f2 a scuola in tempo."
                    }
                ]
            },
            {
                "input": "Mentre era a casa, Robert sent\u00ec un odore terribile. And\u00f2 in cucina per indagare. La fonte dell'odore sembrava provenire dal frigorifero. Lo apr\u00ec e vide che c'era della carne avariata che aveva dimenticato.",
                "output": [
                    {
                        "generated_text": "' Dopo aver tolto la carne avariata, la casa ricominci\u00f2 ad avere un buon odore."
                    }
                ]
            },
            {
                "input": "Joe si ferm\u00f2 a un semaforo. Il semaforo era verde, ma lui non part\u00ec. Le persone dietro di lui suonarono il clacson. Si sentirono frustrati, ma Joe non si mosse.",
                "output": [
                    {
                        "generated_text": "' Disse che era una bella giornata e che se la sarebbe goduta."
                    }
                ]
            },
            {
                "input": "Un uomo trov\u00f2 una perla in un'ostrica. Purtroppo, proprio in quel momento stava mangiando l'ostrica. Con la perla si scheggi\u00f2 un dente. Fortunatamente, la perla copr\u00ec il costo dell'intervento dentistico.",
                "output": [
                    {
                        "generated_text": "' Da quel momento in poi, si assicur\u00f2 di ispezionare i frutti di mare prima di mangiarli."
                    }
                ]
            },
            {
                "input": "Un silo di missili nucleari ricevette un ordine di lancio. L'ufficiale responsabile apr\u00ec la cassaforte per verificarne il codice. Apr\u00ec la busta contenente il codice di quel giorno. All'interno c'era un buono sconto per un panino.",
                "output": [
                    {
                        "generated_text": "' In ritardo, si rese conto che era un pesce d'aprile."
                    }
                ]
            },
            {
                "input": "Una famiglia decise di costruire una nuova fossa per il barbecue nel proprio giardino. Piuttosto che pagare per un escavatore, decisero di scavare da soli. A pochi metri di profondit\u00e0, uno di loro colp\u00ec quella che pensava fosse una piccola radice. Si rivel\u00f2 essere un cavo in fibra ottica che forniva Internet e la TV.",
                "output": [
                    {
                        "generated_text": "' Ne segu\u00ec una lunga battaglia legale sulla responsabilit\u00e0 dei danni."
                    }
                ]
            },
            {
                "input": "Briana stava guidando un fuoristrada con suo fratello. Stavano andando veloci su una strada sterrata. All'improvviso, colpirono una roccia. La macchina si ribalt\u00f2.",
                "output": [
                    {
                        "generated_text": "' Briana si fer\u00ec alla testa ed ebbe bisogno di punti di sutura."
                    }
                ]
            },
            {
                "input": "Un giorno di sole Jeff stava giocando all'aperto. Sent\u00ec un ronzio provenire dalle siepi. Quando si avvicin\u00f2 alla siepe, usc\u00ec uno sciame di api. Le api lo inseguirono fino in casa.",
                "output": [
                    {
                        "generated_text": "' Jeff giur\u00f2 di non allungare mai pi\u00f9 la mano verso le siepi."
                    }
                ]
            },
            {
                "input": "Chelsea si era fatta male alle dita giocando a basket. Aveva molta paura di andare dal medico. Il padre di Chelsea la convinse ad andare a farsi controllare. Si scopr\u00ec che le ossa delle dita erano fratturate.",
                "output": [
                    {
                        "generated_text": "' Il medico fu in grado di fornirle le cure necessarie che le sarebbero mancate altrimenti."
                    }
                ]
            },
            {
                "input": "Beth, un'amica di Amy, era incinta di un bambino. Amy chiam\u00f2 le sue amiche a partecipare a una festa a sorpresa per il bambino. Tutti aspettarono in silenzio che Beth entrasse. Quando vide tutti, rimase scioccata.",
                "output": [
                    {
                        "generated_text": "' Beth era felicissima perch\u00e9 pensava che a nessuno importasse di farle una festa."
                    }
                ]
            },
            {
                "input": "Tyler era entusiasta di acquistare il nuovo telefono cellulare. Quando arriv\u00f2 al negozio fu sorpreso di vedere una lunga fila. Aspett\u00f2 in fila per un'ora per acquistare il telefono. Quando arriv\u00f2 alla cassa, la cassiera lo inform\u00f2 che era tutto esaurito.",
                "output": [
                    {
                        "generated_text": "' Tyler era sconvolto mentre tornava a casa senza il nuovo telefono."
                    }
                ]
            },
            {
                "input": "Andrew pensava di essere un buon giocatore di golf. Sfid\u00f2 il suo amico Dylan per vedere chi fosse pi\u00f9 bravo. Dylan accett\u00f2 la sfida e lavor\u00f2 duramente per prepararsi. All'inizio Andrew stava vincendo, ma le cose sarebbero presto cambiate.",
                "output": [
                    {
                        "generated_text": "' Dylan fin\u00ec per vincere le buche successive e la partita."
                    }
                ]
            },
            {
                "input": "Mi ero preparata un panino al tonno per pranzo. Mentre ero seduta a mangiare, mi \u00e8 squillato il telefono. Mi sono alzata per rispondere e ho avuto una breve conversazione. Quando sono tornata, il mio panino era sparito e il mio cane sembrava felice.",
                "output": [
                    {
                        "generated_text": "' Non mi fider\u00f2 mai pi\u00f9 a lasciare un panino da solo in casa mia."
                    }
                ]
            },
            {
                "input": "Beth stava uscendo dal lavoro marted\u00ec. Si era accorta che ad un uomo era caduto il portafoglio nel parcheggio. Ha attraversato di corsa il parcheggio per restituirglielo. L'uomo era cos\u00ec felice che gli fosse stato restituito il portafoglio.",
                "output": [
                    {
                        "generated_text": "' Visto che Beth era stata cos\u00ec onesta, le diede 20 dollari."
                    }
                ]
            },
            {
                "input": "Un amico di Dan lo introdusse al poker. Dan si rese conto di essere molto bravo a giocare a poker. Dan decise di andare a Las Vegas per mettere alla prova la sua abilit\u00e0. Dan vinse milioni di dollari a Las Vegas.",
                "output": [
                    {
                        "generated_text": "' Alla fine, Dan divenne il miglior giocatore di poker degli Stati Uniti."
                    }
                ]
            },
            {
                "input": "Lo swing di Harry era terribile. Un giorno Harry decide di cercare aiuto per migliorare il suo swing. Assunse un allenatore privato. L'allenatore privato riusc\u00ec a migliorare lo swing di Harry.",
                "output": [
                    {
                        "generated_text": "' Alla fine, Harry ebbe il miglior swing del club."
                    }
                ]
            },
            {
                "input": "Sam aveva appuntamento con suo padre per pranzo in un ristorante italiano. Arriv\u00f2 in anticipo e aspett\u00f2 suo padre. Cominci\u00f2 a preoccuparsi quando suo padre non si present\u00f2 e non rispose al cellulare. Chiam\u00f2 sua madre per sapere cosa stesse succedendo.",
                "output": [
                    {
                        "generated_text": "' Sua madre gli disse che il pranzo era previsto per il giorno dopo."
                    }
                ]
            },
            {
                "input": "Randy possiede la stessa chitarra da dieci anni. Purtroppo, due giorni fa l'aveva persa. Aveva chiamato tutti quelli che ricordava di aver visitato negli ultimi giorni. Fortunatamente, l'aveva appena lasciata a casa di un amico.",
                "output": [
                    {
                        "generated_text": "' Randy \u00e8 andato subito a recuperare il suo prezioso oggetto."
                    }
                ]
            },
            {
                "input": "Maria voleva stupire tutti al ballo della scuola. Invece di comprare un vestito, decise di farne uno nuovo. Scelse un tessuto morbido e viola da utilizzare. Cuc\u00ec giorno e notte finch\u00e9 non ebbe finito.",
                "output": [
                    {
                        "generated_text": "' Tutti si complimentarono per il suo bellissimo vestito."
                    }
                ]
            },
            {
                "input": "La madre di Carson gli prepar\u00f2 una cioccolata calda come regalo. Lo avvert\u00ec di aspettare cinque minuti perch\u00e9 si raffreddasse. Carson riusc\u00ec ad aspettare a malapena un minuto. Bevve la cioccolata molto calda.",
                "output": [
                    {
                        "generated_text": "' Quando si bruci\u00f2 la lingua, cap\u00ec che sua madre aveva ragione."
                    }
                ]
            },
            {
                "input": "Di recente ho comprato un nuovo colore di smalto. Mi stavo dipingendo le unghie quando il gatto ha saltato e l'ha fatto cadere. Lo smalto era finito su tutto il pavimento. Ho provato a pulirlo, ma non ha funzionato.",
                "output": [
                    {
                        "generated_text": "' Ora c'\u00e8 una grande macchia viola sul mio pavimento."
                    }
                ]
            },
            {
                "input": "Un uomo pens\u00f2 di provare a coltivare i pomodori nel suo giardino. Cos\u00ec compr\u00f2 semi e attrezzature. Piant\u00f2 i semi e aspett\u00f2. Qualche mese dopo, si ritrov\u00f2 proprietario di un piccolo campo di grano.",
                "output": [
                    {
                        "generated_text": "' I suoi amici erano sconcertati dal fatto che non fosse riuscito a distinguere i semi."
                    }
                ]
            },
            {
                "input": "Cathy lavora in uno Starbucks. La settimana scorsa ha avuto una cliente indisciplinata. La cliente continuava a chiedere una bevanda non esistente. Alla fine, Cathy le aveva dato un latte macchiato.",
                "output": [
                    {
                        "generated_text": "' La cliente non si era accorta della differenza."
                    }
                ]
            },
            {
                "input": "Oliver era entusiasta per suoi regali di compleanno. Doveva aspettare, ma era impaziente. Si intrufol\u00f2 nell'armadio dei genitori. L\u00ec trov\u00f2 i suoi regali e li controll\u00f2 tutti.",
                "output": [
                    {
                        "generated_text": "' Purtroppo, questo rese molto meno divertente aprirli pi\u00f9 tardi."
                    }
                ]
            },
            {
                "input": "Tina aveva in programma una gita con gli amici, cos\u00ec controll\u00f2 le previsioni meteo. Le previsioni del tempo dicevano che ci sarebbe stato il sole per tutto il giorno. Tina si era fidata delle previsioni e si era vestita di conseguenza. Tuttavia, le previsioni erano sbagliate e ci fu stato un enorme acquazzone.",
                "output": [
                    {
                        "generated_text": "' Ora Tina porta sempre con s\u00e9 una giacca, anche quando c'\u00e8 il sole."
                    }
                ]
            },
            {
                "input": "Kayla stava cercando di trovare dei nomi per il suo bambino. Suo marito non era d'accordo con tutti i nomi che gli venivano proposti. Kayla gli chiese un elenco di nomi accettabili. Insieme raggiunsero un compromesso.",
                "output": [
                    {
                        "generated_text": "' Ora Kayla aveva un nome per il loro bambino che piace a entrambi."
                    }
                ]
            },
            {
                "input": "Molly si stava preparando per il suo matrimonio. Aveva appena indossato il suo abito bianco. All'improvviso, una bevanda si rovesci\u00f2 e macchi\u00f2 il vestito di rosa. Per fortuna arriv\u00f2 sua madre.",
                "output": [
                    {
                        "generated_text": "' Aveva un pratico spray detergente che fece sparire la macchia."
                    }
                ]
            },
            {
                "input": "Ross si iscrisse a una gara di 6 miglia a due mesi di distanza. Tuttavia, Ross aveva corso ogni volta solo per circa 3 miglia. Si rese conto che doveva impegnarsi ed allenarsi. Dedic\u00f2 pi\u00f9 tempo all'allenamento e aument\u00f2 lentamente la distanza di corsa.",
                "output": [
                    {
                        "generated_text": "' Ross fu sorpreso e orgoglioso quando si piazz\u00f2 al terzo posto nella gara."
                    }
                ]
            },
            {
                "input": "Jane era fuori per una passeggiata. Sent\u00ec un rombo tra le nuvole e inizi\u00f2 a piovere. Cerc\u00f2 di affrettarsi e di correre per il resto della strada. Era troppo tardi e quando arriv\u00f2 a casa era gi\u00e0 fradicia.",
                "output": [
                    {
                        "generated_text": "' Fece una doccia calda e si asciug\u00f2 i vestiti."
                    }
                ]
            },
            {
                "input": "Sam and\u00f2 alla tavola calda e ordin\u00f2 la colazione e un caff\u00e8 decaffeinato. La cameriera aveva una aria colpevole mentre gli versava il caff\u00e8. Sam sorseggi\u00f2 il caff\u00e8 e cap\u00ec che gli aveva dato un caff\u00e8 normale. La sgrid\u00f2 quando torn\u00f2 con il cibo.",
                "output": [
                    {
                        "generated_text": "' La cameriera abbass\u00f2 la testa per la vergogna e Sam le diede una mancia bassa."
                    }
                ]
            },
            {
                "input": "Tom e Sheryl stavano assieme da due anni. Un giorno andarono insieme ad un luna park. Lui le vinse diversi orsetti di peluche e le compr\u00f2 degli dolci. Quando arrivarono alla ruota panoramica, lui si \u00e8 inginocchi\u00f2.",
                "output": [
                    {
                        "generated_text": "' Le chiese di sposarlo e lei rispose di s\u00ec."
                    }
                ]
            },
            {
                "input": "Harry voleva fare un'escursione la settimana scorsa. Aveva comprato tanta attrezzatura per prepararsi. Tuttavia, quando stava per partire, non riusciva a trovare la sua tenda. Alla fine rimase a casa.",
                "output": [
                    {
                        "generated_text": "' Tutti i soldi spesi non erano serviti a nulla."
                    }
                ]
            },
            {
                "input": "Camminavo lungo la spiaggia alla ricerca di conchiglie. In lontananza individuai una conchiglia perfetta. Mi misi a correre a tutta velocit\u00e0, ma anche l'acqua si precipit\u00f2 su di essa. Mi tuffai sulla conchiglia prima che le onde la raccogliessero.",
                "output": [
                    {
                        "generated_text": "' Quando mi rialzai, brandii con orgoglio il mio premio."
                    }
                ]
            },
            {
                "input": "Jenny si rec\u00f2 dal medico per un controllo di routine. Fu scoperta un'anomalia che si rivel\u00f2 essere un cancro. Il medico le disse che la chemioterapia era probabilmente la scelta migliore. Jenny acconsent\u00ec e il trattamento dur\u00f2 mesi.",
                "output": [
                    {
                        "generated_text": "' Alla fine il trattamento ebbe successo e il cancro and\u00f2 in remissione."
                    }
                ]
            },
            {
                "input": "Rita era molto avanti con la gravidanza. Un giorno si svegli\u00f2 nel cuore della notte in preda ai dolori. A Rita si erano rotte le acque ed era arrivato il momento di andare in ospedale. Tutti si affrettarono ad assistere Rita mentre partoriva.",
                "output": [
                    {
                        "generated_text": "' Tre ore dopo nacque John, il bambino di Rita."
                    }
                ]
            },
            {
                "input": "Il quarterback titolare dei Denver Broncos era infortunato. Brock era il quarterback di riserva. Aveva preso ripetizioni in allenamento per tutta la settimana. Brock era pronto per iniziare la partita successiva.",
                "output": [
                    {
                        "generated_text": "' Alla fine ha avuto una prestazione spettacolare."
                    }
                ]
            },
            {
                "input": "Ogni sera, Nick correva per tre miglia su un sentiero vicino a casa sua. Una notte, vide una grande ombra davanti a s\u00e9. L'ombra si rivel\u00f2 essere un orso nero. Nick si gir\u00f2 e fece una corsa nella direzione opposta.",
                "output": [
                    {
                        "generated_text": "' Ora Nick fa jogging solo sulla strada che attraversa la citt\u00e0."
                    }
                ]
            },
            {
                "input": "Katelyn stava guidando in autostrada. All'improvviso, un cervo le salt\u00f2 davanti. Sterz\u00f2 e fin\u00ec a sbattere contro un muro. Per un attimo rimase, ma poi si rese conto che il cofano era in fiamme.",
                "output": [
                    {
                        "generated_text": "' Url\u00f2 ed scese velocemente dal veicolo."
                    }
                ]
            },
            {
                "input": "Il giudice entr\u00f2 nell'aula e prese posto. Chiese alla giuria se aveva un verdetto. L'uomo che guidava la giuria tir\u00f2 fuori una busta bianca. La tensione nell'aula aument\u00f2 quando la apr\u00ec per leggerla.",
                "output": [
                    {
                        "generated_text": "' Disse che, secondo la legge, l'imputato era colpevole."
                    }
                ]
            },
            {
                "input": "La mia ragazza aveva preparato lo stufato di pollo e broccoli per cena. \u00c8 uno dei miei piatti preferiti. Tuttavia, il pollo era risultato un po' rosa. Temevamo che fosse poco cotto.",
                "output": [
                    {
                        "generated_text": "' L'abbiamo rimesso in forno per evitare di ammalarci."
                    }
                ]
            },
            {
                "input": "Julia stava guardando un film sul suo tablet. Stava camminando con il tablet in casa. All'improvviso \u00e8 inciampata e ha fatto cadere il tablet. Quando l'ha raccolto, si \u00e8 resa conto che si era rotto.",
                "output": [
                    {
                        "generated_text": "' Ha cercato di ripararlo, ma non \u00e8 servito a nulla: lo schermo era andato in frantumi per sempre."
                    }
                ]
            }
        ]
    }
]