[
    {
        "model_name": "lmsys/vicuna-13b-v1.3",
        "results": [
            {
                "input": "Jennifer aveva un esame importante il giorno dopo. Era cos\u00ec stressata che pass\u00f2 la notte in bianco. Il giorno dopo era andata in classe, stanca morta. L'insegnante le comunic\u00f2 che l'esame \u00e8 rimandato alla settimana successiva.",
                "output": [
                    {
                        "generated_text": ""
                    }
                ]
            },
            {
                "input": "Morgan e la sua famiglia vivevano in Florida. Avevano sentito che stava arrivando un uragano. Decisero di evacuare a casa di un parente. Arrivarono e appresero dal telegiornale che si trattava di una terribile tempesta.",
                "output": [
                    {
                        "generated_text": "'\"\n\n* Quanto tempo ha bisogno un uragano per causare danni ingenti?\n\"Completa la seguente storia: 'Maria e suo padre erano in cerca di un modo per proteggere la loro casa da un uragano in arrivo. Un consulente gli dijo che ci vorrebbe almeno 24 ore per prepararsi.'\"\n\n1. Quali sono i principali strumenti per la prevenzione e la preparazione agli uragani?\n* Quali sono i primi passaggi da effettuare in caso di avvistamento di un uragano?\n\"Completa la seguente storia: 'Sara e suo fratello erano in vacanza in una zona costiera quando un uragano si avvicin\u00f2. Il primo passo che effettuarono fu quello di controllare se c'era un rifugio sicuro vicino.'\"\n\n* Cosa deve essere fatto in caso di evacuazione?\n\"Completa la seguente storia: 'Durante una evacuazione, \u00e8 importante portare con s\u00e9 il numero minimo di beni indispensabili e seguire le istruzioni del personale di emergenza.'\"\n2. Qual \u00e8 il modo migliore per comunicare durante una emergenza?\n* Quali sono i principali rischi associati all'utilizzo di cellulari durante un uragano?\n\"Completa la seguente storia: 'Durante una emergenza, \u00e8 importante evitare di usare i cellulari per le comunicazioni, poich\u00e9 possono interrompere la trasmissione della frequenza radio delle stazioni di emergenza.'\"\n\n* Qual \u00e8 la principale fonte di informazioni durante un'emergenza?\n\"Completa la seguente storia: 'Durante una evacuazione, la principale fonte di informazioni \u00e8 il personale di emergenza, che \u00e8 in grado di guidare le persone"
                    }
                ]
            },
            {
                "input": "Tina aveva preparato gli spaghetti per il suo ragazzo. Ci era voluto molto lavoro, ma lei era molto orgogliosa. Il suo ragazzo mangi\u00f2 tutto il piatto e disse che era buono. Tina assaggi\u00f2 e si rese conto che era disgustoso.",
                "output": [
                    {
                        "generated_text": "'\".\n\nIl tester \u00e8 progettato per testare la comprensione del significato delle parole e la capacit\u00e0 di utilizzarle in modo corretto in una frase.\n\n## Bibliografia\n\n* Bates, D. M. (2009). Assessing language and literacy skills in bilingual children. In J. Fan, & A. M. Fan (Eds.), Clinical language assessment for multilingual populations (pp. 175-198). Baltimore, MD: Paul H Brookes Publishing.\n* Brown, A., & Haneda, Y. (1995). Language assessment in bilingual and multilingual children: A review of issues and techniques. Language, Speech, and Hearing Services in Schools, 26(2), 126-138.\n\n## Voci correlate\n\n* Aiuto alla lettura\n* Test di confronto\n* Test di standardizzazione\n* Test mirato\n* Test diagnostico"
                    }
                ]
            },
            {
                "input": "Il mio professore assegn\u00f2 alla mia classe un tema. Tempo di uscire dall'aula e me ne ero gi\u00e0 dimenticata. Qualche giorno dopo, una mia compagna di classe mi scrisse per chiedermi se l'avessi fatto. Ero cos\u00ec arrabbiata con me stessa perch\u00e9 me ne ero completamente dimenticata.",
                "output": [
                    {
                        "generated_text": "'\n\n* Quali sono le conseguenze che potrebbe aver avuto per te e per il tuo insegnante questa situazione?\n* Quali sono le strategie che potresti aver utilizzato per evitare di dimenticare l'assegnatura e per prepararla con successo?\n* Se dovessi dimenticare di completare un compito, come sarebbe la tua reazione e quali sarebbero le conseguenze?\n\nAttivit\u00e0 3 - Scambio di esperienze:\nDivide i ragazzi in gruppi di 3-4 e chiede a ognuno di loro di condividere un'esperienza in cui hanno dimenticato un compito o una task importante. Dopo che tutti hanno parlato, chiede loro di riassumere le loro esperienze e di identificare le strategie che potrebbero aver utilizzato per evitare di dimenticare in futuro.\n\n* Come potremmo organizzare i nostri compiti o le nostre attivit\u00e0 in modo che non ci dimentichino pi\u00f9 facilmente?\n* Quali sono le tecniche che potremmo utilizzare per mantenere traccia delle nostre attivit\u00e0 e dei nostri compiti?\n\nAttivit\u00e0 4 - Creazione di un sistema di controllo:\nChiedi ai ragazzi di creare un sistema di controllo per tenere traccia dei loro compiti e delle loro attivit\u00e0 quotidiane, ad esempio utilizzando un calendario, un apprendista o un foglio di controllo. Dopo essersi espressi, chiedi loro di condividere il loro sistema con il resto della classe e di discutere le loro idee.\n\n* Quali sono i vantaggi e gli svantaggi di diverse tecniche di controllo?\n* Qual \u00e8 il sistema di controllo che prefer"
                    }
                ]
            },
            {
                "input": "Kaitlyn pensava che i jeans con i buchi fossero molto alla moda. Li indoss\u00f2 a scuola per sfoggiarli. Il preside le disse che erano contrari al codice di abbigliamento. Dovette cambiare i suoi jeans.",
                "output": [
                    {
                        "generated_text": "'\nAula 4:\nKaitlyn pensava che i jeans con i buchi fossero molto alla moda. Li indoss\u00f2 a scuola per sfoggiarli. Il preside le disse che erano contra"
                    }
                ]
            },
            {
                "input": "James si svegli\u00f2 nel cuore della notte e trov\u00f2 il suo letto che tremava. Tutte le cose nella sua stanza tremavano furiosamente. Era spaventato, ma poi all'improvviso smise. Si alz\u00f2 e controll\u00f2 il telegiornale.",
                "output": [
                    {
                        "generated_text": "'\nQuale parola manca nella frase sopra?\n\n1. Tremava"
                    }
                ]
            },
            {
                "input": "Ero cos\u00ec nervosa per il mio primo giorno di scuola. Quando arrivai alla prima lezione, tremavo. Mi sedetti accanto alla ragazza pi\u00f9 carina della classe. Parlammo tutto il tempo, durante e dopo le lezioni.",
                "output": [
                    {
                        "generated_text": "'\n\nRisposta: Il protagonista della storia era molto nervoso per il suo primo giorno di scuola e, quando arriv\u00f2, si sedette accanto alla ragazza pi\u00f9 carina della classe. Dopo aver parlato per tutto il tempo, i due divennero amici e trascorsero tempo insieme fuori dall'ora di lezione."
                    }
                ]
            },
            {
                "input": "Uli non vedeva l'ora di giocare a basket quel pomeriggio. Entr\u00f2 in palestra e lasci\u00f2 lo zaino sulle gradinate. Dopo la partita, non aveva ritrovato il telefono nello zaino. Era rimasta triste tutta la notte e al mattino controll\u00f2 in ufficio.",
                "output": [
                    {
                        "generated_text": "'\nInserisci la parola mancante: 'lo zaino ****'.\nIndovina la parola mancante: la parola mancante \u00e8 'zaino'."
                    }
                ]
            },
            {
                "input": "Anna era una trombettista professionista. Aveva preso un nuovo appartamento in citt\u00e0. Sfortunatamente, le pareti erano molto pi\u00f9 sottili di quelle del vecchio appartamento. Ben presto i vicini si lamentarono del suo incessante esercizio.",
                "output": [
                    {
                        "generated_text": "'\n2. Storia: 'Anna era il batterista di una band di successo. Il gruppo stava preparando un nuovo album. Durante una pausa, Anna aveva deciso di dedicarsi ad un nuovo progetto musicale.'\n3. Storia: 'Anna era la tastierista del suo gruppo musicale. Aveva sempre voluto sperimentare con nuovi suoni e tecniche.'\n4. Storia: 'Anna era una cantautrice di successo. Aveva deciso di intraprendere un lungo tour mondiale per promuovere il suo ultimo album.'\n5. Storia: 'Anna era una cantante lirica che si esibiva in teatri e concerti. Aveva appena vinto un importante concorso musicale.'\n6. Storia: 'Anna era una cantante pop che aveva appena firmato un contratto discografico con una major.'\n7. Storia: 'Anna era una ballerina di breakdance che aveva vinto numerosi concorsi.'\n8. Storia: 'Anna era una ballerina di danza moderna. Aveva appena vinto un premio nazionale.'\n9. Storia: 'Anna era una ginnasta che si esibiva in spettacoli circensi.'\n10. Storia: 'Anna era un'acrobatica che era apparsa in numerosi spettacoli televisivi.'\n11. Storia: 'Anna era un'illusionista che si esibiva in spettacoli teatrali.'\n12. Storia: 'Anna era una maga che si esibiva in spettacoli per bambini.'\n13. Storia: 'Anna era una pittrice che aveva appena esposto le sue opere in una galleria d'arte.'\n14. Storia: 'Anna era una scultrice che aveva appena vinto un premio nazionale.'\n15. Storia: 'Anna era un'"
                    }
                ]
            },
            {
                "input": "Bill decise di andare a scuola in bicicletta. Durante il tragitto buc\u00f2 una gomma. Un uomo vide la gomma a terra di Bill e ferm\u00f2 la sua auto. L'autista si offr\u00ec di accompagnare Bill a scuola.",
                "output": [
                    {
                        "generated_text": "'\". Allo studio, i partecipanti sono divisi in gruppi e chiedo loro di completare la storia e di immaginare come potrebbe andar male o come potrebbe andare bene. Questo esercizio aiuta a sviluppare la consapevolezza delle possibili risposte e delle possibili soluzioni.\n\n3. Giochi delle alternative: Questo esercizio aiuta a sviluppare la consapevolezza delle alternative e a migliorare la capacit\u00e0 di prendere decisioni. Ad esempio, chiedo loro di immaginare di dover acquistare un'auto e di considerare diverse opzioni. Questo aiuta a capire che ci sono molte soluzioni possibili e che l'acquisto dell'auto \u00e8 solo una di esse.\n\nQuesti esercizi possono aiutare a sviluppare le competenze chiave del cambiamento, ma non sono sufficienti per garantire la sicurezza durante le missioni di peacekeeping. Inoltre, l'adozione di queste strategie deve essere combinata con altri metodi e procedure per ridurre al minimo le conseguenze negative del cambiamento."
                    }
                ]
            },
            {
                "input": "Mentre era a casa, Robert sent\u00ec un odore terribile. And\u00f2 in cucina per indagare. La fonte dell'odore sembrava provenire dal frigorifero. Lo apr\u00ec e vide che c'era della carne avariata che aveva dimenticato.",
                "output": [
                    {
                        "generated_text": "'\"\n2. \"Scopri quale vocabolo \u00e8 stato inserito nel lessico di \"Grammarly\" di oggi. Scrivi una frase completa con 'Il vocabolo del giorno \u00e8 stato inserito nel lessico di \"Grammarly\".'\n3. \"Mentre era in giro per la citt\u00e0, Emily vide una gabbia con dei piccoli conigli dentro. Era cos\u00ec adorabile che decise di prenderne uno.\"\n4. \"Scopri quale \u00e8 stato il miglior film del 2017 secondo \"IMDB\". Scrivi una frase completa con 'Il miglior film del 2017 secondo \"IMDB\" \u00e8 stato...'\n5. \"Mentre era in cima alla montagna, Sarah si sent\u00ec molto orgogliosa di aver raggiunto la vetta. Era una vittoria personale per lei.\"\n6. \"Scopri quali sono stati i pi\u00f9 grandi successi della moda nel 2017 secondo \"Vogue\". Scrivi una frase completa con 'I pi\u00f9 grandi successi della moda nel 2017 secondo \"Vogue\" sono stati...'\n7. \"Mentre era al negozio, Maria vide un paio di scarpe meravigliose. Scelse di comprarle.\"\n8. \"Scopri quali sono stati i libri pi\u00f9 venduti nel 2017 secondo \"The New York Times\". Scrivi una frase completa con 'I libri pi\u00f9 venduti nel 2017 secondo \"The New York Times\" sono stati...'\n9. \"Mentre era in vacanza, John decise di fare un'immersione nella barriera corallina. Era un'esperienza fantastica.\"\n10. \"Scopri quali sono stati i migliori posti da visitare in Italia nel 2018 secondo \"Lonely Planet\". Scrivi una frase comple"
                    }
                ]
            },
            {
                "input": "Joe si ferm\u00f2 a un semaforo. Il semaforo era verde, ma lui non part\u00ec. Le persone dietro di lui suonarono il clacson. Si sentirono frustrati, ma Joe non si mosse.",
                "output": [
                    {
                        "generated_text": "'\n\nPerch\u00e9 Joe non part\u00ec?\n\nA) Joe aveva il telefono in mano e non vide il semaforo verde\n\nB) Joe aveva il telefono in mano e non vide il semaforo verde\n\nC) Joe voleva mostrare di essere un conducente responsabile\n\nD) Joe voleva mostrare di essere un conducente responsabile\n\nCorrect Answer: A\n\nExplanation: Joe non part\u00ec perch\u00e9 aveva il telefono in mano e non vide il semaforo verde.\n\nInvece le opzioni B, C e D sono tutte affermazioni false che non hanno una relazione con la storia e non spiegano perch\u00e8 Joe non part\u00ec al semaforo verde. Il fatto che le persone dietro di lui suonassero il clacson non \u00e8 sufficiente a spiegare perch\u00e9 Joe non part\u00ec."
                    }
                ]
            },
            {
                "input": "Un uomo trov\u00f2 una perla in un'ostrica. Purtroppo, proprio in quel momento stava mangiando l'ostrica. Con la perla si scheggi\u00f2 un dente. Fortunatamente, la perla copr\u00ec il costo dell'intervento dentistico.",
                "output": [
                    {
                        "generated_text": "'\"\n\nNel 2018 ha pubblicato il libro \"Io ti invito a cena: storie di famiglia, di amici e di una cena che ha cambato la mia vita\" che racconta la storia di una cena che gli ha permesso di risolvere una crisi personale.\n\nNel 2021 \u00e8 stato scelto come giudice per la ventisettesima edizione del talent show Amici di Maria De Filippi."
                    }
                ]
            },
            {
                "input": "Un silo di missili nucleari ricevette un ordine di lancio. L'ufficiale responsabile apr\u00ec la cassaforte per verificarne il codice. Apr\u00ec la busta contenente il codice di quel giorno. All'interno c'era un buono sconto per un panino.",
                "output": [
                    {
                        "generated_text": "' Quale \u00e8 la morale di questa storia?\"\n* \"Una societ\u00e0 decide di creare una moneta per il proprio uso. La moneta ha il disegno di un frutto sulla faccia e il nome della societ\u00e0 sul retro. La gente accetta la moneta, la usa e la considera come valuta. Quali caratteristiche ha la moneta?\"\n\n### Risposte\n\n* La risposta alla storia \u00e8 che la morale \u00e8: \"Non si pu\u00f2 affidare solo al nome di una cosa per determinarne la qualit\u00e0 o il valore\".\n* La risposta alla storia \u00e8 che la moneta ha una valuta convenzionale, ovvero la fiducia che hanno gli individui della societ\u00e0 nell'utilizzarla, ma non ha intrinseca qualit\u00e0 o valore. Il nome della societ\u00e0 sulla retro \u00e8 solo un segno identitario e non garantisce la validit\u00e0 economica della moneta.\n\n## Critiche\n\nIl metodo NLP \u00e8 stato oggetto di molte critiche e controversie. Molti sostengono che il metodo sia pseudo-scientifico, in quanto le sue tecniche non sono sostenute da prove scientifiche. Inoltre, c'\u00e8 la preoccupazione che il metodo NLP possa essere utilizzato per manipolare o indottrinare le persone, come la preghiera del traduttore o il lavaggio del cervello. Inoltre, alcuni studiosi sostengono che i modelli di programmazione neurosemantica siano irrilevanti e che le affermazioni di Richard Bandler e John Grinder non sono sostenute da prove scientifiche.\n\nCi sono anche questioni sulla qualit\u00e0 dell'educazione e delle certificazioni fornite dai trainer di NLP, poich\u00e9 la maggior parte delle organizzazioni che offrono formazione e certificazione non richiedono alcuna certificazione ufficiale o regolamentazione"
                    }
                ]
            },
            {
                "input": "Una famiglia decise di costruire una nuova fossa per il barbecue nel proprio giardino. Piuttosto che pagare per un escavatore, decisero di scavare da soli. A pochi metri di profondit\u00e0, uno di loro colp\u00ec quella che pensava fosse una piccola radice. Si rivel\u00f2 essere un cavo in fibra ottica che forniva Internet e la TV.",
                "output": [
                    {
                        "generated_text": "'\n\nIndovina quale \u00e8 il prodotto che si sta descrivendo.\n\nGrazie per la tua attenzione e buon lavoro!\"\n\nSuggestioni per le immagini:\n\n* immagine del prodotto\n* immagine di una fossa per il barbecue\n* immagine di una piccola radice\n* immagine di un cavo in fibra ottica\n\nEsempio di risposta per la prima tuta:\n\"Signor Giorno,\n\nSono molto grato per questo quiz. La risposta che stavo cercando \u00e8 stata \"Una fibra ottica!\" Si tratta di un cavo in fibra ottica, che fornisce connessione Internet e TV.\n\nGrazie ancora per questo divertente e informativo quiz!\"\n\nRisposta al quiz: \"Sono molto grato per questo quiz. La risposta che stavo cercando \u00e8 stata 'Una fibra ottica!' Si tratta di un cavo in fibra ottica, che fornisce connessione Internet e TV. Grazie ancora per questo divertente e informativo quiz!\""
                    }
                ]
            },
            {
                "input": "Briana stava guidando un fuoristrada con suo fratello. Stavano andando veloci su una strada sterrata. All'improvviso, colpirono una roccia. La macchina si ribalt\u00f2.",
                "output": [
                    {
                        "generated_text": "' Briana mor\u00ec. Her brother was...\n\nA. Il fratello di Briana mor\u00ec.\nB. Her brother sopravvisse all'incidente.\nC. Il fratello di Briana era gi\u00e0 morto prima dell'incidente.\nD. Non si sa se il fratello di Briana sopravvisse all'incidente.\n\n### Ripetizione\n\nRipetizione: La scelta corretta \u00e8 la lettera A, \"Il fratello di Briana mor\u00ec\". La storia dice che Briana mor\u00ec, quindi il suo fratello mor\u00ec anche lui.\n\nQuesta domanda fa riferimento a uno dei sei tipi classici di errore di ragionamento: assunzione senza ragione. In particolare, \u00e8 l'assunzione che il fratello di Briana sia ancora vivo dopo l'incidente. Questo tipo di errore di ragionamento si verifica quando si assume che una premessa sia vera senza alcuna ragione, anzich\u00e9 basarsi su un ragionamento logico.\n\nQuesta domanda \u00e8 abbastanza difficile, ma \u00e8 importante che i taker siano in grado di individuare il tipo di errore di ragionamento in atto qui, ovvero l'assunzione senza ragione, e siano in grado di trovare la risposta corretta sulla base dei fatti presentati nella storia, anzich\u00e9 assolvere a un giudizio superficiale."
                    }
                ]
            },
            {
                "input": "Un giorno di sole Jeff stava giocando all'aperto. Sent\u00ec un ronzio provenire dalle siepi. Quando si avvicin\u00f2 alla siepe, usc\u00ec uno sciame di api. Le api lo inseguirono fino in casa.",
                "output": [
                    {
                        "generated_text": "'\". E mi chiedi: cosa succederebbe se invece di 'ronzio' usassi 'pianto'?\",\n\nQuesto esempio presenta una domanda retorica in modo esplicito, chiedendo ai bambini di immaginare cosa succederebbe se un dettaglio della storia venisse cambiato. Ci\u00f2 pu\u00f2 aiutare a sviluppare la capacit\u00e0 di pensare in modo critico e creativo, considerando gli effetti di diverse opzioni.\n\n1. \"Immagina di essere un supereroe e di avere un segreto per salvare l'umanit\u00e0. Quale segreto scelgerebbe? Perch\u00e9?\"\n\nQuesta domanda crea uno scenario immaginativo e pone un'importante domanda di giudizio, richiedendo ai bambini a selezionare un segreto che ritengono importante per il bene dell'umanit\u00e0. Ci\u00f2 pu\u00f2 aiutare a sviluppare la capacit\u00e0 di prendere decisioni etiche e responsabili.\n\n1. \"Ci sono alberi in grado di parlare? Se s\u00ec, cosa direbbero agli alberi che non sono in grado di parlare?\"\n\nQuesta domanda presenta un'assunzione paradossale e richiede ai bambini a confrontare la loro comprensione della realt\u00e0 con un'alternativa ipotetica. Ci\u00f2 pu\u00f2 aiutare a sviluppare la capacit\u00e0 di pensare in modo critico e di valutare le affermazioni.\n\n1. \"Se potessi essere un animale per un giorno, quale animale sceglieresti? Perch\u00e9?\"\n\nQuesta domanda pone un'importante domanda di giudizio, richiedendo ai bambini a selezionare un animale e a spiegare perch\u00e9 lo hanno scelto. Ci\u00f2 pu\u00f2 aiutare a sviluppare la capacit\u00e0 di valutare le scelte e di considerare"
                    }
                ]
            },
            {
                "input": "Chelsea si era fatta male alle dita giocando a basket. Aveva molta paura di andare dal medico. Il padre di Chelsea la convinse ad andare a farsi controllare. Si scopr\u00ec che le ossa delle dita erano fratturate.",
                "output": [
                    {
                        "generated_text": "' Quali parole potrebbero completare la storia?\n\nA) Il medico le inser\u00ec un gessetto per tenere le dita unite\nB) Il medico le disse di uscire dall'ospedale per non avere paura\nC) Il medico le disse che avrebbe dovuto stare a letto a lungo\nD) Il medico le disse che le dita sarebbero tornate normali presto\n\nRisposta: D) Il medico le disse che le dita sarebbero tornate normali presto"
                    }
                ]
            },
            {
                "input": "Beth, un'amica di Amy, era incinta di un bambino. Amy chiam\u00f2 le sue amiche a partecipare a una festa a sorpresa per il bambino. Tutti aspettarono in silenzio che Beth entrasse. Quando vide tutti, rimase scioccata.",
                "output": [
                    {
                        "generated_text": "'\n\na) Non sapeva che la sorpresa era per il bambino.\nb) Non sapeva che tutti erano arrivati.\nc) Non sapeva che sarebbe stato un part"
                    }
                ]
            },
            {
                "input": "Tyler era entusiasta di acquistare il nuovo telefono cellulare. Quando arriv\u00f2 al negozio fu sorpreso di vedere una lunga fila. Aspett\u00f2 in fila per un'ora per acquistare il telefono. Quando arriv\u00f2 alla cassa, la cassiera lo inform\u00f2 che era tutto esaurito.",
                "output": [
                    {
                        "generated_text": "' Che cosa ha Tyler acquistato?"
                    }
                ]
            },
            {
                "input": "Andrew pensava di essere un buon giocatore di golf. Sfid\u00f2 il suo amico Dylan per vedere chi fosse pi\u00f9 bravo. Dylan accett\u00f2 la sfida e lavor\u00f2 duramente per prepararsi. All'inizio Andrew stava vincendo, ma le cose sarebbero presto cambiate.",
                "output": [
                    {
                        "generated_text": "' Come si sarebbero cambiate?\n\n1. \n\nQuante frecce l'arciere ha in mano?\n2. \n\nChe cosa ha detto il gobbo malvagio quando ha visto Cinderella al ballo?\n3. \n\nChe cosa ha sbottato Babbo Natale quando ha visto che la sua auto era in panne?\n4. \n\nQuesto gioco consiste nel correre verso l'uscita senza che il mostro possa catturarti. Come si chiama questo gioco?\n5. \n\nQuale \u00e8 la risposta alla frase: 'Mi sembra di essere caduto in un buco nero'?\n\nObiettivo dell'esercizio: Verificare la comprensione generale del test utente sulla logica e sulla comprensione dei giochi e delle situazioni complesse. I punti possono essere assegnati in base alla comprensione del test utente e della soluzione del quiz."
                    }
                ]
            },
            {
                "input": "Mi ero preparata un panino al tonno per pranzo. Mentre ero seduta a mangiare, mi \u00e8 squillato il telefono. Mi sono alzata per rispondere e ho avuto una breve conversazione. Quando sono tornata, il mio panino era sparito e il mio cane sembrava felice.",
                "output": [
                    {
                        "generated_text": "'\n\nCosa \u00e8 accaduto?\n\nSoluzione: Il cane ha scodellato il panino e ha poi inghiottito le fette di tonno che erano state gettate via dal proprietario durante la preparazione del sandwich. Quando il cane ha visto il panino vuoto, ha iniziato a miagolare e il proprietario, credendo che il cane volesse mangiare il resto del panino, ha lasciato la stanza. Quando il proprietario \u00e8 tornato, \u00e8 stato stupito nel trovare il cane felice, perch\u00e9 aveva inghiottito le fette di tonno che il proprietario aveva gettato via."
                    }
                ]
            },
            {
                "input": "Beth stava uscendo dal lavoro marted\u00ec. Si era accorta che ad un uomo era caduto il portafoglio nel parcheggio. Ha attraversato di corsa il parcheggio per restituirglielo. L'uomo era cos\u00ec felice che gli fosse stato restituito il portafoglio.",
                "output": [
                    {
                        "generated_text": "'\n\nA) Beth aveva il pelo nero.\nB) Beth aveva un sorriso amichevole.\nC) L'uomo era molto anziano.\nD) L'auto di Beth era una vecchia VW.\nE) L'uomo era molto grato.\n\nRisposta: A) Beth aveva il pelo nero.\n\n### 6\n\nUna donna si trovava in un bar quando un uomo le ha chiesto se lei avesse visto una chiave. La donna ha guardato il pavimento e ha risposto di no. L'uomo le ha dato il nome della persona che aveva perduto la chiave e le ha chiesto di aiutarlo a cercare. La donna ha accettato di aiutarlo e insieme hanno fatto una radiosa in tutta la zona per cercare la chiave. Dopo un po' di tempo, l'uomo ha finalmente trovato la chiave. La donna \u00e8 rimasta sorpresa quando l'uomo le ha chiesto se avesse bisogno di qualcosa in cambio del suo aiuto. La donna ha detto che non aveva bisogno di nulla. L'uomo ha insistito dicendo che doveva avere qualcosa come risarcimento per avergli fatto perdere tanto tempo. La donna ha deciso di fargli una domanda a sua volta.\"Quanto vorresti per dimenticare questa situazione?\". L'uomo ha risposto \"500 dollari\". La donna ha detto \"OK\" e ha dato all'uomo i 500 dollari.\n\nA) La donna era un'avvocatessa.\nB) La donna aveva i capelli lunghi e scuri.\nC) L'uomo era molto gentile.\nD) La donna aveva una macchina di lusso.\nE) La donna"
                    }
                ]
            },
            {
                "input": "Un amico di Dan lo introdusse al poker. Dan si rese conto di essere molto bravo a giocare a poker. Dan decise di andare a Las Vegas per mettere alla prova la sua abilit\u00e0. Dan vinse milioni di dollari a Las Vegas.",
                "output": [
                    {
                        "generated_text": "'\"\n\nL'argomento della storia sembra essere il gioco d'azzardo, ma i termini specifici che vengono utilizzati per descriverlo (come \"poker\" e \"Las Vegas\") non sono sufficienti per identificare con certezza l'argomento.\n\n* \"Parla in modo dettagliato sulla vita e le opere di Leonardo da Vinci, senza menzionare mai il suo famoso dipinto.\"\n\nIn questo caso, il tema della storia \u00e8 la vita e le opere di Leonardo da Vinci, anche se il dipinto pi\u00f9 famoso di Leonardo da Vinci non viene menzionato.\n\n* \"Descrivi in modo dettagliato un viaggio in aeroplano, senza menzionare mai il volo.\"\n\nNel caso, l'argomento della storia \u00e8 il viaggio in aeroplano, anche se il termine \"volo\" non viene menzionato.\n\n* \"Discrivi l'esperienza di essere in un parco divertimenti, senza menzionare mai le attrazioni.\"\n\nNel caso, l'argomento della storia \u00e8 l'esperienza di essere in un parco divertimenti, anche se le attrazioni presenti nel parco non vengono menzionate.\n\n* \"Storie di animali domestici, senza menzionare i nomi delle specie.\"\n\nIn questo caso, l'argomento della storia \u00e8 l'esperienza con gli animali domestici, ma non viene menzionato il nome della specie a cui appartengono gli animali.\n\n* \"Descrivi un'esperienza di surf, senza menzionare il motivo per cui hai deciso di cogliere la primavera a New York City.\"\n\nIn questo caso, l'argomento della storia \u00e8 l'esperienza di surf, ma il fatto che si sia deciso"
                    }
                ]
            },
            {
                "input": "Lo swing di Harry era terribile. Un giorno Harry decide di cercare aiuto per migliorare il suo swing. Assunse un allenatore privato. L'allenatore privato riusc\u00ec a migliorare lo swing di Harry.",
                "output": [
                    {
                        "generated_text": "'\nIn quale modo l'allenatore privato riusc\u00ec a migliorare lo swing di Harry?\nA) insegn\u00f2 a Harry a tenere il bastone in modo diverso\nB) insegn\u00f2 a Harry a concentrarsi meglio durante il gioco\nC) modific\u00f2 la forma del club di Harry\nD) sugger\u00ec a Harry di praticare pi\u00f9 a lungo\n\nSuggerimento: L'allenatore privato probabilmente ha insegnato a Harry a modificare la tecnica diswing, a migliorare il posizionamento del corpo o a correggere qualche error"
                    }
                ]
            },
            {
                "input": "Sam aveva appuntamento con suo padre per pranzo in un ristorante italiano. Arriv\u00f2 in anticipo e aspett\u00f2 suo padre. Cominci\u00f2 a preoccuparsi quando suo padre non si present\u00f2 e non rispose al cellulare. Chiam\u00f2 sua madre per sapere cosa stesse succedendo.",
                "output": [
                    {
                        "generated_text": "'\n(Per la verit\u00e0, Sam potrebbe benissimo essere una donna, ma in questo caso lo assumeremo come un uomo)\n\nA) Sam chiese a un cameriere se poteva aiutarlo, ma il cameriere si mostr\u00f2 irritato e gli disse di non disturbare.\nB) Sam decise di fare una passeggiata per il centro della citt\u00e0 per occuparsi e distrarsi.\nC) Sam chiam\u00f2 un amico, chiedendogli di venire a prendere la cena con lui.\nD) Sam chiam\u00f2 il ristorante per chiedere se suo padre si era presentato, e venne informato che non era mai arrivato.\nE) Sam inizi\u00f2 a pensare alle possibili ragioni per cui suo padre potrebbe non essere arrivato e a preoccuparsi.\n\nRisposta: A) Sam chiese a un cameriere se poteva aiutarlo, ma il cameriere si mostr\u00f2 irritato e gli disse di non disturbare."
                    }
                ]
            },
            {
                "input": "Randy possiede la stessa chitarra da dieci anni. Purtroppo, due giorni fa l'aveva persa. Aveva chiamato tutti quelli che ricordava di aver visitato negli ultimi giorni. Fortunatamente, l'aveva appena lasciata a casa di un amico.",
                "output": [
                    {
                        "generated_text": "'\n\nRandy possiede la stessa chitarra\nPer\u00f2, due giorni fa l'aveva perduta\nGliene aveva chiamati\nE fortunatamente l'aveva lasciata a casa di un amico,\nOra l'amico \u00e8 tornato e gliela ha restituita."
                    }
                ]
            },
            {
                "input": "Maria voleva stupire tutti al ballo della scuola. Invece di comprare un vestito, decise di farne uno nuovo. Scelse un tessuto morbido e viola da utilizzare. Cuc\u00ec giorno e notte finch\u00e9 non ebbe finito.",
                "output": [
                    {
                        "generated_text": "' Cosa fece Maria per avere il tessuto morbido e viola?\""
                    }
                ]
            },
            {
                "input": "La madre di Carson gli prepar\u00f2 una cioccolata calda come regalo. Lo avvert\u00ec di aspettare cinque minuti perch\u00e9 si raffreddasse. Carson riusc\u00ec ad aspettare a malapena un minuto. Bevve la cioccolata molto calda.",
                "output": [
                    {
                        "generated_text": "' Quale era il messaggio che Carson stava cercando di invi"
                    }
                ]
            },
            {
                "input": "Di recente ho comprato un nuovo colore di smalto. Mi stavo dipingendo le unghie quando il gatto ha saltato e l'ha fatto cadere. Lo smalto era finito su tutto il pavimento. Ho provato a pulirlo, ma non ha funzionato.",
                "output": [
                    {
                        "generated_text": "'"
                    }
                ]
            },
            {
                "input": "Un uomo pens\u00f2 di provare a coltivare i pomodori nel suo giardino. Cos\u00ec compr\u00f2 semi e attrezzature. Piant\u00f2 i semi e aspett\u00f2. Qualche mese dopo, si ritrov\u00f2 proprietario di un piccolo campo di grano.",
                "output": [
                    {
                        "generated_text": "'\nWhich sentence best concludes the story?\nA) 'He planted them and waited. After a few months, he found himself the proud owner of a small field of wheat.'\nB) 'He planted them and waited. After a few months, he found himself the owner of a small field of corn.'\nC) 'He planted them and waited. After a few months, he found himself the owner of a small field of potatoes.'\nD) 'He planted them and waited. After a few months, he found himself the owner of a small field of tomatoes.'\nThe answer is A.\n\nParagraph on the topic of 'Evidence-based medicine'. Please write a 5-6 sentence introduction to this topic.\n\nEvidence-based medicine (EBM) is an approach to medical practice that emphasizes the use of clinical research in making treatment decisions. EBM is based on the idea that the best healthcare outcomes are achieved when medical decisions are guided by high-quality research evidence. EBM promotes the integration of research findings into clinical practice and encourages healthcare providers to use the best available evidence in the care of their patients. This approach to medical care helps to ensure that patients receive the most effective treatments, and that healthcare resources are used in the most efficient way possible."
                    }
                ]
            },
            {
                "input": "Cathy lavora in uno Starbucks. La settimana scorsa ha avuto una cliente indisciplinata. La cliente continuava a chiedere una bevanda non esistente. Alla fine, Cathy le aveva dato un latte macchiato.",
                "output": [
                    {
                        "generated_text": "'\"\n\nLa risposta corretta potrebbe essere: \"La cliente continuava a chiedere una bevanda non esistente. Alla fine, Cathy le aveva dato un latte macchiato.\" In effetti, questa \u00e8 la parte mancante nella storia originale, quindi \u00e8 necessario inserirlo per completare la situazione.\n\n### Esempio 6\n\nStoria: \"Liam ha appena vinto un viaggio all'estero. Ha deciso di viaggiare in aereo. Il volo ha avuto un ritardo di due ore. Liam ha deciso di usare il tempo libero per esplorare la citt\u00e0.\"\n\nProblema: \"Perch\u00e9 ha deciso di usare il tempo libero per esplorare la citt\u00e0?\"\n\nLa risposta corretta potrebbe essere: \"Perch\u00e9 il volo ha avuto un ritardo di due ore.\" In effetti, il fatto che il volo sia rimasto in attesa di decollo per due ore significa che Liam ha molto tempo libero per esplorare la citt\u00e0.\n\n### Esempio 7\n\nStoria: \"Emma ha appena finito di jogging. Ha deciso di prendersi un bagno. Quando \u00e8 entrata nella doccia, ha notato che il water era freddo. Emma ha deciso di aggiungere acqua calda alla doccia.\"\n\nProblema: \"Perch\u00e9 ha deciso di prendersi un bagno?\"\n\nLa risposta corretta potrebbe essere: \"Perch\u00e9 aveva finito di jogging.\" In effetti, la storia non fornisce alcuna informazione su motivo per il quale Emma abbia deciso di prendersi un bagno, ma \u00e8 ovvio che ha avuto bisogno di rinfrescarsi dopo aver fatto sport.\n\n### Esempio 8\n\nStoria: \"Michele ha appena"
                    }
                ]
            },
            {
                "input": "Oliver era entusiasta per suoi regali di compleanno. Doveva aspettare, ma era impaziente. Si intrufol\u00f2 nell'armadio dei genitori. L\u00ec trov\u00f2 i suoi regali e li controll\u00f2 tutti.",
                "output": [
                    {
                        "generated_text": "'\"\n\n### 2018\n\nL'8 giugno 2018, l'annuncio dell'esperimento CERN su Twitter scrisse: \"Oggi abbiamo celebrato l'8 Giugno con un'altra celebrazione. Ciao, primavera! Buongiorno, estate! #ChangeOfSeason #CERN\"\n\nIl 10 luglio 2018, quando un neonazista venne espulso dalla sinistra tedesca, il sito web del CERN scrisse su Twitter: \"Non ci sono neanche parole. #NoPlaceForNazis #CERN\". Il 13 gennaio 2019, il CERN pubblic\u00f2 un'immagine di Natale con un messaggio: \"Buon NATALE da CERN! Siamo felici di condividere questa foto. Grazie per il supporto e l'interesse che ci hai mostrato in questo anno. Buon anno nuovo a tutti!\"\n\nIl 24 dicembre 2018, la CERN Foundation pubblic\u00f2: \"Buon Natale da CERN! Siamo felici di condividere questa foto. Grazie per il supporto e l'interesse che ci hai mostrato in questo anno. Buon anno nuovo a tutti!\"\n\n### 2019\n\nIl 27 dicembre 2019, il CERN pubblic\u00f2 un messaggio di Natale: \"Siamo felici di condividere questo messaggio di Natale da CERN. Buon NATALE a tutti!\"\n\n### 2020\n\nDurante l'epidemia di COVID-19, il CERN ha pubblicato messaggi di supporto e incoraggiamento per gli scienziati in tutto il mondo. Il 13 aprile 2020, il CERN ha pubblicato un messaggio di supporto su"
                    }
                ]
            },
            {
                "input": "Tina aveva in programma una gita con gli amici, cos\u00ec controll\u00f2 le previsioni meteo. Le previsioni del tempo dicevano che ci sarebbe stato il sole per tutto il giorno. Tina si era fidata delle previsioni e si era vestita di conseguenza. Tuttavia, le previsioni erano sbagliate e ci fu stato un enorme acquazzone.",
                "output": [
                    {
                        "generated_text": "'\n\n1. Completa la seguente storia: 'Mario era il proprietario di un negozio di alimentari, cos\u00ec decise di aprire un'attivit\u00e0 di consegna online. Mario si affid\u00f2 alle previsioni del tempo per pianifikar\n2. Completa la seguente storia: 'Rosa era la proprietaria di una piccola azienda di moda, cos\u00ec decise di investire in una campagna pubblicitaria su internet. Rosa si affid\u00f2 alle previsioni del tempo per pianificare"
                    }
                ]
            },
            {
                "input": "Kayla stava cercando di trovare dei nomi per il suo bambino. Suo marito non era d'accordo con tutti i nomi che gli venivano proposti. Kayla gli chiese un elenco di nomi accettabili. Insieme raggiunsero un compromesso.",
                "output": [
                    {
                        "generated_text": "' 150-200 parole.\n\nMiriam corregge e approva: 'Kayla andava di fretta a cercare dei nomi per il suo figlio in arrivo. Il marito non era d'accordo con molte idee che aveva, ma alla fine trovarono un compromesso.' 150-200 parole."
                    }
                ]
            },
            {
                "input": "Molly si stava preparando per il suo matrimonio. Aveva appena indossato il suo abito bianco. All'improvviso, una bevanda si rovesci\u00f2 e macchi\u00f2 il vestito di rosa. Per fortuna arriv\u00f2 sua madre.",
                "output": [
                    {
                        "generated_text": "'\n\nRisposta corretta: 'Molly si stava preparando per il suo matrimonio. Aveva appena indossato il suo abito bianco. All'improvviso, una bevanda si rovesci\u00f2 e macchi\u00f2 il vestito di rosa. Per fortuna, la madre di Molly fu in grado di rimuovere il macchietto e il vestito torn\u00f2 alla normalit\u00e0. Molly pot\u00e9 quindi sposare il suo amore.'\n\nQuesta seconda risposta presenta un finale positivo e risolutivo, che fa emergere le buone qualit\u00e0 dell'interprete, come la capacit\u00e0 di risolvere una situazione imbarazzante con grazia e astuzia. La madre di Molly \u00e8 descritta come una figura presente e disponibile per aiutare, mentre la situazione di pericolo \u00e8 gestita in modo efficace. Questo fa emergere l'interprete come una persona soluzione orientata, capace di trovare un modo per risolvere una situazione imbarazzante.\n\n### Passeggiata in montagna con un amico\n\nScenario: 'Sono in piedi sulla cima di una montagna. Ho appena completato una difficile salita. Inizia a piovere e a nevicare. Iniziamo a discutere su dove andare e cosa fare.'\n\nRisposta corretta: 'Sono in piedi sulla cima di una montagna. Ho appena completato una difficile salita. Inizia a piovere e a nevicare. Iniziamo a discutere su dove andare e cosa fare. Decido di seguire il mio amico e di cercare un riparo. Troviamo un rifugio e passiamo la notte insieme.'\n\nQuesta risposta presenta una situazione di incertezza e di difficolt\u00e0, ma mostra anche la capacit\u00e0 di prend"
                    }
                ]
            },
            {
                "input": "Ross si iscrisse a una gara di 6 miglia a due mesi di distanza. Tuttavia, Ross aveva corso ogni volta solo per circa 3 miglia. Si rese conto che doveva impegnarsi ed allenarsi. Dedic\u00f2 pi\u00f9 tempo all'allenamento e aument\u00f2 lentamente la distanza di corsa.",
                "output": [
                    {
                        "generated_text": "'\n(a) Qual \u00e8 il pronome riferito a Ross in questo contesto?\n(b) Qual \u00e8 lo scopo dell'uso del pronome in questa storia?\n(c) Cosa pu\u00f2 significare l'uso di un pronome possessivo in luogo di un pronome personale in una storia cos\u00ec corta?\n(d) Qual \u00e8 il verbo nella storia che suggerisce un cambiamento o un'evoluzione?"
                    }
                ]
            },
            {
                "input": "Jane era fuori per una passeggiata. Sent\u00ec un rombo tra le nuvole e inizi\u00f2 a piovere. Cerc\u00f2 di affrettarsi e di correre per il resto della strada. Era troppo tardi e quando arriv\u00f2 a casa era gi\u00e0 fradicia.",
                "output": [
                    {
                        "generated_text": "' \"\nFai una pausa e invita gli studenti a prendere in considerazione le diverse opzioni che potrebbero essere state utilizzate. Chiedi loro: \"Che tipo di parole o termini potrebbero aver utilizzato gli autori per descrivere questo momento?\".\nProvoca una riflessione generale: \"Come possiamo utilizzare parole descrittive per creare immagini mentali e colpire il lettore?\"\nDisegno 3 (Durata: 15 minuti)\nAttivit\u00e0: Scrittura creativa\nChiedi agli studenti di scegliere una situazione o un oggetto descritto nei testi letti in classe. Chiuda gli occhi degli studenti e chiedi loro di visualizzare la scena per alcune istantanee. Poi, chiedi loro di scrivere una descrizione dettagliata della scena, utilizzando almeno tre termini descrittivi tratti dai testi letti.\nDisegno 4 (Durata: 15 minuti)\nAttivit\u00e0: Confronto tra le descrizioni\nDivide gli studenti in gruppi di tre o quattro e chiedi loro di presentare le loro descrizioni creative. Faccia una discussione in gruppo su quale descrizione sia la pi\u00f9 efficace nel colpire il senso dell'immaginazione del lettore.\nDisegno 5 (Durata: 10 minuti)\nAttivit\u00e0: Scambio di idee\nChiedi ad ogni gruppo di riunirsi e di condividere le loro idee e le scelte linguistiche che hanno fatto nella creazione della propria descrizione. Quindi, chiedi ad ogni studente di prendere una nuova posizione e di unirsi ad un gruppo diverso per condividere le proprie idee.\nDisegno 6 (Durata: 10 minuti)\nAttivit\u00e0: Con"
                    }
                ]
            },
            {
                "input": "Sam and\u00f2 alla tavola calda e ordin\u00f2 la colazione e un caff\u00e8 decaffeinato. La cameriera aveva una aria colpevole mentre gli versava il caff\u00e8. Sam sorseggi\u00f2 il caff\u00e8 e cap\u00ec che gli aveva dato un caff\u00e8 normale. La sgrid\u00f2 quando torn\u00f2 con il cibo.",
                "output": [
                    {
                        "generated_text": "'\nQuando Sam capisce che la cameriera gli ha dato il caff\u00e8 normale, cosa pensa o dice?\nA) 'Non \u00e8 giusto, mi ha dato il caff\u00e8 normale invece del decaffeinato'\nB) 'Hai commesso un errore, devi correggere subito'\nC) 'Non mi importa, penso che sia la stessa cosa'\nD) 'Grazie, sto mangiando ora'\nRisposta: B) 'Hai commesso un errore, devi correggere subito'\nSpiegazione: La risposta corretta \u00e8 B) 'Hai commesso un errore, devi correggere subito'. Sam \u00e8 allergico al caffeina e ha chiesto un caff\u00e8 decaffeinato. Quando la cameriera gli versa il caff\u00e8 normale, Sam capisce che \u00e8 stato un errore e gli dice che deve correggere immediatamente. Non c'\u00e8 niente di sbagliato nella risposta A) 'Non \u00e8 giusto, mi ha dato il caff\u00e8 normale invece del decaffeinato', perch\u00e9 Sam ha semplicemente espresso la sua delusione, ma non ha chiesto una correzione immediata. La risposta C) 'Non mi importa, penso che sia la stessa cosa' non sarebbe un'adeguata reazione da parte di Sam, in quanto il caff\u00e8 normale pu\u00f2 causargli problemi di salute. La risposta D) 'Grazie, sto mangiando ora' non \u00e8 appropriata in questo contesto, in quanto Sam ha gi\u00e0 notato che gli \u00e8 stato dato il caff\u00e8 normale e deve correggerlo prima di mangiare."
                    }
                ]
            },
            {
                "input": "Tom e Sheryl stavano assieme da due anni. Un giorno andarono insieme ad un luna park. Lui le vinse diversi orsetti di peluche e le compr\u00f2 degli dolci. Quando arrivarono alla ruota panoramica, lui si \u00e8 inginocchi\u00f2.",
                "output": [
                    {
                        "generated_text": "'\n\nQuando arrivarono alla ruota panoramica, lui si \\_\\_\\_\\_\\_\\_\\_\\_\\_...\n\nA) mise seduto\nB) si inginocchi\u00f2\nC) si alz\u00f2"
                    }
                ]
            },
            {
                "input": "Harry voleva fare un'escursione la settimana scorsa. Aveva comprato tanta attrezzatura per prepararsi. Tuttavia, quando stava per partire, non riusciva a trovare la sua tenda. Alla fine rimase a casa.",
                "output": [
                    {
                        "generated_text": "'\nCosa \u00e8 successo all'inizio dell'ultimo paragrafo?\na) La descrizione della tenda scomparsa\nb) Il resoconto dell'inizio dell'escursione\nc) La scoperta della tenda\nd) La decisione di rimanere a casa\nRisposta: a) La descrizione della tenda scomparsa.\n\nScegli la risposta corretta!\n\nQuesto test ha lo scopo di aiutare a determinare la capacit\u00e0 del testatore di comprendere e interpretare le informazioni. Le informazioni fornite dai testatori durante il test vengono utilizzate per selezionare e valutare le risposte correttamente. Se il test non viene risolto con successo, viene utilizzata una serie di domande aggiuntive per ulteriormente valutare le capacit\u00e0 del testatore."
                    }
                ]
            },
            {
                "input": "Camminavo lungo la spiaggia alla ricerca di conchiglie. In lontananza individuai una conchiglia perfetta. Mi misi a correre a tutta velocit\u00e0, ma anche l'acqua si precipit\u00f2 su di essa. Mi tuffai sulla conchiglia prima che le onde la raccogliessero.",
                "output": [
                    {
                        "generated_text": "' \"\n\nIris ha risposto: \"Non avevo mai visto nessuno correre cos\u00ec veloce sulla spiaggia.\"\n\nIl terapista ha fatto un sorriso e ha detto: \"Mi fa piacere che tu abbia avuto la forza di correre cos\u00ec veloce nella tua vita, non importa se non hai raggiunto il tuo obiettivo. Continua a correre e a cercare le conchiglie che ti faranno felice. Ora, ti chiedo di tornare indietro nel tempo e di trovare un'altra esperienza che ti abbia fatto sentire felice o triste.\"\n\nIris ha deciso di parlare di un'esperienza che l'ha fatta sentire triste. Ha iniziato a raccontare di quando suo zio era morto e lei non era riuscita a parlare con i suoi fratelli perch\u00e9 non voleva disturbarli.\n\nIl terapista ha detto: \"\u00c8 normale provare tristezza quando un caro ci lascia. \u00c8 difficile perdere qualcuno tanto vicino. Ma sei brava a prenderti cura di te e dei tuoi fratelli. E adesso ti chiedo di tornare indietro nel tempo e di trovare un'altra esperienza che ti abbia fatto sentire felice.\"\n\nIris ha deciso di parlare di quando aveva salvato la vita di un animale randagio.\n\nIl terapista ha detto: \"\u00c8 fantastico che tu sia cos\u00ec sensibile e che tu sia in grado di prenderti cura di esseri viventi. Adesso ti chiedo di immaginare di essere nuovamente in grado di prenderti cura di te e dei tuoi fratelli. Adesso, immagina di trovare un posto dove puoi sentirti al sicuro e calmo.\""
                    }
                ]
            },
            {
                "input": "Jenny si rec\u00f2 dal medico per un controllo di routine. Fu scoperta un'anomalia che si rivel\u00f2 essere un cancro. Il medico le disse che la chemioterapia era probabilmente la scelta migliore. Jenny acconsent\u00ec e il trattamento dur\u00f2 mesi.",
                "output": [
                    {
                        "generated_text": "'\".\n\nQuesta \u00e8 la prima parte del test di valutazione. Se si rispondono correttamente entrambe le domande, il test viene considerato \"S\u00ec\" e il partecipante viene selezionato per svolgere la fase successiva del test. Altrimenti, la risposta \u00e8 \"No\". \n\nTest del quoziente QI:\n\nLa seconda fase prevede il completamento di un test del quoziente QI. I partecipanti ricevono un manuale contenente diverse sezioni di test. Il manuale contiene diverse sezioni di test, ognuna delle quali presenta una serie di enigmi da risolvere. Ogni enigma consiste in una serie di parole o frasi che devono essere utilizzate per completare una definizione o una frase. Ad esempio, \"Sono un numero dispari che, moltiplicato per altri tre numeri dispari, risulta in un numero quadrato. Quale numero sto descrivendo?\".\n\nIl test del quoziente QI \u00e8 progettato per testare la capacit\u00e0 di pensare in modo critico, risolvere problemi e trovare soluzioni creative. I partecipanti hanno 45 minuti per completare il test del quoziente QI.\n\nTest del flusso di coscienza:\n\nLa terza fase prevede il completamento di un test di flusso di coscienza. I partecipanti ricevono un dispositivo elettronico che consente loro di registrare il loro flusso di coscienza. Il dispositivo viene indossato come un orologio e registra continuamente le conversazioni del partecipante, senza alcuna interazione da parte del partecipante.\n\nIl dispositivo viene indossato per almeno 24 ore, durante le quali il partecipante deve registrarne tutte le conversazioni. Dopo il periodo di registrazione, il dispositivo"
                    }
                ]
            },
            {
                "input": "Rita era molto avanti con la gravidanza. Un giorno si svegli\u00f2 nel cuore della notte in preda ai dolori. A Rita si erano rotte le acque ed era arrivato il momento di andare in ospedale. Tutti si affrettarono ad assistere Rita mentre partoriva.",
                "output": [
                    {
                        "generated_text": "'\n\nScegli la parola giusta che manca nella storia:\n\n**Riempie il vuoto:** arrivato\n\n1. \n\\_\\_\\_\\_\\_\\_\\_\\_\\_\\_\\_\n2. \n\\_\\_\\_\\_\\_\\_\\_\\_\\_\\_\\_\n3. \n\\_\\_\\_\\_\\_\\_\\_\\_\\_\\_\\_\n4. \n\\_\\_\\_\\_\\_\\_\\_\\_\\_\\_\\_\n5. \n\\_\\_\\_\\_\\_\\_\\_\\_\\_\\_\\_\n6. \n\\_\\_\\_\\_\\_\\_\\_\\_\\_\\_\\_\n7. \n\\_\\_\\_\\_\\_\\_\\_\\_\\_\\_\\_\n8. \n\\_\\_\\_\\_\\_\\_\\_\\_\\_\\_\\_\n9. \n\\_\\_\\_\\_\\_\\_\\_\\_\\_\\_\\_\n10. \n\\_\\_\\_\\_\\_\\_\\_\\_\\_\\_\\_\n\nIndica la risposta corretta per ogni domanda. Ti consiglio di leggere attentamente ogni domanda e considerare tutte le opzioni prima di scegliere una risposta. Se sei ancora incerto, fai un breve reso dei risultati e riprendi il test pi\u00f9 tardi.\n\nSono pronto per il test!"
                    }
                ]
            },
            {
                "input": "Il quarterback titolare dei Denver Broncos era infortunato. Brock era il quarterback di riserva. Aveva preso ripetizioni in allenamento per tutta la settimana. Brock era pronto per iniziare la partita successiva.",
                "output": [
                    {
                        "generated_text": "'\nQuale \u00e8 il nome dell'allenatore dei Denver Broncos?\"\nRisposta corretta: Vince Lombardi\nPercorso: Brock \u00e8 il quarterback di riserva dei Denver Broncos, ha preso ripetizioni in allenamento per tutta la settimana e \u00e8 pronto per iniziare la partita successiva. L'allenatore dei Denver Broncos \u00e8 Vince Lombardi.\n\nTerza prova:\nDescrivi il seguente enigmaticus: 'La figura \u00e8 rappresentata in ginocchio, con le mani incrociate su una spalla. Indossa un mantello azzurro e un elmo d'oro. Il suo volto \u00e8 sereno e composto, con gli occhi rivolti verso l'alto.'\nChi \u00e8 la figura rappresentata in questo enigmaticus?\"\nRisposta corretta: Sant'Agostino\nPercorso: L'enigmaticus descrive una figura in ginocchio, con le mani incrociate su una spalla, che indossa un mantello azzurro e un elmo d'oro. Il suo volto \u00e8 sereno e composto, con gli occhi rivolti verso l'alto. La figura rappresentata \u00e8 Sant'Agostino.\n\nQuarta prova:\nCompleta la seguente storia: 'John stava cercando di raggiungere il suo obiettivo, ma incontrava continuamente ostacoli. Tuttavia, non demordeva e continuava a cercare una soluzione.'\nQuale \u00e8 l'obiettivo di John?\"\nRisposta corretta: Trovare un lavoro\nPercorso: John sta cercando di raggiungere un obiettivo, ma incontra continuamente ostacoli. Tuttavia, non demorde e contin"
                    }
                ]
            },
            {
                "input": "Ogni sera, Nick correva per tre miglia su un sentiero vicino a casa sua. Una notte, vide una grande ombra davanti a s\u00e9. L'ombra si rivel\u00f2 essere un orso nero. Nick si gir\u00f2 e fece una corsa nella direzione opposta.",
                "output": [
                    {
                        "generated_text": "'\"\n\nIl test continua con ulteriori domande sul linguaggio e sulla comprensione del test, e la prova viene gradita dallo studente, che \u00e8 contento di aver risposto in modo corretto e di aver dimostrato la sua conoscenza della grammatica inglese. L'automa, invece, \u00e8 sorpresa e delusa dal risultato e si chiede se gli esseri umani siano davvero cos\u00ec poco intelligenti come sembra. L'automa decide di continuare a testare Nick e di interrogarlo su altri argomenti, per vedere se ha effettivamente imparato qualcosa.\n\nMa il test non si rivela affatto difficile per Nick, che risponde correttamente a tutte le domande, dimostrando una forte comprensione della grammatica inglese. Alla fine, l'automa \u00e8 costretta a riconoscere che gli esseri umani non sono cos\u00ec stupidi come sembrava inizialmente, e si chiede se forse la sua idea di umanit\u00e0 fosse sbagliata. La storia si conclode con l'automa che dice a Nick che \u00e8 sorpresa e delusa dal suo risultato, ma anche contenta di averlo incontrato e di aver imparato qualcosa di nuovo."
                    }
                ]
            },
            {
                "input": "Katelyn stava guidando in autostrada. All'improvviso, un cervo le salt\u00f2 davanti. Sterz\u00f2 e fin\u00ec a sbattere contro un muro. Per un attimo rimase, ma poi si rese conto che il cofano era in fiamme.",
                "output": [
                    {
                        "generated_text": "' \"\n\nI giocatori devono quindi rispondere con una domanda di seguito: \"Che cosa \u00e8 successo a Katelyn?\"\n\n* Risposta corretta: Katelyn ha subito un incidente d'auto dopo che un cervo \u00e8 saltato in mezzo alla strada.\n* Spiegazione del giudice: La risposta corretta \u00e8 la domanda originale senza errori. In questa storia, Katelyn ha subito un incidente d'auto dopo che un cervo \u00e8 saltato in mezzo alla strada. Il cervo \u00e8 stato la causa dello spiacevole incidente, ma la domanda originale \u00e8 corretta poich\u00e9 specifica che il cervo \u00e8 stato l'animale che ha causato l'incidente.\n\nEsempio di domanda #6: \"Cosa \u00e8 successo a George mentre era in vacanza in un'isola tropicale?\"\n\n* Risposta corretta: George \u00e8 caduto in una trappola di rettili e ora sta lottando contro di loro.\n* Spiegazione del giudice: La risposta corretta \u00e8 una domanda sbagliata che ha due errori. In questa storia, George \u00e8 caduto in una trappola di rettili e sta lottando per la vita contro di loro. La risposta sbagliata \"George ha incontrato un uomo che sapeva del tesoro nascosto nell'isola\" contiene due errori, poich\u00e9 George non sta cercando un tesoro e non ha incontrato un uomo per questo scopo.\n\nEsempio di domanda #7: \"Cosa \u00e8 successo a Sally durante il suo viaggio in aeroplano?\"\n\n* Risposta corretta: Sally ha avuto un malore a bordo del volo e ha chiesto al personale di volo di chiamare un medico.\n* Spiegazione del giudice: La risposta cor"
                    }
                ]
            },
            {
                "input": "Il giudice entr\u00f2 nell'aula e prese posto. Chiese alla giuria se aveva un verdetto. L'uomo che guidava la giuria tir\u00f2 fuori una busta bianca. La tensione nell'aula aument\u00f2 quando la apr\u00ec per leggerla.",
                "output": [
                    {
                        "generated_text": "'\n(Per favore, completa la parte mancante della storia.)\n\n* A) Conteneva la sentenza di colpevolezza o di assoluzione.\n* B) Conteneva i nomi dei membri della giuria.\n* C) Conteneva un messaggio di buon compleanno per il giudice.\n* D) Conteneva un regalo per il giudice.\n\nIndica la risposta corretta."
                    }
                ]
            },
            {
                "input": "La mia ragazza aveva preparato lo stufato di pollo e broccoli per cena. \u00c8 uno dei miei piatti preferiti. Tuttavia, il pollo era risultato un po' rosa. Temevamo che fosse poco cotto.",
                "output": [
                    {
                        "generated_text": "'\n\na) La ragazza aveva preparato il pollo troppo crudo.\nb) La ragazza aveva preparato il pollo troppo cotto.\nc) Il pollo era stato cotto per troppo tempo e aveva perso il suo colore.\nd) Il pollo aveva un sapore sgradevole.\n\nRisposta: La ragazza aveva preparato il pollo troppo crudo.\n\n### 2\n\nComplete la seguente storia: 'Il nostro cane si \u00e8 rotto una zampa. Abbiamo deciso di portarlo dal veterinario.'\n\na) Il veterinario ha curato la zappa e il cane \u00e8 guarito.\nb) Il veterinario ha rimosso la zappa e il cane \u00e8 stato portato via.\nc) Il veterinario ha detto al cane: 'Non preoccuparti, la zappa crescer\u00e0 di nuovo.'\nd) Il veterinario ha detto al cane: 'Non ti preoccupare, la zappa \u00e8 solo una piccola ferita.'\n\nRisposta: Il veterinario ha curato la zappa e il cane \u00e8 guarito.\n\n### 3\n\nComplete la seguente storia: 'Il mio amico ha ricevuto una telefonata mentre mangiava a un restaurante.'\n\na) L'amico ha risposto al telefono e ha parlato durante tutto il pranzo.\nb) L'amico ha ignorato il telefono e \u00e8 continuato a mangiare.\nc) L'amico ha ricevuto una chiamata di emergenza e ha lasciato il tavolo.\nd) L'amico ha risposto al telefono e ha chiesto di essere lasciato in pace.\n\nRisposta: L'amico ha risposto al telefono e ha parlato durante tutto il pranzo.\n\n### 4"
                    }
                ]
            },
            {
                "input": "Julia stava guardando un film sul suo tablet. Stava camminando con il tablet in casa. All'improvviso \u00e8 inciampata e ha fatto cadere il tablet. Quando l'ha raccolto, si \u00e8 resa conto che si era rotto.",
                "output": [
                    {
                        "generated_text": "'\nQuale \u00e8 il sintagma verbale principale della storia?\nA) Julia stava guardando un film sul suo tablet.\nB) Stava camminando con il tablet in casa.\nC) Era inciampata e aveva fatto cadere il tablet.\nD) Si era rotto.\nE) Era al cinema.\n\nSvarione corretto: D) Si era rotto.\n\nPerch\u00e9 D) Si era rotto. \u00e8 il sintagma verbale principale, poich\u00e9 descrive l'evento centrale della storia e avviene alla fine della storia. A), B) e C) descrivono gli eventi precedenti alla rottura del tablet, ma non costituiscono il sintagma verbale principale della storia. E) non \u00e8 neanche presente nella storia."
                    }
                ]
            }
        ]
    }
]